{
    "variants": {
        "level=0": { "model": "conquest:cauldronocean_empty" },
        "level=1": { "model": "conquest:cauldronocean_level1" },
        "level=2": { "model": "conquest:cauldronocean_level2" },
        "level=3": { "model": "conquest:cauldronocean_level3" }
    }
}
