{
    "variants": {
        "facing=north,half=bottom,open=false": { "model": "conquest:box_fruit", "y": 270 },
        "facing=south,half=bottom,open=false": { "model": "conquest:box_fruit", "y": 90},
        "facing=east,half=bottom,open=false": { "model": "conquest:box_fruit" },
        "facing=west,half=bottom,open=false": { "model": "conquest:box_fruit", "y": 180 },

        "facing=north,half=top,open=false": { "model": "conquest:box_fruit_1", "y": 270 },
        "facing=south,half=top,open=false": { "model": "conquest:box_fruit_1", "y": 90 },
        "facing=east,half=top,open=false": { "model": "conquest:box_fruit_1" },
        "facing=west,half=top,open=false": { "model": "conquest:box_fruit_1", "y": 180 },

        "facing=north,half=bottom,open=true": { "model": "conquest:box_fruit_tilted", "y": 270 },
        "facing=south,half=bottom,open=true": { "model": "conquest:box_fruit_tilted", "y": 90 },
        "facing=east,half=bottom,open=true": { "model": "conquest:box_fruit_tilted" },
        "facing=west,half=bottom,open=true": { "model": "conquest:box_fruit_tilted", "y": 180 },

        "facing=north,half=top,open=true": { "model": "conquest:box_fruit_tilted_1", "y": 270 },
        "facing=south,half=top,open=true": { "model": "conquest:box_fruit_tilted_1", "y": 90 },
        "facing=east,half=top,open=true": { "model": "conquest:box_fruit_tilted_1" },
        "facing=west,half=top,open=true": { "model": "conquest:box_fruit_tilted_1", "y": 180 }
    }
}
