{
    "variants": {
        "bites=0": { "model": "conquest:cakebread_uneaten" },
        "bites=1": { "model": "conquest:cakebread_slice1" },
        "bites=2": { "model": "conquest:cakebread_slice2" },
        "bites=3": { "model": "conquest:cakebread_slice3" },
        "bites=4": { "model": "conquest:cakebread_slice4" },
        "bites=5": { "model": "conquest:cakebread_slice5" },
        "bites=6": { "model": "conquest:cakebread_slice6" }
    }
}
