{
    "variants": {
        "east=false,north=false,south=false,variant=alpha,west=false": { "model": "conquest:ironbar12taiga_nsew" },
        "east=false,north=true,south=false,variant=alpha,west=false": { "model": "conquest:ironbar12taiga_n" },
        "east=true,north=false,south=false,variant=alpha,west=false": { "model": "conquest:ironbar12taiga_n", "y": 90 },
        "east=false,north=false,south=true,variant=alpha,west=false": { "model": "conquest:ironbar12taiga_n", "y": 180 },
        "east=false,north=false,south=false,variant=alpha,west=true": { "model": "conquest:ironbar12taiga_n", "y": 270 },
        "east=true,north=true,south=false,variant=alpha,west=false": { "model": "conquest:ironbar12taiga_ne" },
        "east=true,north=false,south=true,variant=alpha,west=false": { "model": "conquest:ironbar12taiga_ne", "y": 90 },
        "east=false,north=false,south=true,variant=alpha,west=true": { "model": "conquest:ironbar12taiga_ne", "y": 180 },
        "east=false,north=true,south=false,variant=alpha,west=true": { "model": "conquest:ironbar12taiga_ne", "y": 270 },
        "east=false,north=true,south=true,variant=alpha,west=false": { "model": "conquest:ironbar12taiga_ns" },
        "east=true,north=false,south=false,variant=alpha,west=true": { "model": "conquest:ironbar12taiga_ns", "y": 90 },
        "east=true,north=true,south=true,variant=alpha,west=false": { "model": "conquest:ironbar12taiga_nse" },
        "east=true,north=false,south=true,variant=alpha,west=true": { "model": "conquest:ironbar12taiga_nse", "y": 90 },
        "east=false,north=true,south=true,variant=alpha,west=true": { "model": "conquest:ironbar12taiga_nse", "y": 180 },
        "east=true,north=true,south=false,variant=alpha,west=true": { "model": "conquest:ironbar12taiga_nse", "y": 270 },
        "east=true,north=true,south=true,variant=alpha,west=true": { "model": "conquest:ironbar12taiga_nsew" },


        "east=false,north=false,south=false,variant=bravo,west=false": { "model": "conquest:ironbar12ocean_nsew" },
        "east=false,north=true,south=false,variant=bravo,west=false": { "model": "conquest:ironbar12ocean_n" },
        "east=true,north=false,south=false,variant=bravo,west=false": { "model": "conquest:ironbar12ocean_n", "y": 90 },
        "east=false,north=false,south=true,variant=bravo,west=false": { "model": "conquest:ironbar12ocean_n", "y": 180 },
        "east=false,north=false,south=false,variant=bravo,west=true": { "model": "conquest:ironbar12ocean_n", "y": 270 },
        "east=true,north=true,south=false,variant=bravo,west=false": { "model": "conquest:ironbar12ocean_ne" },
        "east=true,north=false,south=true,variant=bravo,west=false": { "model": "conquest:ironbar12ocean_ne", "y": 90 },
        "east=false,north=false,south=true,variant=bravo,west=true": { "model": "conquest:ironbar12ocean_ne", "y": 180 },
        "east=false,north=true,south=false,variant=bravo,west=true": { "model": "conquest:ironbar12ocean_ne", "y": 270 },
        "east=false,north=true,south=true,variant=bravo,west=false": { "model": "conquest:ironbar12ocean_ns" },
        "east=true,north=false,south=false,variant=bravo,west=true": { "model": "conquest:ironbar12ocean_ns", "y": 90 },
        "east=true,north=true,south=true,variant=bravo,west=false": { "model": "conquest:ironbar12ocean_nse" },
        "east=true,north=false,south=true,variant=bravo,west=true": { "model": "conquest:ironbar12ocean_nse", "y": 90 },
        "east=false,north=true,south=true,variant=bravo,west=true": { "model": "conquest:ironbar12ocean_nse", "y": 180 },
        "east=true,north=true,south=false,variant=bravo,west=true": { "model": "conquest:ironbar12ocean_nse", "y": 270 },
        "east=true,north=true,south=true,variant=bravo,west=true": { "model": "conquest:ironbar12ocean_nsew" },


        "east=false,north=false,south=false,variant=charlie,west=false": { "model": "conquest:ironbar12desert_nsew" },
        "east=false,north=true,south=false,variant=charlie,west=false": { "model": "conquest:ironbar12desert_n" },
        "east=true,north=false,south=false,variant=charlie,west=false": { "model": "conquest:ironbar12desert_n", "y": 90 },
        "east=false,north=false,south=true,variant=charlie,west=false": { "model": "conquest:ironbar12desert_n", "y": 180 },
        "east=false,north=false,south=false,variant=charlie,west=true": { "model": "conquest:ironbar12desert_n", "y": 270 },
        "east=true,north=true,south=false,variant=charlie,west=false": { "model": "conquest:ironbar12desert_ne" },
        "east=true,north=false,south=true,variant=charlie,west=false": { "model": "conquest:ironbar12desert_ne", "y": 90 },
        "east=false,north=false,south=true,variant=charlie,west=true": { "model": "conquest:ironbar12desert_ne", "y": 180 },
        "east=false,north=true,south=false,variant=charlie,west=true": { "model": "conquest:ironbar12desert_ne", "y": 270 },
        "east=false,north=true,south=true,variant=charlie,west=false": { "model": "conquest:ironbar12desert_ns" },
        "east=true,north=false,south=false,variant=charlie,west=true": { "model": "conquest:ironbar12desert_ns", "y": 90 },
        "east=true,north=true,south=true,variant=charlie,west=false": { "model": "conquest:ironbar12desert_nse" },
        "east=true,north=false,south=true,variant=charlie,west=true": { "model": "conquest:ironbar12desert_nse", "y": 90 },
        "east=false,north=true,south=true,variant=charlie,west=true": { "model": "conquest:ironbar12desert_nse", "y": 180 },
        "east=true,north=true,south=false,variant=charlie,west=true": { "model": "conquest:ironbar12desert_nse", "y": 270 },
        "east=true,north=true,south=true,variant=charlie,west=true": { "model": "conquest:ironbar12desert_nsew" },


        "east=false,north=false,south=false,variant=delta,west=false": { "model": "conquest:ironbar12forest_nsew" },
        "east=false,north=true,south=false,variant=delta,west=false": { "model": "conquest:ironbar12forest_n" },
        "east=true,north=false,south=false,variant=delta,west=false": { "model": "conquest:ironbar12forest_n", "y": 90 },
        "east=false,north=false,south=true,variant=delta,west=false": { "model": "conquest:ironbar12forest_n", "y": 180 },
        "east=false,north=false,south=false,variant=delta,west=true": { "model": "conquest:ironbar12forest_n", "y": 270 },
        "east=true,north=true,south=false,variant=delta,west=false": { "model": "conquest:ironbar12forest_ne" },
        "east=true,north=false,south=true,variant=delta,west=false": { "model": "conquest:ironbar12forest_ne", "y": 90 },
        "east=false,north=false,south=true,variant=delta,west=true": { "model": "conquest:ironbar12forest_ne", "y": 180 },
        "east=false,north=true,south=false,variant=delta,west=true": { "model": "conquest:ironbar12forest_ne", "y": 270 },
        "east=false,north=true,south=true,variant=delta,west=false": { "model": "conquest:ironbar12forest_ns" },
        "east=true,north=false,south=false,variant=delta,west=true": { "model": "conquest:ironbar12forest_ns", "y": 90 },
        "east=true,north=true,south=true,variant=delta,west=false": { "model": "conquest:ironbar12forest_nse" },
        "east=true,north=false,south=true,variant=delta,west=true": { "model": "conquest:ironbar12forest_nse", "y": 90 },
        "east=false,north=true,south=true,variant=delta,west=true": { "model": "conquest:ironbar12forest_nse", "y": 180 },
        "east=true,north=true,south=false,variant=delta,west=true": { "model": "conquest:ironbar12forest_nse", "y": 270 },
        "east=true,north=true,south=true,variant=delta,west=true": { "model": "conquest:ironbar12forest_nsew" },


        "east=false,north=false,south=false,variant=echo,west=false": { "model": "conquest:ironbar12mushroomisland_nsew" },
        "east=false,north=true,south=false,variant=echo,west=false": { "model": "conquest:ironbar12mushroomisland_n" },
        "east=true,north=false,south=false,variant=echo,west=false": { "model": "conquest:ironbar12mushroomisland_n", "y": 90 },
        "east=false,north=false,south=true,variant=echo,west=false": { "model": "conquest:ironbar12mushroomisland_n", "y": 180 },
        "east=false,north=false,south=false,variant=echo,west=true": { "model": "conquest:ironbar12mushroomisland_n", "y": 270 },
        "east=true,north=true,south=false,variant=echo,west=false": { "model": "conquest:ironbar12mushroomisland_ne" },
        "east=true,north=false,south=true,variant=echo,west=false": { "model": "conquest:ironbar12mushroomisland_ne", "y": 90 },
        "east=false,north=false,south=true,variant=echo,west=true": { "model": "conquest:ironbar12mushroomisland_ne", "y": 180 },
        "east=false,north=true,south=false,variant=echo,west=true": { "model": "conquest:ironbar12mushroomisland_ne", "y": 270 },
        "east=false,north=true,south=true,variant=echo,west=false": { "model": "conquest:ironbar12mushroomisland_ns" },
        "east=true,north=false,south=false,variant=echo,west=true": { "model": "conquest:ironbar12mushroomisland_ns", "y": 90 },
        "east=true,north=true,south=true,variant=echo,west=false": { "model": "conquest:ironbar12mushroomisland_nse" },
        "east=true,north=false,south=true,variant=echo,west=true": { "model": "conquest:ironbar12mushroomisland_nse", "y": 90 },
        "east=false,north=true,south=true,variant=echo,west=true": { "model": "conquest:ironbar12mushroomisland_nse", "y": 180 },
        "east=true,north=true,south=false,variant=echo,west=true": { "model": "conquest:ironbar12mushroomisland_nse", "y": 270 },
        "east=true,north=true,south=true,variant=echo,west=true": { "model": "conquest:ironbar12mushroomisland_nsew" },

        "east=false,north=false,south=false,variant=fox,west=false": { "model": "conquest:ironbar12plains_nsew" },
        "east=false,north=true,south=false,variant=fox,west=false": { "model": "conquest:ironbar12plains_n" },
        "east=true,north=false,south=false,variant=fox,west=false": { "model": "conquest:ironbar12plains_n", "y": 90 },
        "east=false,north=false,south=true,variant=fox,west=false": { "model": "conquest:ironbar12plains_n", "y": 180 },
        "east=false,north=false,south=false,variant=fox,west=true": { "model": "conquest:ironbar12plains_n", "y": 270 },
        "east=true,north=true,south=false,variant=fox,west=false": { "model": "conquest:ironbar12plains_ne" },
        "east=true,north=false,south=true,variant=fox,west=false": { "model": "conquest:ironbar12plains_ne", "y": 90 },
        "east=false,north=false,south=true,variant=fox,west=true": { "model": "conquest:ironbar12plains_ne", "y": 180 },
        "east=false,north=true,south=false,variant=fox,west=true": { "model": "conquest:ironbar12plains_ne", "y": 270 },
        "east=false,north=true,south=true,variant=fox,west=false": { "model": "conquest:ironbar12plains_ns" },
        "east=true,north=false,south=false,variant=fox,west=true": { "model": "conquest:ironbar12plains_ns", "y": 90 },
        "east=true,north=true,south=true,variant=fox,west=false": { "model": "conquest:ironbar12plains_nse" },
        "east=true,north=false,south=true,variant=fox,west=true": { "model": "conquest:ironbar12plains_nse", "y": 90 },
        "east=false,north=true,south=true,variant=fox,west=true": { "model": "conquest:ironbar12plains_nse", "y": 180 },
        "east=true,north=true,south=false,variant=fox,west=true": { "model": "conquest:ironbar12plains_nse", "y": 270 },
        "east=true,north=true,south=true,variant=fox,west=true": { "model": "conquest:ironbar12plains_nsew" },

        "east=false,north=false,south=false,variant=golf,west=false": { "model": "conquest:ironbar12birchforest_nsew" },
        "east=false,north=true,south=false,variant=golf,west=false": { "model": "conquest:ironbar12birchforest_n" },
        "east=true,north=false,south=false,variant=golf,west=false": { "model": "conquest:ironbar12birchforest_n", "y": 90 },
        "east=false,north=false,south=true,variant=golf,west=false": { "model": "conquest:ironbar12birchforest_n", "y": 180 },
        "east=false,north=false,south=false,variant=golf,west=true": { "model": "conquest:ironbar12birchforest_n", "y": 270 },
        "east=true,north=true,south=false,variant=golf,west=false": { "model": "conquest:ironbar12birchforest_ne" },
        "east=true,north=false,south=true,variant=golf,west=false": { "model": "conquest:ironbar12birchforest_ne", "y": 90 },
        "east=false,north=false,south=true,variant=golf,west=true": { "model": "conquest:ironbar12birchforest_ne", "y": 180 },
        "east=false,north=true,south=false,variant=golf,west=true": { "model": "conquest:ironbar12birchforest_ne", "y": 270 },
        "east=false,north=true,south=true,variant=golf,west=false": { "model": "conquest:ironbar12birchforest_ns" },
        "east=true,north=false,south=false,variant=golf,west=true": { "model": "conquest:ironbar12birchforest_ns", "y": 90 },
        "east=true,north=true,south=true,variant=golf,west=false": { "model": "conquest:ironbar12birchforest_nse" },
        "east=true,north=false,south=true,variant=golf,west=true": { "model": "conquest:ironbar12birchforest_nse", "y": 90 },
        "east=false,north=true,south=true,variant=golf,west=true": { "model": "conquest:ironbar12birchforest_nse", "y": 180 },
        "east=true,north=true,south=false,variant=golf,west=true": { "model": "conquest:ironbar12birchforest_nse", "y": 270 },
        "east=true,north=true,south=true,variant=golf,west=true": { "model": "conquest:ironbar12birchforest_nsew" },

        "east=false,north=false,south=false,variant=hotel,west=false": { "model": "conquest:web_spider_pane_nsew" },
        "east=false,north=true,south=false,variant=hotel,west=false": { "model": "conquest:web_spider_pane_n" },
        "east=true,north=false,south=false,variant=hotel,west=false": { "model": "conquest:web_spider_pane_n", "y": 90 },
        "east=false,north=false,south=true,variant=hotel,west=false": { "model": "conquest:web_spider_pane_n", "y": 180 },
        "east=false,north=false,south=false,variant=hotel,west=true": { "model": "conquest:web_spider_pane_n", "y": 270 },
        "east=true,north=true,south=false,variant=hotel,west=false": { "model": "conquest:web_spider_pane_ne" },
        "east=true,north=false,south=true,variant=hotel,west=false": { "model": "conquest:web_spider_pane_ne", "y": 90 },
        "east=false,north=false,south=true,variant=hotel,west=true": { "model": "conquest:web_spider_pane_ne", "y": 180 },
        "east=false,north=true,south=false,variant=hotel,west=true": { "model": "conquest:web_spider_pane_ne", "y": 270 },
        "east=false,north=true,south=true,variant=hotel,west=false": { "model": "conquest:web_spider_pane_ns" },
        "east=true,north=false,south=false,variant=hotel,west=true": { "model": "conquest:web_spider_pane_ns", "y": 90 },
        "east=true,north=true,south=true,variant=hotel,west=false": { "model": "conquest:web_spider_pane_nse" },
        "east=true,north=false,south=true,variant=hotel,west=true": { "model": "conquest:web_spider_pane_nse", "y": 90 },
        "east=false,north=true,south=true,variant=hotel,west=true": { "model": "conquest:web_spider_pane_nse", "y": 180 },
        "east=true,north=true,south=false,variant=hotel,west=true": { "model": "conquest:web_spider_pane_nse", "y": 270 },
        "east=true,north=true,south=true,variant=hotel,west=true": { "model": "conquest:web_spider_pane_nsew" },
        
        "east=false,north=false,south=false,variant=india,west=false": { "model": "conquest:none" },
        "east=false,north=true,south=false,variant=india,west=false": { "model": "conquest:none" },
        "east=true,north=false,south=false,variant=india,west=false": { "model": "conquest:none", "y": 90 },
        "east=false,north=false,south=true,variant=india,west=false": { "model": "conquest:none", "y": 180 },
        "east=false,north=false,south=false,variant=india,west=true": { "model": "conquest:none", "y": 270 },
        "east=true,north=true,south=false,variant=india,west=false": { "model": "conquest:none" },
        "east=true,north=false,south=true,variant=india,west=false": { "model": "conquest:none", "y": 90 },
        "east=false,north=false,south=true,variant=india,west=true": { "model": "conquest:none", "y": 180 },
        "east=false,north=true,south=false,variant=india,west=true": { "model": "conquest:none", "y": 270 },
        "east=false,north=true,south=true,variant=india,west=false": { "model": "conquest:none" },
        "east=true,north=false,south=false,variant=india,west=true": { "model": "conquest:none", "y": 90 },
        "east=true,north=true,south=true,variant=india,west=false": { "model": "conquest:none" },
        "east=true,north=false,south=true,variant=india,west=true": { "model": "conquest:none", "y": 90 },
        "east=false,north=true,south=true,variant=india,west=true": { "model": "conquest:none", "y": 180 },
        "east=true,north=true,south=false,variant=india,west=true": { "model": "conquest:none", "y": 270 },
        "east=true,north=true,south=true,variant=india,west=true": { "model": "conquest:none" },

        "east=false,north=false,south=false,variant=juliet,west=false": { "model": "conquest:none" },
        "east=false,north=true,south=false,variant=juliet,west=false": { "model": "conquest:none" },
        "east=true,north=false,south=false,variant=juliet,west=false": { "model": "conquest:none", "y": 90 },
        "east=false,north=false,south=true,variant=juliet,west=false": { "model": "conquest:none", "y": 180 },
        "east=false,north=false,south=false,variant=juliet,west=true": { "model": "conquest:none", "y": 270 },
        "east=true,north=true,south=false,variant=juliet,west=false": { "model": "conquest:none" },
        "east=true,north=false,south=true,variant=juliet,west=false": { "model": "conquest:none", "y": 90 },
        "east=false,north=false,south=true,variant=juliet,west=true": { "model": "conquest:none", "y": 180 },
        "east=false,north=true,south=false,variant=juliet,west=true": { "model": "conquest:none", "y": 270 },
        "east=false,north=true,south=true,variant=juliet,west=false": { "model": "conquest:none" },
        "east=true,north=false,south=false,variant=juliet,west=true": { "model": "conquest:none", "y": 90 },
        "east=true,north=true,south=true,variant=juliet,west=false": { "model": "conquest:none" },
        "east=true,north=false,south=true,variant=juliet,west=true": { "model": "conquest:none", "y": 90 },
        "east=false,north=true,south=true,variant=juliet,west=true": { "model": "conquest:none", "y": 180 },
        "east=true,north=true,south=false,variant=juliet,west=true": { "model": "conquest:none", "y": 270 },
        "east=true,north=true,south=true,variant=juliet,west=true": { "model": "conquest:none" },

        "east=false,north=false,south=false,variant=kilo,west=false": { "model": "conquest:none" },
        "east=false,north=true,south=false,variant=kilo,west=false": { "model": "conquest:none" },
        "east=true,north=false,south=false,variant=kilo,west=false": { "model": "conquest:none", "y": 90 },
        "east=false,north=false,south=true,variant=kilo,west=false": { "model": "conquest:none", "y": 180 },
        "east=false,north=false,south=false,variant=kilo,west=true": { "model": "conquest:none", "y": 270 },
        "east=true,north=true,south=false,variant=kilo,west=false": { "model": "conquest:none" },
        "east=true,north=false,south=true,variant=kilo,west=false": { "model": "conquest:none", "y": 90 },
        "east=false,north=false,south=true,variant=kilo,west=true": { "model": "conquest:none", "y": 180 },
        "east=false,north=true,south=false,variant=kilo,west=true": { "model": "conquest:none", "y": 270 },
        "east=false,north=true,south=true,variant=kilo,west=false": { "model": "conquest:none" },
        "east=true,north=false,south=false,variant=kilo,west=true": { "model": "conquest:none", "y": 90 },
        "east=true,north=true,south=true,variant=kilo,west=false": { "model": "conquest:none" },
        "east=true,north=false,south=true,variant=kilo,west=true": { "model": "conquest:none", "y": 90 },
        "east=false,north=true,south=true,variant=kilo,west=true": { "model": "conquest:none", "y": 180 },
        "east=true,north=true,south=false,variant=kilo,west=true": { "model": "conquest:none", "y": 270 },
        "east=true,north=true,south=true,variant=kilo,west=true": { "model": "conquest:none" },

        "east=false,north=false,south=false,variant=lima,west=false": { "model": "conquest:none" },
        "east=false,north=true,south=false,variant=lima,west=false": { "model": "conquest:none" },
        "east=true,north=false,south=false,variant=lima,west=false": { "model": "conquest:none", "y": 90 },
        "east=false,north=false,south=true,variant=lima,west=false": { "model": "conquest:none", "y": 180 },
        "east=false,north=false,south=false,variant=lima,west=true": { "model": "conquest:none", "y": 270 },
        "east=true,north=true,south=false,variant=lima,west=false": { "model": "conquest:none" },
        "east=true,north=false,south=true,variant=lima,west=false": { "model": "conquest:none", "y": 90 },
        "east=false,north=false,south=true,variant=lima,west=true": { "model": "conquest:none", "y": 180 },
        "east=false,north=true,south=false,variant=lima,west=true": { "model": "conquest:none", "y": 270 },
        "east=false,north=true,south=true,variant=lima,west=false": { "model": "conquest:none" },
        "east=true,north=false,south=false,variant=lima,west=true": { "model": "conquest:none", "y": 90 },
        "east=true,north=true,south=true,variant=lima,west=false": { "model": "conquest:none" },
        "east=true,north=false,south=true,variant=lima,west=true": { "model": "conquest:none", "y": 90 },
        "east=false,north=true,south=true,variant=lima,west=true": { "model": "conquest:none", "y": 180 },
        "east=true,north=true,south=false,variant=lima,west=true": { "model": "conquest:none", "y": 270 },
        "east=true,north=true,south=true,variant=lima,west=true": { "model": "conquest:none" },

        "east=false,north=false,south=false,variant=mike,west=false": { "model": "conquest:none" },
        "east=false,north=true,south=false,variant=mike,west=false": { "model": "conquest:none" },
        "east=true,north=false,south=false,variant=mike,west=false": { "model": "conquest:none", "y": 90 },
        "east=false,north=false,south=true,variant=mike,west=false": { "model": "conquest:none", "y": 180 },
        "east=false,north=false,south=false,variant=mike,west=true": { "model": "conquest:none", "y": 270 },
        "east=true,north=true,south=false,variant=mike,west=false": { "model": "conquest:none" },
        "east=true,north=false,south=true,variant=mike,west=false": { "model": "conquest:none", "y": 90 },
        "east=false,north=false,south=true,variant=mike,west=true": { "model": "conquest:none", "y": 180 },
        "east=false,north=true,south=false,variant=mike,west=true": { "model": "conquest:none", "y": 270 },
        "east=false,north=true,south=true,variant=mike,west=false": { "model": "conquest:none" },
        "east=true,north=false,south=false,variant=mike,west=true": { "model": "conquest:none", "y": 90 },
        "east=true,north=true,south=true,variant=mike,west=false": { "model": "conquest:none" },
        "east=true,north=false,south=true,variant=mike,west=true": { "model": "conquest:none", "y": 90 },
        "east=false,north=true,south=true,variant=mike,west=true": { "model": "conquest:none", "y": 180 },
        "east=true,north=true,south=false,variant=mike,west=true": { "model": "conquest:none", "y": 270 },
        "east=true,north=true,south=true,variant=mike,west=true": { "model": "conquest:none" },

        "east=false,north=false,south=false,variant=november,west=false": { "model": "conquest:none" },
        "east=false,north=true,south=false,variant=november,west=false": { "model": "conquest:none" },
        "east=true,north=false,south=false,variant=november,west=false": { "model": "conquest:none", "y": 90 },
        "east=false,north=false,south=true,variant=november,west=false": { "model": "conquest:none", "y": 180 },
        "east=false,north=false,south=false,variant=november,west=true": { "model": "conquest:none", "y": 270 },
        "east=true,north=true,south=false,variant=november,west=false": { "model": "conquest:none" },
        "east=true,north=false,south=true,variant=november,west=false": { "model": "conquest:none", "y": 90 },
        "east=false,north=false,south=true,variant=november,west=true": { "model": "conquest:none", "y": 180 },
        "east=false,north=true,south=false,variant=november,west=true": { "model": "conquest:none", "y": 270 },
        "east=false,north=true,south=true,variant=november,west=false": { "model": "conquest:none" },
        "east=true,north=false,south=false,variant=november,west=true": { "model": "conquest:none", "y": 90 },
        "east=true,north=true,south=true,variant=november,west=false": { "model": "conquest:none" },
        "east=true,north=false,south=true,variant=november,west=true": { "model": "conquest:none", "y": 90 },
        "east=false,north=true,south=true,variant=november,west=true": { "model": "conquest:none", "y": 180 },
        "east=true,north=true,south=false,variant=november,west=true": { "model": "conquest:none", "y": 270 },
        "east=true,north=true,south=true,variant=november,west=true": { "model": "conquest:none" },

        "east=false,north=false,south=false,variant=oscar,west=false": { "model": "conquest:none" },
        "east=false,north=true,south=false,variant=oscar,west=false": { "model": "conquest:none" },
        "east=true,north=false,south=false,variant=oscar,west=false": { "model": "conquest:none", "y": 90 },
        "east=false,north=false,south=true,variant=oscar,west=false": { "model": "conquest:none", "y": 180 },
        "east=false,north=false,south=false,variant=oscar,west=true": { "model": "conquest:none", "y": 270 },
        "east=true,north=true,south=false,variant=oscar,west=false": { "model": "conquest:none" },
        "east=true,north=false,south=true,variant=oscar,west=false": { "model": "conquest:none", "y": 90 },
        "east=false,north=false,south=true,variant=oscar,west=true": { "model": "conquest:none", "y": 180 },
        "east=false,north=true,south=false,variant=oscar,west=true": { "model": "conquest:none", "y": 270 },
        "east=false,north=true,south=true,variant=oscar,west=false": { "model": "conquest:none" },
        "east=true,north=false,south=false,variant=oscar,west=true": { "model": "conquest:none", "y": 90 },
        "east=true,north=true,south=true,variant=oscar,west=false": { "model": "conquest:none" },
        "east=true,north=false,south=true,variant=oscar,west=true": { "model": "conquest:none", "y": 90 },
        "east=false,north=true,south=true,variant=oscar,west=true": { "model": "conquest:none", "y": 180 },
        "east=true,north=true,south=false,variant=oscar,west=true": { "model": "conquest:none", "y": 270 },
        "east=true,north=true,south=true,variant=oscar,west=true": { "model": "conquest:none" },

        "east=false,north=false,south=false,variant=papa,west=false": { "model": "conquest:none" },
        "east=false,north=true,south=false,variant=papa,west=false": { "model": "conquest:none" },
        "east=true,north=false,south=false,variant=papa,west=false": { "model": "conquest:none", "y": 90 },
        "east=false,north=false,south=true,variant=papa,west=false": { "model": "conquest:none", "y": 180 },
        "east=false,north=false,south=false,variant=papa,west=true": { "model": "conquest:none", "y": 270 },
        "east=true,north=true,south=false,variant=papa,west=false": { "model": "conquest:none" },
        "east=true,north=false,south=true,variant=papa,west=false": { "model": "conquest:none", "y": 90 },
        "east=false,north=false,south=true,variant=papa,west=true": { "model": "conquest:none", "y": 180 },
        "east=false,north=true,south=false,variant=papa,west=true": { "model": "conquest:none", "y": 270 },
        "east=false,north=true,south=true,variant=papa,west=false": { "model": "conquest:none" },
        "east=true,north=false,south=false,variant=papa,west=true": { "model": "conquest:none", "y": 90 },
        "east=true,north=true,south=true,variant=papa,west=false": { "model": "conquest:none" },
        "east=true,north=false,south=true,variant=papa,west=true": { "model": "conquest:none", "y": 90 },
        "east=false,north=true,south=true,variant=papa,west=true": { "model": "conquest:none", "y": 180 },
        "east=true,north=true,south=false,variant=papa,west=true": { "model": "conquest:none", "y": 270 },
        "east=true,north=true,south=true,variant=papa,west=true": { "model": "conquest:none" }
    }
}