{
    "variants": {
        "variant=alpha": { "model": "conquest:pressureplate6" },
        "variant=bravo": [
                { "model": "conquest:bookpile_1", "weight": 100 },
                { "model": "conquest:bookpile_2", "weight": 100 },
                { "model": "conquest:bookpile_3", "weight": 100 },
                { "model": "conquest:bookpile_4", "weight": 100 }
            ],
        "variant=charlie": { "model": "conquest:web4" },
        "variant=delta": { "model": "conquest:yellowcarpet" },
        "variant=echo": { "model": "conquest:carpetbearskin" },
        "variant=fox": { "model": "conquest:web7" },
        "variant=golf": { "model": "conquest:carpetwolfskin" },
        "variant=hotel": { "model": "conquest:carpetsheepskin" },
        "variant=india": { "model": "conquest:carpethay" },
        "variant=juliet": { "model": "conquest:web6" },
        "variant=kilo": { "model": "conquest:web12extremehills" },
        "variant=lima": { "model": "conquest:jug_milkbread" },
        "variant=mike": { "model": "conquest:cheese_cut" },
        "variant=november": { "model": "conquest:none" },
        "variant=oscar": { "model": "conquest:none" },
        "variant=papa": { "model": "conquest:none" }
    }
}