{
    "variants": {
        "east=false,north=false,south=false,variant=alpha,west=false": { "model": "conquest:window_hobbityellow1_post" },
        "east=false,north=true,south=false,variant=alpha,west=false": { "model": "conquest:window_hobbityellow1_n" },
        "east=true,north=false,south=false,variant=alpha,west=false": { "model": "conquest:window_hobbityellow1_n", "y": 90 },
        "east=false,north=false,south=true,variant=alpha,west=false": { "model": "conquest:window_hobbityellow1_n", "y": 180 },
        "east=false,north=false,south=false,variant=alpha,west=true": { "model": "conquest:window_hobbityellow1_n", "y": 270 },
        "east=true,north=true,south=false,variant=alpha,west=false": { "model": "conquest:window_hobbityellow1_ne" },
        "east=true,north=false,south=true,variant=alpha,west=false": { "model": "conquest:window_hobbityellow1_ne", "y": 90 },
        "east=false,north=false,south=true,variant=alpha,west=true": { "model": "conquest:window_hobbityellow1_ne", "y": 180 },
        "east=false,north=true,south=false,variant=alpha,west=true": { "model": "conquest:window_hobbityellow1_ne", "y": 270 },
        "east=false,north=true,south=true,variant=alpha,west=false": { "model": "conquest:window_hobbityellow1_ns" },
        "east=true,north=false,south=false,variant=alpha,west=true": { "model": "conquest:window_hobbityellow1_ns", "y": 90 },
        "east=true,north=true,south=true,variant=alpha,west=false": { "model": "conquest:window_hobbityellow1_nse" },
        "east=true,north=false,south=true,variant=alpha,west=true": { "model": "conquest:window_hobbityellow1_nse", "y": 90 },
        "east=false,north=true,south=true,variant=alpha,west=true": { "model": "conquest:window_hobbityellow1_nse", "y": 180 },
        "east=true,north=true,south=false,variant=alpha,west=true": { "model": "conquest:window_hobbityellow1_nse", "y": 270 },
        "east=true,north=true,south=true,variant=alpha,west=true": { "model": "conquest:window_hobbityellow1_nsew" },


        "east=false,north=false,south=false,variant=bravo,west=false": { "model": "conquest:window_hobbityellow2_post" },
        "east=false,north=true,south=false,variant=bravo,west=false": { "model": "conquest:window_hobbityellow2_n" },
        "east=true,north=false,south=false,variant=bravo,west=false": { "model": "conquest:window_hobbityellow2_n", "y": 90 },
        "east=false,north=false,south=true,variant=bravo,west=false": { "model": "conquest:window_hobbityellow2_n", "y": 180 },
        "east=false,north=false,south=false,variant=bravo,west=true": { "model": "conquest:window_hobbityellow2_n", "y": 270 },
        "east=true,north=true,south=false,variant=bravo,west=false": { "model": "conquest:window_hobbityellow2_ne" },
        "east=true,north=false,south=true,variant=bravo,west=false": { "model": "conquest:window_hobbityellow2_ne", "y": 90 },
        "east=false,north=false,south=true,variant=bravo,west=true": { "model": "conquest:window_hobbityellow2_ne", "y": 180 },
        "east=false,north=true,south=false,variant=bravo,west=true": { "model": "conquest:window_hobbityellow2_ne", "y": 270 },
        "east=false,north=true,south=true,variant=bravo,west=false": { "model": "conquest:window_hobbityellow2_ns" },
        "east=true,north=false,south=false,variant=bravo,west=true": { "model": "conquest:window_hobbityellow2_ns", "y": 90 },
        "east=true,north=true,south=true,variant=bravo,west=false": { "model": "conquest:window_hobbityellow2_nse" },
        "east=true,north=false,south=true,variant=bravo,west=true": { "model": "conquest:window_hobbityellow2_nse", "y": 90 },
        "east=false,north=true,south=true,variant=bravo,west=true": { "model": "conquest:window_hobbityellow2_nse", "y": 180 },
        "east=true,north=true,south=false,variant=bravo,west=true": { "model": "conquest:window_hobbityellow2_nse", "y": 270 },
        "east=true,north=true,south=true,variant=bravo,west=true": { "model": "conquest:window_hobbityellow2_nsew" },


        "east=false,north=false,south=false,variant=charlie,west=false": { "model": "conquest:window_hobbityellow3_post" },
        "east=false,north=true,south=false,variant=charlie,west=false": { "model": "conquest:window_hobbityellow3_n" },
        "east=true,north=false,south=false,variant=charlie,west=false": { "model": "conquest:window_hobbityellow3_n", "y": 90 },
        "east=false,north=false,south=true,variant=charlie,west=false": { "model": "conquest:window_hobbityellow3_n", "y": 180 },
        "east=false,north=false,south=false,variant=charlie,west=true": { "model": "conquest:window_hobbityellow3_n", "y": 270 },
        "east=true,north=true,south=false,variant=charlie,west=false": { "model": "conquest:window_hobbityellow3_ne" },
        "east=true,north=false,south=true,variant=charlie,west=false": { "model": "conquest:window_hobbityellow3_ne", "y": 90 },
        "east=false,north=false,south=true,variant=charlie,west=true": { "model": "conquest:window_hobbityellow3_ne", "y": 180 },
        "east=false,north=true,south=false,variant=charlie,west=true": { "model": "conquest:window_hobbityellow3_ne", "y": 270 },
        "east=false,north=true,south=true,variant=charlie,west=false": { "model": "conquest:window_hobbityellow3_ns" },
        "east=true,north=false,south=false,variant=charlie,west=true": { "model": "conquest:window_hobbityellow3_ns", "y": 90 },
        "east=true,north=true,south=true,variant=charlie,west=false": { "model": "conquest:window_hobbityellow3_nse" },
        "east=true,north=false,south=true,variant=charlie,west=true": { "model": "conquest:window_hobbityellow3_nse", "y": 90 },
        "east=false,north=true,south=true,variant=charlie,west=true": { "model": "conquest:window_hobbityellow3_nse", "y": 180 },
        "east=true,north=true,south=false,variant=charlie,west=true": { "model": "conquest:window_hobbityellow3_nse", "y": 270 },
        "east=true,north=true,south=true,variant=charlie,west=true": { "model": "conquest:window_hobbityellow3_nsew" },


        "east=false,north=false,south=false,variant=delta,west=false": { "model": "conquest:window_hobbityellow4_post" },
        "east=false,north=true,south=false,variant=delta,west=false": { "model": "conquest:window_hobbityellow4_n" },
        "east=true,north=false,south=false,variant=delta,west=false": { "model": "conquest:window_hobbityellow4_n", "y": 90 },
        "east=false,north=false,south=true,variant=delta,west=false": { "model": "conquest:window_hobbityellow4_n", "y": 180 },
        "east=false,north=false,south=false,variant=delta,west=true": { "model": "conquest:window_hobbityellow4_n", "y": 270 },
        "east=true,north=true,south=false,variant=delta,west=false": { "model": "conquest:window_hobbityellow4_ne" },
        "east=true,north=false,south=true,variant=delta,west=false": { "model": "conquest:window_hobbityellow4_ne", "y": 90 },
        "east=false,north=false,south=true,variant=delta,west=true": { "model": "conquest:window_hobbityellow4_ne", "y": 180 },
        "east=false,north=true,south=false,variant=delta,west=true": { "model": "conquest:window_hobbityellow4_ne", "y": 270 },
        "east=false,north=true,south=true,variant=delta,west=false": { "model": "conquest:window_hobbityellow4_ns" },
        "east=true,north=false,south=false,variant=delta,west=true": { "model": "conquest:window_hobbityellow4_ns", "y": 90 },
        "east=true,north=true,south=true,variant=delta,west=false": { "model": "conquest:window_hobbityellow4_nse" },
        "east=true,north=false,south=true,variant=delta,west=true": { "model": "conquest:window_hobbityellow4_nse", "y": 90 },
        "east=false,north=true,south=true,variant=delta,west=true": { "model": "conquest:window_hobbityellow4_nse", "y": 180 },
        "east=true,north=true,south=false,variant=delta,west=true": { "model": "conquest:window_hobbityellow4_nse", "y": 270 },
        "east=true,north=true,south=true,variant=delta,west=true": { "model": "conquest:window_hobbityellow4_nsew" },


        "east=false,north=false,south=false,variant=echo,west=false": { "model": "conquest:window_hobbityellow5_post" },
        "east=false,north=true,south=false,variant=echo,west=false": { "model": "conquest:window_hobbityellow5_n" },
        "east=true,north=false,south=false,variant=echo,west=false": { "model": "conquest:window_hobbityellow5_n", "y": 90 },
        "east=false,north=false,south=true,variant=echo,west=false": { "model": "conquest:window_hobbityellow5_n", "y": 180 },
        "east=false,north=false,south=false,variant=echo,west=true": { "model": "conquest:window_hobbityellow5_n", "y": 270 },
        "east=true,north=true,south=false,variant=echo,west=false": { "model": "conquest:window_hobbityellow5_ne" },
        "east=true,north=false,south=true,variant=echo,west=false": { "model": "conquest:window_hobbityellow5_ne", "y": 90 },
        "east=false,north=false,south=true,variant=echo,west=true": { "model": "conquest:window_hobbityellow5_ne", "y": 180 },
        "east=false,north=true,south=false,variant=echo,west=true": { "model": "conquest:window_hobbityellow5_ne", "y": 270 },
        "east=false,north=true,south=true,variant=echo,west=false": { "model": "conquest:window_hobbityellow5_ns" },
        "east=true,north=false,south=false,variant=echo,west=true": { "model": "conquest:window_hobbityellow5_ns", "y": 90 },
        "east=true,north=true,south=true,variant=echo,west=false": { "model": "conquest:window_hobbityellow5_nse" },
        "east=true,north=false,south=true,variant=echo,west=true": { "model": "conquest:window_hobbityellow5_nse", "y": 90 },
        "east=false,north=true,south=true,variant=echo,west=true": { "model": "conquest:window_hobbityellow5_nse", "y": 180 },
        "east=true,north=true,south=false,variant=echo,west=true": { "model": "conquest:window_hobbityellow5_nse", "y": 270 },
        "east=true,north=true,south=true,variant=echo,west=true": { "model": "conquest:window_hobbityellow5_nsew" },


        "east=false,north=false,south=false,variant=fox,west=false": { "model": "conquest:window_hobbityellow6_post" },
        "east=false,north=true,south=false,variant=fox,west=false": { "model": "conquest:window_hobbityellow6_n" },
        "east=true,north=false,south=false,variant=fox,west=false": { "model": "conquest:window_hobbityellow6_n", "y": 90 },
        "east=false,north=false,south=true,variant=fox,west=false": { "model": "conquest:window_hobbityellow6_n", "y": 180 },
        "east=false,north=false,south=false,variant=fox,west=true": { "model": "conquest:window_hobbityellow6_n", "y": 270 },
        "east=true,north=true,south=false,variant=fox,west=false": { "model": "conquest:window_hobbityellow6_ne" },
        "east=true,north=false,south=true,variant=fox,west=false": { "model": "conquest:window_hobbityellow6_ne", "y": 90 },
        "east=false,north=false,south=true,variant=fox,west=true": { "model": "conquest:window_hobbityellow6_ne", "y": 180 },
        "east=false,north=true,south=false,variant=fox,west=true": { "model": "conquest:window_hobbityellow6_ne", "y": 270 },
        "east=false,north=true,south=true,variant=fox,west=false": { "model": "conquest:window_hobbityellow6_ns" },
        "east=true,north=false,south=false,variant=fox,west=true": { "model": "conquest:window_hobbityellow6_ns", "y": 90 },
        "east=true,north=true,south=true,variant=fox,west=false": { "model": "conquest:window_hobbityellow6_nse" },
        "east=true,north=false,south=true,variant=fox,west=true": { "model": "conquest:window_hobbityellow6_nse", "y": 90 },
        "east=false,north=true,south=true,variant=fox,west=true": { "model": "conquest:window_hobbityellow6_nse", "y": 180 },
        "east=true,north=true,south=false,variant=fox,west=true": { "model": "conquest:window_hobbityellow6_nse", "y": 270 },
        "east=true,north=true,south=true,variant=fox,west=true": { "model": "conquest:window_hobbityellow6_nsew" },

        "east=false,north=false,south=false,variant=golf,west=false": { "model": "conquest:window_hobbityellow7_post" },
        "east=false,north=true,south=false,variant=golf,west=false": { "model": "conquest:window_hobbityellow7_n" },
        "east=true,north=false,south=false,variant=golf,west=false": { "model": "conquest:window_hobbityellow7_n", "y": 90 },
        "east=false,north=false,south=true,variant=golf,west=false": { "model": "conquest:window_hobbityellow7_n", "y": 180 },
        "east=false,north=false,south=false,variant=golf,west=true": { "model": "conquest:window_hobbityellow7_n", "y": 270 },
        "east=true,north=true,south=false,variant=golf,west=false": { "model": "conquest:window_hobbityellow7_ne" },
        "east=true,north=false,south=true,variant=golf,west=false": { "model": "conquest:window_hobbityellow7_ne", "y": 90 },
        "east=false,north=false,south=true,variant=golf,west=true": { "model": "conquest:window_hobbityellow7_ne", "y": 180 },
        "east=false,north=true,south=false,variant=golf,west=true": { "model": "conquest:window_hobbityellow7_ne", "y": 270 },
        "east=false,north=true,south=true,variant=golf,west=false": { "model": "conquest:window_hobbityellow7_ns" },
        "east=true,north=false,south=false,variant=golf,west=true": { "model": "conquest:window_hobbityellow7_ns", "y": 90 },
        "east=true,north=true,south=true,variant=golf,west=false": { "model": "conquest:window_hobbityellow7_nse" },
        "east=true,north=false,south=true,variant=golf,west=true": { "model": "conquest:window_hobbityellow7_nse", "y": 90 },
        "east=false,north=true,south=true,variant=golf,west=true": { "model": "conquest:window_hobbityellow7_nse", "y": 180 },
        "east=true,north=true,south=false,variant=golf,west=true": { "model": "conquest:window_hobbityellow7_nse", "y": 270 },
        "east=true,north=true,south=true,variant=golf,west=true": { "model": "conquest:window_hobbityellow7_nsew" },

        "east=false,north=false,south=false,variant=hotel,west=false": { "model": "conquest:window_hobbityellow8_post" },
        "east=false,north=true,south=false,variant=hotel,west=false": { "model": "conquest:window_hobbityellow8_n" },
        "east=true,north=false,south=false,variant=hotel,west=false": { "model": "conquest:window_hobbityellow8_n", "y": 90 },
        "east=false,north=false,south=true,variant=hotel,west=false": { "model": "conquest:window_hobbityellow8_n", "y": 180 },
        "east=false,north=false,south=false,variant=hotel,west=true": { "model": "conquest:window_hobbityellow8_n", "y": 270 },
        "east=true,north=true,south=false,variant=hotel,west=false": { "model": "conquest:window_hobbityellow8_ne" },
        "east=true,north=false,south=true,variant=hotel,west=false": { "model": "conquest:window_hobbityellow8_ne", "y": 90 },
        "east=false,north=false,south=true,variant=hotel,west=true": { "model": "conquest:window_hobbityellow8_ne", "y": 180 },
        "east=false,north=true,south=false,variant=hotel,west=true": { "model": "conquest:window_hobbityellow8_ne", "y": 270 },
        "east=false,north=true,south=true,variant=hotel,west=false": { "model": "conquest:window_hobbityellow8_ns" },
        "east=true,north=false,south=false,variant=hotel,west=true": { "model": "conquest:window_hobbityellow8_ns", "y": 90 },
        "east=true,north=true,south=true,variant=hotel,west=false": { "model": "conquest:window_hobbityellow8_nse" },
        "east=true,north=false,south=true,variant=hotel,west=true": { "model": "conquest:window_hobbityellow8_nse", "y": 90 },
        "east=false,north=true,south=true,variant=hotel,west=true": { "model": "conquest:window_hobbityellow8_nse", "y": 180 },
        "east=true,north=true,south=false,variant=hotel,west=true": { "model": "conquest:window_hobbityellow8_nse", "y": 270 },
        "east=true,north=true,south=true,variant=hotel,west=true": { "model": "conquest:window_hobbityellow8_nsew" },

        "east=false,north=false,south=false,variant=india,west=false": { "model": "conquest:pane_wooden_1_post" },
        "east=false,north=true,south=false,variant=india,west=false": { "model": "conquest:pane_wooden_1_n" },
        "east=true,north=false,south=false,variant=india,west=false": { "model": "conquest:pane_wooden_1_n", "y": 90 },
        "east=false,north=false,south=true,variant=india,west=false": { "model": "conquest:pane_wooden_1_n", "y": 180 },
        "east=false,north=false,south=false,variant=india,west=true": { "model": "conquest:pane_wooden_1_n", "y": 270 },
        "east=true,north=true,south=false,variant=india,west=false": { "model": "conquest:pane_wooden_1_ne" },
        "east=true,north=false,south=true,variant=india,west=false": { "model": "conquest:pane_wooden_1_ne", "y": 90 },
        "east=false,north=false,south=true,variant=india,west=true": { "model": "conquest:pane_wooden_1_ne", "y": 180 },
        "east=false,north=true,south=false,variant=india,west=true": { "model": "conquest:pane_wooden_1_ne", "y": 270 },
        "east=false,north=true,south=true,variant=india,west=false": { "model": "conquest:pane_wooden_1_ns" },
        "east=true,north=false,south=false,variant=india,west=true": { "model": "conquest:pane_wooden_1_ns", "y": 90 },
        "east=true,north=true,south=true,variant=india,west=false": { "model": "conquest:pane_wooden_1_nse" },
        "east=true,north=false,south=true,variant=india,west=true": { "model": "conquest:pane_wooden_1_nse", "y": 90 },
        "east=false,north=true,south=true,variant=india,west=true": { "model": "conquest:pane_wooden_1_nse", "y": 180 },
        "east=true,north=true,south=false,variant=india,west=true": { "model": "conquest:pane_wooden_1_nse", "y": 270 },
        "east=true,north=true,south=true,variant=india,west=true": { "model": "conquest:pane_wooden_1_nsew" },

        "east=false,north=false,south=false,variant=juliet,west=false": { "model": "conquest:window_sindar_post" },
        "east=false,north=true,south=false,variant=juliet,west=false": { "model": "conquest:window_sindar_n" },
        "east=true,north=false,south=false,variant=juliet,west=false": { "model": "conquest:window_sindar_n", "y": 90 },
        "east=false,north=false,south=true,variant=juliet,west=false": { "model": "conquest:window_sindar_n", "y": 180 },
        "east=false,north=false,south=false,variant=juliet,west=true": { "model": "conquest:window_sindar_n", "y": 270 },
        "east=true,north=true,south=false,variant=juliet,west=false": { "model": "conquest:window_sindar_ne" },
        "east=true,north=false,south=true,variant=juliet,west=false": { "model": "conquest:window_sindar_ne", "y": 90 },
        "east=false,north=false,south=true,variant=juliet,west=true": { "model": "conquest:window_sindar_ne", "y": 180 },
        "east=false,north=true,south=false,variant=juliet,west=true": { "model": "conquest:window_sindar_ne", "y": 270 },
        "east=false,north=true,south=true,variant=juliet,west=false": { "model": "conquest:window_sindar_ns" },
        "east=true,north=false,south=false,variant=juliet,west=true": { "model": "conquest:window_sindar_ns", "y": 90 },
        "east=true,north=true,south=true,variant=juliet,west=false": { "model": "conquest:window_sindar_nse" },
        "east=true,north=false,south=true,variant=juliet,west=true": { "model": "conquest:window_sindar_nse", "y": 90 },
        "east=false,north=true,south=true,variant=juliet,west=true": { "model": "conquest:window_sindar_nse", "y": 180 },
        "east=true,north=true,south=false,variant=juliet,west=true": { "model": "conquest:window_sindar_nse", "y": 270 },
        "east=true,north=true,south=true,variant=juliet,west=true": { "model": "conquest:window_sindar_nsew" },

        "east=false,north=false,south=false,variant=kilo,west=false": { "model": "conquest:window_stonearch_post" },
        "east=false,north=true,south=false,variant=kilo,west=false": { "model": "conquest:window_stonearch_n" },
        "east=true,north=false,south=false,variant=kilo,west=false": { "model": "conquest:window_stonearch_n", "y": 90 },
        "east=false,north=false,south=true,variant=kilo,west=false": { "model": "conquest:window_stonearch_n", "y": 180 },
        "east=false,north=false,south=false,variant=kilo,west=true": { "model": "conquest:window_stonearch_n", "y": 270 },
        "east=true,north=true,south=false,variant=kilo,west=false": { "model": "conquest:window_stonearch_ne" },
        "east=true,north=false,south=true,variant=kilo,west=false": { "model": "conquest:window_stonearch_ne", "y": 90 },
        "east=false,north=false,south=true,variant=kilo,west=true": { "model": "conquest:window_stonearch_ne", "y": 180 },
        "east=false,north=true,south=false,variant=kilo,west=true": { "model": "conquest:window_stonearch_ne", "y": 270 },
        "east=false,north=true,south=true,variant=kilo,west=false": { "model": "conquest:window_stonearch_ns" },
        "east=true,north=false,south=false,variant=kilo,west=true": { "model": "conquest:window_stonearch_ns", "y": 90 },
        "east=true,north=true,south=true,variant=kilo,west=false": { "model": "conquest:window_stonearch_nse" },
        "east=true,north=false,south=true,variant=kilo,west=true": { "model": "conquest:window_stonearch_nse", "y": 90 },
        "east=false,north=true,south=true,variant=kilo,west=true": { "model": "conquest:window_stonearch_nse", "y": 180 },
        "east=true,north=true,south=false,variant=kilo,west=true": { "model": "conquest:window_stonearch_nse", "y": 270 },
        "east=true,north=true,south=true,variant=kilo,west=true": { "model": "conquest:window_stonearch_nsew" },

        "east=false,north=false,south=false,variant=lima,west=false": { "model": "conquest:window_elven_post" },
        "east=false,north=true,south=false,variant=lima,west=false": { "model": "conquest:window_elven_n" },
        "east=true,north=false,south=false,variant=lima,west=false": { "model": "conquest:window_elven_n", "y": 90 },
        "east=false,north=false,south=true,variant=lima,west=false": { "model": "conquest:window_elven_n", "y": 180 },
        "east=false,north=false,south=false,variant=lima,west=true": { "model": "conquest:window_elven_n", "y": 270 },
        "east=true,north=true,south=false,variant=lima,west=false": { "model": "conquest:window_elven_ne" },
        "east=true,north=false,south=true,variant=lima,west=false": { "model": "conquest:window_elven_ne", "y": 90 },
        "east=false,north=false,south=true,variant=lima,west=true": { "model": "conquest:window_elven_ne", "y": 180 },
        "east=false,north=true,south=false,variant=lima,west=true": { "model": "conquest:window_elven_ne", "y": 270 },
        "east=false,north=true,south=true,variant=lima,west=false": { "model": "conquest:window_elven_ns" },
        "east=true,north=false,south=false,variant=lima,west=true": { "model": "conquest:window_elven_ns", "y": 90 },
        "east=true,north=true,south=true,variant=lima,west=false": { "model": "conquest:window_elven_nse" },
        "east=true,north=false,south=true,variant=lima,west=true": { "model": "conquest:window_elven_nse", "y": 90 },
        "east=false,north=true,south=true,variant=lima,west=true": { "model": "conquest:window_elven_nse", "y": 180 },
        "east=true,north=true,south=false,variant=lima,west=true": { "model": "conquest:window_elven_nse", "y": 270 },
        "east=true,north=true,south=true,variant=lima,west=true": { "model": "conquest:window_elven_nsew" },

        "east=false,north=false,south=false,variant=mike,west=false": { "model": "conquest:window_hobbit1_post" },
        "east=false,north=true,south=false,variant=mike,west=false": { "model": "conquest:window_hobbit1_n" },
        "east=true,north=false,south=false,variant=mike,west=false": { "model": "conquest:window_hobbit1_n", "y": 90 },
        "east=false,north=false,south=true,variant=mike,west=false": { "model": "conquest:window_hobbit1_n", "y": 180 },
        "east=false,north=false,south=false,variant=mike,west=true": { "model": "conquest:window_hobbit1_n", "y": 270 },
        "east=true,north=true,south=false,variant=mike,west=false": { "model": "conquest:window_hobbit1_ne" },
        "east=true,north=false,south=true,variant=mike,west=false": { "model": "conquest:window_hobbit1_ne", "y": 90 },
        "east=false,north=false,south=true,variant=mike,west=true": { "model": "conquest:window_hobbit1_ne", "y": 180 },
        "east=false,north=true,south=false,variant=mike,west=true": { "model": "conquest:window_hobbit1_ne", "y": 270 },
        "east=false,north=true,south=true,variant=mike,west=false": { "model": "conquest:window_hobbit1_ns" },
        "east=true,north=false,south=false,variant=mike,west=true": { "model": "conquest:window_hobbit1_ns", "y": 90 },
        "east=true,north=true,south=true,variant=mike,west=false": { "model": "conquest:window_hobbit1_nse" },
        "east=true,north=false,south=true,variant=mike,west=true": { "model": "conquest:window_hobbit1_nse", "y": 90 },
        "east=false,north=true,south=true,variant=mike,west=true": { "model": "conquest:window_hobbit1_nse", "y": 180 },
        "east=true,north=true,south=false,variant=mike,west=true": { "model": "conquest:window_hobbit1_nse", "y": 270 },
        "east=true,north=true,south=true,variant=mike,west=true": { "model": "conquest:window_hobbit1_nsew" },

        "east=false,north=false,south=false,variant=november,west=false": { "model": "conquest:window_hobbit2_post" },
        "east=false,north=true,south=false,variant=november,west=false": { "model": "conquest:window_hobbit2_n" },
        "east=true,north=false,south=false,variant=november,west=false": { "model": "conquest:window_hobbit2_n", "y": 90 },
        "east=false,north=false,south=true,variant=november,west=false": { "model": "conquest:window_hobbit2_n", "y": 180 },
        "east=false,north=false,south=false,variant=november,west=true": { "model": "conquest:window_hobbit2_n", "y": 270 },
        "east=true,north=true,south=false,variant=november,west=false": { "model": "conquest:window_hobbit2_ne" },
        "east=true,north=false,south=true,variant=november,west=false": { "model": "conquest:window_hobbit2_ne", "y": 90 },
        "east=false,north=false,south=true,variant=november,west=true": { "model": "conquest:window_hobbit2_ne", "y": 180 },
        "east=false,north=true,south=false,variant=november,west=true": { "model": "conquest:window_hobbit2_ne", "y": 270 },
        "east=false,north=true,south=true,variant=november,west=false": { "model": "conquest:window_hobbit2_ns" },
        "east=true,north=false,south=false,variant=november,west=true": { "model": "conquest:window_hobbit2_ns", "y": 90 },
        "east=true,north=true,south=true,variant=november,west=false": { "model": "conquest:window_hobbit2_nse" },
        "east=true,north=false,south=true,variant=november,west=true": { "model": "conquest:window_hobbit2_nse", "y": 90 },
        "east=false,north=true,south=true,variant=november,west=true": { "model": "conquest:window_hobbit2_nse", "y": 180 },
        "east=true,north=true,south=false,variant=november,west=true": { "model": "conquest:window_hobbit2_nse", "y": 270 },
        "east=true,north=true,south=true,variant=november,west=true": { "model": "conquest:window_hobbit2_nsew" },

        "east=false,north=false,south=false,variant=oscar,west=false": { "model": "conquest:window_hobbit3_post" },
        "east=false,north=true,south=false,variant=oscar,west=false": { "model": "conquest:window_hobbit3_n" },
        "east=true,north=false,south=false,variant=oscar,west=false": { "model": "conquest:window_hobbit3_n", "y": 90 },
        "east=false,north=false,south=true,variant=oscar,west=false": { "model": "conquest:window_hobbit3_n", "y": 180 },
        "east=false,north=false,south=false,variant=oscar,west=true": { "model": "conquest:window_hobbit3_n", "y": 270 },
        "east=true,north=true,south=false,variant=oscar,west=false": { "model": "conquest:window_hobbit3_ne" },
        "east=true,north=false,south=true,variant=oscar,west=false": { "model": "conquest:window_hobbit3_ne", "y": 90 },
        "east=false,north=false,south=true,variant=oscar,west=true": { "model": "conquest:window_hobbit3_ne", "y": 180 },
        "east=false,north=true,south=false,variant=oscar,west=true": { "model": "conquest:window_hobbit3_ne", "y": 270 },
        "east=false,north=true,south=true,variant=oscar,west=false": { "model": "conquest:window_hobbit3_ns" },
        "east=true,north=false,south=false,variant=oscar,west=true": { "model": "conquest:window_hobbit3_ns", "y": 90 },
        "east=true,north=true,south=true,variant=oscar,west=false": { "model": "conquest:window_hobbit3_nse" },
        "east=true,north=false,south=true,variant=oscar,west=true": { "model": "conquest:window_hobbit3_nse", "y": 90 },
        "east=false,north=true,south=true,variant=oscar,west=true": { "model": "conquest:window_hobbit3_nse", "y": 180 },
        "east=true,north=true,south=false,variant=oscar,west=true": { "model": "conquest:window_hobbit3_nse", "y": 270 },
        "east=true,north=true,south=true,variant=oscar,west=true": { "model": "conquest:window_hobbit3_nsew" },

        "east=false,north=false,south=false,variant=papa,west=false": { "model": "conquest:window_hobbit4_post" },
        "east=false,north=true,south=false,variant=papa,west=false": { "model": "conquest:window_hobbit4_n" },
        "east=true,north=false,south=false,variant=papa,west=false": { "model": "conquest:window_hobbit4_n", "y": 90 },
        "east=false,north=false,south=true,variant=papa,west=false": { "model": "conquest:window_hobbit4_n", "y": 180 },
        "east=false,north=false,south=false,variant=papa,west=true": { "model": "conquest:window_hobbit4_n", "y": 270 },
        "east=true,north=true,south=false,variant=papa,west=false": { "model": "conquest:window_hobbit4_ne" },
        "east=true,north=false,south=true,variant=papa,west=false": { "model": "conquest:window_hobbit4_ne", "y": 90 },
        "east=false,north=false,south=true,variant=papa,west=true": { "model": "conquest:window_hobbit4_ne", "y": 180 },
        "east=false,north=true,south=false,variant=papa,west=true": { "model": "conquest:window_hobbit4_ne", "y": 270 },
        "east=false,north=true,south=true,variant=papa,west=false": { "model": "conquest:window_hobbit4_ns" },
        "east=true,north=false,south=false,variant=papa,west=true": { "model": "conquest:window_hobbit4_ns", "y": 90 },
        "east=true,north=true,south=true,variant=papa,west=false": { "model": "conquest:window_hobbit4_nse" },
        "east=true,north=false,south=true,variant=papa,west=true": { "model": "conquest:window_hobbit4_nse", "y": 90 },
        "east=false,north=true,south=true,variant=papa,west=true": { "model": "conquest:window_hobbit4_nse", "y": 180 },
        "east=true,north=true,south=false,variant=papa,west=true": { "model": "conquest:window_hobbit4_nse", "y": 270 },
        "east=true,north=true,south=true,variant=papa,west=true": { "model": "conquest:window_hobbit4_nsew" }
    }
}