{
    "variants": {
        "east=false,north=false,south=false,variant=alpha,west=false": { "model": "conquest:window_hobbit5_post" },
        "east=false,north=true,south=false,variant=alpha,west=false": { "model": "conquest:window_hobbit5_n" },
        "east=true,north=false,south=false,variant=alpha,west=false": { "model": "conquest:window_hobbit5_n", "y": 90 },
        "east=false,north=false,south=true,variant=alpha,west=false": { "model": "conquest:window_hobbit5_n", "y": 180 },
        "east=false,north=false,south=false,variant=alpha,west=true": { "model": "conquest:window_hobbit5_n", "y": 270 },
        "east=true,north=true,south=false,variant=alpha,west=false": { "model": "conquest:window_hobbit5_ne" },
        "east=true,north=false,south=true,variant=alpha,west=false": { "model": "conquest:window_hobbit5_ne", "y": 90 },
        "east=false,north=false,south=true,variant=alpha,west=true": { "model": "conquest:window_hobbit5_ne", "y": 180 },
        "east=false,north=true,south=false,variant=alpha,west=true": { "model": "conquest:window_hobbit5_ne", "y": 270 },
        "east=false,north=true,south=true,variant=alpha,west=false": { "model": "conquest:window_hobbit5_ns" },
        "east=true,north=false,south=false,variant=alpha,west=true": { "model": "conquest:window_hobbit5_ns", "y": 90 },
        "east=true,north=true,south=true,variant=alpha,west=false": { "model": "conquest:window_hobbit5_nse" },
        "east=true,north=false,south=true,variant=alpha,west=true": { "model": "conquest:window_hobbit5_nse", "y": 90 },
        "east=false,north=true,south=true,variant=alpha,west=true": { "model": "conquest:window_hobbit5_nse", "y": 180 },
        "east=true,north=true,south=false,variant=alpha,west=true": { "model": "conquest:window_hobbit5_nse", "y": 270 },
        "east=true,north=true,south=true,variant=alpha,west=true": { "model": "conquest:window_hobbit5_nsew" },


        "east=false,north=false,south=false,variant=bravo,west=false": { "model": "conquest:window_hobbit6_post" },
        "east=false,north=true,south=false,variant=bravo,west=false": { "model": "conquest:window_hobbit6_n" },
        "east=true,north=false,south=false,variant=bravo,west=false": { "model": "conquest:window_hobbit6_n", "y": 90 },
        "east=false,north=false,south=true,variant=bravo,west=false": { "model": "conquest:window_hobbit6_n", "y": 180 },
        "east=false,north=false,south=false,variant=bravo,west=true": { "model": "conquest:window_hobbit6_n", "y": 270 },
        "east=true,north=true,south=false,variant=bravo,west=false": { "model": "conquest:window_hobbit6_ne" },
        "east=true,north=false,south=true,variant=bravo,west=false": { "model": "conquest:window_hobbit6_ne", "y": 90 },
        "east=false,north=false,south=true,variant=bravo,west=true": { "model": "conquest:window_hobbit6_ne", "y": 180 },
        "east=false,north=true,south=false,variant=bravo,west=true": { "model": "conquest:window_hobbit6_ne", "y": 270 },
        "east=false,north=true,south=true,variant=bravo,west=false": { "model": "conquest:window_hobbit6_ns" },
        "east=true,north=false,south=false,variant=bravo,west=true": { "model": "conquest:window_hobbit6_ns", "y": 90 },
        "east=true,north=true,south=true,variant=bravo,west=false": { "model": "conquest:window_hobbit6_nse" },
        "east=true,north=false,south=true,variant=bravo,west=true": { "model": "conquest:window_hobbit6_nse", "y": 90 },
        "east=false,north=true,south=true,variant=bravo,west=true": { "model": "conquest:window_hobbit6_nse", "y": 180 },
        "east=true,north=true,south=false,variant=bravo,west=true": { "model": "conquest:window_hobbit6_nse", "y": 270 },
        "east=true,north=true,south=true,variant=bravo,west=true": { "model": "conquest:window_hobbit6_nsew" },


        "east=false,north=false,south=false,variant=charlie,west=false": { "model": "conquest:window_hobbit7_post" },
        "east=false,north=true,south=false,variant=charlie,west=false": { "model": "conquest:window_hobbit7_n" },
        "east=true,north=false,south=false,variant=charlie,west=false": { "model": "conquest:window_hobbit7_n", "y": 90 },
        "east=false,north=false,south=true,variant=charlie,west=false": { "model": "conquest:window_hobbit7_n", "y": 180 },
        "east=false,north=false,south=false,variant=charlie,west=true": { "model": "conquest:window_hobbit7_n", "y": 270 },
        "east=true,north=true,south=false,variant=charlie,west=false": { "model": "conquest:window_hobbit7_ne" },
        "east=true,north=false,south=true,variant=charlie,west=false": { "model": "conquest:window_hobbit7_ne", "y": 90 },
        "east=false,north=false,south=true,variant=charlie,west=true": { "model": "conquest:window_hobbit7_ne", "y": 180 },
        "east=false,north=true,south=false,variant=charlie,west=true": { "model": "conquest:window_hobbit7_ne", "y": 270 },
        "east=false,north=true,south=true,variant=charlie,west=false": { "model": "conquest:window_hobbit7_ns" },
        "east=true,north=false,south=false,variant=charlie,west=true": { "model": "conquest:window_hobbit7_ns", "y": 90 },
        "east=true,north=true,south=true,variant=charlie,west=false": { "model": "conquest:window_hobbit7_nse" },
        "east=true,north=false,south=true,variant=charlie,west=true": { "model": "conquest:window_hobbit7_nse", "y": 90 },
        "east=false,north=true,south=true,variant=charlie,west=true": { "model": "conquest:window_hobbit7_nse", "y": 180 },
        "east=true,north=true,south=false,variant=charlie,west=true": { "model": "conquest:window_hobbit7_nse", "y": 270 },
        "east=true,north=true,south=true,variant=charlie,west=true": { "model": "conquest:window_hobbit7_nsew" },


        "east=false,north=false,south=false,variant=delta,west=false": { "model": "conquest:window_hobbit8_post" },
        "east=false,north=true,south=false,variant=delta,west=false": { "model": "conquest:window_hobbit8_n" },
        "east=true,north=false,south=false,variant=delta,west=false": { "model": "conquest:window_hobbit8_n", "y": 90 },
        "east=false,north=false,south=true,variant=delta,west=false": { "model": "conquest:window_hobbit8_n", "y": 180 },
        "east=false,north=false,south=false,variant=delta,west=true": { "model": "conquest:window_hobbit8_n", "y": 270 },
        "east=true,north=true,south=false,variant=delta,west=false": { "model": "conquest:window_hobbit8_ne" },
        "east=true,north=false,south=true,variant=delta,west=false": { "model": "conquest:window_hobbit8_ne", "y": 90 },
        "east=false,north=false,south=true,variant=delta,west=true": { "model": "conquest:window_hobbit8_ne", "y": 180 },
        "east=false,north=true,south=false,variant=delta,west=true": { "model": "conquest:window_hobbit8_ne", "y": 270 },
        "east=false,north=true,south=true,variant=delta,west=false": { "model": "conquest:window_hobbit8_ns" },
        "east=true,north=false,south=false,variant=delta,west=true": { "model": "conquest:window_hobbit8_ns", "y": 90 },
        "east=true,north=true,south=true,variant=delta,west=false": { "model": "conquest:window_hobbit8_nse" },
        "east=true,north=false,south=true,variant=delta,west=true": { "model": "conquest:window_hobbit8_nse", "y": 90 },
        "east=false,north=true,south=true,variant=delta,west=true": { "model": "conquest:window_hobbit8_nse", "y": 180 },
        "east=true,north=true,south=false,variant=delta,west=true": { "model": "conquest:window_hobbit8_nse", "y": 270 },
        "east=true,north=true,south=true,variant=delta,west=true": { "model": "conquest:window_hobbit8_nsew" },


        "east=false,north=false,south=false,variant=echo,west=false": { "model": "conquest:pane_wooden_2_post" },
        "east=false,north=true,south=false,variant=echo,west=false": { "model": "conquest:pane_wooden_2_n" },
        "east=true,north=false,south=false,variant=echo,west=false": { "model": "conquest:pane_wooden_2_n", "y": 90 },
        "east=false,north=false,south=true,variant=echo,west=false": { "model": "conquest:pane_wooden_2_n", "y": 180 },
        "east=false,north=false,south=false,variant=echo,west=true": { "model": "conquest:pane_wooden_2_n", "y": 270 },
        "east=true,north=true,south=false,variant=echo,west=false": { "model": "conquest:pane_wooden_2_ne" },
        "east=true,north=false,south=true,variant=echo,west=false": { "model": "conquest:pane_wooden_2_ne", "y": 90 },
        "east=false,north=false,south=true,variant=echo,west=true": { "model": "conquest:pane_wooden_2_ne", "y": 180 },
        "east=false,north=true,south=false,variant=echo,west=true": { "model": "conquest:pane_wooden_2_ne", "y": 270 },
        "east=false,north=true,south=true,variant=echo,west=false": { "model": "conquest:pane_wooden_2_ns" },
        "east=true,north=false,south=false,variant=echo,west=true": { "model": "conquest:pane_wooden_2_ns", "y": 90 },
        "east=true,north=true,south=true,variant=echo,west=false": { "model": "conquest:pane_wooden_2_nse" },
        "east=true,north=false,south=true,variant=echo,west=true": { "model": "conquest:pane_wooden_2_nse", "y": 90 },
        "east=false,north=true,south=true,variant=echo,west=true": { "model": "conquest:pane_wooden_2_nse", "y": 180 },
        "east=true,north=true,south=false,variant=echo,west=true": { "model": "conquest:pane_wooden_2_nse", "y": 270 },
        "east=true,north=true,south=true,variant=echo,west=true": { "model": "conquest:pane_wooden_2_nsew" },


        "east=false,north=false,south=false,variant=fox,west=false": { "model": "conquest:none" },
        "east=false,north=true,south=false,variant=fox,west=false": { "model": "conquest:none" },
        "east=true,north=false,south=false,variant=fox,west=false": { "model": "conquest:none", "y": 90 },
        "east=false,north=false,south=true,variant=fox,west=false": { "model": "conquest:none", "y": 180 },
        "east=false,north=false,south=false,variant=fox,west=true": { "model": "conquest:none", "y": 270 },
        "east=true,north=true,south=false,variant=fox,west=false": { "model": "conquest:none" },
        "east=true,north=false,south=true,variant=fox,west=false": { "model": "conquest:none", "y": 90 },
        "east=false,north=false,south=true,variant=fox,west=true": { "model": "conquest:none", "y": 180 },
        "east=false,north=true,south=false,variant=fox,west=true": { "model": "conquest:none", "y": 270 },
        "east=false,north=true,south=true,variant=fox,west=false": { "model": "conquest:none" },
        "east=true,north=false,south=false,variant=fox,west=true": { "model": "conquest:none", "y": 90 },
        "east=true,north=true,south=true,variant=fox,west=false": { "model": "conquest:none" },
        "east=true,north=false,south=true,variant=fox,west=true": { "model": "conquest:none", "y": 90 },
        "east=false,north=true,south=true,variant=fox,west=true": { "model": "conquest:none", "y": 180 },
        "east=true,north=true,south=false,variant=fox,west=true": { "model": "conquest:none", "y": 270 },
        "east=true,north=true,south=true,variant=fox,west=true": { "model": "conquest:none" },

        "east=false,north=false,south=false,variant=golf,west=false": { "model": "conquest:none" },
        "east=false,north=true,south=false,variant=golf,west=false": { "model": "conquest:none" },
        "east=true,north=false,south=false,variant=golf,west=false": { "model": "conquest:none", "y": 90 },
        "east=false,north=false,south=true,variant=golf,west=false": { "model": "conquest:none", "y": 180 },
        "east=false,north=false,south=false,variant=golf,west=true": { "model": "conquest:none", "y": 270 },
        "east=true,north=true,south=false,variant=golf,west=false": { "model": "conquest:none" },
        "east=true,north=false,south=true,variant=golf,west=false": { "model": "conquest:none", "y": 90 },
        "east=false,north=false,south=true,variant=golf,west=true": { "model": "conquest:none", "y": 180 },
        "east=false,north=true,south=false,variant=golf,west=true": { "model": "conquest:none", "y": 270 },
        "east=false,north=true,south=true,variant=golf,west=false": { "model": "conquest:none" },
        "east=true,north=false,south=false,variant=golf,west=true": { "model": "conquest:none", "y": 90 },
        "east=true,north=true,south=true,variant=golf,west=false": { "model": "conquest:none" },
        "east=true,north=false,south=true,variant=golf,west=true": { "model": "conquest:none", "y": 90 },
        "east=false,north=true,south=true,variant=golf,west=true": { "model": "conquest:none", "y": 180 },
        "east=true,north=true,south=false,variant=golf,west=true": { "model": "conquest:none", "y": 270 },
        "east=true,north=true,south=true,variant=golf,west=true": { "model": "conquest:none" },

        "east=false,north=false,south=false,variant=hotel,west=false": { "model": "conquest:none" },
        "east=false,north=true,south=false,variant=hotel,west=false": { "model": "conquest:none" },
        "east=true,north=false,south=false,variant=hotel,west=false": { "model": "conquest:none", "y": 90 },
        "east=false,north=false,south=true,variant=hotel,west=false": { "model": "conquest:none", "y": 180 },
        "east=false,north=false,south=false,variant=hotel,west=true": { "model": "conquest:none", "y": 270 },
        "east=true,north=true,south=false,variant=hotel,west=false": { "model": "conquest:none" },
        "east=true,north=false,south=true,variant=hotel,west=false": { "model": "conquest:none", "y": 90 },
        "east=false,north=false,south=true,variant=hotel,west=true": { "model": "conquest:none", "y": 180 },
        "east=false,north=true,south=false,variant=hotel,west=true": { "model": "conquest:none", "y": 270 },
        "east=false,north=true,south=true,variant=hotel,west=false": { "model": "conquest:none" },
        "east=true,north=false,south=false,variant=hotel,west=true": { "model": "conquest:none", "y": 90 },
        "east=true,north=true,south=true,variant=hotel,west=false": { "model": "conquest:none" },
        "east=true,north=false,south=true,variant=hotel,west=true": { "model": "conquest:none", "y": 90 },
        "east=false,north=true,south=true,variant=hotel,west=true": { "model": "conquest:none", "y": 180 },
        "east=true,north=true,south=false,variant=hotel,west=true": { "model": "conquest:none", "y": 270 },
        "east=true,north=true,south=true,variant=hotel,west=true": { "model": "conquest:none" },

        "east=false,north=false,south=false,variant=india,west=false": { "model": "conquest:none" },
        "east=false,north=true,south=false,variant=india,west=false": { "model": "conquest:none" },
        "east=true,north=false,south=false,variant=india,west=false": { "model": "conquest:none", "y": 90 },
        "east=false,north=false,south=true,variant=india,west=false": { "model": "conquest:none", "y": 180 },
        "east=false,north=false,south=false,variant=india,west=true": { "model": "conquest:none", "y": 270 },
        "east=true,north=true,south=false,variant=india,west=false": { "model": "conquest:none" },
        "east=true,north=false,south=true,variant=india,west=false": { "model": "conquest:none", "y": 90 },
        "east=false,north=false,south=true,variant=india,west=true": { "model": "conquest:none", "y": 180 },
        "east=false,north=true,south=false,variant=india,west=true": { "model": "conquest:none", "y": 270 },
        "east=false,north=true,south=true,variant=india,west=false": { "model": "conquest:none" },
        "east=true,north=false,south=false,variant=india,west=true": { "model": "conquest:none", "y": 90 },
        "east=true,north=true,south=true,variant=india,west=false": { "model": "conquest:none" },
        "east=true,north=false,south=true,variant=india,west=true": { "model": "conquest:none", "y": 90 },
        "east=false,north=true,south=true,variant=india,west=true": { "model": "conquest:none", "y": 180 },
        "east=true,north=true,south=false,variant=india,west=true": { "model": "conquest:none", "y": 270 },
        "east=true,north=true,south=true,variant=india,west=true": { "model": "conquest:none" },

        "east=false,north=false,south=false,variant=juliet,west=false": { "model": "conquest:none" },
        "east=false,north=true,south=false,variant=juliet,west=false": { "model": "conquest:none" },
        "east=true,north=false,south=false,variant=juliet,west=false": { "model": "conquest:none", "y": 90 },
        "east=false,north=false,south=true,variant=juliet,west=false": { "model": "conquest:none", "y": 180 },
        "east=false,north=false,south=false,variant=juliet,west=true": { "model": "conquest:none", "y": 270 },
        "east=true,north=true,south=false,variant=juliet,west=false": { "model": "conquest:none" },
        "east=true,north=false,south=true,variant=juliet,west=false": { "model": "conquest:none", "y": 90 },
        "east=false,north=false,south=true,variant=juliet,west=true": { "model": "conquest:none", "y": 180 },
        "east=false,north=true,south=false,variant=juliet,west=true": { "model": "conquest:none", "y": 270 },
        "east=false,north=true,south=true,variant=juliet,west=false": { "model": "conquest:none" },
        "east=true,north=false,south=false,variant=juliet,west=true": { "model": "conquest:none", "y": 90 },
        "east=true,north=true,south=true,variant=juliet,west=false": { "model": "conquest:none" },
        "east=true,north=false,south=true,variant=juliet,west=true": { "model": "conquest:none", "y": 90 },
        "east=false,north=true,south=true,variant=juliet,west=true": { "model": "conquest:none", "y": 180 },
        "east=true,north=true,south=false,variant=juliet,west=true": { "model": "conquest:none", "y": 270 },
        "east=true,north=true,south=true,variant=juliet,west=true": { "model": "conquest:none" },

        "east=false,north=false,south=false,variant=kilo,west=false": { "model": "conquest:none" },
        "east=false,north=true,south=false,variant=kilo,west=false": { "model": "conquest:none" },
        "east=true,north=false,south=false,variant=kilo,west=false": { "model": "conquest:none", "y": 90 },
        "east=false,north=false,south=true,variant=kilo,west=false": { "model": "conquest:none", "y": 180 },
        "east=false,north=false,south=false,variant=kilo,west=true": { "model": "conquest:none", "y": 270 },
        "east=true,north=true,south=false,variant=kilo,west=false": { "model": "conquest:none" },
        "east=true,north=false,south=true,variant=kilo,west=false": { "model": "conquest:none", "y": 90 },
        "east=false,north=false,south=true,variant=kilo,west=true": { "model": "conquest:none", "y": 180 },
        "east=false,north=true,south=false,variant=kilo,west=true": { "model": "conquest:none", "y": 270 },
        "east=false,north=true,south=true,variant=kilo,west=false": { "model": "conquest:none" },
        "east=true,north=false,south=false,variant=kilo,west=true": { "model": "conquest:none", "y": 90 },
        "east=true,north=true,south=true,variant=kilo,west=false": { "model": "conquest:none" },
        "east=true,north=false,south=true,variant=kilo,west=true": { "model": "conquest:none", "y": 90 },
        "east=false,north=true,south=true,variant=kilo,west=true": { "model": "conquest:none", "y": 180 },
        "east=true,north=true,south=false,variant=kilo,west=true": { "model": "conquest:none", "y": 270 },
        "east=true,north=true,south=true,variant=kilo,west=true": { "model": "conquest:none" },

        "east=false,north=false,south=false,variant=lima,west=false": { "model": "conquest:none" },
        "east=false,north=true,south=false,variant=lima,west=false": { "model": "conquest:none" },
        "east=true,north=false,south=false,variant=lima,west=false": { "model": "conquest:none", "y": 90 },
        "east=false,north=false,south=true,variant=lima,west=false": { "model": "conquest:none", "y": 180 },
        "east=false,north=false,south=false,variant=lima,west=true": { "model": "conquest:none", "y": 270 },
        "east=true,north=true,south=false,variant=lima,west=false": { "model": "conquest:none" },
        "east=true,north=false,south=true,variant=lima,west=false": { "model": "conquest:none", "y": 90 },
        "east=false,north=false,south=true,variant=lima,west=true": { "model": "conquest:none", "y": 180 },
        "east=false,north=true,south=false,variant=lima,west=true": { "model": "conquest:none", "y": 270 },
        "east=false,north=true,south=true,variant=lima,west=false": { "model": "conquest:none" },
        "east=true,north=false,south=false,variant=lima,west=true": { "model": "conquest:none", "y": 90 },
        "east=true,north=true,south=true,variant=lima,west=false": { "model": "conquest:none" },
        "east=true,north=false,south=true,variant=lima,west=true": { "model": "conquest:none", "y": 90 },
        "east=false,north=true,south=true,variant=lima,west=true": { "model": "conquest:none", "y": 180 },
        "east=true,north=true,south=false,variant=lima,west=true": { "model": "conquest:none", "y": 270 },
        "east=true,north=true,south=true,variant=lima,west=true": { "model": "conquest:none" },

        "east=false,north=false,south=false,variant=mike,west=false": { "model": "conquest:none" },
        "east=false,north=true,south=false,variant=mike,west=false": { "model": "conquest:none" },
        "east=true,north=false,south=false,variant=mike,west=false": { "model": "conquest:none", "y": 90 },
        "east=false,north=false,south=true,variant=mike,west=false": { "model": "conquest:none", "y": 180 },
        "east=false,north=false,south=false,variant=mike,west=true": { "model": "conquest:none", "y": 270 },
        "east=true,north=true,south=false,variant=mike,west=false": { "model": "conquest:none" },
        "east=true,north=false,south=true,variant=mike,west=false": { "model": "conquest:none", "y": 90 },
        "east=false,north=false,south=true,variant=mike,west=true": { "model": "conquest:none", "y": 180 },
        "east=false,north=true,south=false,variant=mike,west=true": { "model": "conquest:none", "y": 270 },
        "east=false,north=true,south=true,variant=mike,west=false": { "model": "conquest:none" },
        "east=true,north=false,south=false,variant=mike,west=true": { "model": "conquest:none", "y": 90 },
        "east=true,north=true,south=true,variant=mike,west=false": { "model": "conquest:none" },
        "east=true,north=false,south=true,variant=mike,west=true": { "model": "conquest:none", "y": 90 },
        "east=false,north=true,south=true,variant=mike,west=true": { "model": "conquest:none", "y": 180 },
        "east=true,north=true,south=false,variant=mike,west=true": { "model": "conquest:none", "y": 270 },
        "east=true,north=true,south=true,variant=mike,west=true": { "model": "conquest:none" },

        "east=false,north=false,south=false,variant=november,west=false": { "model": "conquest:none" },
        "east=false,north=true,south=false,variant=november,west=false": { "model": "conquest:none" },
        "east=true,north=false,south=false,variant=november,west=false": { "model": "conquest:none", "y": 90 },
        "east=false,north=false,south=true,variant=november,west=false": { "model": "conquest:none", "y": 180 },
        "east=false,north=false,south=false,variant=november,west=true": { "model": "conquest:none", "y": 270 },
        "east=true,north=true,south=false,variant=november,west=false": { "model": "conquest:none" },
        "east=true,north=false,south=true,variant=november,west=false": { "model": "conquest:none", "y": 90 },
        "east=false,north=false,south=true,variant=november,west=true": { "model": "conquest:none", "y": 180 },
        "east=false,north=true,south=false,variant=november,west=true": { "model": "conquest:none", "y": 270 },
        "east=false,north=true,south=true,variant=november,west=false": { "model": "conquest:none" },
        "east=true,north=false,south=false,variant=november,west=true": { "model": "conquest:none", "y": 90 },
        "east=true,north=true,south=true,variant=november,west=false": { "model": "conquest:none" },
        "east=true,north=false,south=true,variant=november,west=true": { "model": "conquest:none", "y": 90 },
        "east=false,north=true,south=true,variant=november,west=true": { "model": "conquest:none", "y": 180 },
        "east=true,north=true,south=false,variant=november,west=true": { "model": "conquest:none", "y": 270 },
        "east=true,north=true,south=true,variant=november,west=true": { "model": "conquest:none" },

        "east=false,north=false,south=false,variant=oscar,west=false": { "model": "conquest:none" },
        "east=false,north=true,south=false,variant=oscar,west=false": { "model": "conquest:none" },
        "east=true,north=false,south=false,variant=oscar,west=false": { "model": "conquest:none", "y": 90 },
        "east=false,north=false,south=true,variant=oscar,west=false": { "model": "conquest:none", "y": 180 },
        "east=false,north=false,south=false,variant=oscar,west=true": { "model": "conquest:none", "y": 270 },
        "east=true,north=true,south=false,variant=oscar,west=false": { "model": "conquest:none" },
        "east=true,north=false,south=true,variant=oscar,west=false": { "model": "conquest:none", "y": 90 },
        "east=false,north=false,south=true,variant=oscar,west=true": { "model": "conquest:none", "y": 180 },
        "east=false,north=true,south=false,variant=oscar,west=true": { "model": "conquest:none", "y": 270 },
        "east=false,north=true,south=true,variant=oscar,west=false": { "model": "conquest:none" },
        "east=true,north=false,south=false,variant=oscar,west=true": { "model": "conquest:none", "y": 90 },
        "east=true,north=true,south=true,variant=oscar,west=false": { "model": "conquest:none" },
        "east=true,north=false,south=true,variant=oscar,west=true": { "model": "conquest:none", "y": 90 },
        "east=false,north=true,south=true,variant=oscar,west=true": { "model": "conquest:none", "y": 180 },
        "east=true,north=true,south=false,variant=oscar,west=true": { "model": "conquest:none", "y": 270 },
        "east=true,north=true,south=true,variant=oscar,west=true": { "model": "conquest:none" },

        "east=false,north=false,south=false,variant=papa,west=false": { "model": "conquest:none" },
        "east=false,north=true,south=false,variant=papa,west=false": { "model": "conquest:none" },
        "east=true,north=false,south=false,variant=papa,west=false": { "model": "conquest:none", "y": 90 },
        "east=false,north=false,south=true,variant=papa,west=false": { "model": "conquest:none", "y": 180 },
        "east=false,north=false,south=false,variant=papa,west=true": { "model": "conquest:none", "y": 270 },
        "east=true,north=true,south=false,variant=papa,west=false": { "model": "conquest:none" },
        "east=true,north=false,south=true,variant=papa,west=false": { "model": "conquest:none", "y": 90 },
        "east=false,north=false,south=true,variant=papa,west=true": { "model": "conquest:none", "y": 180 },
        "east=false,north=true,south=false,variant=papa,west=true": { "model": "conquest:none", "y": 270 },
        "east=false,north=true,south=true,variant=papa,west=false": { "model": "conquest:none" },
        "east=true,north=false,south=false,variant=papa,west=true": { "model": "conquest:none", "y": 90 },
        "east=true,north=true,south=true,variant=papa,west=false": { "model": "conquest:none" },
        "east=true,north=false,south=true,variant=papa,west=true": { "model": "conquest:none", "y": 90 },
        "east=false,north=true,south=true,variant=papa,west=true": { "model": "conquest:none", "y": 180 },
        "east=true,north=true,south=false,variant=papa,west=true": { "model": "conquest:none", "y": 270 },
        "east=true,north=true,south=true,variant=papa,west=true": { "model": "conquest:none" }
    }
}