{
    "variants": {
        "variant=alpha": { "model": "glass" },
        "variant=bravo": { "model": "conquest:glass2" },
        "variant=charlie": { "model": "conquest:glass2" },
        "variant=delta": { "model": "conquest:glass4" },
        "variant=echo": { "model": "conquest:glass4" },
        "variant=fox": { "model": "conquest:glass7" },
        "variant=golf": { "model": "conquest:glass7" },
        "variant=hotel": { "model": "conquest:glass12" },
        "variant=india": { "model": "conquest:glass_elongated_brown" },
        "variant=juliet": { "model": "conquest:glass_round_brown" },
        "variant=kilo": { "model": "conquest:glass12desert" },
        "variant=lima": { "model": "conquest:glass_round_yellow" },
        "variant=mike": { "model": "conquest:glass_elongated_yellow" },
        "variant=november": { "model": "conquest:glass12forest" },
        "variant=oscar": { "model": "conquest:glass_round_green" },
        "variant=papa": { "model": "conquest:glass_elongated_green" }
    }
}