{
    "variants": {
        "facing=south,variant=alpha": { "model": "conquest:farmland_dry", "y":90 },
        "facing=west,variant=alpha": { "model": "conquest:farmland_dry", "y": 180 },
        "facing=north,variant=alpha": { "model": "conquest:farmland_dry", "y": 270 },
        "facing=east,variant=alpha": { "model": "conquest:farmland_dry" },

        "facing=south,variant=bravo": { "model": "conquest:farmland_diagonal", "y": 90 },
        "facing=west,variant=bravo": { "model": "conquest:farmland_diagonal", "y": 180 },
        "facing=north,variant=bravo": { "model": "conquest:farmland_diagonal", "y": 270 },
        "facing=east,variant=bravo": { "model": "conquest:farmland_diagonal" },

        "facing=south,variant=charlie": { "model": "conquest:dragonegg7", "y": 180, "uvlock": true },
        "facing=west,variant=charlie": { "model": "conquest:dragonegg7", "y": 270, "uvlock": true },
        "facing=north,variant=charlie": { "model": "conquest:dragonegg7", "uvlock": true },
        "facing=east,variant=charlie": { "model": "conquest:dragonegg7", "y": 90, "uvlock": true },

        "facing=south,variant=delta": { "model": "conquest:none", "y": 90, "uvlock": true },
        "facing=west,variant=delta": { "model": "conquest:none", "y": 180, "uvlock": true },
        "facing=north,variant=delta": { "model": "conquest:none", "y": 270, "uvlock": true },
        "facing=east,variant=delta": { "model": "conquest:none", "uvlock": true }
    }
}