{
    "variants": {
        "half=bottom,variant=alpha": { "model": "conquest:half_clay_lightbrown" },
        "half=bottom,variant=bravo": { "model": "conquest:half_clay_brown" },
        "half=bottom,variant=charlie": { "model": "conquest:half_dirt_bones" },
        "half=bottom,variant=delta": { "model": "conquest:half_dirt_frozen" },
        "half=bottom,variant=echo": { "model": "conquest:half_dirt_gravelconquest" },
        "half=bottom,variant=fox": { "model": "conquest:half_dirt_mossy" },
        "half=bottom,variant=golf": { "model": "conquest:half_dirt_light" },
        "half=bottom,variant=hotel": { "model": "conquest:half_dirt_lightpath" },
        "half=top,variant=alpha": { "model": "conquest:upper_clay_lightbrown" },
        "half=top,variant=bravo": { "model": "conquest:upper_clay_brown" },
        "half=top,variant=charlie": { "model": "conquest:upper_dirt_bones" },
        "half=top,variant=delta": { "model": "conquest:upper_dirt_frozen" },
        "half=top,variant=echo": { "model": "conquest:upper_dirt_gravelconquest" },
        "half=top,variant=fox": { "model": "conquest:upper_dirt_mossy" },
        "half=top,variant=golf": { "model": "conquest:upper_dirt_light" },
        "half=top,variant=hotel": { "model": "conquest:upper_dirt_lightpath" }
    }
}