{
    "variants": {
        "facing=north,half=bottom,open=false": { "model": "conquest:iron_railing_straight", "y": 270, "x":180 },
        "facing=south,half=bottom,open=false": { "model": "conquest:iron_railing_straight", "y": 90, "x":180 },
        "facing=east,half=bottom,open=false": { "model": "conquest:iron_railing_straight", "x":180 },
        "facing=west,half=bottom,open=false": { "model": "conquest:iron_railing_straight", "y": 180, "x":180 },
        "facing=north,half=top,open=false": { "model": "conquest:iron_railing_straight", "y": 270, "x":180 },
        "facing=south,half=top,open=false": { "model": "conquest:iron_railing_straight", "y": 90, "x":180 },        
        "facing=east,half=top,open=false": { "model": "conquest:iron_railing_straight" , "x":180 },
        "facing=west,half=top,open=false": { "model": "conquest:iron_railing_straight", "y": 180, "x":180 },
        "facing=north,half=bottom,open=true": { "model": "conquest:iron_railing_straight", "y": 270 },
        "facing=south,half=bottom,open=true": { "model": "conquest:iron_railing_straight", "y": 90 },
        "facing=east,half=bottom,open=true": { "model": "conquest:iron_railing_straight" },
        "facing=west,half=bottom,open=true": { "model": "conquest:iron_railing_straight", "y": 180 },
        "facing=north,half=top,open=true": { "model": "conquest:iron_railing_straight", "y": 270 },
        "facing=south,half=top,open=true": { "model": "conquest:iron_railing_straight", "y": 90 },
        "facing=east,half=top,open=true": { "model": "conquest:iron_railing_straight" },
        "facing=west,half=top,open=true": { "model": "conquest:iron_railing_straight", "y": 180 }
    }
}
