{
    "variants": {
        "variant=alpha": { "model": "conquest:hanging_brazier" },
        "variant=bravo": { "model": "conquest:web11megataiga" },
        "variant=charlie": { "model": "conquest:beacon" },
        "variant=delta": { "model": "conquest:glowstone4" },
        "variant=echo": { "model": "conquest:lantern_candle" },
        "variant=fox": { "model": "conquest:hand_candle" },
        "variant=golf": { "model": "conquest:taper_candle" },
        "variant=hotel": { "model": "conquest:chandelier_lit" },
        "variant=india": { "model": "conquest:none" },
        "variant=juliet": { "model": "conquest:none" },
        "variant=kilo": { "model": "conquest:none" },
        "variant=lima": { "model": "conquest:none" },
        "variant=mike": { "model": "conquest:none" },
        "variant=november": { "model": "conquest:none" },
        "variant=oscar": { "model": "conquest:none" },
        "variant=papa": { "model": "conquest:none" }
    }
}