{
    "variants": {
        "facing=south,variant=alpha": { "model": "conquest:ironpressureplateextremehills", "y":90 },
        "facing=west,variant=alpha": { "model": "conquest:ironpressureplateextremehills", "y": 180 },
        "facing=north,variant=alpha": { "model": "conquest:ironpressureplateextremehills", "y": 270 },
        "facing=east,variant=alpha": { "model": "conquest:ironpressureplateextremehills" },

        "facing=south,variant=bravo": { "model": "conquest:ironpressureplateplains", "y": 90 },
        "facing=west,variant=bravo": { "model": "conquest:ironpressureplateplains", "y": 180 },
        "facing=north,variant=bravo": { "model": "conquest:ironpressureplateplains", "y": 270 },
        "facing=east,variant=bravo": { "model": "conquest:ironpressureplateplains" },

        "facing=south,variant=charlie": { "model": "conquest:none", "y": 90 },
        "facing=west,variant=charlie": { "model": "conquest:none", "y": 180 },
        "facing=north,variant=charlie": { "model": "conquest:none", "y": 270 },
        "facing=east,variant=charlie": { "model": "conquest:none" },

        "facing=south,variant=delta": { "model": "conquest:none", "y": 90 },
        "facing=west,variant=delta": { "model": "conquest:none", "y": 180 },
        "facing=north,variant=delta": { "model": "conquest:none", "y": 270 },
        "facing=east,variant=delta": { "model": "conquest:none" }
    }
}