{
    "variants": {
        "variant=alpha": { "model": "conquest:leaves_larchgreen" },
        "variant=bravo": { "model": "conquest:leaves_larchyellow" },
        "variant=charlie": { "model": "conquest:leaves_mallornbright" },
        "variant=delta": { "model": "conquest:leaves_mallornfaded" },
        "variant=echo": { "model": "conquest:leaves_mallorn" },
        "variant=fox": { "model": "conquest:leaves_cherryblossomspurple" },
        "variant=golf": { "model": "conquest:leaves_lilac" },
        "variant=hotel": { "model": "conquest:none" },
        "variant=india": { "model": "conquest:none" },
        "variant=juliet": { "model": "conquest:none" },
        "variant=kilo": { "model": "conquest:none" },
        "variant=lima": { "model": "conquest:none" },
        "variant=mike": { "model": "conquest:none" },
        "variant=november": { "model": "conquest:none" },
        "variant=oscar": { "model": "conquest:none" },
        "variant=papa": { "model": "conquest:none" }
    }
}