{
    "variants": {
        "variant=alpha": { "model": "conquest:plants_birdsfoottrefoil" },
        "variant=bravo": { "model": "conquest:plants_vacciniumvitisidaea" },
        "variant=charlie": { "model": "conquest:plants_flax" },
        "variant=delta": [
            { "model": "conquest:plants_greensedges_model1" },
            { "model": "conquest:plants_greensedges_model2" },
            { "model": "conquest:plants_greensedges_model3" }
        ],
        "variant=echo": [
            { "model": "conquest:plants_melampyrumpratensered_model1" },
            { "model": "conquest:plants_melampyrumpratensered_model2" },
            { "model": "conquest:plants_melampyrumpratensered_model3" }
        ],
        "variant=fox": [
            { "model": "conquest:plants_mountainbirch_model1" },
            { "model": "conquest:plants_mountainbirch_model2" },
            { "model": "conquest:plants_mountainbirch_model3" }
        ],
        "variant=golf": { "model": "conquest:plants_cirsiumheterophyllum" },
        "variant=hotel": { "model": "conquest:wildrice" },
        "variant=india": { "model": "conquest:plants_hartstongue" },
        "variant=juliet": { "model": "conquest:none" },
        "variant=kilo": { "model": "conquest:none" },
        "variant=lima": { "model": "conquest:none" },
        "variant=mike": { "model": "conquest:none" },
        "variant=november": { "model": "conquest:none" },
        "variant=oscar": { "model": "conquest:none" },
        "variant=papa": { "model": "conquest:none" }
    }
}