{
    "variants": {
        "east=false,north=false,south=false,up=false,variant=alpha,west=false": { "model": "conquest:rooftile_wavyred_wall_post" },
        "east=false,north=true,south=false,up=false,variant=alpha,west=false":  { "model": "conquest:rooftile_wavyred_wall_n" },
        "east=true,north=false,south=false,up=false,variant=alpha,west=false":  { "model": "conquest:rooftile_wavyred_wall_n", "y": 90, "uvlock": true },
        "east=false,north=false,south=true,up=false,variant=alpha,west=false":  { "model": "conquest:rooftile_wavyred_wall_n", "y": 180, "uvlock": true },
        "east=false,north=false,south=false,up=false,variant=alpha,west=true":  { "model": "conquest:rooftile_wavyred_wall_n", "y": 270, "uvlock": true },
        "east=true,north=true,south=false,up=false,variant=alpha,west=false":   { "model": "conquest:rooftile_wavyred_wall_ne" },
        "east=true,north=false,south=true,up=false,variant=alpha,west=false":   { "model": "conquest:rooftile_wavyred_wall_ne", "y": 90, "uvlock": true },
        "east=false,north=false,south=true,up=false,variant=alpha,west=true":   { "model": "conquest:rooftile_wavyred_wall_ne", "y": 180, "uvlock": true },
        "east=false,north=true,south=false,up=false,variant=alpha,west=true":   { "model": "conquest:rooftile_wavyred_wall_ne", "y": 270, "uvlock": true },
        "east=false,north=true,south=true,up=false,variant=alpha,west=false":   { "model": "conquest:rooftile_wavyred_wall_ns" },
        "east=true,north=false,south=false,up=false,variant=alpha,west=true":   { "model": "conquest:rooftile_wavyred_wall_ns", "y": 90, "uvlock": true },
        "east=true,north=true,south=true,up=false,variant=alpha,west=false":    { "model": "conquest:rooftile_wavyred_wall_nse" },
        "east=true,north=false,south=true,up=false,variant=alpha,west=true":    { "model": "conquest:rooftile_wavyred_wall_nse", "y": 90, "uvlock": true },
        "east=false,north=true,south=true,up=false,variant=alpha,west=true":    { "model": "conquest:rooftile_wavyred_wall_nse", "y": 180, "uvlock": true },
        "east=true,north=true,south=false,up=false,variant=alpha,west=true":    { "model": "conquest:rooftile_wavyred_wall_nse", "y": 270, "uvlock": true },
        "east=true,north=true,south=true,up=false,variant=alpha,west=true":     { "model": "conquest:rooftile_wavyred_wall_nsew" },
        "east=false,north=false,south=false,up=true,variant=alpha,west=false":  { "model": "conquest:rooftile_wavyred_wall_post" },
        "east=false,north=true,south=false,up=true,variant=alpha,west=false":   { "model": "conquest:rooftile_wavyred_wall_n" },
        "east=true,north=false,south=false,up=true,variant=alpha,west=false":   { "model": "conquest:rooftile_wavyred_wall_n", "y": 90, "uvlock": true },
        "east=false,north=false,south=true,up=true,variant=alpha,west=false":   { "model": "conquest:rooftile_wavyred_wall_n", "y": 180, "uvlock": true },
        "east=false,north=false,south=false,up=true,variant=alpha,west=true":   { "model": "conquest:rooftile_wavyred_wall_n", "y": 270, "uvlock": true },
        "east=true,north=true,south=false,up=true,variant=alpha,west=false":    { "model": "conquest:rooftile_wavyred_wall_ne" },
        "east=true,north=false,south=true,up=true,variant=alpha,west=false":    { "model": "conquest:rooftile_wavyred_wall_ne", "y": 90, "uvlock": true },
        "east=false,north=false,south=true,up=true,variant=alpha,west=true":    { "model": "conquest:rooftile_wavyred_wall_ne", "y": 180, "uvlock": true },
        "east=false,north=true,south=false,up=true,variant=alpha,west=true":    { "model": "conquest:rooftile_wavyred_wall_ne", "y": 270, "uvlock": true },
        "east=false,north=true,south=true,up=true,variant=alpha,west=false":    { "model": "conquest:rooftile_wavyred_wall_ns_above" },
        "east=true,north=false,south=false,up=true,variant=alpha,west=true":    { "model": "conquest:rooftile_wavyred_wall_ns_above", "y": 90, "uvlock": true },
        "east=true,north=true,south=true,up=true,variant=alpha,west=false":     { "model": "conquest:rooftile_wavyred_wall_nse" },
        "east=true,north=false,south=true,up=true,variant=alpha,west=true":     { "model": "conquest:rooftile_wavyred_wall_nse", "y": 90, "uvlock": true },
        "east=false,north=true,south=true,up=true,variant=alpha,west=true":     { "model": "conquest:rooftile_wavyred_wall_nse", "y": 180, "uvlock": true },
        "east=true,north=true,south=false,up=true,variant=alpha,west=true":     { "model": "conquest:rooftile_wavyred_wall_nse", "y": 270, "uvlock": true },
        "east=true,north=true,south=true,up=true,variant=alpha,west=true":      { "model": "conquest:rooftile_wavyred_wall_nsew" },


        "east=false,north=false,south=false,up=false,variant=bravo,west=false": { "model": "conquest:rooftile_wavygray_wall_post" },
        "east=false,north=true,south=false,up=false,variant=bravo,west=false":  { "model": "conquest:rooftile_wavygray_wall_n" },
        "east=true,north=false,south=false,up=false,variant=bravo,west=false":  { "model": "conquest:rooftile_wavygray_wall_n", "y": 90, "uvlock": true },
        "east=false,north=false,south=true,up=false,variant=bravo,west=false":  { "model": "conquest:rooftile_wavygray_wall_n", "y": 180, "uvlock": true },
        "east=false,north=false,south=false,up=false,variant=bravo,west=true":  { "model": "conquest:rooftile_wavygray_wall_n", "y": 270, "uvlock": true },
        "east=true,north=true,south=false,up=false,variant=bravo,west=false":   { "model": "conquest:rooftile_wavygray_wall_ne" },
        "east=true,north=false,south=true,up=false,variant=bravo,west=false":   { "model": "conquest:rooftile_wavygray_wall_ne", "y": 90, "uvlock": true },
        "east=false,north=false,south=true,up=false,variant=bravo,west=true":   { "model": "conquest:rooftile_wavygray_wall_ne", "y": 180, "uvlock": true },
        "east=false,north=true,south=false,up=false,variant=bravo,west=true":   { "model": "conquest:rooftile_wavygray_wall_ne", "y": 270, "uvlock": true },
        "east=false,north=true,south=true,up=false,variant=bravo,west=false":   { "model": "conquest:rooftile_wavygray_wall_ns" },
        "east=true,north=false,south=false,up=false,variant=bravo,west=true":   { "model": "conquest:rooftile_wavygray_wall_ns", "y": 90, "uvlock": true },
        "east=true,north=true,south=true,up=false,variant=bravo,west=false":    { "model": "conquest:rooftile_wavygray_wall_nse" },
        "east=true,north=false,south=true,up=false,variant=bravo,west=true":    { "model": "conquest:rooftile_wavygray_wall_nse", "y": 90, "uvlock": true },
        "east=false,north=true,south=true,up=false,variant=bravo,west=true":    { "model": "conquest:rooftile_wavygray_wall_nse", "y": 180, "uvlock": true },
        "east=true,north=true,south=false,up=false,variant=bravo,west=true":    { "model": "conquest:rooftile_wavygray_wall_nse", "y": 270, "uvlock": true },
        "east=true,north=true,south=true,up=false,variant=bravo,west=true":     { "model": "conquest:rooftile_wavygray_wall_nsew" },
        "east=false,north=false,south=false,up=true,variant=bravo,west=false":  { "model": "conquest:rooftile_wavygray_wall_post" },
        "east=false,north=true,south=false,up=true,variant=bravo,west=false":   { "model": "conquest:rooftile_wavygray_wall_n" },
        "east=true,north=false,south=false,up=true,variant=bravo,west=false":   { "model": "conquest:rooftile_wavygray_wall_n", "y": 90, "uvlock": true },
        "east=false,north=false,south=true,up=true,variant=bravo,west=false":   { "model": "conquest:rooftile_wavygray_wall_n", "y": 180, "uvlock": true },
        "east=false,north=false,south=false,up=true,variant=bravo,west=true":   { "model": "conquest:rooftile_wavygray_wall_n", "y": 270, "uvlock": true },
        "east=true,north=true,south=false,up=true,variant=bravo,west=false":    { "model": "conquest:rooftile_wavygray_wall_ne" },
        "east=true,north=false,south=true,up=true,variant=bravo,west=false":    { "model": "conquest:rooftile_wavygray_wall_ne", "y": 90, "uvlock": true },
        "east=false,north=false,south=true,up=true,variant=bravo,west=true":    { "model": "conquest:rooftile_wavygray_wall_ne", "y": 180, "uvlock": true },
        "east=false,north=true,south=false,up=true,variant=bravo,west=true":    { "model": "conquest:rooftile_wavygray_wall_ne", "y": 270, "uvlock": true },
        "east=false,north=true,south=true,up=true,variant=bravo,west=false":    { "model": "conquest:rooftile_wavygray_wall_ns_above" },
        "east=true,north=false,south=false,up=true,variant=bravo,west=true":    { "model": "conquest:rooftile_wavygray_wall_ns_above", "y": 90, "uvlock": true },
        "east=true,north=true,south=true,up=true,variant=bravo,west=false":     { "model": "conquest:rooftile_wavygray_wall_nse" },
        "east=true,north=false,south=true,up=true,variant=bravo,west=true":     { "model": "conquest:rooftile_wavygray_wall_nse", "y": 90, "uvlock": true },
        "east=false,north=true,south=true,up=true,variant=bravo,west=true":     { "model": "conquest:rooftile_wavygray_wall_nse", "y": 180, "uvlock": true },
        "east=true,north=true,south=false,up=true,variant=bravo,west=true":     { "model": "conquest:rooftile_wavygray_wall_nse", "y": 270, "uvlock": true },
        "east=true,north=true,south=true,up=true,variant=bravo,west=true":      { "model": "conquest:rooftile_wavygray_wall_nsew" },


        "east=false,north=false,south=false,up=false,variant=charlie,west=false": { "model": "conquest:pillar_marblesmooth_capital_wall_post" },
        "east=false,north=true,south=false,up=false,variant=charlie,west=false":  { "model": "conquest:pillar_marblesmooth_capital_wall_n" },
        "east=true,north=false,south=false,up=false,variant=charlie,west=false":  { "model": "conquest:pillar_marblesmooth_capital_wall_n", "y": 90, "uvlock": true },
        "east=false,north=false,south=true,up=false,variant=charlie,west=false":  { "model": "conquest:pillar_marblesmooth_capital_wall_n", "y": 180, "uvlock": true },
        "east=false,north=false,south=false,up=false,variant=charlie,west=true":  { "model": "conquest:pillar_marblesmooth_capital_wall_n", "y": 270, "uvlock": true },
        "east=true,north=true,south=false,up=false,variant=charlie,west=false":   { "model": "conquest:pillar_marblesmooth_capital_wall_ne" },
        "east=true,north=false,south=true,up=false,variant=charlie,west=false":   { "model": "conquest:pillar_marblesmooth_capital_wall_ne", "y": 90, "uvlock": true },
        "east=false,north=false,south=true,up=false,variant=charlie,west=true":   { "model": "conquest:pillar_marblesmooth_capital_wall_ne", "y": 180, "uvlock": true },
        "east=false,north=true,south=false,up=false,variant=charlie,west=true":   { "model": "conquest:pillar_marblesmooth_capital_wall_ne", "y": 270, "uvlock": true },
        "east=false,north=true,south=true,up=false,variant=charlie,west=false":   { "model": "conquest:pillar_marblesmooth_capital_wall_ns" },
        "east=true,north=false,south=false,up=false,variant=charlie,west=true":   { "model": "conquest:pillar_marblesmooth_capital_wall_ns", "y": 90, "uvlock": true },
        "east=true,north=true,south=true,up=false,variant=charlie,west=false":    { "model": "conquest:pillar_marblesmooth_capital_wall_nse" },
        "east=true,north=false,south=true,up=false,variant=charlie,west=true":    { "model": "conquest:pillar_marblesmooth_capital_wall_nse", "y": 90, "uvlock": true },
        "east=false,north=true,south=true,up=false,variant=charlie,west=true":    { "model": "conquest:pillar_marblesmooth_capital_wall_nse", "y": 180, "uvlock": true },
        "east=true,north=true,south=false,up=false,variant=charlie,west=true":    { "model": "conquest:pillar_marblesmooth_capital_wall_nse", "y": 270, "uvlock": true },
        "east=true,north=true,south=true,up=false,variant=charlie,west=true":     { "model": "conquest:pillar_marblesmooth_capital_wall_nsew" },
        "east=false,north=false,south=false,up=true,variant=charlie,west=false":  { "model": "conquest:pillar_marblesmooth_capital_wall_post" },
        "east=false,north=true,south=false,up=true,variant=charlie,west=false":   { "model": "conquest:pillar_marblesmooth_capital_wall_n" },
        "east=true,north=false,south=false,up=true,variant=charlie,west=false":   { "model": "conquest:pillar_marblesmooth_capital_wall_n", "y": 90, "uvlock": true },
        "east=false,north=false,south=true,up=true,variant=charlie,west=false":   { "model": "conquest:pillar_marblesmooth_capital_wall_n", "y": 180, "uvlock": true },
        "east=false,north=false,south=false,up=true,variant=charlie,west=true":   { "model": "conquest:pillar_marblesmooth_capital_wall_n", "y": 270, "uvlock": true },
        "east=true,north=true,south=false,up=true,variant=charlie,west=false":    { "model": "conquest:pillar_marblesmooth_capital_wall_ne" },
        "east=true,north=false,south=true,up=true,variant=charlie,west=false":    { "model": "conquest:pillar_marblesmooth_capital_wall_ne", "y": 90, "uvlock": true },
        "east=false,north=false,south=true,up=true,variant=charlie,west=true":    { "model": "conquest:pillar_marblesmooth_capital_wall_ne", "y": 180, "uvlock": true },
        "east=false,north=true,south=false,up=true,variant=charlie,west=true":    { "model": "conquest:pillar_marblesmooth_capital_wall_ne", "y": 270, "uvlock": true },
        "east=false,north=true,south=true,up=true,variant=charlie,west=false":    { "model": "conquest:pillar_marblesmooth_capital_wall_ns" },
        "east=true,north=false,south=false,up=true,variant=charlie,west=true":    { "model": "conquest:pillar_marblesmooth_capital_wall_ns", "y": 90, "uvlock": true },
        "east=true,north=true,south=true,up=true,variant=charlie,west=false":     { "model": "conquest:pillar_marblesmooth_capital_wall_nse" },
        "east=true,north=false,south=true,up=true,variant=charlie,west=true":     { "model": "conquest:pillar_marblesmooth_capital_wall_nse", "y": 90, "uvlock": true },
        "east=false,north=true,south=true,up=true,variant=charlie,west=true":     { "model": "conquest:pillar_marblesmooth_capital_wall_nse", "y": 180, "uvlock": true },
        "east=true,north=true,south=false,up=true,variant=charlie,west=true":     { "model": "conquest:pillar_marblesmooth_capital_wall_nse", "y": 270, "uvlock": true },
        "east=true,north=true,south=true,up=true,variant=charlie,west=true":      { "model": "conquest:pillar_marblesmooth_capital_wall_nsew" },


        "east=false,north=false,south=false,up=false,variant=delta,west=false": { "model": "conquest:rooftile_reddishbrownmossy_wall_post" },
        "east=false,north=true,south=false,up=false,variant=delta,west=false":  { "model": "conquest:rooftile_reddishbrownmossy_wall_n" },
        "east=true,north=false,south=false,up=false,variant=delta,west=false":  { "model": "conquest:rooftile_reddishbrownmossy_wall_n", "y": 90, "uvlock": true },
        "east=false,north=false,south=true,up=false,variant=delta,west=false":  { "model": "conquest:rooftile_reddishbrownmossy_wall_n", "y": 180, "uvlock": true },
        "east=false,north=false,south=false,up=false,variant=delta,west=true":  { "model": "conquest:rooftile_reddishbrownmossy_wall_n", "y": 270, "uvlock": true },
        "east=true,north=true,south=false,up=false,variant=delta,west=false":   { "model": "conquest:rooftile_reddishbrownmossy_wall_ne" },
        "east=true,north=false,south=true,up=false,variant=delta,west=false":   { "model": "conquest:rooftile_reddishbrownmossy_wall_ne", "y": 90, "uvlock": true },
        "east=false,north=false,south=true,up=false,variant=delta,west=true":   { "model": "conquest:rooftile_reddishbrownmossy_wall_ne", "y": 180, "uvlock": true },
        "east=false,north=true,south=false,up=false,variant=delta,west=true":   { "model": "conquest:rooftile_reddishbrownmossy_wall_ne", "y": 270, "uvlock": true },
        "east=false,north=true,south=true,up=false,variant=delta,west=false":   { "model": "conquest:rooftile_reddishbrownmossy_wall_ns" },
        "east=true,north=false,south=false,up=false,variant=delta,west=true":   { "model": "conquest:rooftile_reddishbrownmossy_wall_ns", "y": 90, "uvlock": true },
        "east=true,north=true,south=true,up=false,variant=delta,west=false":    { "model": "conquest:rooftile_reddishbrownmossy_wall_nse" },
        "east=true,north=false,south=true,up=false,variant=delta,west=true":    { "model": "conquest:rooftile_reddishbrownmossy_wall_nse", "y": 90, "uvlock": true },
        "east=false,north=true,south=true,up=false,variant=delta,west=true":    { "model": "conquest:rooftile_reddishbrownmossy_wall_nse", "y": 180, "uvlock": true },
        "east=true,north=true,south=false,up=false,variant=delta,west=true":    { "model": "conquest:rooftile_reddishbrownmossy_wall_nse", "y": 270, "uvlock": true },
        "east=true,north=true,south=true,up=false,variant=delta,west=true":     { "model": "conquest:rooftile_reddishbrownmossy_wall_nsew" },
        "east=false,north=false,south=false,up=true,variant=delta,west=false":  { "model": "conquest:rooftile_reddishbrownmossy_wall_post" },
        "east=false,north=true,south=false,up=true,variant=delta,west=false":   { "model": "conquest:rooftile_reddishbrownmossy_wall_n" },
        "east=true,north=false,south=false,up=true,variant=delta,west=false":   { "model": "conquest:rooftile_reddishbrownmossy_wall_n", "y": 90, "uvlock": true },
        "east=false,north=false,south=true,up=true,variant=delta,west=false":   { "model": "conquest:rooftile_reddishbrownmossy_wall_n", "y": 180, "uvlock": true },
        "east=false,north=false,south=false,up=true,variant=delta,west=true":   { "model": "conquest:rooftile_reddishbrownmossy_wall_n", "y": 270, "uvlock": true },
        "east=true,north=true,south=false,up=true,variant=delta,west=false":    { "model": "conquest:rooftile_reddishbrownmossy_wall_ne" },
        "east=true,north=false,south=true,up=true,variant=delta,west=false":    { "model": "conquest:rooftile_reddishbrownmossy_wall_ne", "y": 90, "uvlock": true },
        "east=false,north=false,south=true,up=true,variant=delta,west=true":    { "model": "conquest:rooftile_reddishbrownmossy_wall_ne", "y": 180, "uvlock": true },
        "east=false,north=true,south=false,up=true,variant=delta,west=true":    { "model": "conquest:rooftile_reddishbrownmossy_wall_ne", "y": 270, "uvlock": true },
        "east=false,north=true,south=true,up=true,variant=delta,west=false":    { "model": "conquest:rooftile_reddishbrownmossy_wall_ns_above" },
        "east=true,north=false,south=false,up=true,variant=delta,west=true":    { "model": "conquest:rooftile_reddishbrownmossy_wall_ns_above", "y": 90, "uvlock": true },
        "east=true,north=true,south=true,up=true,variant=delta,west=false":     { "model": "conquest:rooftile_reddishbrownmossy_wall_nse" },
        "east=true,north=false,south=true,up=true,variant=delta,west=true":     { "model": "conquest:rooftile_reddishbrownmossy_wall_nse", "y": 90, "uvlock": true },
        "east=false,north=true,south=true,up=true,variant=delta,west=true":     { "model": "conquest:rooftile_reddishbrownmossy_wall_nse", "y": 180, "uvlock": true },
        "east=true,north=true,south=false,up=true,variant=delta,west=true":     { "model": "conquest:rooftile_reddishbrownmossy_wall_nse", "y": 270, "uvlock": true },
        "east=true,north=true,south=true,up=true,variant=delta,west=true":      { "model": "conquest:rooftile_reddishbrownmossy_wall_nsew" },


        "east=false,north=false,south=false,up=false,variant=echo,west=false": { "model": "conquest:rooftile_wavygold_wall_post" },
        "east=false,north=true,south=false,up=false,variant=echo,west=false":  { "model": "conquest:rooftile_wavygold_wall_n" },
        "east=true,north=false,south=false,up=false,variant=echo,west=false":  { "model": "conquest:rooftile_wavygold_wall_n", "y": 90, "uvlock": true },
        "east=false,north=false,south=true,up=false,variant=echo,west=false":  { "model": "conquest:rooftile_wavygold_wall_n", "y": 180, "uvlock": true },
        "east=false,north=false,south=false,up=false,variant=echo,west=true":  { "model": "conquest:rooftile_wavygold_wall_n", "y": 270, "uvlock": true },
        "east=true,north=true,south=false,up=false,variant=echo,west=false":   { "model": "conquest:rooftile_wavygold_wall_ne" },
        "east=true,north=false,south=true,up=false,variant=echo,west=false":   { "model": "conquest:rooftile_wavygold_wall_ne", "y": 90, "uvlock": true },
        "east=false,north=false,south=true,up=false,variant=echo,west=true":   { "model": "conquest:rooftile_wavygold_wall_ne", "y": 180, "uvlock": true },
        "east=false,north=true,south=false,up=false,variant=echo,west=true":   { "model": "conquest:rooftile_wavygold_wall_ne", "y": 270, "uvlock": true },
        "east=false,north=true,south=true,up=false,variant=echo,west=false":   { "model": "conquest:rooftile_wavygold_wall_ns" },
        "east=true,north=false,south=false,up=false,variant=echo,west=true":   { "model": "conquest:rooftile_wavygold_wall_ns", "y": 90, "uvlock": true },
        "east=true,north=true,south=true,up=false,variant=echo,west=false":    { "model": "conquest:rooftile_wavygold_wall_nse" },
        "east=true,north=false,south=true,up=false,variant=echo,west=true":    { "model": "conquest:rooftile_wavygold_wall_nse", "y": 90, "uvlock": true },
        "east=false,north=true,south=true,up=false,variant=echo,west=true":    { "model": "conquest:rooftile_wavygold_wall_nse", "y": 180, "uvlock": true },
        "east=true,north=true,south=false,up=false,variant=echo,west=true":    { "model": "conquest:rooftile_wavygold_wall_nse", "y": 270, "uvlock": true },
        "east=true,north=true,south=true,up=false,variant=echo,west=true":     { "model": "conquest:rooftile_wavygold_wall_nsew" },
        "east=false,north=false,south=false,up=true,variant=echo,west=false":  { "model": "conquest:rooftile_wavygold_wall_post" },
        "east=false,north=true,south=false,up=true,variant=echo,west=false":   { "model": "conquest:rooftile_wavygold_wall_n" },
        "east=true,north=false,south=false,up=true,variant=echo,west=false":   { "model": "conquest:rooftile_wavygold_wall_n", "y": 90, "uvlock": true },
        "east=false,north=false,south=true,up=true,variant=echo,west=false":   { "model": "conquest:rooftile_wavygold_wall_n", "y": 180, "uvlock": true },
        "east=false,north=false,south=false,up=true,variant=echo,west=true":   { "model": "conquest:rooftile_wavygold_wall_n", "y": 270, "uvlock": true },
        "east=true,north=true,south=false,up=true,variant=echo,west=false":    { "model": "conquest:rooftile_wavygold_wall_ne" },
        "east=true,north=false,south=true,up=true,variant=echo,west=false":    { "model": "conquest:rooftile_wavygold_wall_ne", "y": 90, "uvlock": true },
        "east=false,north=false,south=true,up=true,variant=echo,west=true":    { "model": "conquest:rooftile_wavygold_wall_ne", "y": 180, "uvlock": true },
        "east=false,north=true,south=false,up=true,variant=echo,west=true":    { "model": "conquest:rooftile_wavygold_wall_ne", "y": 270, "uvlock": true },
        "east=false,north=true,south=true,up=true,variant=echo,west=false":    { "model": "conquest:rooftile_wavygold_wall_ns_above" },
        "east=true,north=false,south=false,up=true,variant=echo,west=true":    { "model": "conquest:rooftile_wavygold_wall_ns_above", "y": 90, "uvlock": true },
        "east=true,north=true,south=true,up=true,variant=echo,west=false":     { "model": "conquest:rooftile_wavygold_wall_nse" },
        "east=true,north=false,south=true,up=true,variant=echo,west=true":     { "model": "conquest:rooftile_wavygold_wall_nse", "y": 90, "uvlock": true },
        "east=false,north=true,south=true,up=true,variant=echo,west=true":     { "model": "conquest:rooftile_wavygold_wall_nse", "y": 180, "uvlock": true },
        "east=true,north=true,south=false,up=true,variant=echo,west=true":     { "model": "conquest:rooftile_wavygold_wall_nse", "y": 270, "uvlock": true },
        "east=true,north=true,south=true,up=true,variant=echo,west=true":      { "model": "conquest:rooftile_wavygold_wall_nsew" },


        "east=false,north=false,south=false,up=false,variant=fox,west=false": { "model": "conquest:rooftile_wavylightgray_wall_post" },
        "east=false,north=true,south=false,up=false,variant=fox,west=false":  { "model": "conquest:rooftile_wavylightgray_wall_n" },
        "east=true,north=false,south=false,up=false,variant=fox,west=false":  { "model": "conquest:rooftile_wavylightgray_wall_n", "y": 90, "uvlock": true },
        "east=false,north=false,south=true,up=false,variant=fox,west=false":  { "model": "conquest:rooftile_wavylightgray_wall_n", "y": 180, "uvlock": true },
        "east=false,north=false,south=false,up=false,variant=fox,west=true":  { "model": "conquest:rooftile_wavylightgray_wall_n", "y": 270, "uvlock": true },
        "east=true,north=true,south=false,up=false,variant=fox,west=false":   { "model": "conquest:rooftile_wavylightgray_wall_ne" },
        "east=true,north=false,south=true,up=false,variant=fox,west=false":   { "model": "conquest:rooftile_wavylightgray_wall_ne", "y": 90, "uvlock": true },
        "east=false,north=false,south=true,up=false,variant=fox,west=true":   { "model": "conquest:rooftile_wavylightgray_wall_ne", "y": 180, "uvlock": true },
        "east=false,north=true,south=false,up=false,variant=fox,west=true":   { "model": "conquest:rooftile_wavylightgray_wall_ne", "y": 270, "uvlock": true },
        "east=false,north=true,south=true,up=false,variant=fox,west=false":   { "model": "conquest:rooftile_wavylightgray_wall_ns" },
        "east=true,north=false,south=false,up=false,variant=fox,west=true":   { "model": "conquest:rooftile_wavylightgray_wall_ns", "y": 90, "uvlock": true },
        "east=true,north=true,south=true,up=false,variant=fox,west=false":    { "model": "conquest:rooftile_wavylightgray_wall_nse" },
        "east=true,north=false,south=true,up=false,variant=fox,west=true":    { "model": "conquest:rooftile_wavylightgray_wall_nse", "y": 90, "uvlock": true },
        "east=false,north=true,south=true,up=false,variant=fox,west=true":    { "model": "conquest:rooftile_wavylightgray_wall_nse", "y": 180, "uvlock": true },
        "east=true,north=true,south=false,up=false,variant=fox,west=true":    { "model": "conquest:rooftile_wavylightgray_wall_nse", "y": 270, "uvlock": true },
        "east=true,north=true,south=true,up=false,variant=fox,west=true":     { "model": "conquest:rooftile_wavylightgray_wall_nsew" },
        "east=false,north=false,south=false,up=true,variant=fox,west=false":  { "model": "conquest:rooftile_wavylightgray_wall_post" },
        "east=false,north=true,south=false,up=true,variant=fox,west=false":   { "model": "conquest:rooftile_wavylightgray_wall_n" },
        "east=true,north=false,south=false,up=true,variant=fox,west=false":   { "model": "conquest:rooftile_wavylightgray_wall_n", "y": 90, "uvlock": true },
        "east=false,north=false,south=true,up=true,variant=fox,west=false":   { "model": "conquest:rooftile_wavylightgray_wall_n", "y": 180, "uvlock": true },
        "east=false,north=false,south=false,up=true,variant=fox,west=true":   { "model": "conquest:rooftile_wavylightgray_wall_n", "y": 270, "uvlock": true },
        "east=true,north=true,south=false,up=true,variant=fox,west=false":    { "model": "conquest:rooftile_wavylightgray_wall_ne" },
        "east=true,north=false,south=true,up=true,variant=fox,west=false":    { "model": "conquest:rooftile_wavylightgray_wall_ne", "y": 90, "uvlock": true },
        "east=false,north=false,south=true,up=true,variant=fox,west=true":    { "model": "conquest:rooftile_wavylightgray_wall_ne", "y": 180, "uvlock": true },
        "east=false,north=true,south=false,up=true,variant=fox,west=true":    { "model": "conquest:rooftile_wavylightgray_wall_ne", "y": 270, "uvlock": true },
        "east=false,north=true,south=true,up=true,variant=fox,west=false":    { "model": "conquest:rooftile_wavylightgray_wall_ns_above" },
        "east=true,north=false,south=false,up=true,variant=fox,west=true":    { "model": "conquest:rooftile_wavylightgray_wall_ns_above", "y": 90, "uvlock": true },
        "east=true,north=true,south=true,up=true,variant=fox,west=false":     { "model": "conquest:rooftile_wavylightgray_wall_nse" },
        "east=true,north=false,south=true,up=true,variant=fox,west=true":     { "model": "conquest:rooftile_wavylightgray_wall_nse", "y": 90, "uvlock": true },
        "east=false,north=true,south=true,up=true,variant=fox,west=true":     { "model": "conquest:rooftile_wavylightgray_wall_nse", "y": 180, "uvlock": true },
        "east=true,north=true,south=false,up=true,variant=fox,west=true":     { "model": "conquest:rooftile_wavylightgray_wall_nse", "y": 270, "uvlock": true },
        "east=true,north=true,south=true,up=true,variant=fox,west=true":      { "model": "conquest:rooftile_wavylightgray_wall_nsew" },


        "east=false,north=false,south=false,up=false,variant=golf,west=false": { "model": "conquest:plaster_peach_wall_post" },
        "east=false,north=true,south=false,up=false,variant=golf,west=false":  { "model": "conquest:plaster_peach_wall_n" },
        "east=true,north=false,south=false,up=false,variant=golf,west=false":  { "model": "conquest:plaster_peach_wall_n", "y": 90, "uvlock": true },
        "east=false,north=false,south=true,up=false,variant=golf,west=false":  { "model": "conquest:plaster_peach_wall_n", "y": 180, "uvlock": true },
        "east=false,north=false,south=false,up=false,variant=golf,west=true":  { "model": "conquest:plaster_peach_wall_n", "y": 270, "uvlock": true },
        "east=true,north=true,south=false,up=false,variant=golf,west=false":   { "model": "conquest:plaster_peach_wall_ne" },
        "east=true,north=false,south=true,up=false,variant=golf,west=false":   { "model": "conquest:plaster_peach_wall_ne", "y": 90, "uvlock": true },
        "east=false,north=false,south=true,up=false,variant=golf,west=true":   { "model": "conquest:plaster_peach_wall_ne", "y": 180, "uvlock": true },
        "east=false,north=true,south=false,up=false,variant=golf,west=true":   { "model": "conquest:plaster_peach_wall_ne", "y": 270, "uvlock": true },
        "east=false,north=true,south=true,up=false,variant=golf,west=false":   { "model": "conquest:plaster_peach_wall_ns" },
        "east=true,north=false,south=false,up=false,variant=golf,west=true":   { "model": "conquest:plaster_peach_wall_ns", "y": 90, "uvlock": true },
        "east=true,north=true,south=true,up=false,variant=golf,west=false":    { "model": "conquest:plaster_peach_wall_nse" },
        "east=true,north=false,south=true,up=false,variant=golf,west=true":    { "model": "conquest:plaster_peach_wall_nse", "y": 90, "uvlock": true },
        "east=false,north=true,south=true,up=false,variant=golf,west=true":    { "model": "conquest:plaster_peach_wall_nse", "y": 180, "uvlock": true },
        "east=true,north=true,south=false,up=false,variant=golf,west=true":    { "model": "conquest:plaster_peach_wall_nse", "y": 270, "uvlock": true },
        "east=true,north=true,south=true,up=false,variant=golf,west=true":     { "model": "conquest:plaster_peach_wall_nsew" },
        "east=false,north=false,south=false,up=true,variant=golf,west=false":  { "model": "conquest:plaster_peach_wall_post" },
        "east=false,north=true,south=false,up=true,variant=golf,west=false":   { "model": "conquest:plaster_peach_wall_n" },
        "east=true,north=false,south=false,up=true,variant=golf,west=false":   { "model": "conquest:plaster_peach_wall_n", "y": 90, "uvlock": true },
        "east=false,north=false,south=true,up=true,variant=golf,west=false":   { "model": "conquest:plaster_peach_wall_n", "y": 180, "uvlock": true },
        "east=false,north=false,south=false,up=true,variant=golf,west=true":   { "model": "conquest:plaster_peach_wall_n", "y": 270, "uvlock": true },
        "east=true,north=true,south=false,up=true,variant=golf,west=false":    { "model": "conquest:plaster_peach_wall_ne" },
        "east=true,north=false,south=true,up=true,variant=golf,west=false":    { "model": "conquest:plaster_peach_wall_ne", "y": 90, "uvlock": true },
        "east=false,north=false,south=true,up=true,variant=golf,west=true":    { "model": "conquest:plaster_peach_wall_ne", "y": 180, "uvlock": true },
        "east=false,north=true,south=false,up=true,variant=golf,west=true":    { "model": "conquest:plaster_peach_wall_ne", "y": 270, "uvlock": true },
        "east=false,north=true,south=true,up=true,variant=golf,west=false":    { "model": "conquest:plaster_peach_wall_ns_above" },
        "east=true,north=false,south=false,up=true,variant=golf,west=true":    { "model": "conquest:plaster_peach_wall_ns_above", "y": 90, "uvlock": true },
        "east=true,north=true,south=true,up=true,variant=golf,west=false":     { "model": "conquest:plaster_peach_wall_nse" },
        "east=true,north=false,south=true,up=true,variant=golf,west=true":     { "model": "conquest:plaster_peach_wall_nse", "y": 90, "uvlock": true },
        "east=false,north=true,south=true,up=true,variant=golf,west=true":     { "model": "conquest:plaster_peach_wall_nse", "y": 180, "uvlock": true },
        "east=true,north=true,south=false,up=true,variant=golf,west=true":     { "model": "conquest:plaster_peach_wall_nse", "y": 270, "uvlock": true },
        "east=true,north=true,south=true,up=true,variant=golf,west=true":      { "model": "conquest:plaster_peach_wall_nsew" },


        "east=false,north=false,south=false,up=false,variant=hotel,west=false": { "model": "conquest:pillar_elven_wall_post" },
        "east=false,north=true,south=false,up=false,variant=hotel,west=false":  { "model": "conquest:pillar_elven_wall_n" },
        "east=true,north=false,south=false,up=false,variant=hotel,west=false":  { "model": "conquest:pillar_elven_wall_n", "y": 90, "uvlock": true },
        "east=false,north=false,south=true,up=false,variant=hotel,west=false":  { "model": "conquest:pillar_elven_wall_n", "y": 180, "uvlock": true },
        "east=false,north=false,south=false,up=false,variant=hotel,west=true":  { "model": "conquest:pillar_elven_wall_n", "y": 270, "uvlock": true },
        "east=true,north=true,south=false,up=false,variant=hotel,west=false":   { "model": "conquest:pillar_elven_wall_ne" },
        "east=true,north=false,south=true,up=false,variant=hotel,west=false":   { "model": "conquest:pillar_elven_wall_ne", "y": 90, "uvlock": true },
        "east=false,north=false,south=true,up=false,variant=hotel,west=true":   { "model": "conquest:pillar_elven_wall_ne", "y": 180, "uvlock": true },
        "east=false,north=true,south=false,up=false,variant=hotel,west=true":   { "model": "conquest:pillar_elven_wall_ne", "y": 270, "uvlock": true },
        "east=false,north=true,south=true,up=false,variant=hotel,west=false":   { "model": "conquest:pillar_elven_wall_ns" },
        "east=true,north=false,south=false,up=false,variant=hotel,west=true":   { "model": "conquest:pillar_elven_wall_ns", "y": 90, "uvlock": true },
        "east=true,north=true,south=true,up=false,variant=hotel,west=false":    { "model": "conquest:pillar_elven_wall_nse" },
        "east=true,north=false,south=true,up=false,variant=hotel,west=true":    { "model": "conquest:pillar_elven_wall_nse", "y": 90, "uvlock": true },
        "east=false,north=true,south=true,up=false,variant=hotel,west=true":    { "model": "conquest:pillar_elven_wall_nse", "y": 180, "uvlock": true },
        "east=true,north=true,south=false,up=false,variant=hotel,west=true":    { "model": "conquest:pillar_elven_wall_nse", "y": 270, "uvlock": true },
        "east=true,north=true,south=true,up=false,variant=hotel,west=true":     { "model": "conquest:pillar_elven_wall_nsew" },
        "east=false,north=false,south=false,up=true,variant=hotel,west=false":  { "model": "conquest:pillar_elven_wall_post" },
        "east=false,north=true,south=false,up=true,variant=hotel,west=false":   { "model": "conquest:pillar_elven_wall_n" },
        "east=true,north=false,south=false,up=true,variant=hotel,west=false":   { "model": "conquest:pillar_elven_wall_n", "y": 90, "uvlock": true },
        "east=false,north=false,south=true,up=true,variant=hotel,west=false":   { "model": "conquest:pillar_elven_wall_n", "y": 180, "uvlock": true },
        "east=false,north=false,south=false,up=true,variant=hotel,west=true":   { "model": "conquest:pillar_elven_wall_n", "y": 270, "uvlock": true },
        "east=true,north=true,south=false,up=true,variant=hotel,west=false":    { "model": "conquest:pillar_elven_wall_ne" },
        "east=true,north=false,south=true,up=true,variant=hotel,west=false":    { "model": "conquest:pillar_elven_wall_ne", "y": 90, "uvlock": true },
        "east=false,north=false,south=true,up=true,variant=hotel,west=true":    { "model": "conquest:pillar_elven_wall_ne", "y": 180, "uvlock": true },
        "east=false,north=true,south=false,up=true,variant=hotel,west=true":    { "model": "conquest:pillar_elven_wall_ne", "y": 270, "uvlock": true },
        "east=false,north=true,south=true,up=true,variant=hotel,west=false":    { "model": "conquest:pillar_elven_wall_ns_above" },
        "east=true,north=false,south=false,up=true,variant=hotel,west=true":    { "model": "conquest:pillar_elven_wall_ns_above", "y": 90, "uvlock": true },
        "east=true,north=true,south=true,up=true,variant=hotel,west=false":     { "model": "conquest:pillar_elven_wall_nse" },
        "east=true,north=false,south=true,up=true,variant=hotel,west=true":     { "model": "conquest:pillar_elven_wall_nse", "y": 90, "uvlock": true },
        "east=false,north=true,south=true,up=true,variant=hotel,west=true":     { "model": "conquest:pillar_elven_wall_nse", "y": 180, "uvlock": true },
        "east=true,north=true,south=false,up=true,variant=hotel,west=true":     { "model": "conquest:pillar_elven_wall_nse", "y": 270, "uvlock": true },
        "east=true,north=true,south=true,up=true,variant=hotel,west=true":      { "model": "conquest:pillar_elven_wall_nsew" },


        "east=false,north=false,south=false,up=false,variant=india,west=false": { "model": "conquest:brick_orangered_wall_post" },
        "east=false,north=true,south=false,up=false,variant=india,west=false":  { "model": "conquest:brick_orangered_wall_n" },
        "east=true,north=false,south=false,up=false,variant=india,west=false":  { "model": "conquest:brick_orangered_wall_n", "y": 90, "uvlock": true },
        "east=false,north=false,south=true,up=false,variant=india,west=false":  { "model": "conquest:brick_orangered_wall_n", "y": 180, "uvlock": true },
        "east=false,north=false,south=false,up=false,variant=india,west=true":  { "model": "conquest:brick_orangered_wall_n", "y": 270, "uvlock": true },
        "east=true,north=true,south=false,up=false,variant=india,west=false":   { "model": "conquest:brick_orangered_wall_ne" },
        "east=true,north=false,south=true,up=false,variant=india,west=false":   { "model": "conquest:brick_orangered_wall_ne", "y": 90, "uvlock": true },
        "east=false,north=false,south=true,up=false,variant=india,west=true":   { "model": "conquest:brick_orangered_wall_ne", "y": 180, "uvlock": true },
        "east=false,north=true,south=false,up=false,variant=india,west=true":   { "model": "conquest:brick_orangered_wall_ne", "y": 270, "uvlock": true },
        "east=false,north=true,south=true,up=false,variant=india,west=false":   { "model": "conquest:brick_orangered_wall_ns" },
        "east=true,north=false,south=false,up=false,variant=india,west=true":   { "model": "conquest:brick_orangered_wall_ns", "y": 90, "uvlock": true },
        "east=true,north=true,south=true,up=false,variant=india,west=false":    { "model": "conquest:brick_orangered_wall_nse" },
        "east=true,north=false,south=true,up=false,variant=india,west=true":    { "model": "conquest:brick_orangered_wall_nse", "y": 90, "uvlock": true },
        "east=false,north=true,south=true,up=false,variant=india,west=true":    { "model": "conquest:brick_orangered_wall_nse", "y": 180, "uvlock": true },
        "east=true,north=true,south=false,up=false,variant=india,west=true":    { "model": "conquest:brick_orangered_wall_nse", "y": 270, "uvlock": true },
        "east=true,north=true,south=true,up=false,variant=india,west=true":     { "model": "conquest:brick_orangered_wall_nsew" },
        "east=false,north=false,south=false,up=true,variant=india,west=false":  { "model": "conquest:brick_orangered_wall_post" },
        "east=false,north=true,south=false,up=true,variant=india,west=false":   { "model": "conquest:brick_orangered_wall_n" },
        "east=true,north=false,south=false,up=true,variant=india,west=false":   { "model": "conquest:brick_orangered_wall_n", "y": 90, "uvlock": true },
        "east=false,north=false,south=true,up=true,variant=india,west=false":   { "model": "conquest:brick_orangered_wall_n", "y": 180, "uvlock": true },
        "east=false,north=false,south=false,up=true,variant=india,west=true":   { "model": "conquest:brick_orangered_wall_n", "y": 270, "uvlock": true },
        "east=true,north=true,south=false,up=true,variant=india,west=false":    { "model": "conquest:brick_orangered_wall_ne" },
        "east=true,north=false,south=true,up=true,variant=india,west=false":    { "model": "conquest:brick_orangered_wall_ne", "y": 90, "uvlock": true },
        "east=false,north=false,south=true,up=true,variant=india,west=true":    { "model": "conquest:brick_orangered_wall_ne", "y": 180, "uvlock": true },
        "east=false,north=true,south=false,up=true,variant=india,west=true":    { "model": "conquest:brick_orangered_wall_ne", "y": 270, "uvlock": true },
        "east=false,north=true,south=true,up=true,variant=india,west=false":    { "model": "conquest:brick_orangered_wall_ns_above" },
        "east=true,north=false,south=false,up=true,variant=india,west=true":    { "model": "conquest:brick_orangered_wall_ns_above", "y": 90, "uvlock": true },
        "east=true,north=true,south=true,up=true,variant=india,west=false":     { "model": "conquest:brick_orangered_wall_nse" },
        "east=true,north=false,south=true,up=true,variant=india,west=true":     { "model": "conquest:brick_orangered_wall_nse", "y": 90, "uvlock": true },
        "east=false,north=true,south=true,up=true,variant=india,west=true":     { "model": "conquest:brick_orangered_wall_nse", "y": 180, "uvlock": true },
        "east=true,north=true,south=false,up=true,variant=india,west=true":     { "model": "conquest:brick_orangered_wall_nse", "y": 270, "uvlock": true },
        "east=true,north=true,south=true,up=true,variant=india,west=true":      { "model": "conquest:brick_orangered_wall_nsew" },


        "east=false,north=false,south=false,up=false,variant=juliet,west=false": { "model": "conquest:stonebrick_lightgray_wall_post" },
        "east=false,north=true,south=false,up=false,variant=juliet,west=false":  { "model": "conquest:stonebrick_lightgray_wall_n" },
        "east=true,north=false,south=false,up=false,variant=juliet,west=false":  { "model": "conquest:stonebrick_lightgray_wall_n", "y": 90, "uvlock": true },
        "east=false,north=false,south=true,up=false,variant=juliet,west=false":  { "model": "conquest:stonebrick_lightgray_wall_n", "y": 180, "uvlock": true },
        "east=false,north=false,south=false,up=false,variant=juliet,west=true":  { "model": "conquest:stonebrick_lightgray_wall_n", "y": 270, "uvlock": true },
        "east=true,north=true,south=false,up=false,variant=juliet,west=false":   { "model": "conquest:stonebrick_lightgray_wall_ne" },
        "east=true,north=false,south=true,up=false,variant=juliet,west=false":   { "model": "conquest:stonebrick_lightgray_wall_ne", "y": 90, "uvlock": true },
        "east=false,north=false,south=true,up=false,variant=juliet,west=true":   { "model": "conquest:stonebrick_lightgray_wall_ne", "y": 180, "uvlock": true },
        "east=false,north=true,south=false,up=false,variant=juliet,west=true":   { "model": "conquest:stonebrick_lightgray_wall_ne", "y": 270, "uvlock": true },
        "east=false,north=true,south=true,up=false,variant=juliet,west=false":   { "model": "conquest:stonebrick_lightgray_wall_ns" },
        "east=true,north=false,south=false,up=false,variant=juliet,west=true":   { "model": "conquest:stonebrick_lightgray_wall_ns", "y": 90, "uvlock": true },
        "east=true,north=true,south=true,up=false,variant=juliet,west=false":    { "model": "conquest:stonebrick_lightgray_wall_nse" },
        "east=true,north=false,south=true,up=false,variant=juliet,west=true":    { "model": "conquest:stonebrick_lightgray_wall_nse", "y": 90, "uvlock": true },
        "east=false,north=true,south=true,up=false,variant=juliet,west=true":    { "model": "conquest:stonebrick_lightgray_wall_nse", "y": 180, "uvlock": true },
        "east=true,north=true,south=false,up=false,variant=juliet,west=true":    { "model": "conquest:stonebrick_lightgray_wall_nse", "y": 270, "uvlock": true },
        "east=true,north=true,south=true,up=false,variant=juliet,west=true":     { "model": "conquest:stonebrick_lightgray_wall_nsew" },
        "east=false,north=false,south=false,up=true,variant=juliet,west=false":  { "model": "conquest:stonebrick_lightgray_wall_post" },
        "east=false,north=true,south=false,up=true,variant=juliet,west=false":   { "model": "conquest:stonebrick_lightgray_wall_n" },
        "east=true,north=false,south=false,up=true,variant=juliet,west=false":   { "model": "conquest:stonebrick_lightgray_wall_n", "y": 90, "uvlock": true },
        "east=false,north=false,south=true,up=true,variant=juliet,west=false":   { "model": "conquest:stonebrick_lightgray_wall_n", "y": 180, "uvlock": true },
        "east=false,north=false,south=false,up=true,variant=juliet,west=true":   { "model": "conquest:stonebrick_lightgray_wall_n", "y": 270, "uvlock": true },
        "east=true,north=true,south=false,up=true,variant=juliet,west=false":    { "model": "conquest:stonebrick_lightgray_wall_ne" },
        "east=true,north=false,south=true,up=true,variant=juliet,west=false":    { "model": "conquest:stonebrick_lightgray_wall_ne", "y": 90, "uvlock": true },
        "east=false,north=false,south=true,up=true,variant=juliet,west=true":    { "model": "conquest:stonebrick_lightgray_wall_ne", "y": 180, "uvlock": true },
        "east=false,north=true,south=false,up=true,variant=juliet,west=true":    { "model": "conquest:stonebrick_lightgray_wall_ne", "y": 270, "uvlock": true },
        "east=false,north=true,south=true,up=true,variant=juliet,west=false":    { "model": "conquest:stonebrick_lightgray_wall_ns_above" },
        "east=true,north=false,south=false,up=true,variant=juliet,west=true":    { "model": "conquest:stonebrick_lightgray_wall_ns_above", "y": 90, "uvlock": true },
        "east=true,north=true,south=true,up=true,variant=juliet,west=false":     { "model": "conquest:stonebrick_lightgray_wall_nse" },
        "east=true,north=false,south=true,up=true,variant=juliet,west=true":     { "model": "conquest:stonebrick_lightgray_wall_nse", "y": 90, "uvlock": true },
        "east=false,north=true,south=true,up=true,variant=juliet,west=true":     { "model": "conquest:stonebrick_lightgray_wall_nse", "y": 180, "uvlock": true },
        "east=true,north=true,south=false,up=true,variant=juliet,west=true":     { "model": "conquest:stonebrick_lightgray_wall_nse", "y": 270, "uvlock": true },
        "east=true,north=true,south=true,up=true,variant=juliet,west=true":      { "model": "conquest:stonebrick_lightgray_wall_nsew" },


        "east=false,north=false,south=false,up=false,variant=kilo,west=false": { "model": "conquest:stonebrick_darkgray_wall_post" },
        "east=false,north=true,south=false,up=false,variant=kilo,west=false":  { "model": "conquest:stonebrick_darkgray_wall_n" },
        "east=true,north=false,south=false,up=false,variant=kilo,west=false":  { "model": "conquest:stonebrick_darkgray_wall_n", "y": 90, "uvlock": true },
        "east=false,north=false,south=true,up=false,variant=kilo,west=false":  { "model": "conquest:stonebrick_darkgray_wall_n", "y": 180, "uvlock": true },
        "east=false,north=false,south=false,up=false,variant=kilo,west=true":  { "model": "conquest:stonebrick_darkgray_wall_n", "y": 270, "uvlock": true },
        "east=true,north=true,south=false,up=false,variant=kilo,west=false":   { "model": "conquest:stonebrick_darkgray_wall_ne" },
        "east=true,north=false,south=true,up=false,variant=kilo,west=false":   { "model": "conquest:stonebrick_darkgray_wall_ne", "y": 90, "uvlock": true },
        "east=false,north=false,south=true,up=false,variant=kilo,west=true":   { "model": "conquest:stonebrick_darkgray_wall_ne", "y": 180, "uvlock": true },
        "east=false,north=true,south=false,up=false,variant=kilo,west=true":   { "model": "conquest:stonebrick_darkgray_wall_ne", "y": 270, "uvlock": true },
        "east=false,north=true,south=true,up=false,variant=kilo,west=false":   { "model": "conquest:stonebrick_darkgray_wall_ns" },
        "east=true,north=false,south=false,up=false,variant=kilo,west=true":   { "model": "conquest:stonebrick_darkgray_wall_ns", "y": 90, "uvlock": true },
        "east=true,north=true,south=true,up=false,variant=kilo,west=false":    { "model": "conquest:stonebrick_darkgray_wall_nse" },
        "east=true,north=false,south=true,up=false,variant=kilo,west=true":    { "model": "conquest:stonebrick_darkgray_wall_nse", "y": 90, "uvlock": true },
        "east=false,north=true,south=true,up=false,variant=kilo,west=true":    { "model": "conquest:stonebrick_darkgray_wall_nse", "y": 180, "uvlock": true },
        "east=true,north=true,south=false,up=false,variant=kilo,west=true":    { "model": "conquest:stonebrick_darkgray_wall_nse", "y": 270, "uvlock": true },
        "east=true,north=true,south=true,up=false,variant=kilo,west=true":     { "model": "conquest:stonebrick_darkgray_wall_nsew" },
        "east=false,north=false,south=false,up=true,variant=kilo,west=false":  { "model": "conquest:stonebrick_darkgray_wall_post" },
        "east=false,north=true,south=false,up=true,variant=kilo,west=false":   { "model": "conquest:stonebrick_darkgray_wall_n" },
        "east=true,north=false,south=false,up=true,variant=kilo,west=false":   { "model": "conquest:stonebrick_darkgray_wall_n", "y": 90, "uvlock": true },
        "east=false,north=false,south=true,up=true,variant=kilo,west=false":   { "model": "conquest:stonebrick_darkgray_wall_n", "y": 180, "uvlock": true },
        "east=false,north=false,south=false,up=true,variant=kilo,west=true":   { "model": "conquest:stonebrick_darkgray_wall_n", "y": 270, "uvlock": true },
        "east=true,north=true,south=false,up=true,variant=kilo,west=false":    { "model": "conquest:stonebrick_darkgray_wall_ne" },
        "east=true,north=false,south=true,up=true,variant=kilo,west=false":    { "model": "conquest:stonebrick_darkgray_wall_ne", "y": 90, "uvlock": true },
        "east=false,north=false,south=true,up=true,variant=kilo,west=true":    { "model": "conquest:stonebrick_darkgray_wall_ne", "y": 180, "uvlock": true },
        "east=false,north=true,south=false,up=true,variant=kilo,west=true":    { "model": "conquest:stonebrick_darkgray_wall_ne", "y": 270, "uvlock": true },
        "east=false,north=true,south=true,up=true,variant=kilo,west=false":    { "model": "conquest:stonebrick_darkgray_wall_ns_above" },
        "east=true,north=false,south=false,up=true,variant=kilo,west=true":    { "model": "conquest:stonebrick_darkgray_wall_ns_above", "y": 90, "uvlock": true },
        "east=true,north=true,south=true,up=true,variant=kilo,west=false":     { "model": "conquest:stonebrick_darkgray_wall_nse" },
        "east=true,north=false,south=true,up=true,variant=kilo,west=true":     { "model": "conquest:stonebrick_darkgray_wall_nse", "y": 90, "uvlock": true },
        "east=false,north=true,south=true,up=true,variant=kilo,west=true":     { "model": "conquest:stonebrick_darkgray_wall_nse", "y": 180, "uvlock": true },
        "east=true,north=true,south=false,up=true,variant=kilo,west=true":     { "model": "conquest:stonebrick_darkgray_wall_nse", "y": 270, "uvlock": true },
        "east=true,north=true,south=true,up=true,variant=kilo,west=true":      { "model": "conquest:stonebrick_darkgray_wall_nsew" },


        "east=false,north=false,south=false,up=false,variant=lima,west=false": { "model": "conquest:pillar_smoothmarble_wall_post" },
        "east=false,north=true,south=false,up=false,variant=lima,west=false":  { "model": "conquest:pillar_smoothmarble_wall_n" },
        "east=true,north=false,south=false,up=false,variant=lima,west=false":  { "model": "conquest:pillar_smoothmarble_wall_n", "y": 90, "uvlock": true },
        "east=false,north=false,south=true,up=false,variant=lima,west=false":  { "model": "conquest:pillar_smoothmarble_wall_n", "y": 180, "uvlock": true },
        "east=false,north=false,south=false,up=false,variant=lima,west=true":  { "model": "conquest:pillar_smoothmarble_wall_n", "y": 270, "uvlock": true },
        "east=true,north=true,south=false,up=false,variant=lima,west=false":   { "model": "conquest:pillar_smoothmarble_wall_ne" },
        "east=true,north=false,south=true,up=false,variant=lima,west=false":   { "model": "conquest:pillar_smoothmarble_wall_ne", "y": 90, "uvlock": true },
        "east=false,north=false,south=true,up=false,variant=lima,west=true":   { "model": "conquest:pillar_smoothmarble_wall_ne", "y": 180, "uvlock": true },
        "east=false,north=true,south=false,up=false,variant=lima,west=true":   { "model": "conquest:pillar_smoothmarble_wall_ne", "y": 270, "uvlock": true },
        "east=false,north=true,south=true,up=false,variant=lima,west=false":   { "model": "conquest:pillar_smoothmarble_wall_ns" },
        "east=true,north=false,south=false,up=false,variant=lima,west=true":   { "model": "conquest:pillar_smoothmarble_wall_ns", "y": 90, "uvlock": true },
        "east=true,north=true,south=true,up=false,variant=lima,west=false":    { "model": "conquest:pillar_smoothmarble_wall_nse" },
        "east=true,north=false,south=true,up=false,variant=lima,west=true":    { "model": "conquest:pillar_smoothmarble_wall_nse", "y": 90, "uvlock": true },
        "east=false,north=true,south=true,up=false,variant=lima,west=true":    { "model": "conquest:pillar_smoothmarble_wall_nse", "y": 180, "uvlock": true },
        "east=true,north=true,south=false,up=false,variant=lima,west=true":    { "model": "conquest:pillar_smoothmarble_wall_nse", "y": 270, "uvlock": true },
        "east=true,north=true,south=true,up=false,variant=lima,west=true":     { "model": "conquest:pillar_smoothmarble_wall_nsew" },
        "east=false,north=false,south=false,up=true,variant=lima,west=false":  { "model": "conquest:pillar_smoothmarble_wall_post" },
        "east=false,north=true,south=false,up=true,variant=lima,west=false":   { "model": "conquest:pillar_smoothmarble_wall_n" },
        "east=true,north=false,south=false,up=true,variant=lima,west=false":   { "model": "conquest:pillar_smoothmarble_wall_n", "y": 90, "uvlock": true },
        "east=false,north=false,south=true,up=true,variant=lima,west=false":   { "model": "conquest:pillar_smoothmarble_wall_n", "y": 180, "uvlock": true },
        "east=false,north=false,south=false,up=true,variant=lima,west=true":   { "model": "conquest:pillar_smoothmarble_wall_n", "y": 270, "uvlock": true },
        "east=true,north=true,south=false,up=true,variant=lima,west=false":    { "model": "conquest:pillar_smoothmarble_wall_ne" },
        "east=true,north=false,south=true,up=true,variant=lima,west=false":    { "model": "conquest:pillar_smoothmarble_wall_ne", "y": 90, "uvlock": true },
        "east=false,north=false,south=true,up=true,variant=lima,west=true":    { "model": "conquest:pillar_smoothmarble_wall_ne", "y": 180, "uvlock": true },
        "east=false,north=true,south=false,up=true,variant=lima,west=true":    { "model": "conquest:pillar_smoothmarble_wall_ne", "y": 270, "uvlock": true },
        "east=false,north=true,south=true,up=true,variant=lima,west=false":    { "model": "conquest:pillar_smoothmarble_wall_ns" },
        "east=true,north=false,south=false,up=true,variant=lima,west=true":    { "model": "conquest:pillar_smoothmarble_wall_ns", "y": 90, "uvlock": true },
        "east=true,north=true,south=true,up=true,variant=lima,west=false":     { "model": "conquest:pillar_smoothmarble_wall_nse" },
        "east=true,north=false,south=true,up=true,variant=lima,west=true":     { "model": "conquest:pillar_smoothmarble_wall_nse", "y": 90, "uvlock": true },
        "east=false,north=true,south=true,up=true,variant=lima,west=true":     { "model": "conquest:pillar_smoothmarble_wall_nse", "y": 180, "uvlock": true },
        "east=true,north=true,south=false,up=true,variant=lima,west=true":     { "model": "conquest:pillar_smoothmarble_wall_nse", "y": 270, "uvlock": true },
        "east=true,north=true,south=true,up=true,variant=lima,west=true":      { "model": "conquest:pillar_smoothmarble_wall_nsew" },


        "east=false,north=false,south=false,up=false,variant=mike,west=false": { "model": "conquest:cobblestone_dirtysandstone_wall_post" },
        "east=false,north=true,south=false,up=false,variant=mike,west=false":  { "model": "conquest:cobblestone_dirtysandstone_wall_n" },
        "east=true,north=false,south=false,up=false,variant=mike,west=false":  { "model": "conquest:cobblestone_dirtysandstone_wall_n", "y": 90, "uvlock": true },
        "east=false,north=false,south=true,up=false,variant=mike,west=false":  { "model": "conquest:cobblestone_dirtysandstone_wall_n", "y": 180, "uvlock": true },
        "east=false,north=false,south=false,up=false,variant=mike,west=true":  { "model": "conquest:cobblestone_dirtysandstone_wall_n", "y": 270, "uvlock": true },
        "east=true,north=true,south=false,up=false,variant=mike,west=false":   { "model": "conquest:cobblestone_dirtysandstone_wall_ne" },
        "east=true,north=false,south=true,up=false,variant=mike,west=false":   { "model": "conquest:cobblestone_dirtysandstone_wall_ne", "y": 90, "uvlock": true },
        "east=false,north=false,south=true,up=false,variant=mike,west=true":   { "model": "conquest:cobblestone_dirtysandstone_wall_ne", "y": 180, "uvlock": true },
        "east=false,north=true,south=false,up=false,variant=mike,west=true":   { "model": "conquest:cobblestone_dirtysandstone_wall_ne", "y": 270, "uvlock": true },
        "east=false,north=true,south=true,up=false,variant=mike,west=false":   { "model": "conquest:cobblestone_dirtysandstone_wall_ns" },
        "east=true,north=false,south=false,up=false,variant=mike,west=true":   { "model": "conquest:cobblestone_dirtysandstone_wall_ns", "y": 90, "uvlock": true },
        "east=true,north=true,south=true,up=false,variant=mike,west=false":    { "model": "conquest:cobblestone_dirtysandstone_wall_nse" },
        "east=true,north=false,south=true,up=false,variant=mike,west=true":    { "model": "conquest:cobblestone_dirtysandstone_wall_nse", "y": 90, "uvlock": true },
        "east=false,north=true,south=true,up=false,variant=mike,west=true":    { "model": "conquest:cobblestone_dirtysandstone_wall_nse", "y": 180, "uvlock": true },
        "east=true,north=true,south=false,up=false,variant=mike,west=true":    { "model": "conquest:cobblestone_dirtysandstone_wall_nse", "y": 270, "uvlock": true },
        "east=true,north=true,south=true,up=false,variant=mike,west=true":     { "model": "conquest:cobblestone_dirtysandstone_wall_nsew" },
        "east=false,north=false,south=false,up=true,variant=mike,west=false":  { "model": "conquest:cobblestone_dirtysandstone_wall_post" },
        "east=false,north=true,south=false,up=true,variant=mike,west=false":   { "model": "conquest:cobblestone_dirtysandstone_wall_n" },
        "east=true,north=false,south=false,up=true,variant=mike,west=false":   { "model": "conquest:cobblestone_dirtysandstone_wall_n", "y": 90, "uvlock": true },
        "east=false,north=false,south=true,up=true,variant=mike,west=false":   { "model": "conquest:cobblestone_dirtysandstone_wall_n", "y": 180, "uvlock": true },
        "east=false,north=false,south=false,up=true,variant=mike,west=true":   { "model": "conquest:cobblestone_dirtysandstone_wall_n", "y": 270, "uvlock": true },
        "east=true,north=true,south=false,up=true,variant=mike,west=false":    { "model": "conquest:cobblestone_dirtysandstone_wall_ne" },
        "east=true,north=false,south=true,up=true,variant=mike,west=false":    { "model": "conquest:cobblestone_dirtysandstone_wall_ne", "y": 90, "uvlock": true },
        "east=false,north=false,south=true,up=true,variant=mike,west=true":    { "model": "conquest:cobblestone_dirtysandstone_wall_ne", "y": 180, "uvlock": true },
        "east=false,north=true,south=false,up=true,variant=mike,west=true":    { "model": "conquest:cobblestone_dirtysandstone_wall_ne", "y": 270, "uvlock": true },
        "east=false,north=true,south=true,up=true,variant=mike,west=false":    { "model": "conquest:cobblestone_dirtysandstone_wall_ns_above" },
        "east=true,north=false,south=false,up=true,variant=mike,west=true":    { "model": "conquest:cobblestone_dirtysandstone_wall_ns_above", "y": 90, "uvlock": true },
        "east=true,north=true,south=true,up=true,variant=mike,west=false":     { "model": "conquest:cobblestone_dirtysandstone_wall_nse" },
        "east=true,north=false,south=true,up=true,variant=mike,west=true":     { "model": "conquest:cobblestone_dirtysandstone_wall_nse", "y": 90, "uvlock": true },
        "east=false,north=true,south=true,up=true,variant=mike,west=true":     { "model": "conquest:cobblestone_dirtysandstone_wall_nse", "y": 180, "uvlock": true },
        "east=true,north=true,south=false,up=true,variant=mike,west=true":     { "model": "conquest:cobblestone_dirtysandstone_wall_nse", "y": 270, "uvlock": true },
        "east=true,north=true,south=true,up=true,variant=mike,west=true":      { "model": "conquest:cobblestone_dirtysandstone_wall_nsew" },


        "east=false,north=false,south=false,up=false,variant=november,west=false": { "model": "conquest:plaster_peachworn_wall_post" },
        "east=false,north=true,south=false,up=false,variant=november,west=false":  { "model": "conquest:plaster_peachworn_wall_n" },
        "east=true,north=false,south=false,up=false,variant=november,west=false":  { "model": "conquest:plaster_peachworn_wall_n", "y": 90, "uvlock": true },
        "east=false,north=false,south=true,up=false,variant=november,west=false":  { "model": "conquest:plaster_peachworn_wall_n", "y": 180, "uvlock": true },
        "east=false,north=false,south=false,up=false,variant=november,west=true":  { "model": "conquest:plaster_peachworn_wall_n", "y": 270, "uvlock": true },
        "east=true,north=true,south=false,up=false,variant=november,west=false":   { "model": "conquest:plaster_peachworn_wall_ne" },
        "east=true,north=false,south=true,up=false,variant=november,west=false":   { "model": "conquest:plaster_peachworn_wall_ne", "y": 90, "uvlock": true },
        "east=false,north=false,south=true,up=false,variant=november,west=true":   { "model": "conquest:plaster_peachworn_wall_ne", "y": 180, "uvlock": true },
        "east=false,north=true,south=false,up=false,variant=november,west=true":   { "model": "conquest:plaster_peachworn_wall_ne", "y": 270, "uvlock": true },
        "east=false,north=true,south=true,up=false,variant=november,west=false":   { "model": "conquest:plaster_peachworn_wall_ns" },
        "east=true,north=false,south=false,up=false,variant=november,west=true":   { "model": "conquest:plaster_peachworn_wall_ns", "y": 90, "uvlock": true },
        "east=true,north=true,south=true,up=false,variant=november,west=false":    { "model": "conquest:plaster_peachworn_wall_nse" },
        "east=true,north=false,south=true,up=false,variant=november,west=true":    { "model": "conquest:plaster_peachworn_wall_nse", "y": 90, "uvlock": true },
        "east=false,north=true,south=true,up=false,variant=november,west=true":    { "model": "conquest:plaster_peachworn_wall_nse", "y": 180, "uvlock": true },
        "east=true,north=true,south=false,up=false,variant=november,west=true":    { "model": "conquest:plaster_peachworn_wall_nse", "y": 270, "uvlock": true },
        "east=true,north=true,south=true,up=false,variant=november,west=true":     { "model": "conquest:plaster_peachworn_wall_nsew" },
        "east=false,north=false,south=false,up=true,variant=november,west=false":  { "model": "conquest:plaster_peachworn_wall_post" },
        "east=false,north=true,south=false,up=true,variant=november,west=false":   { "model": "conquest:plaster_peachworn_wall_n" },
        "east=true,north=false,south=false,up=true,variant=november,west=false":   { "model": "conquest:plaster_peachworn_wall_n", "y": 90, "uvlock": true },
        "east=false,north=false,south=true,up=true,variant=november,west=false":   { "model": "conquest:plaster_peachworn_wall_n", "y": 180, "uvlock": true },
        "east=false,north=false,south=false,up=true,variant=november,west=true":   { "model": "conquest:plaster_peachworn_wall_n", "y": 270, "uvlock": true },
        "east=true,north=true,south=false,up=true,variant=november,west=false":    { "model": "conquest:plaster_peachworn_wall_ne" },
        "east=true,north=false,south=true,up=true,variant=november,west=false":    { "model": "conquest:plaster_peachworn_wall_ne", "y": 90, "uvlock": true },
        "east=false,north=false,south=true,up=true,variant=november,west=true":    { "model": "conquest:plaster_peachworn_wall_ne", "y": 180, "uvlock": true },
        "east=false,north=true,south=false,up=true,variant=november,west=true":    { "model": "conquest:plaster_peachworn_wall_ne", "y": 270, "uvlock": true },
        "east=false,north=true,south=true,up=true,variant=november,west=false":    { "model": "conquest:plaster_peachworn_wall_ns_above" },
        "east=true,north=false,south=false,up=true,variant=november,west=true":    { "model": "conquest:plaster_peachworn_wall_ns_above", "y": 90, "uvlock": true },
        "east=true,north=true,south=true,up=true,variant=november,west=false":     { "model": "conquest:plaster_peachworn_wall_nse" },
        "east=true,north=false,south=true,up=true,variant=november,west=true":     { "model": "conquest:plaster_peachworn_wall_nse", "y": 90, "uvlock": true },
        "east=false,north=true,south=true,up=true,variant=november,west=true":     { "model": "conquest:plaster_peachworn_wall_nse", "y": 180, "uvlock": true },
        "east=true,north=true,south=false,up=true,variant=november,west=true":     { "model": "conquest:plaster_peachworn_wall_nse", "y": 270, "uvlock": true },
        "east=true,north=true,south=true,up=true,variant=november,west=true":      { "model": "conquest:plaster_peachworn_wall_nsew" },


        "east=false,north=false,south=false,up=false,variant=oscar,west=false": { "model": "conquest:plaster_darkbrownworn_wall_post" },
        "east=false,north=true,south=false,up=false,variant=oscar,west=false":  { "model": "conquest:plaster_darkbrownworn_wall_n" },
        "east=true,north=false,south=false,up=false,variant=oscar,west=false":  { "model": "conquest:plaster_darkbrownworn_wall_n", "y": 90, "uvlock": true },
        "east=false,north=false,south=true,up=false,variant=oscar,west=false":  { "model": "conquest:plaster_darkbrownworn_wall_n", "y": 180, "uvlock": true },
        "east=false,north=false,south=false,up=false,variant=oscar,west=true":  { "model": "conquest:plaster_darkbrownworn_wall_n", "y": 270, "uvlock": true },
        "east=true,north=true,south=false,up=false,variant=oscar,west=false":   { "model": "conquest:plaster_darkbrownworn_wall_ne" },
        "east=true,north=false,south=true,up=false,variant=oscar,west=false":   { "model": "conquest:plaster_darkbrownworn_wall_ne", "y": 90, "uvlock": true },
        "east=false,north=false,south=true,up=false,variant=oscar,west=true":   { "model": "conquest:plaster_darkbrownworn_wall_ne", "y": 180, "uvlock": true },
        "east=false,north=true,south=false,up=false,variant=oscar,west=true":   { "model": "conquest:plaster_darkbrownworn_wall_ne", "y": 270, "uvlock": true },
        "east=false,north=true,south=true,up=false,variant=oscar,west=false":   { "model": "conquest:plaster_darkbrownworn_wall_ns" },
        "east=true,north=false,south=false,up=false,variant=oscar,west=true":   { "model": "conquest:plaster_darkbrownworn_wall_ns", "y": 90, "uvlock": true },
        "east=true,north=true,south=true,up=false,variant=oscar,west=false":    { "model": "conquest:plaster_darkbrownworn_wall_nse" },
        "east=true,north=false,south=true,up=false,variant=oscar,west=true":    { "model": "conquest:plaster_darkbrownworn_wall_nse", "y": 90, "uvlock": true },
        "east=false,north=true,south=true,up=false,variant=oscar,west=true":    { "model": "conquest:plaster_darkbrownworn_wall_nse", "y": 180, "uvlock": true },
        "east=true,north=true,south=false,up=false,variant=oscar,west=true":    { "model": "conquest:plaster_darkbrownworn_wall_nse", "y": 270, "uvlock": true },
        "east=true,north=true,south=true,up=false,variant=oscar,west=true":     { "model": "conquest:plaster_darkbrownworn_wall_nsew" },
        "east=false,north=false,south=false,up=true,variant=oscar,west=false":  { "model": "conquest:plaster_darkbrownworn_wall_post" },
        "east=false,north=true,south=false,up=true,variant=oscar,west=false":   { "model": "conquest:plaster_darkbrownworn_wall_n" },
        "east=true,north=false,south=false,up=true,variant=oscar,west=false":   { "model": "conquest:plaster_darkbrownworn_wall_n", "y": 90, "uvlock": true },
        "east=false,north=false,south=true,up=true,variant=oscar,west=false":   { "model": "conquest:plaster_darkbrownworn_wall_n", "y": 180, "uvlock": true },
        "east=false,north=false,south=false,up=true,variant=oscar,west=true":   { "model": "conquest:plaster_darkbrownworn_wall_n", "y": 270, "uvlock": true },
        "east=true,north=true,south=false,up=true,variant=oscar,west=false":    { "model": "conquest:plaster_darkbrownworn_wall_ne" },
        "east=true,north=false,south=true,up=true,variant=oscar,west=false":    { "model": "conquest:plaster_darkbrownworn_wall_ne", "y": 90, "uvlock": true },
        "east=false,north=false,south=true,up=true,variant=oscar,west=true":    { "model": "conquest:plaster_darkbrownworn_wall_ne", "y": 180, "uvlock": true },
        "east=false,north=true,south=false,up=true,variant=oscar,west=true":    { "model": "conquest:plaster_darkbrownworn_wall_ne", "y": 270, "uvlock": true },
        "east=false,north=true,south=true,up=true,variant=oscar,west=false":    { "model": "conquest:plaster_darkbrownworn_wall_ns_above" },
        "east=true,north=false,south=false,up=true,variant=oscar,west=true":    { "model": "conquest:plaster_darkbrownworn_wall_ns_above", "y": 90, "uvlock": true },
        "east=true,north=true,south=true,up=true,variant=oscar,west=false":     { "model": "conquest:plaster_darkbrownworn_wall_nse" },
        "east=true,north=false,south=true,up=true,variant=oscar,west=true":     { "model": "conquest:plaster_darkbrownworn_wall_nse", "y": 90, "uvlock": true },
        "east=false,north=true,south=true,up=true,variant=oscar,west=true":     { "model": "conquest:plaster_darkbrownworn_wall_nse", "y": 180, "uvlock": true },
        "east=true,north=true,south=false,up=true,variant=oscar,west=true":     { "model": "conquest:plaster_darkbrownworn_wall_nse", "y": 270, "uvlock": true },
        "east=true,north=true,south=true,up=true,variant=oscar,west=true":      { "model": "conquest:plaster_darkbrownworn_wall_nsew" },


        "east=false,north=false,south=false,up=false,variant=papa,west=false": { "model": "conquest:plaster_yellowcobblestone_wall_post" },
        "east=false,north=true,south=false,up=false,variant=papa,west=false":  { "model": "conquest:plaster_yellowcobblestone_wall_n" },
        "east=true,north=false,south=false,up=false,variant=papa,west=false":  { "model": "conquest:plaster_yellowcobblestone_wall_n", "y": 90, "uvlock": true },
        "east=false,north=false,south=true,up=false,variant=papa,west=false":  { "model": "conquest:plaster_yellowcobblestone_wall_n", "y": 180, "uvlock": true },
        "east=false,north=false,south=false,up=false,variant=papa,west=true":  { "model": "conquest:plaster_yellowcobblestone_wall_n", "y": 270, "uvlock": true },
        "east=true,north=true,south=false,up=false,variant=papa,west=false":   { "model": "conquest:plaster_yellowcobblestone_wall_ne" },
        "east=true,north=false,south=true,up=false,variant=papa,west=false":   { "model": "conquest:plaster_yellowcobblestone_wall_ne", "y": 90, "uvlock": true },
        "east=false,north=false,south=true,up=false,variant=papa,west=true":   { "model": "conquest:plaster_yellowcobblestone_wall_ne", "y": 180, "uvlock": true },
        "east=false,north=true,south=false,up=false,variant=papa,west=true":   { "model": "conquest:plaster_yellowcobblestone_wall_ne", "y": 270, "uvlock": true },
        "east=false,north=true,south=true,up=false,variant=papa,west=false":   { "model": "conquest:plaster_yellowcobblestone_wall_ns" },
        "east=true,north=false,south=false,up=false,variant=papa,west=true":   { "model": "conquest:plaster_yellowcobblestone_wall_ns", "y": 90, "uvlock": true },
        "east=true,north=true,south=true,up=false,variant=papa,west=false":    { "model": "conquest:plaster_yellowcobblestone_wall_nse" },
        "east=true,north=false,south=true,up=false,variant=papa,west=true":    { "model": "conquest:plaster_yellowcobblestone_wall_nse", "y": 90, "uvlock": true },
        "east=false,north=true,south=true,up=false,variant=papa,west=true":    { "model": "conquest:plaster_yellowcobblestone_wall_nse", "y": 180, "uvlock": true },
        "east=true,north=true,south=false,up=false,variant=papa,west=true":    { "model": "conquest:plaster_yellowcobblestone_wall_nse", "y": 270, "uvlock": true },
        "east=true,north=true,south=true,up=false,variant=papa,west=true":     { "model": "conquest:plaster_yellowcobblestone_wall_nsew" },
        "east=false,north=false,south=false,up=true,variant=papa,west=false":  { "model": "conquest:plaster_yellowcobblestone_wall_post" },
        "east=false,north=true,south=false,up=true,variant=papa,west=false":   { "model": "conquest:plaster_yellowcobblestone_wall_n" },
        "east=true,north=false,south=false,up=true,variant=papa,west=false":   { "model": "conquest:plaster_yellowcobblestone_wall_n", "y": 90, "uvlock": true },
        "east=false,north=false,south=true,up=true,variant=papa,west=false":   { "model": "conquest:plaster_yellowcobblestone_wall_n", "y": 180, "uvlock": true },
        "east=false,north=false,south=false,up=true,variant=papa,west=true":   { "model": "conquest:plaster_yellowcobblestone_wall_n", "y": 270, "uvlock": true },
        "east=true,north=true,south=false,up=true,variant=papa,west=false":    { "model": "conquest:plaster_yellowcobblestone_wall_ne" },
        "east=true,north=false,south=true,up=true,variant=papa,west=false":    { "model": "conquest:plaster_yellowcobblestone_wall_ne", "y": 90, "uvlock": true },
        "east=false,north=false,south=true,up=true,variant=papa,west=true":    { "model": "conquest:plaster_yellowcobblestone_wall_ne", "y": 180, "uvlock": true },
        "east=false,north=true,south=false,up=true,variant=papa,west=true":    { "model": "conquest:plaster_yellowcobblestone_wall_ne", "y": 270, "uvlock": true },
        "east=false,north=true,south=true,up=true,variant=papa,west=false":    { "model": "conquest:plaster_yellowcobblestone_wall_ns_above" },
        "east=true,north=false,south=false,up=true,variant=papa,west=true":    { "model": "conquest:plaster_yellowcobblestone_wall_ns_above", "y": 90, "uvlock": true },
        "east=true,north=true,south=true,up=true,variant=papa,west=false":     { "model": "conquest:plaster_yellowcobblestone_wall_nse" },
        "east=true,north=false,south=true,up=true,variant=papa,west=true":     { "model": "conquest:plaster_yellowcobblestone_wall_nse", "y": 90, "uvlock": true },
        "east=false,north=true,south=true,up=true,variant=papa,west=true":     { "model": "conquest:plaster_yellowcobblestone_wall_nse", "y": 180, "uvlock": true },
        "east=true,north=true,south=false,up=true,variant=papa,west=true":     { "model": "conquest:plaster_yellowcobblestone_wall_nse", "y": 270, "uvlock": true },
        "east=true,north=true,south=true,up=true,variant=papa,west=true":      { "model": "conquest:plaster_yellowcobblestone_wall_nsew" }
    }
}