{
    "variants": {
        "variant=alpha": { "model": "conquest:rooftile_pink_wall_post" },
        "variant=bravo": { "model": "conquest:rooftile_gray_wall_post" },
        "variant=charlie": { "model": "conquest:rooftile_brown_wall_post" },
        "variant=delta": { "model": "conquest:rooftile_blue_wall_post" },
        "variant=echo": { "model": "conquest:rooftile_cyan_wall_post" },
        "variant=fox": { "model": "conquest:rooftile_lightblue_wall_post" },
        "variant=golf": { "model": "conquest:rooftile_green_wall_post" },
        "variant=hotel": { "model": "conquest:rooftile_lightgreen_wall_post" },
        "variant=india": { "model": "conquest:oxidized_copper_wall_post" },
        "variant=juliet": { "model": "conquest:stone_colorfulslate_wall_post" },
        "variant=kilo": { "model": "conquest:cobblestone_old_wall_post" },
        "variant=lima": { "model": "conquest:cobblestone_damaged_wall_post" },
        "variant=mike": { "model": "conquest:iron_dark_wall_post" },
        "variant=november": { "model": "conquest:cobblestone_normal_wall_post" },
        "variant=oscar": { "model": "conquest:cobblestone_overgrown_wall_post" },
        "variant=papa": { "model": "conquest:cobblestone_vines_wall_post" }
    }
}