{
    "variants": {
        "facing=south,variant=alpha": { "model": "conquest:oxidized_copper_verticalslab", "y": 270, "uvlock": true },
        "facing=west,variant=alpha": { "model": "conquest:oxidized_copper_verticalslab", "uvlock": true },
        "facing=north,variant=alpha": { "model": "conquest:oxidized_copper_verticalslab", "y": 90, "uvlock": true },
        "facing=east,variant=alpha": { "model": "conquest:oxidized_copper_verticalslab", "y": 180, "uvlock": true },

        "facing=south,variant=bravo": { "model": "conquest:rooftile_blue_verticalslab", "y": 270, "uvlock": true },
        "facing=west,variant=bravo": { "model": "conquest:rooftile_blue_verticalslab", "uvlock": true },
        "facing=north,variant=bravo": { "model": "conquest:rooftile_blue_verticalslab", "y": 90, "uvlock": true },
        "facing=east,variant=bravo": { "model": "conquest:rooftile_blue_verticalslab", "y": 180, "uvlock": true },

        "facing=south,variant=charlie": { "model": "conquest:rooftile_brown_verticalslab", "y": 270, "uvlock": true },
        "facing=west,variant=charlie": { "model": "conquest:rooftile_brown_verticalslab", "uvlock": true },
        "facing=north,variant=charlie": { "model": "conquest:rooftile_brown_verticalslab", "y": 90, "uvlock": true },
        "facing=east,variant=charlie": { "model": "conquest:rooftile_brown_verticalslab", "y": 180, "uvlock": true },

        "facing=south,variant=delta": { "model": "conquest:rooftile_cyan_verticalslab", "y": 270, "uvlock": true },
        "facing=west,variant=delta": { "model": "conquest:rooftile_cyan_verticalslab", "uvlock": true },
        "facing=north,variant=delta": { "model": "conquest:rooftile_cyan_verticalslab", "y": 90, "uvlock": true },
        "facing=east,variant=delta": { "model": "conquest:rooftile_cyan_verticalslab", "y": 180, "uvlock": true }
    }
}