{
    "variants": {
        "variant=alpha": { "model": "conquest:plasterwork_yellowclean_fence_post" },
        "variant=bravo": { "model": "conquest:plasterwork_whiteclean_fence_post" },
        "variant=charlie": { "model": "conquest:pillar_marblesmooth_base_fence_post" },
        "variant=delta": { "model": "conquest:pillar_marblesmooth_capital_fence_post" },
        "variant=echo": { "model": "conquest:cobblestone_hewntiles_fence_post" },
        "variant=fox": { "model": "conquest:cobblestone_plasteredtiles_fence_post" },
        "variant=golf": { "model": "conquest:rooftile_reddishbrown_fence_post" },
        "variant=hotel": { "model": "conquest:rooftile_wavyblue_fence_post" },
        "variant=india": { "model": "conquest:rooftile_wavyred_fence_post" },
        "variant=juliet": { "model": "conquest:rooftile_wavygray_fence_post" },
        "variant=kilo": { "model": "conquest:pillar_smoothmarble_fence_post" },
        "variant=lima": { "model": "conquest:rooftile_reddishbrownmossy_fence_post" },
        "variant=mike": { "model": "conquest:rooftile_wavygold_fence_post" },
        "variant=november": { "model": "conquest:rooftile_wavylightgray_fence_post" },
        "variant=oscar": { "model": "conquest:plaster_peach_fence_post" },
        "variant=papa": { "model": "conquest:pillar_elven_fence_post" }
    }
}