{
    "variants": {
        "variant=alpha": { "model": "conquest:tudorframe_darkslashctm_full" },
        "variant=bravo": { "model": "conquest:tudorframe_darkbackslashctm_full" },
        "variant=charlie": { "model": "conquest:tudorframe_darkboxctm_full" },
        "variant=delta": { "model": "conquest:brick2" },
        "variant=echo": { "model": "conquest:brick3" },
        "variant=fox": { "model": "conquest:brick4" },
        "variant=golf": { "model": "conquest:brick6" },
        "variant=hotel": { "model": "conquest:brick7" },
        "variant=india": { "model": "conquest:brick8" },
        "variant=juliet": { "model": "conquest:tudorframe_brickslashctm_full" },
        "variant=kilo": { "model": "conquest:tudorframe_brickbackslashctm_full" },
        "variant=lima": { "model": "conquest:tudorframe_brickboxctm_full" },
        "variant=mike": { "model": "conquest:brick2birchforest" },
        "variant=november": { "model": "conquest:brick3birchforest" },
        "variant=oscar": { "model": "conquest:brick4birchforest" },
        "variant=papa": { "model": "conquest:brick6birchforest" }
    }
}