{
    "variants": {
        "facing=south,variant=alpha": { "model": "conquest:wall_seashell_corner", "y": 270, "uvlock": true },
        "facing=west,variant=alpha": { "model": "conquest:wall_seashell_corner", "uvlock": true },
        "facing=north,variant=alpha": { "model": "conquest:wall_seashell_corner", "y": 90, "uvlock": true },
        "facing=east,variant=alpha": { "model": "conquest:wall_seashell_corner", "y": 180, "uvlock": true },

        "facing=south,variant=bravo": { "model": "conquest:wall_sindarin_corner", "y": 270, "uvlock": true },
        "facing=west,variant=bravo": { "model": "conquest:wall_sindarin_corner", "uvlock": true },
        "facing=north,variant=bravo": { "model": "conquest:wall_sindarin_corner", "y": 90, "uvlock": true },
        "facing=east,variant=bravo": { "model": "conquest:wall_sindarin_corner", "y": 180, "uvlock": true },

        "facing=south,variant=charlie": { "model": "conquest:wall_sindarin1_corner", "y": 270, "uvlock": true },
        "facing=west,variant=charlie": { "model": "conquest:wall_sindarin1_corner", "uvlock": true },
        "facing=north,variant=charlie": { "model": "conquest:wall_sindarin1_corner", "y": 90, "uvlock": true },
        "facing=east,variant=charlie": { "model": "conquest:wall_sindarin1_corner", "y": 180, "uvlock": true },

        "facing=south,variant=delta": { "model": "conquest:wall_sindarin2_corner", "y": 270, "uvlock": true },
        "facing=west,variant=delta": { "model": "conquest:wall_sindarin2_corner", "uvlock": true },
        "facing=north,variant=delta": { "model": "conquest:wall_sindarin2_corner", "y": 90, "uvlock": true },
        "facing=east,variant=delta": { "model": "conquest:wall_sindarin2_corner", "y": 180, "uvlock": true }
    }
}