{
    "variants": {
        "facing=south,variant=alpha": { "model": "conquest:pillar_stone_verticalslab", "y": 270, "uvlock": true },
        "facing=west,variant=alpha": { "model": "conquest:pillar_stone_verticalslab", "uvlock": true },
        "facing=north,variant=alpha": { "model": "conquest:pillar_stone_verticalslab", "y": 90, "uvlock": true },
        "facing=east,variant=alpha": { "model": "conquest:pillar_stone_verticalslab", "y": 180, "uvlock": true },

        "facing=south,variant=bravo": { "model": "conquest:netherbrick_wall_verticalslab", "y": 270, "uvlock": true },
        "facing=west,variant=bravo": { "model": "conquest:netherbrick_wall_verticalslab", "uvlock": true },
        "facing=north,variant=bravo": { "model": "conquest:netherbrick_wall_verticalslab", "y": 90, "uvlock": true },
        "facing=east,variant=bravo": { "model": "conquest:netherbrick_wall_verticalslab", "y": 180, "uvlock": true },

        "facing=south,variant=charlie": { "model": "conquest:netherbrick_big_verticalslab", "y": 270, "uvlock": true },
        "facing=west,variant=charlie": { "model": "conquest:netherbrick_big_verticalslab", "uvlock": true },
        "facing=north,variant=charlie": { "model": "conquest:netherbrick_big_verticalslab", "y": 90, "uvlock": true },
        "facing=east,variant=charlie": { "model": "conquest:netherbrick_big_verticalslab", "y": 180, "uvlock": true },

        "facing=south,variant=delta": { "model": "conquest:netherbrick_pillar_verticalslab", "y": 270, "uvlock": true },
        "facing=west,variant=delta": { "model": "conquest:netherbrick_pillar_verticalslab", "uvlock": true },
        "facing=north,variant=delta": { "model": "conquest:netherbrick_pillar_verticalslab", "y": 90, "uvlock": true },
        "facing=east,variant=delta": { "model": "conquest:netherbrick_pillar_verticalslab", "y": 180, "uvlock": true }
    }
}