{
    "variants": {
        "facing=south,variant=alpha": { "model": "conquest:scale", "y":90 },
        "facing=west,variant=alpha": { "model": "conquest:scale", "y": 180 },
        "facing=north,variant=alpha": { "model": "conquest:scale", "y": 270 },
        "facing=east,variant=alpha": { "model": "conquest:scale" },

        "facing=south,variant=bravo": { "model": "conquest:abacus", "y": 90 },
        "facing=west,variant=bravo": { "model": "conquest:abacus", "y": 180 },
        "facing=north,variant=bravo": { "model": "conquest:abacus", "y": 270 },
        "facing=east,variant=bravo": { "model": "conquest:abacus" },

        "facing=south,variant=charlie": { "model": "conquest:sextant", "y": 90 },
        "facing=west,variant=charlie": { "model": "conquest:sextant", "y": 180 },
        "facing=north,variant=charlie": { "model": "conquest:sextant", "y": 270 },
        "facing=east,variant=charlie": { "model": "conquest:sextant" },

        "facing=south,variant=delta": { "model": "conquest:telescope", "y": 90 },
        "facing=west,variant=delta": { "model": "conquest:telescope", "y": 180 },
        "facing=north,variant=delta": { "model": "conquest:telescope", "y": 270 },
        "facing=east,variant=delta": { "model": "conquest:telescope" }
    }
}