{
    "variants": {
        "axis=y,variant=alpha": { "model": "conquest:cobblestone_mossynormal_base" },
        "axis=x,variant=alpha": { "model": "conquest:cobblestone_mossynormal_anvil", "y": 90 },
        "axis=z,variant=alpha": { "model": "conquest:cobblestone_mossynormal_anvil", "y": 180 },
        "axis=none,variant=alpha": { "model": "conquest:none" },

        "axis=y,variant=bravo": { "model": "conquest:stonebrick_normal_base" },
        "axis=x,variant=bravo": { "model": "conquest:stonebrick_normal_anvil", "y": 90 },
        "axis=z,variant=bravo": { "model": "conquest:stonebrick_normal_anvil", "y": 180 },
        "axis=none,variant=bravo": { "model": "conquest:none" },

        "axis=y,variant=charlie": { "model": "conquest:stonebrick_mossy_base" },
        "axis=x,variant=charlie": { "model": "conquest:stonebrick_mossy_anvil", "y": 90 },
        "axis=z,variant=charlie": { "model": "conquest:stonebrick_mossy_anvil", "y": 180 },
        "axis=none,variant=charlie": { "model": "conquest:none" },

        "axis=y,variant=delta": { "model": "conquest:stonebrick_cracked_base" },
        "axis=x,variant=delta": { "model": "conquest:stonebrick_cracked_anvil", "y": 90 },
        "axis=z,variant=delta": { "model": "conquest:stonebrick_cracked_anvil", "y": 180 },
        "axis=none,variant=delta": { "model": "conquest:none" }
    }
}