{
    "variants": {
        "axis=y,variant=alpha": { "model": "conquest:stone_calcitesmooth_slit" },
        "axis=z,variant=alpha": { "model": "conquest:stone_calcitesmooth_slit", "x": 90 },
        "axis=x,variant=alpha": { "model": "conquest:stone_calcitesmooth_slit", "x": 90, "y": 90 },
        "axis=none,variant=alpha": { "model": "conquest:none" },

        "axis=y,variant=bravo": { "model": "conquest:stonebrick_ruined_slit" },
        "axis=z,variant=bravo": { "model": "conquest:stonebrick_ruined_slit", "x": 90 },
        "axis=x,variant=bravo": { "model": "conquest:stonebrick_ruined_slit", "x": 90, "y": 90 },
        "axis=none,variant=bravo": { "model": "conquest:none" },

        "axis=y,variant=charlie": { "model": "conquest:bigslab_marble1_slit" },
        "axis=z,variant=charlie": { "model": "conquest:bigslab_marble1_slit", "x": 90 },
        "axis=x,variant=charlie": { "model": "conquest:bigslab_marble1_slit", "x": 90, "y": 90 },
        "axis=none,variant=charlie": { "model": "conquest:none" },

        "axis=y,variant=delta": { "model": "conquest:bigslab_sandstone1_slit" },
        "axis=z,variant=delta": { "model": "conquest:bigslab_sandstone1_slit", "x": 90 },
        "axis=x,variant=delta": { "model": "conquest:bigslab_sandstone1_slit", "x": 90, "y": 90 },
        "axis=none,variant=delta": { "model": "conquest:none" }
    }
}
