{
    "variants": {
        "variant=alpha": { "model": "conquest:andesite_smoothnoctm_fence_post" },
        "variant=bravo": { "model": "conquest:pillar_gothicsandstone_fence_post" },
        "variant=charlie": { "model": "conquest:pillar_elvendecorative_fence_post" },
        "variant=delta": { "model": "conquest:pillar_darkstonedecorative_fence_post" },
        "variant=echo": { "model": "conquest:pillar_elvenwave_fence_post" },
        "variant=fox": { "model": "conquest:capitalcorinthian_polychrome_fence_post" },
        "variant=golf": { "model": "conquest:marble_rail_fence_post" },
        "variant=hotel": { "model": "conquest:terracota_fence_post" },
        "variant=india": { "model": "conquest:rooftile_red_fence_post" },
        "variant=juliet": { "model": "conquest:rooftile_pink_fence_post" },
        "variant=kilo": { "model": "conquest:rooftile_gray_fence_post" },
        "variant=lima": { "model": "conquest:rooftile_brown_fence_post" },
        "variant=mike": { "model": "conquest:rooftile_blue_fence_post" },
        "variant=november": { "model": "conquest:rooftile_cyan_fence_post" },
        "variant=oscar": { "model": "conquest:rooftile_lightblue_fence_post" },
        "variant=papa": { "model": "conquest:rooftile_green_fence_post" }
    }
}