{
    "variants": {
        "axis=y,variant=alpha": { "model": "conquest:stonebrick_darkgray_base" },
        "axis=x,variant=alpha": { "model": "conquest:stonebrick_darkgray_anvil", "y": 90 },
        "axis=z,variant=alpha": { "model": "conquest:stonebrick_darkgray_anvil", "y": 180 },
        "axis=none,variant=alpha": { "model": "conquest:none" },

        "axis=y,variant=bravo": { "model": "conquest:stonebrick_ruined_base" },
        "axis=x,variant=bravo": { "model": "conquest:stonebrick_ruined_anvil", "y": 90 },
        "axis=z,variant=bravo": { "model": "conquest:stonebrick_ruined_anvil", "y": 180 },
        "axis=none,variant=bravo": { "model": "conquest:none" },

        "axis=y,variant=charlie": { "model": "conquest:cobblestone_dirtysandstone_base" },
        "axis=x,variant=charlie": { "model": "conquest:cobblestone_dirtysandstone_anvil", "y": 90 },
        "axis=z,variant=charlie": { "model": "conquest:cobblestone_dirtysandstone_anvil", "y": 180 },
        "axis=none,variant=charlie": { "model": "conquest:none" },

        "axis=y,variant=delta": { "model": "conquest:plaster_peachworn_base" },
        "axis=x,variant=delta": { "model": "conquest:plaster_peachworn_anvil", "y": 90 },
        "axis=z,variant=delta": { "model": "conquest:plaster_peachworn_anvil", "y": 180 },
        "axis=none,variant=delta": { "model": "conquest:none" }
    }
}