{
    "variants": {
        "axis=y,variant=alpha": { "model": "conquest:plaster_darkbrownworn_base" },
        "axis=x,variant=alpha": { "model": "conquest:plaster_darkbrownworn_anvil", "y": 90 },
        "axis=z,variant=alpha": { "model": "conquest:plaster_darkbrownworn_anvil", "y": 180 },
        "axis=none,variant=alpha": { "model": "conquest:none" },

        "axis=y,variant=bravo": { "model": "conquest:plaster_yellowcobblestone_base" },
        "axis=x,variant=bravo": { "model": "conquest:plaster_yellowcobblestone_anvil", "y": 90 },
        "axis=z,variant=bravo": { "model": "conquest:plaster_yellowcobblestone_anvil", "y": 180 },
        "axis=none,variant=bravo": { "model": "conquest:none" },

        "axis=y,variant=charlie": { "model": "conquest:cornice_sandstone_base" },
        "axis=x,variant=charlie": { "model": "conquest:cornice_sandstone_anvil", "y": 90 },
        "axis=z,variant=charlie": { "model": "conquest:cornice_sandstone_anvil", "y": 180 },
        "axis=none,variant=charlie": { "model": "conquest:none" },

        "axis=y,variant=delta": { "model": "conquest:plinth_sandstone_base" },
        "axis=x,variant=delta": { "model": "conquest:plinth_sandstone_anvil", "y": 90 },
        "axis=z,variant=delta": { "model": "conquest:plinth_sandstone_anvil", "y": 180 },
        "axis=none,variant=delta": { "model": "conquest:none" }
    }
}