{
    "variants": {
        "facing=south,variant=alpha": { "model": "conquest:tudorframe_blueslash_corner", "y": 270, "uvlock": true },
        "facing=west,variant=alpha": { "model": "conquest:tudorframe_blueslash_corner", "uvlock": true },
        "facing=north,variant=alpha": { "model": "conquest:tudorframe_blueslash_corner", "y": 90, "uvlock": true },
        "facing=east,variant=alpha": { "model": "conquest:tudorframe_blueslash_corner", "y": 180, "uvlock": true },

        "facing=south,variant=bravo": { "model": "conquest:tudorframe_bluebackslash_corner", "y": 270, "uvlock": true },
        "facing=west,variant=bravo": { "model": "conquest:tudorframe_bluebackslash_corner", "uvlock": true },
        "facing=north,variant=bravo": { "model": "conquest:tudorframe_bluebackslash_corner", "y": 90, "uvlock": true },
        "facing=east,variant=bravo": { "model": "conquest:tudorframe_bluebackslash_corner", "y": 180, "uvlock": true },

        "facing=south,variant=charlie": { "model": "conquest:tudorframe_bluex_corner", "y": 270, "uvlock": true },
        "facing=west,variant=charlie": { "model": "conquest:tudorframe_bluex_corner", "uvlock": true },
        "facing=north,variant=charlie": { "model": "conquest:tudorframe_bluex_corner", "y": 90, "uvlock": true },
        "facing=east,variant=charlie": { "model": "conquest:tudorframe_bluex_corner", "y": 180, "uvlock": true },

        "facing=south,variant=delta": { "model": "conquest:tudorframe_blueup_corner", "y": 270, "uvlock": true },
        "facing=west,variant=delta": { "model": "conquest:tudorframe_blueup_corner", "uvlock": true },
        "facing=north,variant=delta": { "model": "conquest:tudorframe_blueup_corner", "y": 90, "uvlock": true },
        "facing=east,variant=delta": { "model": "conquest:tudorframe_blueup_corner", "y": 180, "uvlock": true }
    }
}