{
    "variants": {
        "variant=alpha": { "model": "conquest:stonebrick_ruined_hopper_down" },
        "variant=bravo": { "model": "conquest:none" },
        "variant=charlie": { "model": "conquest:none" },
        "variant=delta": { "model": "conquest:none" },
        "variant=echo": { "model": "conquest:none" },
        "variant=fox": { "model": "conquest:none" },
        "variant=golf": { "model": "conquest:none" },
        "variant=hotel": { "model": "conquest:cornice_sandstone_hopper_down" },
        "variant=india": { "model": "conquest:base_sandstone_hopper_down" },
        "variant=juliet": { "model": "conquest:base_marblesandstone_hopper_down" },
        "variant=kilo": { "model": "conquest:cornice_marble_hopper_down" },
        "variant=lima": { "model": "conquest:baseplain_marble_hopper_down" },
        "variant=mike": { "model": "conquest:none" },
        "variant=november": { "model": "conquest:marble_smoothwhite_hopper_down" },
        "variant=oscar": { "model": "conquest:none" },
        "variant=papa": { "model": "conquest:bigslab_marble1_hopper_down" }
    }
}