{
    "variants": {
        "half=bottom,variant=alpha": { "model": "conquest:half_cobblestone_fishscalecolorful" },
        "half=bottom,variant=bravo": { "model": "conquest:half_engraveddesign_elven" },
        "half=bottom,variant=charlie": { "model": "conquest:half_wall_seashell" },
        "half=bottom,variant=delta": { "model": "conquest:half_engraveddesigns_elven1" },
        "half=bottom,variant=echo": { "model": "conquest:half_pillar_dwarvenschist1" },
        "half=bottom,variant=fox": { "model": "conquest:half_schist_dwarvendesign" },
        "half=bottom,variant=golf": { "model": "conquest:half_plaster_peachworn" },
        "half=bottom,variant=hotel": { "model": "conquest:half_plaster_darkbrownworn" },
        "half=top,variant=alpha": { "model": "conquest:upper_cobblestone_fishscalecolorful" },
        "half=top,variant=bravo": { "model": "conquest:upper_engraveddesign_elven" },
        "half=top,variant=charlie": { "model": "conquest:upper_wall_seashell" },
        "half=top,variant=delta": { "model": "conquest:upper_engraveddesigns_elven1" },
        "half=top,variant=echo": { "model": "conquest:upper_pillar_dwarvenschist1" },
        "half=top,variant=fox": { "model": "conquest:upper_schist_dwarvendesign" },
        "half=top,variant=golf": { "model": "conquest:upper_plaster_peachworn" },
        "half=top,variant=hotel": { "model": "conquest:upper_plaster_darkbrownworn" }
    }
}