{
    "variants": {
        "variant=alpha": { "model": "conquest:roman_marble_blue" },
        "variant=bravo": { "model": "conquest:roman_marble_gray" },
        "variant=charlie": { "model": "conquest:roman_marble_green" },
        "variant=delta": { "model": "conquest:roman_marble_pink" },
        "variant=echo": { "model": "conquest:roman_marble_red" },
        "variant=fox": { "model": "conquest:roman_brick_dark" },
        "variant=golf": { "model": "conquest:roman_brick_dark_stacked" },
        "variant=hotel": { "model": "conquest:roman_brick_stacked" },
        "variant=india": { "model": "conquest:tudorframe_narrowslash_full" },
        "variant=juliet": { "model": "conquest:tudorframe_narrowbackslash_full" },
        "variant=kilo": { "model": "conquest:tudorframe_darknarrowslash_full" },
        "variant=lima": { "model": "conquest:tudorframe_darknarrowbackslash_full" },
        "variant=mike": { "model": "conquest:tudorframe_bricknarrowslash_full" },
        "variant=november": { "model": "conquest:tudorframe_bricknarrowbackslash_full" },
        "variant=oscar": { "model": "conquest:tudorframe_darkbricknarrowslash_full" },
        "variant=papa": { "model": "conquest:tudorframe_darkbricknarrowbackslash_full" }
    }
}