{
    "variants": {
        "facing=east,variant=alpha": { "model": "conquest:base_redmarble_trapdoor_open", "y": 90 },
        "facing=south,variant=alpha": { "model": "conquest:base_redmarble_trapdoor_open", "y": 180 },
        "facing=west,variant=alpha": { "model": "conquest:base_redmarble_trapdoor_open", "y": 270 },
        "facing=north,variant=alpha": { "model": "conquest:base_redmarble_trapdoor_open" },
        "facing=up,variant=alpha": { "model": "conquest:base_redmarble_trapdoor_bottom" },
        "facing=down,variant=alpha": { "model": "conquest:base_redmarble_trapdoor_top" },

        "facing=east,variant=bravo": { "model": "conquest:capital_redsandstone_trapdoor_open", "y": 90 },
        "facing=south,variant=bravo": { "model": "conquest:capital_redsandstone_trapdoor_open", "y": 180 },
        "facing=west,variant=bravo": { "model": "conquest:capital_redsandstone_trapdoor_open", "y": 270 },
        "facing=north,variant=bravo": { "model": "conquest:capital_redsandstone_trapdoor_open" },
        "facing=up,variant=bravo": { "model": "conquest:capital_redsandstone_trapdoor_bottom" },
        "facing=down,variant=bravo": { "model": "conquest:capital_redsandstone_trapdoor_top" }
    }
}
