{
    "variants": {
        "facing=south,variant=alpha": { "model": "conquest:brick_romansandstone_verticalslab", "y": 270, "uvlock": true },
        "facing=west,variant=alpha": { "model": "conquest:brick_romansandstone_verticalslab", "uvlock": true },
        "facing=north,variant=alpha": { "model": "conquest:brick_romansandstone_verticalslab", "y": 90, "uvlock": true },
        "facing=east,variant=alpha": { "model": "conquest:brick_romansandstone_verticalslab", "y": 180, "uvlock": true },

        "facing=south,variant=bravo": { "model": "conquest:tudorframe_narrowslash_verticalslab", "y": 270, "uvlock": true },
        "facing=west,variant=bravo": { "model": "conquest:tudorframe_narrowslash_verticalslab", "uvlock": true },
        "facing=north,variant=bravo": { "model": "conquest:tudorframe_narrowslash_verticalslab", "y": 90, "uvlock": true },
        "facing=east,variant=bravo": { "model": "conquest:tudorframe_narrowslash_verticalslab", "y": 180, "uvlock": true },

        "facing=south,variant=charlie": { "model": "conquest:tudorframe_narrowbackslash_verticalslab", "y": 270, "uvlock": true },
        "facing=west,variant=charlie": { "model": "conquest:tudorframe_narrowbackslash_verticalslab", "uvlock": true },
        "facing=north,variant=charlie": { "model": "conquest:tudorframe_narrowbackslash_verticalslab", "y": 90, "uvlock": true },
        "facing=east,variant=charlie": { "model": "conquest:tudorframe_narrowbackslash_verticalslab", "y": 180, "uvlock": true },

        "facing=south,variant=delta": { "model": "conquest:tudorframe_darknarrowslash_verticalslab", "y": 270, "uvlock": true },
        "facing=west,variant=delta": { "model": "conquest:tudorframe_darknarrowslash_verticalslab", "uvlock": true },
        "facing=north,variant=delta": { "model": "conquest:tudorframe_darknarrowslash_verticalslab", "y": 90, "uvlock": true },
        "facing=east,variant=delta": { "model": "conquest:tudorframe_darknarrowslash_verticalslab", "y": 180, "uvlock": true }
    }
}