{
    "variants": {
        "facing=south,variant=alpha": { "model": "conquest:marble_pink_verticalslab", "y": 270, "uvlock": true },
        "facing=west,variant=alpha": { "model": "conquest:marble_pink_verticalslab", "uvlock": true },
        "facing=north,variant=alpha": { "model": "conquest:marble_pink_verticalslab", "y": 90, "uvlock": true },
        "facing=east,variant=alpha": { "model": "conquest:marble_pink_verticalslab", "y": 180, "uvlock": true },

        "facing=south,variant=bravo": { "model": "conquest:marble_red_verticalslab", "y": 270, "uvlock": true },
        "facing=west,variant=bravo": { "model": "conquest:marble_red_verticalslab", "uvlock": true },
        "facing=north,variant=bravo": { "model": "conquest:marble_red_verticalslab", "y": 90, "uvlock": true },
        "facing=east,variant=bravo": { "model": "conquest:marble_red_verticalslab", "y": 180, "uvlock": true },

        "facing=south,variant=charlie": { "model": "conquest:brick_darkroman_verticalslab", "y": 270, "uvlock": true },
        "facing=west,variant=charlie": { "model": "conquest:brick_darkroman_verticalslab", "uvlock": true },
        "facing=north,variant=charlie": { "model": "conquest:brick_darkroman_verticalslab", "y": 90, "uvlock": true },
        "facing=east,variant=charlie": { "model": "conquest:brick_darkroman_verticalslab", "y": 180, "uvlock": true },

        "facing=south,variant=delta": { "model": "conquest:brick_darkromansandstone_verticalslab", "y": 270, "uvlock": true },
        "facing=west,variant=delta": { "model": "conquest:brick_darkromansandstone_verticalslab", "uvlock": true },
        "facing=north,variant=delta": { "model": "conquest:brick_darkromansandstone_verticalslab", "y": 90, "uvlock": true },
        "facing=east,variant=delta": { "model": "conquest:brick_darkromansandstone_verticalslab", "y": 180, "uvlock": true }
    }
}