{
    "variants": {
        "variant=alpha": { "model": "conquest:claylightdarkclean" },
        "variant=bravo": { "model": "conquest:clayyellowclean" },
        "variant=charlie": { "model": "conquest:claywhiteclean" },
        "variant=delta": { "model": "conquest:claypurpleclean" },
        "variant=echo": { "model": "conquest:clayorangesavanna" },
        "variant=fox": { "model": "conquest:roman_clay_cyan" },
        "variant=golf": { "model": "conquest:roman_clay_blue" },
        "variant=hotel": { "model": "conquest:roman_wool_pink" },
        "variant=india": { "model": "conquest:roman_clay_white" },
        "variant=juliet": { "model": "conquest:roman_clay_yellow" },
        "variant=kilo": { "model": "conquest:roman_clay_red" },
        "variant=lima": { "model": "conquest:roman_wool_yellow" },
        "variant=mike": { "model": "conquest:roman_hardclay_silver" },
        "variant=november": { "model": "conquest:roman_hardclay_white" },
        "variant=oscar": { "model": "conquest:roman_clay_brown" },
        "variant=papa": { "model": "conquest:roman_hardclay_brown" }
    }
}