{
    "variants": {
        "facing=south,variant=alpha": { "model": "conquest:plaster_lightgray_verticalslab", "y": 270, "uvlock": true },
        "facing=west,variant=alpha": { "model": "conquest:plaster_lightgray_verticalslab", "uvlock": true },
        "facing=north,variant=alpha": { "model": "conquest:plaster_lightgray_verticalslab", "y": 90, "uvlock": true },
        "facing=east,variant=alpha": { "model": "conquest:plaster_lightgray_verticalslab", "y": 180, "uvlock": true },

        "facing=south,variant=bravo": { "model": "conquest:plaster_purple_verticalslab", "y": 270, "uvlock": true },
        "facing=west,variant=bravo": { "model": "conquest:plaster_purple_verticalslab", "uvlock": true },
        "facing=north,variant=bravo": { "model": "conquest:plaster_purple_verticalslab", "y": 90, "uvlock": true },
        "facing=east,variant=bravo": { "model": "conquest:plaster_purple_verticalslab", "y": 180, "uvlock": true },

        "facing=south,variant=charlie": { "model": "conquest:prismarine_normal_verticalslab", "y": 270, "uvlock": true },
        "facing=west,variant=charlie": { "model": "conquest:prismarine_normal_verticalslab", "uvlock": true },
        "facing=north,variant=charlie": { "model": "conquest:prismarine_normal_verticalslab", "y": 90, "uvlock": true },
        "facing=east,variant=charlie": { "model": "conquest:prismarine_normal_verticalslab", "y": 180, "uvlock": true },

        "facing=south,variant=delta": { "model": "conquest:prismarine_bricks_verticalslab", "y": 270, "uvlock": true },
        "facing=west,variant=delta": { "model": "conquest:prismarine_bricks_verticalslab", "uvlock": true },
        "facing=north,variant=delta": { "model": "conquest:prismarine_bricks_verticalslab", "y": 90, "uvlock": true },
        "facing=east,variant=delta": { "model": "conquest:prismarine_bricks_verticalslab", "y": 180, "uvlock": true }
    }
}