{
    "variants": {
        "east=false,north=false,south=false,up=false,variant=alpha,west=false": { "model": "conquest:forlond_marblebase_wall_post" },
        "east=false,north=true,south=false,up=false,variant=alpha,west=false":  { "model": "conquest:forlond_marblebase_wall_n" },
        "east=true,north=false,south=false,up=false,variant=alpha,west=false":  { "model": "conquest:forlond_marblebase_wall_n", "y": 90, "uvlock": true },
        "east=false,north=false,south=true,up=false,variant=alpha,west=false":  { "model": "conquest:forlond_marblebase_wall_n", "y": 180, "uvlock": true },
        "east=false,north=false,south=false,up=false,variant=alpha,west=true":  { "model": "conquest:forlond_marblebase_wall_n", "y": 270, "uvlock": true },
        "east=true,north=true,south=false,up=false,variant=alpha,west=false":   { "model": "conquest:forlond_marblebase_wall_ne" },
        "east=true,north=false,south=true,up=false,variant=alpha,west=false":   { "model": "conquest:forlond_marblebase_wall_ne", "y": 90, "uvlock": true },
        "east=false,north=false,south=true,up=false,variant=alpha,west=true":   { "model": "conquest:forlond_marblebase_wall_ne", "y": 180, "uvlock": true },
        "east=false,north=true,south=false,up=false,variant=alpha,west=true":   { "model": "conquest:forlond_marblebase_wall_ne", "y": 270, "uvlock": true },
        "east=false,north=true,south=true,up=false,variant=alpha,west=false":   { "model": "conquest:forlond_marblebase_wall_ns" },
        "east=true,north=false,south=false,up=false,variant=alpha,west=true":   { "model": "conquest:forlond_marblebase_wall_ns", "y": 90, "uvlock": true },
        "east=true,north=true,south=true,up=false,variant=alpha,west=false":    { "model": "conquest:forlond_marblebase_wall_nse" },
        "east=true,north=false,south=true,up=false,variant=alpha,west=true":    { "model": "conquest:forlond_marblebase_wall_nse", "y": 90, "uvlock": true },
        "east=false,north=true,south=true,up=false,variant=alpha,west=true":    { "model": "conquest:forlond_marblebase_wall_nse", "y": 180, "uvlock": true },
        "east=true,north=true,south=false,up=false,variant=alpha,west=true":    { "model": "conquest:forlond_marblebase_wall_nse", "y": 270, "uvlock": true },
        "east=true,north=true,south=true,up=false,variant=alpha,west=true":     { "model": "conquest:forlond_marblebase_wall_nsew" },
        "east=false,north=false,south=false,up=true,variant=alpha,west=false":  { "model": "conquest:forlond_marblebase_wall_post" },
        "east=false,north=true,south=false,up=true,variant=alpha,west=false":   { "model": "conquest:forlond_marblebase_wall_n" },
        "east=true,north=false,south=false,up=true,variant=alpha,west=false":   { "model": "conquest:forlond_marblebase_wall_n", "y": 90, "uvlock": true },
        "east=false,north=false,south=true,up=true,variant=alpha,west=false":   { "model": "conquest:forlond_marblebase_wall_n", "y": 180, "uvlock": true },
        "east=false,north=false,south=false,up=true,variant=alpha,west=true":   { "model": "conquest:forlond_marblebase_wall_n", "y": 270, "uvlock": true },
        "east=true,north=true,south=false,up=true,variant=alpha,west=false":    { "model": "conquest:forlond_marblebase_wall_ne" },
        "east=true,north=false,south=true,up=true,variant=alpha,west=false":    { "model": "conquest:forlond_marblebase_wall_ne", "y": 90, "uvlock": true },
        "east=false,north=false,south=true,up=true,variant=alpha,west=true":    { "model": "conquest:forlond_marblebase_wall_ne", "y": 180, "uvlock": true },
        "east=false,north=true,south=false,up=true,variant=alpha,west=true":    { "model": "conquest:forlond_marblebase_wall_ne", "y": 270, "uvlock": true },
        "east=false,north=true,south=true,up=true,variant=alpha,west=false":    { "model": "conquest:forlond_marblebase_wall_ns_above" },
        "east=true,north=false,south=false,up=true,variant=alpha,west=true":    { "model": "conquest:forlond_marblebase_wall_ns_above", "y": 90, "uvlock": true },
        "east=true,north=true,south=true,up=true,variant=alpha,west=false":     { "model": "conquest:forlond_marblebase_wall_nse" },
        "east=true,north=false,south=true,up=true,variant=alpha,west=true":     { "model": "conquest:forlond_marblebase_wall_nse", "y": 90, "uvlock": true },
        "east=false,north=true,south=true,up=true,variant=alpha,west=true":     { "model": "conquest:forlond_marblebase_wall_nse", "y": 180, "uvlock": true },
        "east=true,north=true,south=false,up=true,variant=alpha,west=true":     { "model": "conquest:forlond_marblebase_wall_nse", "y": 270, "uvlock": true },
        "east=true,north=true,south=true,up=true,variant=alpha,west=true":      { "model": "conquest:forlond_marblebase_wall_nsew" },


        "east=false,north=false,south=false,up=false,variant=bravo,west=false": { "model": "conquest:forlond_marblebase2_wall_post" },
        "east=false,north=true,south=false,up=false,variant=bravo,west=false":  { "model": "conquest:forlond_marblebase2_wall_n" },
        "east=true,north=false,south=false,up=false,variant=bravo,west=false":  { "model": "conquest:forlond_marblebase2_wall_n", "y": 90, "uvlock": true },
        "east=false,north=false,south=true,up=false,variant=bravo,west=false":  { "model": "conquest:forlond_marblebase2_wall_n", "y": 180, "uvlock": true },
        "east=false,north=false,south=false,up=false,variant=bravo,west=true":  { "model": "conquest:forlond_marblebase2_wall_n", "y": 270, "uvlock": true },
        "east=true,north=true,south=false,up=false,variant=bravo,west=false":   { "model": "conquest:forlond_marblebase2_wall_ne" },
        "east=true,north=false,south=true,up=false,variant=bravo,west=false":   { "model": "conquest:forlond_marblebase2_wall_ne", "y": 90, "uvlock": true },
        "east=false,north=false,south=true,up=false,variant=bravo,west=true":   { "model": "conquest:forlond_marblebase2_wall_ne", "y": 180, "uvlock": true },
        "east=false,north=true,south=false,up=false,variant=bravo,west=true":   { "model": "conquest:forlond_marblebase2_wall_ne", "y": 270, "uvlock": true },
        "east=false,north=true,south=true,up=false,variant=bravo,west=false":   { "model": "conquest:forlond_marblebase2_wall_ns" },
        "east=true,north=false,south=false,up=false,variant=bravo,west=true":   { "model": "conquest:forlond_marblebase2_wall_ns", "y": 90, "uvlock": true },
        "east=true,north=true,south=true,up=false,variant=bravo,west=false":    { "model": "conquest:forlond_marblebase2_wall_nse" },
        "east=true,north=false,south=true,up=false,variant=bravo,west=true":    { "model": "conquest:forlond_marblebase2_wall_nse", "y": 90, "uvlock": true },
        "east=false,north=true,south=true,up=false,variant=bravo,west=true":    { "model": "conquest:forlond_marblebase2_wall_nse", "y": 180, "uvlock": true },
        "east=true,north=true,south=false,up=false,variant=bravo,west=true":    { "model": "conquest:forlond_marblebase2_wall_nse", "y": 270, "uvlock": true },
        "east=true,north=true,south=true,up=false,variant=bravo,west=true":     { "model": "conquest:forlond_marblebase2_wall_nsew" },
        "east=false,north=false,south=false,up=true,variant=bravo,west=false":  { "model": "conquest:forlond_marblebase2_wall_post" },
        "east=false,north=true,south=false,up=true,variant=bravo,west=false":   { "model": "conquest:forlond_marblebase2_wall_n" },
        "east=true,north=false,south=false,up=true,variant=bravo,west=false":   { "model": "conquest:forlond_marblebase2_wall_n", "y": 90, "uvlock": true },
        "east=false,north=false,south=true,up=true,variant=bravo,west=false":   { "model": "conquest:forlond_marblebase2_wall_n", "y": 180, "uvlock": true },
        "east=false,north=false,south=false,up=true,variant=bravo,west=true":   { "model": "conquest:forlond_marblebase2_wall_n", "y": 270, "uvlock": true },
        "east=true,north=true,south=false,up=true,variant=bravo,west=false":    { "model": "conquest:forlond_marblebase2_wall_ne" },
        "east=true,north=false,south=true,up=true,variant=bravo,west=false":    { "model": "conquest:forlond_marblebase2_wall_ne", "y": 90, "uvlock": true },
        "east=false,north=false,south=true,up=true,variant=bravo,west=true":    { "model": "conquest:forlond_marblebase2_wall_ne", "y": 180, "uvlock": true },
        "east=false,north=true,south=false,up=true,variant=bravo,west=true":    { "model": "conquest:forlond_marblebase2_wall_ne", "y": 270, "uvlock": true },
        "east=false,north=true,south=true,up=true,variant=bravo,west=false":    { "model": "conquest:forlond_marblebase2_wall_ns_above" },
        "east=true,north=false,south=false,up=true,variant=bravo,west=true":    { "model": "conquest:forlond_marblebase2_wall_ns_above", "y": 90, "uvlock": true },
        "east=true,north=true,south=true,up=true,variant=bravo,west=false":     { "model": "conquest:forlond_marblebase2_wall_nse" },
        "east=true,north=false,south=true,up=true,variant=bravo,west=true":     { "model": "conquest:forlond_marblebase2_wall_nse", "y": 90, "uvlock": true },
        "east=false,north=true,south=true,up=true,variant=bravo,west=true":     { "model": "conquest:forlond_marblebase2_wall_nse", "y": 180, "uvlock": true },
        "east=true,north=true,south=false,up=true,variant=bravo,west=true":     { "model": "conquest:forlond_marblebase2_wall_nse", "y": 270, "uvlock": true },
        "east=true,north=true,south=true,up=true,variant=bravo,west=true":      { "model": "conquest:forlond_marblebase2_wall_nsew" },


        "east=false,north=false,south=false,up=false,variant=charlie,west=false": { "model": "conquest:plaster_forlond_white_trim_1_wall_post" },
        "east=false,north=true,south=false,up=false,variant=charlie,west=false":  { "model": "conquest:plaster_forlond_white_trim_1_wall_n" },
        "east=true,north=false,south=false,up=false,variant=charlie,west=false":  { "model": "conquest:plaster_forlond_white_trim_1_wall_n", "y": 90, "uvlock": true },
        "east=false,north=false,south=true,up=false,variant=charlie,west=false":  { "model": "conquest:plaster_forlond_white_trim_1_wall_n", "y": 180, "uvlock": true },
        "east=false,north=false,south=false,up=false,variant=charlie,west=true":  { "model": "conquest:plaster_forlond_white_trim_1_wall_n", "y": 270, "uvlock": true },
        "east=true,north=true,south=false,up=false,variant=charlie,west=false":   { "model": "conquest:plaster_forlond_white_trim_1_wall_ne" },
        "east=true,north=false,south=true,up=false,variant=charlie,west=false":   { "model": "conquest:plaster_forlond_white_trim_1_wall_ne", "y": 90, "uvlock": true },
        "east=false,north=false,south=true,up=false,variant=charlie,west=true":   { "model": "conquest:plaster_forlond_white_trim_1_wall_ne", "y": 180, "uvlock": true },
        "east=false,north=true,south=false,up=false,variant=charlie,west=true":   { "model": "conquest:plaster_forlond_white_trim_1_wall_ne", "y": 270, "uvlock": true },
        "east=false,north=true,south=true,up=false,variant=charlie,west=false":   { "model": "conquest:plaster_forlond_white_trim_1_wall_ns" },
        "east=true,north=false,south=false,up=false,variant=charlie,west=true":   { "model": "conquest:plaster_forlond_white_trim_1_wall_ns", "y": 90, "uvlock": true },
        "east=true,north=true,south=true,up=false,variant=charlie,west=false":    { "model": "conquest:plaster_forlond_white_trim_1_wall_nse" },
        "east=true,north=false,south=true,up=false,variant=charlie,west=true":    { "model": "conquest:plaster_forlond_white_trim_1_wall_nse", "y": 90, "uvlock": true },
        "east=false,north=true,south=true,up=false,variant=charlie,west=true":    { "model": "conquest:plaster_forlond_white_trim_1_wall_nse", "y": 180, "uvlock": true },
        "east=true,north=true,south=false,up=false,variant=charlie,west=true":    { "model": "conquest:plaster_forlond_white_trim_1_wall_nse", "y": 270, "uvlock": true },
        "east=true,north=true,south=true,up=false,variant=charlie,west=true":     { "model": "conquest:plaster_forlond_white_trim_1_wall_nsew" },
        "east=false,north=false,south=false,up=true,variant=charlie,west=false":  { "model": "conquest:plaster_forlond_white_trim_1_wall_post" },
        "east=false,north=true,south=false,up=true,variant=charlie,west=false":   { "model": "conquest:plaster_forlond_white_trim_1_wall_n" },
        "east=true,north=false,south=false,up=true,variant=charlie,west=false":   { "model": "conquest:plaster_forlond_white_trim_1_wall_n", "y": 90, "uvlock": true },
        "east=false,north=false,south=true,up=true,variant=charlie,west=false":   { "model": "conquest:plaster_forlond_white_trim_1_wall_n", "y": 180, "uvlock": true },
        "east=false,north=false,south=false,up=true,variant=charlie,west=true":   { "model": "conquest:plaster_forlond_white_trim_1_wall_n", "y": 270, "uvlock": true },
        "east=true,north=true,south=false,up=true,variant=charlie,west=false":    { "model": "conquest:plaster_forlond_white_trim_1_wall_ne" },
        "east=true,north=false,south=true,up=true,variant=charlie,west=false":    { "model": "conquest:plaster_forlond_white_trim_1_wall_ne", "y": 90, "uvlock": true },
        "east=false,north=false,south=true,up=true,variant=charlie,west=true":    { "model": "conquest:plaster_forlond_white_trim_1_wall_ne", "y": 180, "uvlock": true },
        "east=false,north=true,south=false,up=true,variant=charlie,west=true":    { "model": "conquest:plaster_forlond_white_trim_1_wall_ne", "y": 270, "uvlock": true },
        "east=false,north=true,south=true,up=true,variant=charlie,west=false":    { "model": "conquest:plaster_forlond_white_trim_1_wall_ns_above" },
        "east=true,north=false,south=false,up=true,variant=charlie,west=true":    { "model": "conquest:plaster_forlond_white_trim_1_wall_ns_above", "y": 90, "uvlock": true },
        "east=true,north=true,south=true,up=true,variant=charlie,west=false":     { "model": "conquest:plaster_forlond_white_trim_1_wall_nse" },
        "east=true,north=false,south=true,up=true,variant=charlie,west=true":     { "model": "conquest:plaster_forlond_white_trim_1_wall_nse", "y": 90, "uvlock": true },
        "east=false,north=true,south=true,up=true,variant=charlie,west=true":     { "model": "conquest:plaster_forlond_white_trim_1_wall_nse", "y": 180, "uvlock": true },
        "east=true,north=true,south=false,up=true,variant=charlie,west=true":     { "model": "conquest:plaster_forlond_white_trim_1_wall_nse", "y": 270, "uvlock": true },
        "east=true,north=true,south=true,up=true,variant=charlie,west=true":      { "model": "conquest:plaster_forlond_white_trim_1_wall_nsew" },


        "east=false,north=false,south=false,up=false,variant=delta,west=false": { "model": "conquest:plaster_forlond_white_trim_2_wall_post" },
        "east=false,north=true,south=false,up=false,variant=delta,west=false":  { "model": "conquest:plaster_forlond_white_trim_2_wall_n" },
        "east=true,north=false,south=false,up=false,variant=delta,west=false":  { "model": "conquest:plaster_forlond_white_trim_2_wall_n", "y": 90, "uvlock": true },
        "east=false,north=false,south=true,up=false,variant=delta,west=false":  { "model": "conquest:plaster_forlond_white_trim_2_wall_n", "y": 180, "uvlock": true },
        "east=false,north=false,south=false,up=false,variant=delta,west=true":  { "model": "conquest:plaster_forlond_white_trim_2_wall_n", "y": 270, "uvlock": true },
        "east=true,north=true,south=false,up=false,variant=delta,west=false":   { "model": "conquest:plaster_forlond_white_trim_2_wall_ne" },
        "east=true,north=false,south=true,up=false,variant=delta,west=false":   { "model": "conquest:plaster_forlond_white_trim_2_wall_ne", "y": 90, "uvlock": true },
        "east=false,north=false,south=true,up=false,variant=delta,west=true":   { "model": "conquest:plaster_forlond_white_trim_2_wall_ne", "y": 180, "uvlock": true },
        "east=false,north=true,south=false,up=false,variant=delta,west=true":   { "model": "conquest:plaster_forlond_white_trim_2_wall_ne", "y": 270, "uvlock": true },
        "east=false,north=true,south=true,up=false,variant=delta,west=false":   { "model": "conquest:plaster_forlond_white_trim_2_wall_ns" },
        "east=true,north=false,south=false,up=false,variant=delta,west=true":   { "model": "conquest:plaster_forlond_white_trim_2_wall_ns", "y": 90, "uvlock": true },
        "east=true,north=true,south=true,up=false,variant=delta,west=false":    { "model": "conquest:plaster_forlond_white_trim_2_wall_nse" },
        "east=true,north=false,south=true,up=false,variant=delta,west=true":    { "model": "conquest:plaster_forlond_white_trim_2_wall_nse", "y": 90, "uvlock": true },
        "east=false,north=true,south=true,up=false,variant=delta,west=true":    { "model": "conquest:plaster_forlond_white_trim_2_wall_nse", "y": 180, "uvlock": true },
        "east=true,north=true,south=false,up=false,variant=delta,west=true":    { "model": "conquest:plaster_forlond_white_trim_2_wall_nse", "y": 270, "uvlock": true },
        "east=true,north=true,south=true,up=false,variant=delta,west=true":     { "model": "conquest:plaster_forlond_white_trim_2_wall_nsew" },
        "east=false,north=false,south=false,up=true,variant=delta,west=false":  { "model": "conquest:plaster_forlond_white_trim_2_wall_post" },
        "east=false,north=true,south=false,up=true,variant=delta,west=false":   { "model": "conquest:plaster_forlond_white_trim_2_wall_n" },
        "east=true,north=false,south=false,up=true,variant=delta,west=false":   { "model": "conquest:plaster_forlond_white_trim_2_wall_n", "y": 90, "uvlock": true },
        "east=false,north=false,south=true,up=true,variant=delta,west=false":   { "model": "conquest:plaster_forlond_white_trim_2_wall_n", "y": 180, "uvlock": true },
        "east=false,north=false,south=false,up=true,variant=delta,west=true":   { "model": "conquest:plaster_forlond_white_trim_2_wall_n", "y": 270, "uvlock": true },
        "east=true,north=true,south=false,up=true,variant=delta,west=false":    { "model": "conquest:plaster_forlond_white_trim_2_wall_ne" },
        "east=true,north=false,south=true,up=true,variant=delta,west=false":    { "model": "conquest:plaster_forlond_white_trim_2_wall_ne", "y": 90, "uvlock": true },
        "east=false,north=false,south=true,up=true,variant=delta,west=true":    { "model": "conquest:plaster_forlond_white_trim_2_wall_ne", "y": 180, "uvlock": true },
        "east=false,north=true,south=false,up=true,variant=delta,west=true":    { "model": "conquest:plaster_forlond_white_trim_2_wall_ne", "y": 270, "uvlock": true },
        "east=false,north=true,south=true,up=true,variant=delta,west=false":    { "model": "conquest:plaster_forlond_white_trim_2_wall_ns_above" },
        "east=true,north=false,south=false,up=true,variant=delta,west=true":    { "model": "conquest:plaster_forlond_white_trim_2_wall_ns_above", "y": 90, "uvlock": true },
        "east=true,north=true,south=true,up=true,variant=delta,west=false":     { "model": "conquest:plaster_forlond_white_trim_2_wall_nse" },
        "east=true,north=false,south=true,up=true,variant=delta,west=true":     { "model": "conquest:plaster_forlond_white_trim_2_wall_nse", "y": 90, "uvlock": true },
        "east=false,north=true,south=true,up=true,variant=delta,west=true":     { "model": "conquest:plaster_forlond_white_trim_2_wall_nse", "y": 180, "uvlock": true },
        "east=true,north=true,south=false,up=true,variant=delta,west=true":     { "model": "conquest:plaster_forlond_white_trim_2_wall_nse", "y": 270, "uvlock": true },
        "east=true,north=true,south=true,up=true,variant=delta,west=true":      { "model": "conquest:plaster_forlond_white_trim_2_wall_nsew" },


        "east=false,north=false,south=false,up=false,variant=echo,west=false": { "model": "conquest:stone_calcite_wall_post" },
        "east=false,north=true,south=false,up=false,variant=echo,west=false":  { "model": "conquest:stone_calcite_wall_n" },
        "east=true,north=false,south=false,up=false,variant=echo,west=false":  { "model": "conquest:stone_calcite_wall_n", "y": 90, "uvlock": true },
        "east=false,north=false,south=true,up=false,variant=echo,west=false":  { "model": "conquest:stone_calcite_wall_n", "y": 180, "uvlock": true },
        "east=false,north=false,south=false,up=false,variant=echo,west=true":  { "model": "conquest:stone_calcite_wall_n", "y": 270, "uvlock": true },
        "east=true,north=true,south=false,up=false,variant=echo,west=false":   { "model": "conquest:stone_calcite_wall_ne" },
        "east=true,north=false,south=true,up=false,variant=echo,west=false":   { "model": "conquest:stone_calcite_wall_ne", "y": 90, "uvlock": true },
        "east=false,north=false,south=true,up=false,variant=echo,west=true":   { "model": "conquest:stone_calcite_wall_ne", "y": 180, "uvlock": true },
        "east=false,north=true,south=false,up=false,variant=echo,west=true":   { "model": "conquest:stone_calcite_wall_ne", "y": 270, "uvlock": true },
        "east=false,north=true,south=true,up=false,variant=echo,west=false":   { "model": "conquest:stone_calcite_wall_ns" },
        "east=true,north=false,south=false,up=false,variant=echo,west=true":   { "model": "conquest:stone_calcite_wall_ns", "y": 90, "uvlock": true },
        "east=true,north=true,south=true,up=false,variant=echo,west=false":    { "model": "conquest:stone_calcite_wall_nse" },
        "east=true,north=false,south=true,up=false,variant=echo,west=true":    { "model": "conquest:stone_calcite_wall_nse", "y": 90, "uvlock": true },
        "east=false,north=true,south=true,up=false,variant=echo,west=true":    { "model": "conquest:stone_calcite_wall_nse", "y": 180, "uvlock": true },
        "east=true,north=true,south=false,up=false,variant=echo,west=true":    { "model": "conquest:stone_calcite_wall_nse", "y": 270, "uvlock": true },
        "east=true,north=true,south=true,up=false,variant=echo,west=true":     { "model": "conquest:stone_calcite_wall_nsew" },
        "east=false,north=false,south=false,up=true,variant=echo,west=false":  { "model": "conquest:stone_calcite_wall_post" },
        "east=false,north=true,south=false,up=true,variant=echo,west=false":   { "model": "conquest:stone_calcite_wall_n" },
        "east=true,north=false,south=false,up=true,variant=echo,west=false":   { "model": "conquest:stone_calcite_wall_n", "y": 90, "uvlock": true },
        "east=false,north=false,south=true,up=true,variant=echo,west=false":   { "model": "conquest:stone_calcite_wall_n", "y": 180, "uvlock": true },
        "east=false,north=false,south=false,up=true,variant=echo,west=true":   { "model": "conquest:stone_calcite_wall_n", "y": 270, "uvlock": true },
        "east=true,north=true,south=false,up=true,variant=echo,west=false":    { "model": "conquest:stone_calcite_wall_ne" },
        "east=true,north=false,south=true,up=true,variant=echo,west=false":    { "model": "conquest:stone_calcite_wall_ne", "y": 90, "uvlock": true },
        "east=false,north=false,south=true,up=true,variant=echo,west=true":    { "model": "conquest:stone_calcite_wall_ne", "y": 180, "uvlock": true },
        "east=false,north=true,south=false,up=true,variant=echo,west=true":    { "model": "conquest:stone_calcite_wall_ne", "y": 270, "uvlock": true },
        "east=false,north=true,south=true,up=true,variant=echo,west=false":    { "model": "conquest:stone_calcite_wall_ns_above" },
        "east=true,north=false,south=false,up=true,variant=echo,west=true":    { "model": "conquest:stone_calcite_wall_ns_above", "y": 90, "uvlock": true },
        "east=true,north=true,south=true,up=true,variant=echo,west=false":     { "model": "conquest:stone_calcite_wall_nse" },
        "east=true,north=false,south=true,up=true,variant=echo,west=true":     { "model": "conquest:stone_calcite_wall_nse", "y": 90, "uvlock": true },
        "east=false,north=true,south=true,up=true,variant=echo,west=true":     { "model": "conquest:stone_calcite_wall_nse", "y": 180, "uvlock": true },
        "east=true,north=true,south=false,up=true,variant=echo,west=true":     { "model": "conquest:stone_calcite_wall_nse", "y": 270, "uvlock": true },
        "east=true,north=true,south=true,up=true,variant=echo,west=true":      { "model": "conquest:stone_calcite_wall_nsew" },


        "east=false,north=false,south=false,up=false,variant=fox,west=false": { "model": "conquest:stone_calcitesmooth_wall_post" },
        "east=false,north=true,south=false,up=false,variant=fox,west=false":  { "model": "conquest:stone_calcitesmooth_wall_n" },
        "east=true,north=false,south=false,up=false,variant=fox,west=false":  { "model": "conquest:stone_calcitesmooth_wall_n", "y": 90, "uvlock": true },
        "east=false,north=false,south=true,up=false,variant=fox,west=false":  { "model": "conquest:stone_calcitesmooth_wall_n", "y": 180, "uvlock": true },
        "east=false,north=false,south=false,up=false,variant=fox,west=true":  { "model": "conquest:stone_calcitesmooth_wall_n", "y": 270, "uvlock": true },
        "east=true,north=true,south=false,up=false,variant=fox,west=false":   { "model": "conquest:stone_calcitesmooth_wall_ne" },
        "east=true,north=false,south=true,up=false,variant=fox,west=false":   { "model": "conquest:stone_calcitesmooth_wall_ne", "y": 90, "uvlock": true },
        "east=false,north=false,south=true,up=false,variant=fox,west=true":   { "model": "conquest:stone_calcitesmooth_wall_ne", "y": 180, "uvlock": true },
        "east=false,north=true,south=false,up=false,variant=fox,west=true":   { "model": "conquest:stone_calcitesmooth_wall_ne", "y": 270, "uvlock": true },
        "east=false,north=true,south=true,up=false,variant=fox,west=false":   { "model": "conquest:stone_calcitesmooth_wall_ns" },
        "east=true,north=false,south=false,up=false,variant=fox,west=true":   { "model": "conquest:stone_calcitesmooth_wall_ns", "y": 90, "uvlock": true },
        "east=true,north=true,south=true,up=false,variant=fox,west=false":    { "model": "conquest:stone_calcitesmooth_wall_nse" },
        "east=true,north=false,south=true,up=false,variant=fox,west=true":    { "model": "conquest:stone_calcitesmooth_wall_nse", "y": 90, "uvlock": true },
        "east=false,north=true,south=true,up=false,variant=fox,west=true":    { "model": "conquest:stone_calcitesmooth_wall_nse", "y": 180, "uvlock": true },
        "east=true,north=true,south=false,up=false,variant=fox,west=true":    { "model": "conquest:stone_calcitesmooth_wall_nse", "y": 270, "uvlock": true },
        "east=true,north=true,south=true,up=false,variant=fox,west=true":     { "model": "conquest:stone_calcitesmooth_wall_nsew" },
        "east=false,north=false,south=false,up=true,variant=fox,west=false":  { "model": "conquest:stone_calcitesmooth_wall_post" },
        "east=false,north=true,south=false,up=true,variant=fox,west=false":   { "model": "conquest:stone_calcitesmooth_wall_n" },
        "east=true,north=false,south=false,up=true,variant=fox,west=false":   { "model": "conquest:stone_calcitesmooth_wall_n", "y": 90, "uvlock": true },
        "east=false,north=false,south=true,up=true,variant=fox,west=false":   { "model": "conquest:stone_calcitesmooth_wall_n", "y": 180, "uvlock": true },
        "east=false,north=false,south=false,up=true,variant=fox,west=true":   { "model": "conquest:stone_calcitesmooth_wall_n", "y": 270, "uvlock": true },
        "east=true,north=true,south=false,up=true,variant=fox,west=false":    { "model": "conquest:stone_calcitesmooth_wall_ne" },
        "east=true,north=false,south=true,up=true,variant=fox,west=false":    { "model": "conquest:stone_calcitesmooth_wall_ne", "y": 90, "uvlock": true },
        "east=false,north=false,south=true,up=true,variant=fox,west=true":    { "model": "conquest:stone_calcitesmooth_wall_ne", "y": 180, "uvlock": true },
        "east=false,north=true,south=false,up=true,variant=fox,west=true":    { "model": "conquest:stone_calcitesmooth_wall_ne", "y": 270, "uvlock": true },
        "east=false,north=true,south=true,up=true,variant=fox,west=false":    { "model": "conquest:stone_calcitesmooth_wall_ns_above" },
        "east=true,north=false,south=false,up=true,variant=fox,west=true":    { "model": "conquest:stone_calcitesmooth_wall_ns_above", "y": 90, "uvlock": true },
        "east=true,north=true,south=true,up=true,variant=fox,west=false":     { "model": "conquest:stone_calcitesmooth_wall_nse" },
        "east=true,north=false,south=true,up=true,variant=fox,west=true":     { "model": "conquest:stone_calcitesmooth_wall_nse", "y": 90, "uvlock": true },
        "east=false,north=true,south=true,up=true,variant=fox,west=true":     { "model": "conquest:stone_calcitesmooth_wall_nse", "y": 180, "uvlock": true },
        "east=true,north=true,south=false,up=true,variant=fox,west=true":     { "model": "conquest:stone_calcitesmooth_wall_nse", "y": 270, "uvlock": true },
        "east=true,north=true,south=true,up=true,variant=fox,west=true":      { "model": "conquest:stone_calcitesmooth_wall_nsew" },


        "east=false,north=false,south=false,up=false,variant=golf,west=false": { "model": "conquest:stonebrick_ruined_wall_post" },
        "east=false,north=true,south=false,up=false,variant=golf,west=false":  { "model": "conquest:stonebrick_ruined_wall_n" },
        "east=true,north=false,south=false,up=false,variant=golf,west=false":  { "model": "conquest:stonebrick_ruined_wall_n", "y": 90, "uvlock": true },
        "east=false,north=false,south=true,up=false,variant=golf,west=false":  { "model": "conquest:stonebrick_ruined_wall_n", "y": 180, "uvlock": true },
        "east=false,north=false,south=false,up=false,variant=golf,west=true":  { "model": "conquest:stonebrick_ruined_wall_n", "y": 270, "uvlock": true },
        "east=true,north=true,south=false,up=false,variant=golf,west=false":   { "model": "conquest:stonebrick_ruined_wall_ne" },
        "east=true,north=false,south=true,up=false,variant=golf,west=false":   { "model": "conquest:stonebrick_ruined_wall_ne", "y": 90, "uvlock": true },
        "east=false,north=false,south=true,up=false,variant=golf,west=true":   { "model": "conquest:stonebrick_ruined_wall_ne", "y": 180, "uvlock": true },
        "east=false,north=true,south=false,up=false,variant=golf,west=true":   { "model": "conquest:stonebrick_ruined_wall_ne", "y": 270, "uvlock": true },
        "east=false,north=true,south=true,up=false,variant=golf,west=false":   { "model": "conquest:stonebrick_ruined_wall_ns" },
        "east=true,north=false,south=false,up=false,variant=golf,west=true":   { "model": "conquest:stonebrick_ruined_wall_ns", "y": 90, "uvlock": true },
        "east=true,north=true,south=true,up=false,variant=golf,west=false":    { "model": "conquest:stonebrick_ruined_wall_nse" },
        "east=true,north=false,south=true,up=false,variant=golf,west=true":    { "model": "conquest:stonebrick_ruined_wall_nse", "y": 90, "uvlock": true },
        "east=false,north=true,south=true,up=false,variant=golf,west=true":    { "model": "conquest:stonebrick_ruined_wall_nse", "y": 180, "uvlock": true },
        "east=true,north=true,south=false,up=false,variant=golf,west=true":    { "model": "conquest:stonebrick_ruined_wall_nse", "y": 270, "uvlock": true },
        "east=true,north=true,south=true,up=false,variant=golf,west=true":     { "model": "conquest:stonebrick_ruined_wall_nsew" },
        "east=false,north=false,south=false,up=true,variant=golf,west=false":  { "model": "conquest:stonebrick_ruined_wall_post" },
        "east=false,north=true,south=false,up=true,variant=golf,west=false":   { "model": "conquest:stonebrick_ruined_wall_n" },
        "east=true,north=false,south=false,up=true,variant=golf,west=false":   { "model": "conquest:stonebrick_ruined_wall_n", "y": 90, "uvlock": true },
        "east=false,north=false,south=true,up=true,variant=golf,west=false":   { "model": "conquest:stonebrick_ruined_wall_n", "y": 180, "uvlock": true },
        "east=false,north=false,south=false,up=true,variant=golf,west=true":   { "model": "conquest:stonebrick_ruined_wall_n", "y": 270, "uvlock": true },
        "east=true,north=true,south=false,up=true,variant=golf,west=false":    { "model": "conquest:stonebrick_ruined_wall_ne" },
        "east=true,north=false,south=true,up=true,variant=golf,west=false":    { "model": "conquest:stonebrick_ruined_wall_ne", "y": 90, "uvlock": true },
        "east=false,north=false,south=true,up=true,variant=golf,west=true":    { "model": "conquest:stonebrick_ruined_wall_ne", "y": 180, "uvlock": true },
        "east=false,north=true,south=false,up=true,variant=golf,west=true":    { "model": "conquest:stonebrick_ruined_wall_ne", "y": 270, "uvlock": true },
        "east=false,north=true,south=true,up=true,variant=golf,west=false":    { "model": "conquest:stonebrick_ruined_wall_ns_above" },
        "east=true,north=false,south=false,up=true,variant=golf,west=true":    { "model": "conquest:stonebrick_ruined_wall_ns_above", "y": 90, "uvlock": true },
        "east=true,north=true,south=true,up=true,variant=golf,west=false":     { "model": "conquest:stonebrick_ruined_wall_nse" },
        "east=true,north=false,south=true,up=true,variant=golf,west=true":     { "model": "conquest:stonebrick_ruined_wall_nse", "y": 90, "uvlock": true },
        "east=false,north=true,south=true,up=true,variant=golf,west=true":     { "model": "conquest:stonebrick_ruined_wall_nse", "y": 180, "uvlock": true },
        "east=true,north=true,south=false,up=true,variant=golf,west=true":     { "model": "conquest:stonebrick_ruined_wall_nse", "y": 270, "uvlock": true },
        "east=true,north=true,south=true,up=true,variant=golf,west=true":      { "model": "conquest:stonebrick_ruined_wall_nsew" },


        "east=false,north=false,south=false,up=false,variant=hotel,west=false": { "model": "conquest:capitalcorinthian_polychrome_wall_post" },
        "east=false,north=true,south=false,up=false,variant=hotel,west=false":  { "model": "conquest:capitalcorinthian_polychrome_wall_n" },
        "east=true,north=false,south=false,up=false,variant=hotel,west=false":  { "model": "conquest:capitalcorinthian_polychrome_wall_n", "y": 90, "uvlock": true },
        "east=false,north=false,south=true,up=false,variant=hotel,west=false":  { "model": "conquest:capitalcorinthian_polychrome_wall_n", "y": 180, "uvlock": true },
        "east=false,north=false,south=false,up=false,variant=hotel,west=true":  { "model": "conquest:capitalcorinthian_polychrome_wall_n", "y": 270, "uvlock": true },
        "east=true,north=true,south=false,up=false,variant=hotel,west=false":   { "model": "conquest:capitalcorinthian_polychrome_wall_ne" },
        "east=true,north=false,south=true,up=false,variant=hotel,west=false":   { "model": "conquest:capitalcorinthian_polychrome_wall_ne", "y": 90, "uvlock": true },
        "east=false,north=false,south=true,up=false,variant=hotel,west=true":   { "model": "conquest:capitalcorinthian_polychrome_wall_ne", "y": 180, "uvlock": true },
        "east=false,north=true,south=false,up=false,variant=hotel,west=true":   { "model": "conquest:capitalcorinthian_polychrome_wall_ne", "y": 270, "uvlock": true },
        "east=false,north=true,south=true,up=false,variant=hotel,west=false":   { "model": "conquest:capitalcorinthian_polychrome_wall_ns" },
        "east=true,north=false,south=false,up=false,variant=hotel,west=true":   { "model": "conquest:capitalcorinthian_polychrome_wall_ns", "y": 90, "uvlock": true },
        "east=true,north=true,south=true,up=false,variant=hotel,west=false":    { "model": "conquest:capitalcorinthian_polychrome_wall_nse" },
        "east=true,north=false,south=true,up=false,variant=hotel,west=true":    { "model": "conquest:capitalcorinthian_polychrome_wall_nse", "y": 90, "uvlock": true },
        "east=false,north=true,south=true,up=false,variant=hotel,west=true":    { "model": "conquest:capitalcorinthian_polychrome_wall_nse", "y": 180, "uvlock": true },
        "east=true,north=true,south=false,up=false,variant=hotel,west=true":    { "model": "conquest:capitalcorinthian_polychrome_wall_nse", "y": 270, "uvlock": true },
        "east=true,north=true,south=true,up=false,variant=hotel,west=true":     { "model": "conquest:capitalcorinthian_polychrome_wall_nsew" },
        "east=false,north=false,south=false,up=true,variant=hotel,west=false":  { "model": "conquest:capitalcorinthian_polychrome_wall_post" },
        "east=false,north=true,south=false,up=true,variant=hotel,west=false":   { "model": "conquest:capitalcorinthian_polychrome_wall_n" },
        "east=true,north=false,south=false,up=true,variant=hotel,west=false":   { "model": "conquest:capitalcorinthian_polychrome_wall_n", "y": 90, "uvlock": true },
        "east=false,north=false,south=true,up=true,variant=hotel,west=false":   { "model": "conquest:capitalcorinthian_polychrome_wall_n", "y": 180, "uvlock": true },
        "east=false,north=false,south=false,up=true,variant=hotel,west=true":   { "model": "conquest:capitalcorinthian_polychrome_wall_n", "y": 270, "uvlock": true },
        "east=true,north=true,south=false,up=true,variant=hotel,west=false":    { "model": "conquest:capitalcorinthian_polychrome_wall_ne" },
        "east=true,north=false,south=true,up=true,variant=hotel,west=false":    { "model": "conquest:capitalcorinthian_polychrome_wall_ne", "y": 90, "uvlock": true },
        "east=false,north=false,south=true,up=true,variant=hotel,west=true":    { "model": "conquest:capitalcorinthian_polychrome_wall_ne", "y": 180, "uvlock": true },
        "east=false,north=true,south=false,up=true,variant=hotel,west=true":    { "model": "conquest:capitalcorinthian_polychrome_wall_ne", "y": 270, "uvlock": true },
        "east=false,north=true,south=true,up=true,variant=hotel,west=false":    { "model": "conquest:capitalcorinthian_polychrome_wall_ns" },
        "east=true,north=false,south=false,up=true,variant=hotel,west=true":    { "model": "conquest:capitalcorinthian_polychrome_wall_ns", "y": 90, "uvlock": true },
        "east=true,north=true,south=true,up=true,variant=hotel,west=false":     { "model": "conquest:capitalcorinthian_polychrome_wall_nse" },
        "east=true,north=false,south=true,up=true,variant=hotel,west=true":     { "model": "conquest:capitalcorinthian_polychrome_wall_nse", "y": 90, "uvlock": true },
        "east=false,north=true,south=true,up=true,variant=hotel,west=true":     { "model": "conquest:capitalcorinthian_polychrome_wall_nse", "y": 180, "uvlock": true },
        "east=true,north=true,south=false,up=true,variant=hotel,west=true":     { "model": "conquest:capitalcorinthian_polychrome_wall_nse", "y": 270, "uvlock": true },
        "east=true,north=true,south=true,up=true,variant=hotel,west=true":      { "model": "conquest:capitalcorinthian_polychrome_wall_nsew" },


        "east=false,north=false,south=false,up=false,variant=india,west=false": { "model": "conquest:capitalionian_marble_wall_post" },
        "east=false,north=true,south=false,up=false,variant=india,west=false":  { "model": "conquest:capitalionian_marble_wall_n" },
        "east=true,north=false,south=false,up=false,variant=india,west=false":  { "model": "conquest:capitalionian_marble_wall_n", "y": 90, "uvlock": true },
        "east=false,north=false,south=true,up=false,variant=india,west=false":  { "model": "conquest:capitalionian_marble_wall_n", "y": 180, "uvlock": true },
        "east=false,north=false,south=false,up=false,variant=india,west=true":  { "model": "conquest:capitalionian_marble_wall_n", "y": 270, "uvlock": true },
        "east=true,north=true,south=false,up=false,variant=india,west=false":   { "model": "conquest:capitalionian_marble_wall_ne" },
        "east=true,north=false,south=true,up=false,variant=india,west=false":   { "model": "conquest:capitalionian_marble_wall_ne", "y": 90, "uvlock": true },
        "east=false,north=false,south=true,up=false,variant=india,west=true":   { "model": "conquest:capitalionian_marble_wall_ne", "y": 180, "uvlock": true },
        "east=false,north=true,south=false,up=false,variant=india,west=true":   { "model": "conquest:capitalionian_marble_wall_ne", "y": 270, "uvlock": true },
        "east=false,north=true,south=true,up=false,variant=india,west=false":   { "model": "conquest:capitalionian_marble_wall_ns" },
        "east=true,north=false,south=false,up=false,variant=india,west=true":   { "model": "conquest:capitalionian_marble_wall_ns", "y": 90, "uvlock": true },
        "east=true,north=true,south=true,up=false,variant=india,west=false":    { "model": "conquest:capitalionian_marble_wall_nse" },
        "east=true,north=false,south=true,up=false,variant=india,west=true":    { "model": "conquest:capitalionian_marble_wall_nse", "y": 90, "uvlock": true },
        "east=false,north=true,south=true,up=false,variant=india,west=true":    { "model": "conquest:capitalionian_marble_wall_nse", "y": 180, "uvlock": true },
        "east=true,north=true,south=false,up=false,variant=india,west=true":    { "model": "conquest:capitalionian_marble_wall_nse", "y": 270, "uvlock": true },
        "east=true,north=true,south=true,up=false,variant=india,west=true":     { "model": "conquest:capitalionian_marble_wall_nsew" },
        "east=false,north=false,south=false,up=true,variant=india,west=false":  { "model": "conquest:capitalionian_marble_wall_post" },
        "east=false,north=true,south=false,up=true,variant=india,west=false":   { "model": "conquest:capitalionian_marble_wall_n" },
        "east=true,north=false,south=false,up=true,variant=india,west=false":   { "model": "conquest:capitalionian_marble_wall_n", "y": 90, "uvlock": true },
        "east=false,north=false,south=true,up=true,variant=india,west=false":   { "model": "conquest:capitalionian_marble_wall_n", "y": 180, "uvlock": true },
        "east=false,north=false,south=false,up=true,variant=india,west=true":   { "model": "conquest:capitalionian_marble_wall_n", "y": 270, "uvlock": true },
        "east=true,north=true,south=false,up=true,variant=india,west=false":    { "model": "conquest:capitalionian_marble_wall_ne" },
        "east=true,north=false,south=true,up=true,variant=india,west=false":    { "model": "conquest:capitalionian_marble_wall_ne", "y": 90, "uvlock": true },
        "east=false,north=false,south=true,up=true,variant=india,west=true":    { "model": "conquest:capitalionian_marble_wall_ne", "y": 180, "uvlock": true },
        "east=false,north=true,south=false,up=true,variant=india,west=true":    { "model": "conquest:capitalionian_marble_wall_ne", "y": 270, "uvlock": true },
        "east=false,north=true,south=true,up=true,variant=india,west=false":    { "model": "conquest:capitalionian_marble_wall_ns" },
        "east=true,north=false,south=false,up=true,variant=india,west=true":    { "model": "conquest:capitalionian_marble_wall_ns", "y": 90, "uvlock": true },
        "east=true,north=true,south=true,up=true,variant=india,west=false":     { "model": "conquest:capitalionian_marble_wall_nse" },
        "east=true,north=false,south=true,up=true,variant=india,west=true":     { "model": "conquest:capitalionian_marble_wall_nse", "y": 90, "uvlock": true },
        "east=false,north=true,south=true,up=true,variant=india,west=true":     { "model": "conquest:capitalionian_marble_wall_nse", "y": 180, "uvlock": true },
        "east=true,north=true,south=false,up=true,variant=india,west=true":     { "model": "conquest:capitalionian_marble_wall_nse", "y": 270, "uvlock": true },
        "east=true,north=true,south=true,up=true,variant=india,west=true":      { "model": "conquest:capitalionian_marble_wall_nsew" },


        "east=false,north=false,south=false,up=false,variant=juliet,west=false": { "model": "conquest:capitalionian_sandstone_wall_post" },
        "east=false,north=true,south=false,up=false,variant=juliet,west=false":  { "model": "conquest:capitalionian_sandstone_wall_n" },
        "east=true,north=false,south=false,up=false,variant=juliet,west=false":  { "model": "conquest:capitalionian_sandstone_wall_n", "y": 90, "uvlock": true },
        "east=false,north=false,south=true,up=false,variant=juliet,west=false":  { "model": "conquest:capitalionian_sandstone_wall_n", "y": 180, "uvlock": true },
        "east=false,north=false,south=false,up=false,variant=juliet,west=true":  { "model": "conquest:capitalionian_sandstone_wall_n", "y": 270, "uvlock": true },
        "east=true,north=true,south=false,up=false,variant=juliet,west=false":   { "model": "conquest:capitalionian_sandstone_wall_ne" },
        "east=true,north=false,south=true,up=false,variant=juliet,west=false":   { "model": "conquest:capitalionian_sandstone_wall_ne", "y": 90, "uvlock": true },
        "east=false,north=false,south=true,up=false,variant=juliet,west=true":   { "model": "conquest:capitalionian_sandstone_wall_ne", "y": 180, "uvlock": true },
        "east=false,north=true,south=false,up=false,variant=juliet,west=true":   { "model": "conquest:capitalionian_sandstone_wall_ne", "y": 270, "uvlock": true },
        "east=false,north=true,south=true,up=false,variant=juliet,west=false":   { "model": "conquest:capitalionian_sandstone_wall_ns" },
        "east=true,north=false,south=false,up=false,variant=juliet,west=true":   { "model": "conquest:capitalionian_sandstone_wall_ns", "y": 90, "uvlock": true },
        "east=true,north=true,south=true,up=false,variant=juliet,west=false":    { "model": "conquest:capitalionian_sandstone_wall_nse" },
        "east=true,north=false,south=true,up=false,variant=juliet,west=true":    { "model": "conquest:capitalionian_sandstone_wall_nse", "y": 90, "uvlock": true },
        "east=false,north=true,south=true,up=false,variant=juliet,west=true":    { "model": "conquest:capitalionian_sandstone_wall_nse", "y": 180, "uvlock": true },
        "east=true,north=true,south=false,up=false,variant=juliet,west=true":    { "model": "conquest:capitalionian_sandstone_wall_nse", "y": 270, "uvlock": true },
        "east=true,north=true,south=true,up=false,variant=juliet,west=true":     { "model": "conquest:capitalionian_sandstone_wall_nsew" },
        "east=false,north=false,south=false,up=true,variant=juliet,west=false":  { "model": "conquest:capitalionian_sandstone_wall_post" },
        "east=false,north=true,south=false,up=true,variant=juliet,west=false":   { "model": "conquest:capitalionian_sandstone_wall_n" },
        "east=true,north=false,south=false,up=true,variant=juliet,west=false":   { "model": "conquest:capitalionian_sandstone_wall_n", "y": 90, "uvlock": true },
        "east=false,north=false,south=true,up=true,variant=juliet,west=false":   { "model": "conquest:capitalionian_sandstone_wall_n", "y": 180, "uvlock": true },
        "east=false,north=false,south=false,up=true,variant=juliet,west=true":   { "model": "conquest:capitalionian_sandstone_wall_n", "y": 270, "uvlock": true },
        "east=true,north=true,south=false,up=true,variant=juliet,west=false":    { "model": "conquest:capitalionian_sandstone_wall_ne" },
        "east=true,north=false,south=true,up=true,variant=juliet,west=false":    { "model": "conquest:capitalionian_sandstone_wall_ne", "y": 90, "uvlock": true },
        "east=false,north=false,south=true,up=true,variant=juliet,west=true":    { "model": "conquest:capitalionian_sandstone_wall_ne", "y": 180, "uvlock": true },
        "east=false,north=true,south=false,up=true,variant=juliet,west=true":    { "model": "conquest:capitalionian_sandstone_wall_ne", "y": 270, "uvlock": true },
        "east=false,north=true,south=true,up=true,variant=juliet,west=false":    { "model": "conquest:capitalionian_sandstone_wall_ns" },
        "east=true,north=false,south=false,up=true,variant=juliet,west=true":    { "model": "conquest:capitalionian_sandstone_wall_ns", "y": 90, "uvlock": true },
        "east=true,north=true,south=true,up=true,variant=juliet,west=false":     { "model": "conquest:capitalionian_sandstone_wall_nse" },
        "east=true,north=false,south=true,up=true,variant=juliet,west=true":     { "model": "conquest:capitalionian_sandstone_wall_nse", "y": 90, "uvlock": true },
        "east=false,north=true,south=true,up=true,variant=juliet,west=true":     { "model": "conquest:capitalionian_sandstone_wall_nse", "y": 180, "uvlock": true },
        "east=true,north=true,south=false,up=true,variant=juliet,west=true":     { "model": "conquest:capitalionian_sandstone_wall_nse", "y": 270, "uvlock": true },
        "east=true,north=true,south=true,up=true,variant=juliet,west=true":      { "model": "conquest:capitalionian_sandstone_wall_nsew" },


        "east=false,north=false,south=false,up=false,variant=kilo,west=false": { "model": "conquest:wall_sindarin4_wall_post" },
        "east=false,north=true,south=false,up=false,variant=kilo,west=false":  { "model": "conquest:wall_sindarin4_wall_n" },
        "east=true,north=false,south=false,up=false,variant=kilo,west=false":  { "model": "conquest:wall_sindarin4_wall_n", "y": 90, "uvlock": true },
        "east=false,north=false,south=true,up=false,variant=kilo,west=false":  { "model": "conquest:wall_sindarin4_wall_n", "y": 180, "uvlock": true },
        "east=false,north=false,south=false,up=false,variant=kilo,west=true":  { "model": "conquest:wall_sindarin4_wall_n", "y": 270, "uvlock": true },
        "east=true,north=true,south=false,up=false,variant=kilo,west=false":   { "model": "conquest:wall_sindarin4_wall_ne" },
        "east=true,north=false,south=true,up=false,variant=kilo,west=false":   { "model": "conquest:wall_sindarin4_wall_ne", "y": 90, "uvlock": true },
        "east=false,north=false,south=true,up=false,variant=kilo,west=true":   { "model": "conquest:wall_sindarin4_wall_ne", "y": 180, "uvlock": true },
        "east=false,north=true,south=false,up=false,variant=kilo,west=true":   { "model": "conquest:wall_sindarin4_wall_ne", "y": 270, "uvlock": true },
        "east=false,north=true,south=true,up=false,variant=kilo,west=false":   { "model": "conquest:wall_sindarin4_wall_ns" },
        "east=true,north=false,south=false,up=false,variant=kilo,west=true":   { "model": "conquest:wall_sindarin4_wall_ns", "y": 90, "uvlock": true },
        "east=true,north=true,south=true,up=false,variant=kilo,west=false":    { "model": "conquest:wall_sindarin4_wall_nse" },
        "east=true,north=false,south=true,up=false,variant=kilo,west=true":    { "model": "conquest:wall_sindarin4_wall_nse", "y": 90, "uvlock": true },
        "east=false,north=true,south=true,up=false,variant=kilo,west=true":    { "model": "conquest:wall_sindarin4_wall_nse", "y": 180, "uvlock": true },
        "east=true,north=true,south=false,up=false,variant=kilo,west=true":    { "model": "conquest:wall_sindarin4_wall_nse", "y": 270, "uvlock": true },
        "east=true,north=true,south=true,up=false,variant=kilo,west=true":     { "model": "conquest:wall_sindarin4_wall_nsew" },
        "east=false,north=false,south=false,up=true,variant=kilo,west=false":  { "model": "conquest:wall_sindarin4_wall_post" },
        "east=false,north=true,south=false,up=true,variant=kilo,west=false":   { "model": "conquest:wall_sindarin4_wall_n" },
        "east=true,north=false,south=false,up=true,variant=kilo,west=false":   { "model": "conquest:wall_sindarin4_wall_n", "y": 90, "uvlock": true },
        "east=false,north=false,south=true,up=true,variant=kilo,west=false":   { "model": "conquest:wall_sindarin4_wall_n", "y": 180, "uvlock": true },
        "east=false,north=false,south=false,up=true,variant=kilo,west=true":   { "model": "conquest:wall_sindarin4_wall_n", "y": 270, "uvlock": true },
        "east=true,north=true,south=false,up=true,variant=kilo,west=false":    { "model": "conquest:wall_sindarin4_wall_ne" },
        "east=true,north=false,south=true,up=true,variant=kilo,west=false":    { "model": "conquest:wall_sindarin4_wall_ne", "y": 90, "uvlock": true },
        "east=false,north=false,south=true,up=true,variant=kilo,west=true":    { "model": "conquest:wall_sindarin4_wall_ne", "y": 180, "uvlock": true },
        "east=false,north=true,south=false,up=true,variant=kilo,west=true":    { "model": "conquest:wall_sindarin4_wall_ne", "y": 270, "uvlock": true },
        "east=false,north=true,south=true,up=true,variant=kilo,west=false":    { "model": "conquest:wall_sindarin4_wall_ns_above" },
        "east=true,north=false,south=false,up=true,variant=kilo,west=true":    { "model": "conquest:wall_sindarin4_wall_ns_above", "y": 90, "uvlock": true },
        "east=true,north=true,south=true,up=true,variant=kilo,west=false":     { "model": "conquest:wall_sindarin4_wall_nse" },
        "east=true,north=false,south=true,up=true,variant=kilo,west=true":     { "model": "conquest:wall_sindarin4_wall_nse", "y": 90, "uvlock": true },
        "east=false,north=true,south=true,up=true,variant=kilo,west=true":     { "model": "conquest:wall_sindarin4_wall_nse", "y": 180, "uvlock": true },
        "east=true,north=true,south=false,up=true,variant=kilo,west=true":     { "model": "conquest:wall_sindarin4_wall_nse", "y": 270, "uvlock": true },
        "east=true,north=true,south=true,up=true,variant=kilo,west=true":      { "model": "conquest:wall_sindarin4_wall_nsew" },


        "east=false,north=false,south=false,up=false,variant=lima,west=false": { "model": "conquest:wall_sindarin5_wall_post" },
        "east=false,north=true,south=false,up=false,variant=lima,west=false":  { "model": "conquest:wall_sindarin5_wall_n" },
        "east=true,north=false,south=false,up=false,variant=lima,west=false":  { "model": "conquest:wall_sindarin5_wall_n", "y": 90, "uvlock": true },
        "east=false,north=false,south=true,up=false,variant=lima,west=false":  { "model": "conquest:wall_sindarin5_wall_n", "y": 180, "uvlock": true },
        "east=false,north=false,south=false,up=false,variant=lima,west=true":  { "model": "conquest:wall_sindarin5_wall_n", "y": 270, "uvlock": true },
        "east=true,north=true,south=false,up=false,variant=lima,west=false":   { "model": "conquest:wall_sindarin5_wall_ne" },
        "east=true,north=false,south=true,up=false,variant=lima,west=false":   { "model": "conquest:wall_sindarin5_wall_ne", "y": 90, "uvlock": true },
        "east=false,north=false,south=true,up=false,variant=lima,west=true":   { "model": "conquest:wall_sindarin5_wall_ne", "y": 180, "uvlock": true },
        "east=false,north=true,south=false,up=false,variant=lima,west=true":   { "model": "conquest:wall_sindarin5_wall_ne", "y": 270, "uvlock": true },
        "east=false,north=true,south=true,up=false,variant=lima,west=false":   { "model": "conquest:wall_sindarin5_wall_ns" },
        "east=true,north=false,south=false,up=false,variant=lima,west=true":   { "model": "conquest:wall_sindarin5_wall_ns", "y": 90, "uvlock": true },
        "east=true,north=true,south=true,up=false,variant=lima,west=false":    { "model": "conquest:wall_sindarin5_wall_nse" },
        "east=true,north=false,south=true,up=false,variant=lima,west=true":    { "model": "conquest:wall_sindarin5_wall_nse", "y": 90, "uvlock": true },
        "east=false,north=true,south=true,up=false,variant=lima,west=true":    { "model": "conquest:wall_sindarin5_wall_nse", "y": 180, "uvlock": true },
        "east=true,north=true,south=false,up=false,variant=lima,west=true":    { "model": "conquest:wall_sindarin5_wall_nse", "y": 270, "uvlock": true },
        "east=true,north=true,south=true,up=false,variant=lima,west=true":     { "model": "conquest:wall_sindarin5_wall_nsew" },
        "east=false,north=false,south=false,up=true,variant=lima,west=false":  { "model": "conquest:wall_sindarin5_wall_post" },
        "east=false,north=true,south=false,up=true,variant=lima,west=false":   { "model": "conquest:wall_sindarin5_wall_n" },
        "east=true,north=false,south=false,up=true,variant=lima,west=false":   { "model": "conquest:wall_sindarin5_wall_n", "y": 90, "uvlock": true },
        "east=false,north=false,south=true,up=true,variant=lima,west=false":   { "model": "conquest:wall_sindarin5_wall_n", "y": 180, "uvlock": true },
        "east=false,north=false,south=false,up=true,variant=lima,west=true":   { "model": "conquest:wall_sindarin5_wall_n", "y": 270, "uvlock": true },
        "east=true,north=true,south=false,up=true,variant=lima,west=false":    { "model": "conquest:wall_sindarin5_wall_ne" },
        "east=true,north=false,south=true,up=true,variant=lima,west=false":    { "model": "conquest:wall_sindarin5_wall_ne", "y": 90, "uvlock": true },
        "east=false,north=false,south=true,up=true,variant=lima,west=true":    { "model": "conquest:wall_sindarin5_wall_ne", "y": 180, "uvlock": true },
        "east=false,north=true,south=false,up=true,variant=lima,west=true":    { "model": "conquest:wall_sindarin5_wall_ne", "y": 270, "uvlock": true },
        "east=false,north=true,south=true,up=true,variant=lima,west=false":    { "model": "conquest:wall_sindarin5_wall_ns_above" },
        "east=true,north=false,south=false,up=true,variant=lima,west=true":    { "model": "conquest:wall_sindarin5_wall_ns_above", "y": 90, "uvlock": true },
        "east=true,north=true,south=true,up=true,variant=lima,west=false":     { "model": "conquest:wall_sindarin5_wall_nse" },
        "east=true,north=false,south=true,up=true,variant=lima,west=true":     { "model": "conquest:wall_sindarin5_wall_nse", "y": 90, "uvlock": true },
        "east=false,north=true,south=true,up=true,variant=lima,west=true":     { "model": "conquest:wall_sindarin5_wall_nse", "y": 180, "uvlock": true },
        "east=true,north=true,south=false,up=true,variant=lima,west=true":     { "model": "conquest:wall_sindarin5_wall_nse", "y": 270, "uvlock": true },
        "east=true,north=true,south=true,up=true,variant=lima,west=true":      { "model": "conquest:wall_sindarin5_wall_nsew" },


        "east=false,north=false,south=false,up=false,variant=mike,west=false": { "model": "conquest:pillar_dwarvenschist_wall_post" },
        "east=false,north=true,south=false,up=false,variant=mike,west=false":  { "model": "conquest:pillar_dwarvenschist_wall_n" },
        "east=true,north=false,south=false,up=false,variant=mike,west=false":  { "model": "conquest:pillar_dwarvenschist_wall_n", "y": 90, "uvlock": true },
        "east=false,north=false,south=true,up=false,variant=mike,west=false":  { "model": "conquest:pillar_dwarvenschist_wall_n", "y": 180, "uvlock": true },
        "east=false,north=false,south=false,up=false,variant=mike,west=true":  { "model": "conquest:pillar_dwarvenschist_wall_n", "y": 270, "uvlock": true },
        "east=true,north=true,south=false,up=false,variant=mike,west=false":   { "model": "conquest:pillar_dwarvenschist_wall_ne" },
        "east=true,north=false,south=true,up=false,variant=mike,west=false":   { "model": "conquest:pillar_dwarvenschist_wall_ne", "y": 90, "uvlock": true },
        "east=false,north=false,south=true,up=false,variant=mike,west=true":   { "model": "conquest:pillar_dwarvenschist_wall_ne", "y": 180, "uvlock": true },
        "east=false,north=true,south=false,up=false,variant=mike,west=true":   { "model": "conquest:pillar_dwarvenschist_wall_ne", "y": 270, "uvlock": true },
        "east=false,north=true,south=true,up=false,variant=mike,west=false":   { "model": "conquest:pillar_dwarvenschist_wall_ns" },
        "east=true,north=false,south=false,up=false,variant=mike,west=true":   { "model": "conquest:pillar_dwarvenschist_wall_ns", "y": 90, "uvlock": true },
        "east=true,north=true,south=true,up=false,variant=mike,west=false":    { "model": "conquest:pillar_dwarvenschist_wall_nse" },
        "east=true,north=false,south=true,up=false,variant=mike,west=true":    { "model": "conquest:pillar_dwarvenschist_wall_nse", "y": 90, "uvlock": true },
        "east=false,north=true,south=true,up=false,variant=mike,west=true":    { "model": "conquest:pillar_dwarvenschist_wall_nse", "y": 180, "uvlock": true },
        "east=true,north=true,south=false,up=false,variant=mike,west=true":    { "model": "conquest:pillar_dwarvenschist_wall_nse", "y": 270, "uvlock": true },
        "east=true,north=true,south=true,up=false,variant=mike,west=true":     { "model": "conquest:pillar_dwarvenschist_wall_nsew" },
        "east=false,north=false,south=false,up=true,variant=mike,west=false":  { "model": "conquest:pillar_dwarvenschist_wall_post" },
        "east=false,north=true,south=false,up=true,variant=mike,west=false":   { "model": "conquest:pillar_dwarvenschist_wall_n" },
        "east=true,north=false,south=false,up=true,variant=mike,west=false":   { "model": "conquest:pillar_dwarvenschist_wall_n", "y": 90, "uvlock": true },
        "east=false,north=false,south=true,up=true,variant=mike,west=false":   { "model": "conquest:pillar_dwarvenschist_wall_n", "y": 180, "uvlock": true },
        "east=false,north=false,south=false,up=true,variant=mike,west=true":   { "model": "conquest:pillar_dwarvenschist_wall_n", "y": 270, "uvlock": true },
        "east=true,north=true,south=false,up=true,variant=mike,west=false":    { "model": "conquest:pillar_dwarvenschist_wall_ne" },
        "east=true,north=false,south=true,up=true,variant=mike,west=false":    { "model": "conquest:pillar_dwarvenschist_wall_ne", "y": 90, "uvlock": true },
        "east=false,north=false,south=true,up=true,variant=mike,west=true":    { "model": "conquest:pillar_dwarvenschist_wall_ne", "y": 180, "uvlock": true },
        "east=false,north=true,south=false,up=true,variant=mike,west=true":    { "model": "conquest:pillar_dwarvenschist_wall_ne", "y": 270, "uvlock": true },
        "east=false,north=true,south=true,up=true,variant=mike,west=false":    { "model": "conquest:pillar_dwarvenschist_wall_ns_above" },
        "east=true,north=false,south=false,up=true,variant=mike,west=true":    { "model": "conquest:pillar_dwarvenschist_wall_ns_above", "y": 90, "uvlock": true },
        "east=true,north=true,south=true,up=true,variant=mike,west=false":     { "model": "conquest:pillar_dwarvenschist_wall_nse" },
        "east=true,north=false,south=true,up=true,variant=mike,west=true":     { "model": "conquest:pillar_dwarvenschist_wall_nse", "y": 90, "uvlock": true },
        "east=false,north=true,south=true,up=true,variant=mike,west=true":     { "model": "conquest:pillar_dwarvenschist_wall_nse", "y": 180, "uvlock": true },
        "east=true,north=true,south=false,up=true,variant=mike,west=true":     { "model": "conquest:pillar_dwarvenschist_wall_nse", "y": 270, "uvlock": true },
        "east=true,north=true,south=true,up=true,variant=mike,west=true":      { "model": "conquest:pillar_dwarvenschist_wall_nsew" },


        "east=false,north=false,south=false,up=false,variant=november,west=false": { "model": "conquest:pillar_dwarvenschist1_wall_post" },
        "east=false,north=true,south=false,up=false,variant=november,west=false":  { "model": "conquest:pillar_dwarvenschist1_wall_n" },
        "east=true,north=false,south=false,up=false,variant=november,west=false":  { "model": "conquest:pillar_dwarvenschist1_wall_n", "y": 90, "uvlock": true },
        "east=false,north=false,south=true,up=false,variant=november,west=false":  { "model": "conquest:pillar_dwarvenschist1_wall_n", "y": 180, "uvlock": true },
        "east=false,north=false,south=false,up=false,variant=november,west=true":  { "model": "conquest:pillar_dwarvenschist1_wall_n", "y": 270, "uvlock": true },
        "east=true,north=true,south=false,up=false,variant=november,west=false":   { "model": "conquest:pillar_dwarvenschist1_wall_ne" },
        "east=true,north=false,south=true,up=false,variant=november,west=false":   { "model": "conquest:pillar_dwarvenschist1_wall_ne", "y": 90, "uvlock": true },
        "east=false,north=false,south=true,up=false,variant=november,west=true":   { "model": "conquest:pillar_dwarvenschist1_wall_ne", "y": 180, "uvlock": true },
        "east=false,north=true,south=false,up=false,variant=november,west=true":   { "model": "conquest:pillar_dwarvenschist1_wall_ne", "y": 270, "uvlock": true },
        "east=false,north=true,south=true,up=false,variant=november,west=false":   { "model": "conquest:pillar_dwarvenschist1_wall_ns" },
        "east=true,north=false,south=false,up=false,variant=november,west=true":   { "model": "conquest:pillar_dwarvenschist1_wall_ns", "y": 90, "uvlock": true },
        "east=true,north=true,south=true,up=false,variant=november,west=false":    { "model": "conquest:pillar_dwarvenschist1_wall_nse" },
        "east=true,north=false,south=true,up=false,variant=november,west=true":    { "model": "conquest:pillar_dwarvenschist1_wall_nse", "y": 90, "uvlock": true },
        "east=false,north=true,south=true,up=false,variant=november,west=true":    { "model": "conquest:pillar_dwarvenschist1_wall_nse", "y": 180, "uvlock": true },
        "east=true,north=true,south=false,up=false,variant=november,west=true":    { "model": "conquest:pillar_dwarvenschist1_wall_nse", "y": 270, "uvlock": true },
        "east=true,north=true,south=true,up=false,variant=november,west=true":     { "model": "conquest:pillar_dwarvenschist1_wall_nsew" },
        "east=false,north=false,south=false,up=true,variant=november,west=false":  { "model": "conquest:pillar_dwarvenschist1_wall_post" },
        "east=false,north=true,south=false,up=true,variant=november,west=false":   { "model": "conquest:pillar_dwarvenschist1_wall_n" },
        "east=true,north=false,south=false,up=true,variant=november,west=false":   { "model": "conquest:pillar_dwarvenschist1_wall_n", "y": 90, "uvlock": true },
        "east=false,north=false,south=true,up=true,variant=november,west=false":   { "model": "conquest:pillar_dwarvenschist1_wall_n", "y": 180, "uvlock": true },
        "east=false,north=false,south=false,up=true,variant=november,west=true":   { "model": "conquest:pillar_dwarvenschist1_wall_n", "y": 270, "uvlock": true },
        "east=true,north=true,south=false,up=true,variant=november,west=false":    { "model": "conquest:pillar_dwarvenschist1_wall_ne" },
        "east=true,north=false,south=true,up=true,variant=november,west=false":    { "model": "conquest:pillar_dwarvenschist1_wall_ne", "y": 90, "uvlock": true },
        "east=false,north=false,south=true,up=true,variant=november,west=true":    { "model": "conquest:pillar_dwarvenschist1_wall_ne", "y": 180, "uvlock": true },
        "east=false,north=true,south=false,up=true,variant=november,west=true":    { "model": "conquest:pillar_dwarvenschist1_wall_ne", "y": 270, "uvlock": true },
        "east=false,north=true,south=true,up=true,variant=november,west=false":    { "model": "conquest:pillar_dwarvenschist1_wall_ns_above" },
        "east=true,north=false,south=false,up=true,variant=november,west=true":    { "model": "conquest:pillar_dwarvenschist1_wall_ns_above", "y": 90, "uvlock": true },
        "east=true,north=true,south=true,up=true,variant=november,west=false":     { "model": "conquest:pillar_dwarvenschist1_wall_nse" },
        "east=true,north=false,south=true,up=true,variant=november,west=true":     { "model": "conquest:pillar_dwarvenschist1_wall_nse", "y": 90, "uvlock": true },
        "east=false,north=true,south=true,up=true,variant=november,west=true":     { "model": "conquest:pillar_dwarvenschist1_wall_nse", "y": 180, "uvlock": true },
        "east=true,north=true,south=false,up=true,variant=november,west=true":     { "model": "conquest:pillar_dwarvenschist1_wall_nse", "y": 270, "uvlock": true },
        "east=true,north=true,south=true,up=true,variant=november,west=true":      { "model": "conquest:pillar_dwarvenschist1_wall_nsew" },


        "east=false,north=false,south=false,up=false,variant=oscar,west=false": { "model": "conquest:planks_lightplainbirch_wall_post" },
        "east=false,north=true,south=false,up=false,variant=oscar,west=false":  { "model": "conquest:planks_lightplainbirch_wall_n" },
        "east=true,north=false,south=false,up=false,variant=oscar,west=false":  { "model": "conquest:planks_lightplainbirch_wall_n", "y": 90, "uvlock": true },
        "east=false,north=false,south=true,up=false,variant=oscar,west=false":  { "model": "conquest:planks_lightplainbirch_wall_n", "y": 180, "uvlock": true },
        "east=false,north=false,south=false,up=false,variant=oscar,west=true":  { "model": "conquest:planks_lightplainbirch_wall_n", "y": 270, "uvlock": true },
        "east=true,north=true,south=false,up=false,variant=oscar,west=false":   { "model": "conquest:planks_lightplainbirch_wall_ne" },
        "east=true,north=false,south=true,up=false,variant=oscar,west=false":   { "model": "conquest:planks_lightplainbirch_wall_ne", "y": 90, "uvlock": true },
        "east=false,north=false,south=true,up=false,variant=oscar,west=true":   { "model": "conquest:planks_lightplainbirch_wall_ne", "y": 180, "uvlock": true },
        "east=false,north=true,south=false,up=false,variant=oscar,west=true":   { "model": "conquest:planks_lightplainbirch_wall_ne", "y": 270, "uvlock": true },
        "east=false,north=true,south=true,up=false,variant=oscar,west=false":   { "model": "conquest:planks_lightplainbirch_wall_ns" },
        "east=true,north=false,south=false,up=false,variant=oscar,west=true":   { "model": "conquest:planks_lightplainbirch_wall_ns", "y": 90, "uvlock": true },
        "east=true,north=true,south=true,up=false,variant=oscar,west=false":    { "model": "conquest:planks_lightplainbirch_wall_nse" },
        "east=true,north=false,south=true,up=false,variant=oscar,west=true":    { "model": "conquest:planks_lightplainbirch_wall_nse", "y": 90, "uvlock": true },
        "east=false,north=true,south=true,up=false,variant=oscar,west=true":    { "model": "conquest:planks_lightplainbirch_wall_nse", "y": 180, "uvlock": true },
        "east=true,north=true,south=false,up=false,variant=oscar,west=true":    { "model": "conquest:planks_lightplainbirch_wall_nse", "y": 270, "uvlock": true },
        "east=true,north=true,south=true,up=false,variant=oscar,west=true":     { "model": "conquest:planks_lightplainbirch_wall_nsew" },
        "east=false,north=false,south=false,up=true,variant=oscar,west=false":  { "model": "conquest:planks_lightplainbirch_wall_post" },
        "east=false,north=true,south=false,up=true,variant=oscar,west=false":   { "model": "conquest:planks_lightplainbirch_wall_n" },
        "east=true,north=false,south=false,up=true,variant=oscar,west=false":   { "model": "conquest:planks_lightplainbirch_wall_n", "y": 90, "uvlock": true },
        "east=false,north=false,south=true,up=true,variant=oscar,west=false":   { "model": "conquest:planks_lightplainbirch_wall_n", "y": 180, "uvlock": true },
        "east=false,north=false,south=false,up=true,variant=oscar,west=true":   { "model": "conquest:planks_lightplainbirch_wall_n", "y": 270, "uvlock": true },
        "east=true,north=true,south=false,up=true,variant=oscar,west=false":    { "model": "conquest:planks_lightplainbirch_wall_ne" },
        "east=true,north=false,south=true,up=true,variant=oscar,west=false":    { "model": "conquest:planks_lightplainbirch_wall_ne", "y": 90, "uvlock": true },
        "east=false,north=false,south=true,up=true,variant=oscar,west=true":    { "model": "conquest:planks_lightplainbirch_wall_ne", "y": 180, "uvlock": true },
        "east=false,north=true,south=false,up=true,variant=oscar,west=true":    { "model": "conquest:planks_lightplainbirch_wall_ne", "y": 270, "uvlock": true },
        "east=false,north=true,south=true,up=true,variant=oscar,west=false":    { "model": "conquest:planks_lightplainbirch_wall_ns_above" },
        "east=true,north=false,south=false,up=true,variant=oscar,west=true":    { "model": "conquest:planks_lightplainbirch_wall_ns_above", "y": 90, "uvlock": true },
        "east=true,north=true,south=true,up=true,variant=oscar,west=false":     { "model": "conquest:planks_lightplainbirch_wall_nse" },
        "east=true,north=false,south=true,up=true,variant=oscar,west=true":     { "model": "conquest:planks_lightplainbirch_wall_nse", "y": 90, "uvlock": true },
        "east=false,north=true,south=true,up=true,variant=oscar,west=true":     { "model": "conquest:planks_lightplainbirch_wall_nse", "y": 180, "uvlock": true },
        "east=true,north=true,south=false,up=true,variant=oscar,west=true":     { "model": "conquest:planks_lightplainbirch_wall_nse", "y": 270, "uvlock": true },
        "east=true,north=true,south=true,up=true,variant=oscar,west=true":      { "model": "conquest:planks_lightplainbirch_wall_nsew" },


        "east=false,north=false,south=false,up=false,variant=papa,west=false": { "model": "conquest:rooftile_roman_wall_post" },
        "east=false,north=true,south=false,up=false,variant=papa,west=false":  { "model": "conquest:rooftile_roman_wall_n" },
        "east=true,north=false,south=false,up=false,variant=papa,west=false":  { "model": "conquest:rooftile_roman_wall_n", "y": 90, "uvlock": true },
        "east=false,north=false,south=true,up=false,variant=papa,west=false":  { "model": "conquest:rooftile_roman_wall_n", "y": 180, "uvlock": true },
        "east=false,north=false,south=false,up=false,variant=papa,west=true":  { "model": "conquest:rooftile_roman_wall_n", "y": 270, "uvlock": true },
        "east=true,north=true,south=false,up=false,variant=papa,west=false":   { "model": "conquest:rooftile_roman_wall_ne" },
        "east=true,north=false,south=true,up=false,variant=papa,west=false":   { "model": "conquest:rooftile_roman_wall_ne", "y": 90, "uvlock": true },
        "east=false,north=false,south=true,up=false,variant=papa,west=true":   { "model": "conquest:rooftile_roman_wall_ne", "y": 180, "uvlock": true },
        "east=false,north=true,south=false,up=false,variant=papa,west=true":   { "model": "conquest:rooftile_roman_wall_ne", "y": 270, "uvlock": true },
        "east=false,north=true,south=true,up=false,variant=papa,west=false":   { "model": "conquest:rooftile_roman_wall_ns" },
        "east=true,north=false,south=false,up=false,variant=papa,west=true":   { "model": "conquest:rooftile_roman_wall_ns", "y": 90, "uvlock": true },
        "east=true,north=true,south=true,up=false,variant=papa,west=false":    { "model": "conquest:rooftile_roman_wall_nse" },
        "east=true,north=false,south=true,up=false,variant=papa,west=true":    { "model": "conquest:rooftile_roman_wall_nse", "y": 90, "uvlock": true },
        "east=false,north=true,south=true,up=false,variant=papa,west=true":    { "model": "conquest:rooftile_roman_wall_nse", "y": 180, "uvlock": true },
        "east=true,north=true,south=false,up=false,variant=papa,west=true":    { "model": "conquest:rooftile_roman_wall_nse", "y": 270, "uvlock": true },
        "east=true,north=true,south=true,up=false,variant=papa,west=true":     { "model": "conquest:rooftile_roman_wall_nsew" },
        "east=false,north=false,south=false,up=true,variant=papa,west=false":  { "model": "conquest:rooftile_roman_wall_post" },
        "east=false,north=true,south=false,up=true,variant=papa,west=false":   { "model": "conquest:rooftile_roman_wall_n" },
        "east=true,north=false,south=false,up=true,variant=papa,west=false":   { "model": "conquest:rooftile_roman_wall_n", "y": 90, "uvlock": true },
        "east=false,north=false,south=true,up=true,variant=papa,west=false":   { "model": "conquest:rooftile_roman_wall_n", "y": 180, "uvlock": true },
        "east=false,north=false,south=false,up=true,variant=papa,west=true":   { "model": "conquest:rooftile_roman_wall_n", "y": 270, "uvlock": true },
        "east=true,north=true,south=false,up=true,variant=papa,west=false":    { "model": "conquest:rooftile_roman_wall_ne" },
        "east=true,north=false,south=true,up=true,variant=papa,west=false":    { "model": "conquest:rooftile_roman_wall_ne", "y": 90, "uvlock": true },
        "east=false,north=false,south=true,up=true,variant=papa,west=true":    { "model": "conquest:rooftile_roman_wall_ne", "y": 180, "uvlock": true },
        "east=false,north=true,south=false,up=true,variant=papa,west=true":    { "model": "conquest:rooftile_roman_wall_ne", "y": 270, "uvlock": true },
        "east=false,north=true,south=true,up=true,variant=papa,west=false":    { "model": "conquest:rooftile_roman_wall_ns_above" },
        "east=true,north=false,south=false,up=true,variant=papa,west=true":    { "model": "conquest:rooftile_roman_wall_ns_above", "y": 90, "uvlock": true },
        "east=true,north=true,south=true,up=true,variant=papa,west=false":     { "model": "conquest:rooftile_roman_wall_nse" },
        "east=true,north=false,south=true,up=true,variant=papa,west=true":     { "model": "conquest:rooftile_roman_wall_nse", "y": 90, "uvlock": true },
        "east=false,north=true,south=true,up=true,variant=papa,west=true":     { "model": "conquest:rooftile_roman_wall_nse", "y": 180, "uvlock": true },
        "east=true,north=true,south=false,up=true,variant=papa,west=true":     { "model": "conquest:rooftile_roman_wall_nse", "y": 270, "uvlock": true },
        "east=true,north=true,south=true,up=true,variant=papa,west=true":      { "model": "conquest:rooftile_roman_wall_nsew" }
    }
}