{
    "variants": {
        "facing=south,variant=alpha": { "model": "conquest:none", "y":90, "uvlock": true },
        "facing=west,variant=alpha": { "model": "conquest:none", "y": 180, "uvlock": true },
        "facing=north,variant=alpha": { "model": "conquest:none", "y": 270, "uvlock": true },
        "facing=east,variant=alpha": { "model": "conquest:none", "uvlock": true },

        "facing=south,variant=bravo": { "model": "conquest:netherbrick_wart_hopper_side", "y": 90, "uvlock": true },
        "facing=west,variant=bravo": { "model": "conquest:netherbrick_wart_hopper_side", "y": 180, "uvlock": true },
        "facing=north,variant=bravo": { "model": "conquest:netherbrick_wart_hopper_side", "y": 270, "uvlock": true },
        "facing=east,variant=bravo": { "model": "conquest:netherbrick_wart_hopper_side", "uvlock": true },

        "facing=south,variant=charlie": { "model": "conquest:brick_romanvertical_hopper_side", "y": 90, "uvlock": true },
        "facing=west,variant=charlie": { "model": "conquest:brick_romanvertical_hopper_side", "y": 180, "uvlock": true },
        "facing=north,variant=charlie": { "model": "conquest:brick_romanvertical_hopper_side", "y": 270, "uvlock": true },
        "facing=east,variant=charlie": { "model": "conquest:brick_romanvertical_hopper_side", "uvlock": true },

        "facing=south,variant=delta": { "model": "conquest:marble_black_hopper_side", "y": 90, "uvlock": true },
        "facing=west,variant=delta": { "model": "conquest:marble_black_hopper_side", "y": 180, "uvlock": true },
        "facing=north,variant=delta": { "model": "conquest:marble_black_hopper_side", "y": 270, "uvlock": true },
        "facing=east,variant=delta": { "model": "conquest:marble_black_hopper_side", "uvlock": true }
    }
}