{
    "variants": {
        "variant=alpha": { "model": "conquest:plaster_yellowcobblestone_carpet" },
        "variant=bravo": { "model": "conquest:bigslab_darksandstone_carpet" },
        "variant=charlie": { "model": "conquest:bigslab_limestone_carpet" },
        "variant=delta": { "model": "conquest:stonebrick_darkmudstone_carpet" },
        "variant=echo": { "model": "conquest:wall_mithlondlightblue_carpet" },
        "variant=fox": { "model": "conquest:cobblestone_drystone_carpet" },
        "variant=golf": { "model": "conquest:sandstone_normaldark_carpet" },
        "variant=hotel": { "model": "conquest:wall_haradorange_carpet" },
        "variant=india": { "model": "conquest:wall_seashell_carpet" },
        "variant=juliet": { "model": "conquest:end_portal_carpet" },
        "variant=kilo": { "model": "conquest:stone_slate_carpet" },
        "variant=lima": { "model": "conquest:stone_plasteredslate_carpet" },
        "variant=mike": { "model": "conquest:sandstone_chiseledtop_carpet" },
        "variant=november": { "model": "conquest:stone_greenschist_carpet" },
        "variant=oscar": { "model": "conquest:stone_quartzitegrey_carpet" },
        "variant=papa": { "model": "conquest:stone_quartzitepink_carpet" }
    }
}