{
    "variants": {
        "variant=alpha": { "model": "conquest:ironpressureplatehell" },
        "variant=bravo": { "model": "conquest:corpse" },
        "variant=charlie": { "model": "conquest:pressureplate5" },
        "variant=delta": { "model": "conquest:pressureplate5jungle" },
        "variant=echo": { "model": "conquest:pressureplate5hell" },
        "variant=fox": { "model": "conquest:web9extremehills" },
        "variant=golf": { "model": "conquest:stalagmite1" },
        "variant=hotel": [
            { "model": "conquest:sandstone_rock_1", "weight": 40 },
            { "model": "conquest:sandstone_rock_2", "weight": 30 },
            { "model": "conquest:sandstone_rock_3", "weight": 50 },
            { "model": "conquest:sandstone_rock_4", "weight": 40 },
            { "model": "conquest:sandstone_rock_5", "weight": 50 },
            { "model": "conquest:sandstone_rock_6", "weight": 50 },
            { "model": "conquest:sandstone_rock_7", "weight": 40 },
            { "model": "conquest:sandstone_rock_8", "weight": 40 }
        ],
        "variant=india": [
            { "model": "conquest:granite_rock_1", "weight": 40 },
            { "model": "conquest:granite_rock_2", "weight": 30 },
            { "model": "conquest:granite_rock_3", "weight": 50 },
            { "model": "conquest:granite_rock_4", "weight": 40 },
            { "model": "conquest:granite_rock_5", "weight": 50 },
            { "model": "conquest:granite_rock_6", "weight": 50 },
            { "model": "conquest:granite_rock_7", "weight": 40 },
            { "model": "conquest:granite_rock_8", "weight": 40 }
        ],
        "variant=juliet": [
            { "model": "conquest:limestone_rock_1", "weight": 40 },
            { "model": "conquest:limestone_rock_2", "weight": 30 },
            { "model": "conquest:limestone_rock_3", "weight": 50 },
            { "model": "conquest:limestone_rock_4", "weight": 40 },
            { "model": "conquest:limestone_rock_5", "weight": 50 },
            { "model": "conquest:limestone_rock_6", "weight": 50 },
            { "model": "conquest:limestone_rock_7", "weight": 40 },
            { "model": "conquest:limestone_rock_8", "weight": 40 }
        ],
        "variant=kilo": { "model": "conquest:holeplate" },
        "variant=lima": { "model": "conquest:web3" },
        "variant=mike": { "model": "conquest:web3jungle" },
        "variant=november": { "model": "conquest:web3beach" },
        "variant=oscar": { "model": "conquest:web3extremehills" },
        "variant=papa": { "model": "conquest:web10" }
    }
}