{
    "variants": {
        "facing=south,variant=alpha": { "model": "conquest:plaster_yellowcobblestone_corner", "y": 270, "uvlock": true },
        "facing=west,variant=alpha": { "model": "conquest:plaster_yellowcobblestone_corner", "uvlock": true },
        "facing=north,variant=alpha": { "model": "conquest:plaster_yellowcobblestone_corner", "y": 90, "uvlock": true },
        "facing=east,variant=alpha": { "model": "conquest:plaster_yellowcobblestone_corner", "y": 180, "uvlock": true },

        "facing=south,variant=bravo": { "model": "conquest:tudorframe_daubyellowbox_corner", "y": 270, "uvlock": true },
        "facing=west,variant=bravo": { "model": "conquest:tudorframe_daubyellowbox_corner", "uvlock": true },
        "facing=north,variant=bravo": { "model": "conquest:tudorframe_daubyellowbox_corner", "y": 90, "uvlock": true },
        "facing=east,variant=bravo": { "model": "conquest:tudorframe_daubyellowbox_corner", "y": 180, "uvlock": true },

        "facing=south,variant=charlie": { "model": "conquest:bigslab_darksandstone_corner", "y": 270, "uvlock": true },
        "facing=west,variant=charlie": { "model": "conquest:bigslab_darksandstone_corner", "uvlock": true },
        "facing=north,variant=charlie": { "model": "conquest:bigslab_darksandstone_corner", "y": 90, "uvlock": true },
        "facing=east,variant=charlie": { "model": "conquest:bigslab_darksandstone_corner", "y": 180, "uvlock": true },

        "facing=south,variant=delta": { "model": "conquest:bigslab_limestone_corner", "y": 270, "uvlock": true },
        "facing=west,variant=delta": { "model": "conquest:bigslab_limestone_corner", "uvlock": true },
        "facing=north,variant=delta": { "model": "conquest:bigslab_limestone_corner", "y": 90, "uvlock": true },
        "facing=east,variant=delta": { "model": "conquest:bigslab_limestone_corner", "y": 180, "uvlock": true }
    }
}