{
    "variants": {
        "facing=south,variant=alpha": { "model": "conquest:walldesign_white6_corner", "y": 270, "uvlock": true },
        "facing=west,variant=alpha": { "model": "conquest:walldesign_white6_corner", "uvlock": true },
        "facing=north,variant=alpha": { "model": "conquest:walldesign_white6_corner", "y": 90, "uvlock": true },
        "facing=east,variant=alpha": { "model": "conquest:walldesign_white6_corner", "y": 180, "uvlock": true },

        "facing=south,variant=bravo": { "model": "conquest:brick_diorite_corner", "y": 270, "uvlock": true },
        "facing=west,variant=bravo": { "model": "conquest:brick_diorite_corner", "uvlock": true },
        "facing=north,variant=bravo": { "model": "conquest:brick_diorite_corner", "y": 90, "uvlock": true },
        "facing=east,variant=bravo": { "model": "conquest:brick_diorite_corner", "y": 180, "uvlock": true },

        "facing=south,variant=charlie": { "model": "conquest:brick_travertine_corner", "y": 270, "uvlock": true },
        "facing=west,variant=charlie": { "model": "conquest:brick_travertine_corner", "uvlock": true },
        "facing=north,variant=charlie": { "model": "conquest:brick_travertine_corner", "y": 90, "uvlock": true },
        "facing=east,variant=charlie": { "model": "conquest:brick_travertine_corner", "y": 180, "uvlock": true },

        "facing=south,variant=delta": { "model": "conquest:brick_sandstonebig_corner", "y": 270, "uvlock": true },
        "facing=west,variant=delta": { "model": "conquest:brick_sandstonebig_corner", "uvlock": true },
        "facing=north,variant=delta": { "model": "conquest:brick_sandstonebig_corner", "y": 90, "uvlock": true },
        "facing=east,variant=delta": { "model": "conquest:brick_sandstonebig_corner", "y": 180, "uvlock": true }
    }
}