{
    "variants": {
        "half=bottom,variant=alpha": { "model": "conquest:half_bigslab_marble" },
        "half=bottom,variant=bravo": { "model": "conquest:half_bigslab_marble1" },
        "half=bottom,variant=charlie": { "model": "conquest:half_bigslab_sandstone" },
        "half=bottom,variant=delta": { "model": "conquest:half_bigslab_sandstone1" },
        "half=bottom,variant=echo": { "model": "conquest:half_bigslab_sandstoneinscribed" },
        "half=bottom,variant=fox": { "model": "conquest:half_bigslab_sandstoneinscribed1" },
        "half=bottom,variant=golf": { "model": "conquest:half_bigslab_black" },
        "half=bottom,variant=hotel": { "model": "conquest:half_bigslab_black1" },
        "half=top,variant=alpha": { "model": "conquest:upper_bigslab_marble" },
        "half=top,variant=bravo": { "model": "conquest:upper_bigslab_marble1" },
        "half=top,variant=charlie": { "model": "conquest:upper_bigslab_sandstone" },
        "half=top,variant=delta": { "model": "conquest:upper_bigslab_sandstone1" },
        "half=top,variant=echo": { "model": "conquest:upper_bigslab_sandstoneinscribed" },
        "half=top,variant=fox": { "model": "conquest:upper_bigslab_sandstoneinscribed1" },
        "half=top,variant=golf": { "model": "conquest:upper_bigslab_black" },
        "half=top,variant=hotel": { "model": "conquest:upper_bigslab_black1" }
    }
}