{
    "variants": {
        "variant=alpha": { "model": "conquest:brick_orangered_fence_post" },
        "variant=bravo": { "model": "conquest:stonebrick_lightgray_fence_post" },
        "variant=charlie": { "model": "conquest:stonebrick_darkgray_fence_post" },
        "variant=delta": { "model": "conquest:none" },
        "variant=echo": { "model": "conquest:cobblestone_dirtysandstone_fence_post" },
        "variant=fox": { "model": "conquest:plaster_peachworn_fence_post" },
        "variant=golf": { "model": "conquest:plaster_darkbrownworn_fence_post" },
        "variant=hotel": { "model": "conquest:plaster_yellowcobblestone_fence_post" },
        "variant=india": { "model": "conquest:stonebrick_darkmudstone_fence_post" },
        "variant=juliet": { "model": "conquest:wall_mithlondlightblue_fence_post" },
        "variant=kilo": { "model": "conquest:cobblestone_drystone_fence_post" },
        "variant=lima": { "model": "conquest:sandstone_normaldark_fence_post" },
        "variant=mike": { "model": "conquest:wall_haradorange_fence_post" },
        "variant=november": { "model": "conquest:wall_seashell_fence_post" },
        "variant=oscar": { "model": "conquest:pillar_dwarvenschist_fence_post" },
        "variant=papa": { "model": "conquest:pillar_dwarvenschist1_fence_post" }
    }
}