{
    "variants": {
        "variant=alpha": { "model": "conquest:pillar_gothicsandstone_wall_post" },
        "variant=bravo": { "model": "conquest:pillar_elvendecorative_wall_post" },
        "variant=charlie": { "model": "conquest:groove_portculis_wall_post" },
        "variant=delta": { "model": "conquest:pillar_stone_wall_post" },
        "variant=echo": { "model": "conquest:netherbrick_wall_wall_post" },
        "variant=fox": { "model": "conquest:netherbrick_big_wall_post" },
        "variant=golf": { "model": "conquest:netherbrick_pillar_wall_post" },
        "variant=hotel": { "model": "conquest:tiles_red_wall_post" },
        "variant=india": { "model": "conquest:iron_normal_wall_post" },
        "variant=juliet": { "model": "conquest:column_sandstone_wall_post" },
        "variant=kilo": { "model": "conquest:capital_sandstone_wall_post" },
        "variant=lima": { "model": "conquest:base_sandstone_wall_post" },
        "variant=mike": { "model": "conquest:column_red_wall_post" },
        "variant=november": { "model": "conquest:capital_redmarble_wall_post" },
        "variant=oscar": { "model": "conquest:base_redmarble_wall_post" },
        "variant=papa": { "model": "conquest:capital_redsandstone_wall_post" }
    }
}