{
    "variants": {
        "variant=alpha": { "model": "conquest:mossystone1" },
        "variant=bravo": { "model": "conquest:mossystone3" },
        "variant=charlie": { "model": "conquest:mossystone2" },
        "variant=delta": { "model": "conquest:stonebrick7" },
        "variant=echo": { "model": "conquest:cobble1" },
        "variant=fox": { "model": "conquest:rooftile_roman_full" },
        "variant=golf": { "model": "conquest:pillar_gothicsandstone_full" },
        "variant=hotel": { "model": "conquest:andesite_natural_full" },
        "variant=india": { "model": "conquest:stonebrick5" },
        "variant=juliet": { "model": "conquest:chiseledstonebrickjungle" },
        "variant=kilo": { "model": "conquest:stonebrick4" },
        "variant=lima": { "model": "conquest:netherbrick1" },
        "variant=mike": { "model": "conquest:netherbrick2" },
        "variant=november": { "model": "conquest:netherbrick3" },
        "variant=oscar": { "model": "conquest:carved_netherbrick" },
        "variant=papa": { "model": "conquest:sandstone_redroughnaturalmossy_full" }
    }
}