{
    "variants": {
        "facing=south,variant=alpha": { "model": "conquest:walldesign_red2_verticalslab", "y": 270, "uvlock": true },
        "facing=west,variant=alpha": { "model": "conquest:walldesign_red2_verticalslab", "uvlock": true },
        "facing=north,variant=alpha": { "model": "conquest:walldesign_red2_verticalslab", "y": 90, "uvlock": true },
        "facing=east,variant=alpha": { "model": "conquest:walldesign_red2_verticalslab", "y": 180, "uvlock": true },

        "facing=south,variant=bravo": { "model": "conquest:walldesign_red3_verticalslab", "y": 270, "uvlock": true },
        "facing=west,variant=bravo": { "model": "conquest:walldesign_red3_verticalslab", "uvlock": true },
        "facing=north,variant=bravo": { "model": "conquest:walldesign_red3_verticalslab", "y": 90, "uvlock": true },
        "facing=east,variant=bravo": { "model": "conquest:walldesign_red3_verticalslab", "y": 180, "uvlock": true },

        "facing=south,variant=charlie": { "model": "conquest:walldesign_red4_verticalslab", "y": 270, "uvlock": true },
        "facing=west,variant=charlie": { "model": "conquest:walldesign_red4_verticalslab", "uvlock": true },
        "facing=north,variant=charlie": { "model": "conquest:walldesign_red4_verticalslab", "y": 90, "uvlock": true },
        "facing=east,variant=charlie": { "model": "conquest:walldesign_red4_verticalslab", "y": 180, "uvlock": true },

        "facing=south,variant=delta": { "model": "conquest:walldesign_red5_verticalslab", "y": 270, "uvlock": true },
        "facing=west,variant=delta": { "model": "conquest:walldesign_red5_verticalslab", "uvlock": true },
        "facing=north,variant=delta": { "model": "conquest:walldesign_red5_verticalslab", "y": 90, "uvlock": true },
        "facing=east,variant=delta": { "model": "conquest:walldesign_red5_verticalslab", "y": 180, "uvlock": true }
    }
}