{
    "variants": {
        "variant=alpha": { "model": "conquest:marble_pink_wall_post" },
        "variant=bravo": { "model": "conquest:marble_red_wall_post" },
        "variant=charlie": { "model": "conquest:brick_darkroman_wall_post" },
        "variant=delta": { "model": "conquest:cobblestone_dark_wall_post" },
        "variant=echo": { "model": "conquest:sandstone_darkcobble_wall_post" },
        "variant=fox": { "model": "conquest:slate_lightmortar_wall_post" },
        "variant=golf": { "model": "conquest:plasterwork_white_wall_post" },
        "variant=hotel": { "model": "conquest:plasterwork_magentaclean_wall_post" },
        "variant=india": { "model": "conquest:plasterwork_lightgrayclean_wall_post" },
        "variant=juliet": { "model": "conquest:plasterwork_yellowclean_wall_post" },
        "variant=kilo": { "model": "conquest:plasterwork_whiteclean_wall_post" },
        "variant=lima": { "model": "conquest:plasterwork_purpleclean_wall_post" },
        "variant=mike": { "model": "conquest:plasterwork_orange_wall_post" },
        "variant=november": { "model": "conquest:cobblestone_hewntiles_wall_post" },
        "variant=oscar": { "model": "conquest:cobblestone_plasteredtiles_wall_post" },
        "variant=papa": { "model": "conquest:sandstone_chiseled_wall_post" }
    }
}