{
    "variants": {
        "variant=alpha": { "model": "conquest:pillar_elvenclean_fence_post" },
        "variant=bravo": { "model": "conquest:brick_roman_fence_post" },
        "variant=charlie": { "model": "conquest:brick_romanvertical_fence_post" },
        "variant=delta": { "model": "conquest:roman_travertine_fence_post" },
        "variant=echo": { "model": "conquest:rooftile_roman_fence_post" },
        "variant=fox": { "model": "conquest:forlond_marblebase_fence_post" },
        "variant=golf": { "model": "conquest:forlond_marblebase2_fence_post" },
        "variant=hotel": { "model": "conquest:plaster_forlond_white_trim_1_fence_post" },
        "variant=india": { "model": "conquest:plaster_forlond_white_trim_2_fence_post" },
        "variant=juliet": { "model": "conquest:stone_calcite_fence_post" },
        "variant=kilo": { "model": "conquest:stone_calcitesmooth_fence_post" },
        "variant=lima": { "model": "conquest:stonebrick_ruined_fence_post" },
        "variant=mike": { "model": "conquest:none" },
        "variant=november": { "model": "conquest:none" },
        "variant=oscar": { "model": "conquest:none" },
        "variant=papa": { "model": "conquest:none" }
    }
}