{
    "variants": {
        "variant=alpha": { "model": "conquest:bronzeblock_fancy_carpet" },
        "variant=bravo": { "model": "conquest:iron_normal_carpet" },
        "variant=charlie": { "model": "conquest:quartz_chiseled_carpet" },
        "variant=delta": { "model": "conquest:stone_icy_carpet" },
        "variant=echo": { "model": "conquest:stone_icytop_carpet" },
        "variant=fox": { "model": "conquest:stone_mossy_carpet" },
        "variant=golf": { "model": "conquest:stone_mossytop_carpet" },
        "variant=hotel": { "model": "conquest:slate_wet_carpet" },
        "variant=india": { "model": "conquest:slate_carpet" },
        "variant=juliet": { "model": "conquest:marble_uncut_carpet" },
        "variant=kilo": { "model": "conquest:granite_graypink_carpet" },
        "variant=lima": { "model": "conquest:sandstone_natural_carpet" },
        "variant=mike": { "model": "conquest:mesastone_lightbrown_carpet" },
        "variant=november": { "model": "conquest:none" },
        "variant=oscar": { "model": "conquest:endstone_carpet" },
        "variant=papa": { "model": "conquest:stone_carpet" }
    }
}