{
    "variants": {
        "facing=east,variant=alpha": { "model": "conquest:lantern_hanging_wall" },
        "facing=south,variant=alpha": { "model": "conquest:lantern_hanging_wall", "y": 90 },
        "facing=west,variant=alpha": { "model": "conquest:lantern_hanging_wall", "y": 180 },
        "facing=north,variant=alpha": { "model": "conquest:lantern_hanging_wall", "y": 270 },
        "facing=up,variant=alpha": { "model": "conquest:lantern_hanging" },
        "facing=down,variant=alpha": { "model": "conquest:lantern_hanging" },

        "facing=east,variant=bravo": { "model": "conquest:none" },
        "facing=south,variant=bravo": { "model": "conquest:none", "y": 90 },
        "facing=west,variant=bravo": { "model": "conquest:none", "y": 180 },
        "facing=north,variant=bravo": { "model": "conquest:none", "y": 270 },
        "facing=up,variant=bravo": { "model": "conquest:none" },
        "facing=down,variant=bravo": { "model": "conquest:none" }
    }
}
