{
    "variants": {
        "facing=east,variant=alpha": { "model": "conquest:torch_elven_wall" },
        "facing=south,variant=alpha": { "model": "conquest:torch_elven_wall", "y": 90 },
        "facing=west,variant=alpha": { "model": "conquest:torch_elven_wall", "y": 180 },
        "facing=north,variant=alpha": { "model": "conquest:torch_elven_wall", "y": 270 },
        "facing=up,variant=alpha": { "model": "conquest:torch_elven" },
        "facing=down,variant=alpha": { "model": "conquest:torch_elven" },

        "facing=east,variant=bravo": { "model": "conquest:lantern_hangingopaque_wall" },
        "facing=south,variant=bravo": { "model": "conquest:lantern_hangingopaque_wall", "y": 90 },
        "facing=west,variant=bravo": { "model": "conquest:lantern_hangingopaque_wall", "y": 180 },
        "facing=north,variant=bravo": { "model": "conquest:lantern_hangingopaque_wall", "y": 270 },
        "facing=up,variant=bravo": { "model": "conquest:lantern_hangingopaque" },
        "facing=down,variant=bravo": { "model": "conquest:lantern_hangingopaque" }
    }
}
