{
    "variants": {
        "eye=false,facing=south": { "model": "conquest:endportal12_off" },
        "eye=false,facing=west": { "model": "conquest:endportal12_off", "y": 90 },
        "eye=false,facing=north": { "model": "conquest:endportal12_off", "y": 180 },
        "eye=false,facing=east": { "model": "conquest:endportal12_off", "y": 270 },
        "eye=true,facing=south": { "model": "conquest:endportal12" },
        "eye=true,facing=west": { "model": "conquest:endportal12", "y": 90 },
        "eye=true,facing=north": { "model": "conquest:endportal12", "y": 180 },
        "eye=true,facing=east": { "model": "conquest:endportal12", "y": 270 }
    }
}
