{
    "variants": {
        "facing=south,variant=alpha": { "model": "conquest:birch_carveddesign_corner", "y": 270, "uvlock": true },
        "facing=west,variant=alpha": { "model": "conquest:birch_carveddesign_corner", "uvlock": true },
        "facing=north,variant=alpha": { "model": "conquest:birch_carveddesign_corner", "y": 90, "uvlock": true },
        "facing=east,variant=alpha": { "model": "conquest:birch_carveddesign_corner", "y": 180, "uvlock": true },

        "facing=south,variant=bravo": { "model": "conquest:pillar_carvedwoodgilded_corner", "y": 270, "uvlock": true },
        "facing=west,variant=bravo": { "model": "conquest:pillar_carvedwoodgilded_corner", "uvlock": true },
        "facing=north,variant=bravo": { "model": "conquest:pillar_carvedwoodgilded_corner", "y": 90, "uvlock": true },
        "facing=east,variant=bravo": { "model": "conquest:pillar_carvedwoodgilded_corner", "y": 180, "uvlock": true },

        "facing=south,variant=charlie": { "model": "conquest:oak_carveddesign_corner", "y": 270, "uvlock": true },
        "facing=west,variant=charlie": { "model": "conquest:oak_carveddesign_corner", "uvlock": true },
        "facing=north,variant=charlie": { "model": "conquest:oak_carveddesign_corner", "y": 90, "uvlock": true },
        "facing=east,variant=charlie": { "model": "conquest:oak_carveddesign_corner", "y": 180, "uvlock": true },

        "facing=south,variant=delta": { "model": "conquest:planks_oaklog_corner", "y": 270, "uvlock": true },
        "facing=west,variant=delta": { "model": "conquest:planks_oaklog_corner", "uvlock": true },
        "facing=north,variant=delta": { "model": "conquest:planks_oaklog_corner", "y": 90, "uvlock": true },
        "facing=east,variant=delta": { "model": "conquest:planks_oaklog_corner", "y": 180, "uvlock": true }
    }
}