{
    "variants": {
        "half=bottom,variant=alpha": { "model": "conquest:half_planks_lightredweathered" },
        "half=bottom,variant=bravo": { "model": "conquest:half_planks_orangepainted" },
        "half=bottom,variant=charlie": { "model": "conquest:half_planks_yellowpainted" },
        "half=bottom,variant=delta": { "model": "conquest:half_planks_yellowweathered" },
        "half=bottom,variant=echo": { "model": "conquest:half_planks_greenpainted" },
        "half=bottom,variant=fox": { "model": "conquest:half_planks_greenweathered" },
        "half=bottom,variant=golf": { "model": "conquest:half_planks_limepainted" },
        "half=bottom,variant=hotel": { "model": "conquest:half_planks_limeweathered" },
        "half=top,variant=alpha": { "model": "conquest:upper_planks_lightredweathered" },
        "half=top,variant=bravo": { "model": "conquest:upper_planks_orangepainted" },
        "half=top,variant=charlie": { "model": "conquest:upper_planks_yellowpainted" },
        "half=top,variant=delta": { "model": "conquest:upper_planks_yellowweathered" },
        "half=top,variant=echo": { "model": "conquest:upper_planks_greenpainted" },
        "half=top,variant=fox": { "model": "conquest:upper_planks_greenweathered" },
        "half=top,variant=golf": { "model": "conquest:upper_planks_limepainted" },
        "half=top,variant=hotel": { "model": "conquest:upper_planks_limeweathered" }
    }
}