{
    "variants": {
        "axis=y,variant=alpha": { "model": "conquest:planks_darkoaknormal_base" },
        "axis=x,variant=alpha": { "model": "conquest:planks_darkoaknormal_anvil", "y": 90 },
        "axis=z,variant=alpha": { "model": "conquest:planks_darkoaknormal_anvil", "y": 180 },
        "axis=none,variant=alpha": { "model": "conquest:none" },

        "axis=y,variant=bravo": { "model": "conquest:planks_darkwood_base" },
        "axis=x,variant=bravo": { "model": "conquest:planks_darkwood_anvil", "y": 90 },
        "axis=z,variant=bravo": { "model": "conquest:planks_darkwood_anvil", "y": 180 },
        "axis=none,variant=bravo": { "model": "conquest:none" },

        "axis=y,variant=charlie": { "model": "conquest:planks_lightplainbirch_base" },
        "axis=x,variant=charlie": { "model": "conquest:planks_lightplainbirch_anvil", "y": 90 },
        "axis=z,variant=charlie": { "model": "conquest:planks_lightplainbirch_anvil", "y": 180 },
        "axis=none,variant=charlie": { "model": "conquest:none" },

        "axis=y,variant=delta": { "model": "conquest:planks_jungleframe_base" },
        "axis=x,variant=delta": { "model": "conquest:planks_jungleframe_anvil", "y": 90 },
        "axis=z,variant=delta": { "model": "conquest:planks_jungleframe_anvil", "y": 180 },
        "axis=none,variant=delta": { "model": "conquest:none" }
    }
}