{
    "variants": {
        "variant=alpha": { "model": "conquest:planks_spruceironbound_full" },
        "variant=bravo": { "model": "conquest:planks_ashcolored_full" },
        "variant=charlie": { "model": "conquest:beam_sindarin_full" },
        "variant=delta": { "model": "conquest:planks_oakvertical_full" },
        "variant=echo": { "model": "conquest:planks_whitepaintedhorizontal_full" },
        "variant=fox": { "model": "conquest:planks_grayhorizontal_full" },
        "variant=golf": { "model": "conquest:wood_carvedsprucehorizontal_full" },
        "variant=hotel": { "model": "conquest:planks_pinesmooth_full" },
        "variant=india": { "model": "conquest:planks_stave_full" },
        "variant=juliet": { "model": "conquest:log_goatsallow_full" },
        "variant=kilo": { "model": "conquest:log_pinered_full" },
        "variant=lima": { "model": "conquest:log_pineredgray_full" },
        "variant=mike": { "model": "conquest:log_pine_full" },
        "variant=november": { "model": "conquest:log_pine1_full" },
        "variant=oscar": { "model": "conquest:log_beechsides_full" },
        "variant=papa": { "model": "conquest:planks_sprucelog_full" }
    }
}