{
    "variants": {
        "facing=south,variant=alpha": { "model": "conquest:planks_jungleframe_corner", "y": 270, "uvlock": true },
        "facing=west,variant=alpha": { "model": "conquest:planks_jungleframe_corner", "uvlock": true },
        "facing=north,variant=alpha": { "model": "conquest:planks_jungleframe_corner", "y": 90, "uvlock": true },
        "facing=east,variant=alpha": { "model": "conquest:planks_jungleframe_corner", "y": 180, "uvlock": true },

        "facing=south,variant=bravo": { "model": "conquest:crate_tanplanks_corner", "y": 270, "uvlock": true },
        "facing=west,variant=bravo": { "model": "conquest:crate_tanplanks_corner", "uvlock": true },
        "facing=north,variant=bravo": { "model": "conquest:crate_tanplanks_corner", "y": 90, "uvlock": true },
        "facing=east,variant=bravo": { "model": "conquest:crate_tanplanks_corner", "y": 180, "uvlock": true },

        "facing=south,variant=charlie": { "model": "conquest:crate_grayplanks_corner", "y": 270, "uvlock": true },
        "facing=west,variant=charlie": { "model": "conquest:crate_grayplanks_corner", "uvlock": true },
        "facing=north,variant=charlie": { "model": "conquest:crate_grayplanks_corner", "y": 90, "uvlock": true },
        "facing=east,variant=charlie": { "model": "conquest:crate_grayplanks_corner", "y": 180, "uvlock": true },

        "facing=south,variant=delta": { "model": "conquest:bookshelf_elven_corner", "y": 270, "uvlock": true },
        "facing=west,variant=delta": { "model": "conquest:bookshelf_elven_corner", "uvlock": true },
        "facing=north,variant=delta": { "model": "conquest:bookshelf_elven_corner", "y": 90, "uvlock": true },
        "facing=east,variant=delta": { "model": "conquest:bookshelf_elven_corner", "y": 180, "uvlock": true }
    }
}