{
    "variants": {
        "facing=south,variant=alpha": { "model": "conquest:planks_whiteweathered_verticalslab", "y": 270, "uvlock": true },
        "facing=west,variant=alpha": { "model": "conquest:planks_whiteweathered_verticalslab", "uvlock": true },
        "facing=north,variant=alpha": { "model": "conquest:planks_whiteweathered_verticalslab", "y": 90, "uvlock": true },
        "facing=east,variant=alpha": { "model": "conquest:planks_whiteweathered_verticalslab", "y": 180, "uvlock": true },

        "facing=south,variant=bravo": { "model": "conquest:planks_redpainted_verticalslab", "y": 270, "uvlock": true },
        "facing=west,variant=bravo": { "model": "conquest:planks_redpainted_verticalslab", "uvlock": true },
        "facing=north,variant=bravo": { "model": "conquest:planks_redpainted_verticalslab", "y": 90, "uvlock": true },
        "facing=east,variant=bravo": { "model": "conquest:planks_redpainted_verticalslab", "y": 180, "uvlock": true },

        "facing=south,variant=charlie": { "model": "conquest:planks_redweathered_verticalslab", "y": 270, "uvlock": true },
        "facing=west,variant=charlie": { "model": "conquest:planks_redweathered_verticalslab", "uvlock": true },
        "facing=north,variant=charlie": { "model": "conquest:planks_redweathered_verticalslab", "y": 90, "uvlock": true },
        "facing=east,variant=charlie": { "model": "conquest:planks_redweathered_verticalslab", "y": 180, "uvlock": true },

        "facing=south,variant=delta": { "model": "conquest:planks_lightredpainted_verticalslab", "y": 270, "uvlock": true },
        "facing=west,variant=delta": { "model": "conquest:planks_lightredpainted_verticalslab", "uvlock": true },
        "facing=north,variant=delta": { "model": "conquest:planks_lightredpainted_verticalslab", "y": 90, "uvlock": true },
        "facing=east,variant=delta": { "model": "conquest:planks_lightredpainted_verticalslab", "y": 180, "uvlock": true }
    }
}