{
    "variants": {
        "facing=south,variant=alpha": { "model": "conquest:drawers_mithlond1_corner", "y": 270, "uvlock": true },
        "facing=west,variant=alpha": { "model": "conquest:drawers_mithlond1_corner", "uvlock": true },
        "facing=north,variant=alpha": { "model": "conquest:drawers_mithlond1_corner", "y": 90, "uvlock": true },
        "facing=east,variant=alpha": { "model": "conquest:drawers_mithlond1_corner", "y": 180, "uvlock": true },

        "facing=south,variant=bravo": { "model": "conquest:cabinet_elven0_corner", "y": 270, "uvlock": true },
        "facing=west,variant=bravo": { "model": "conquest:cabinet_elven0_corner", "uvlock": true },
        "facing=north,variant=bravo": { "model": "conquest:cabinet_elven0_corner", "y": 90, "uvlock": true },
        "facing=east,variant=bravo": { "model": "conquest:cabinet_elven0_corner", "y": 180, "uvlock": true },

        "facing=south,variant=charlie": { "model": "conquest:cabinet_elven2_corner", "y": 270, "uvlock": true },
        "facing=west,variant=charlie": { "model": "conquest:cabinet_elven2_corner", "uvlock": true },
        "facing=north,variant=charlie": { "model": "conquest:cabinet_elven2_corner", "y": 90, "uvlock": true },
        "facing=east,variant=charlie": { "model": "conquest:cabinet_elven2_corner", "y": 180, "uvlock": true },

        "facing=south,variant=delta": { "model": "conquest:drawers_harlond_corner", "y": 270, "uvlock": true },
        "facing=west,variant=delta": { "model": "conquest:drawers_harlond_corner", "uvlock": true },
        "facing=north,variant=delta": { "model": "conquest:drawers_harlond_corner", "y": 90, "uvlock": true },
        "facing=east,variant=delta": { "model": "conquest:drawers_harlond_corner", "y": 180, "uvlock": true }
    }
}