{
    "variants": {
        "east=false,north=false,south=false,variant=alpha,west=false": { "model": "conquest:bamboo_post" },
        "east=false,north=true,south=false,variant=alpha,west=false": { "model": "conquest:bamboo_n", "uvlock": true },
        "east=true,north=false,south=false,variant=alpha,west=false": { "model": "conquest:bamboo_n", "y": 90, "uvlock": true },
        "east=false,north=false,south=true,variant=alpha,west=false": { "model": "conquest:bamboo_n", "y": 180, "uvlock": true },
        "east=false,north=false,south=false,variant=alpha,west=true": { "model": "conquest:bamboo_n", "y": 270, "uvlock": true },
        "east=true,north=true,south=false,variant=alpha,west=false": { "model": "conquest:bamboo_ne", "uvlock": true },
        "east=true,north=false,south=true,variant=alpha,west=false": { "model": "conquest:bamboo_ne", "y": 90, "uvlock": true },
        "east=false,north=false,south=true,variant=alpha,west=true": { "model": "conquest:bamboo_ne", "y": 180, "uvlock": true },
        "east=false,north=true,south=false,variant=alpha,west=true": { "model": "conquest:bamboo_ne", "y": 270, "uvlock": true },
        "east=false,north=true,south=true,variant=alpha,west=false": { "model": "conquest:bamboo_ns", "uvlock": true },
        "east=true,north=false,south=false,variant=alpha,west=true": { "model": "conquest:bamboo_ns", "y": 90, "uvlock": true },
        "east=true,north=true,south=true,variant=alpha,west=false": { "model": "conquest:bamboo_nse", "uvlock": true },
        "east=true,north=false,south=true,variant=alpha,west=true": { "model": "conquest:bamboo_nse", "y": 90, "uvlock": true },
        "east=false,north=true,south=true,variant=alpha,west=true": { "model": "conquest:bamboo_nse", "y": 180, "uvlock": true },
        "east=true,north=true,south=false,variant=alpha,west=true": { "model": "conquest:bamboo_nse", "y": 270, "uvlock": true },
        "east=true,north=true,south=true,variant=alpha,west=true": { "model": "conquest:bamboo_nsew", "uvlock": true },


        "east=false,north=false,south=false,variant=bravo,west=false": { "model": "conquest:fence5_post" },
        "east=false,north=true,south=false,variant=bravo,west=false": { "model": "conquest:fence5_n", "uvlock": true },
        "east=true,north=false,south=false,variant=bravo,west=false": { "model": "conquest:fence5_n", "y": 90, "uvlock": true },
        "east=false,north=false,south=true,variant=bravo,west=false": { "model": "conquest:fence5_n", "y": 180, "uvlock": true },
        "east=false,north=false,south=false,variant=bravo,west=true": { "model": "conquest:fence5_n", "y": 270, "uvlock": true },
        "east=true,north=true,south=false,variant=bravo,west=false": { "model": "conquest:fence5_ne", "uvlock": true },
        "east=true,north=false,south=true,variant=bravo,west=false": { "model": "conquest:fence5_ne", "y": 90, "uvlock": true },
        "east=false,north=false,south=true,variant=bravo,west=true": { "model": "conquest:fence5_ne", "y": 180, "uvlock": true },
        "east=false,north=true,south=false,variant=bravo,west=true": { "model": "conquest:fence5_ne", "y": 270, "uvlock": true },
        "east=false,north=true,south=true,variant=bravo,west=false": { "model": "conquest:fence5_ns", "uvlock": true },
        "east=true,north=false,south=false,variant=bravo,west=true": { "model": "conquest:fence5_ns", "y": 90, "uvlock": true },
        "east=true,north=true,south=true,variant=bravo,west=false": { "model": "conquest:fence5_nse", "uvlock": true },
        "east=true,north=false,south=true,variant=bravo,west=true": { "model": "conquest:fence5_nse", "y": 90, "uvlock": true },
        "east=false,north=true,south=true,variant=bravo,west=true": { "model": "conquest:fence5_nse", "y": 180, "uvlock": true },
        "east=true,north=true,south=false,variant=bravo,west=true": { "model": "conquest:fence5_nse", "y": 270, "uvlock": true },
        "east=true,north=true,south=true,variant=bravo,west=true": { "model": "conquest:fence5_nsew", "uvlock": true },


        "east=false,north=false,south=false,variant=charlie,west=false": { "model": "conquest:fence3_post" },
        "east=false,north=true,south=false,variant=charlie,west=false": { "model": "conquest:fence3_n", "uvlock": true },
        "east=true,north=false,south=false,variant=charlie,west=false": { "model": "conquest:fence3_n", "y": 90, "uvlock": true },
        "east=false,north=false,south=true,variant=charlie,west=false": { "model": "conquest:fence3_n", "y": 180, "uvlock": true },
        "east=false,north=false,south=false,variant=charlie,west=true": { "model": "conquest:fence3_n", "y": 270, "uvlock": true },
        "east=true,north=true,south=false,variant=charlie,west=false": { "model": "conquest:fence3_ne", "uvlock": true },
        "east=true,north=false,south=true,variant=charlie,west=false": { "model": "conquest:fence3_ne", "y": 90, "uvlock": true },
        "east=false,north=false,south=true,variant=charlie,west=true": { "model": "conquest:fence3_ne", "y": 180, "uvlock": true },
        "east=false,north=true,south=false,variant=charlie,west=true": { "model": "conquest:fence3_ne", "y": 270, "uvlock": true },
        "east=false,north=true,south=true,variant=charlie,west=false": { "model": "conquest:fence3_ns", "uvlock": true },
        "east=true,north=false,south=false,variant=charlie,west=true": { "model": "conquest:fence3_ns", "y": 90, "uvlock": true },
        "east=true,north=true,south=true,variant=charlie,west=false": { "model": "conquest:fence3_nse", "uvlock": true },
        "east=true,north=false,south=true,variant=charlie,west=true": { "model": "conquest:fence3_nse", "y": 90, "uvlock": true },
        "east=false,north=true,south=true,variant=charlie,west=true": { "model": "conquest:fence3_nse", "y": 180, "uvlock": true },
        "east=true,north=true,south=false,variant=charlie,west=true": { "model": "conquest:fence3_nse", "y": 270, "uvlock": true },
        "east=true,north=true,south=true,variant=charlie,west=true": { "model": "conquest:fence3_nsew", "uvlock": true },


        "east=false,north=false,south=false,variant=delta,west=false": { "model": "conquest:fence2_post" },
        "east=false,north=true,south=false,variant=delta,west=false": { "model": "conquest:fence2_n", "uvlock": true },
        "east=true,north=false,south=false,variant=delta,west=false": { "model": "conquest:fence2_n", "y": 90, "uvlock": true },
        "east=false,north=false,south=true,variant=delta,west=false": { "model": "conquest:fence2_n", "y": 180, "uvlock": true },
        "east=false,north=false,south=false,variant=delta,west=true": { "model": "conquest:fence2_n", "y": 270, "uvlock": true },
        "east=true,north=true,south=false,variant=delta,west=false": { "model": "conquest:fence2_ne", "uvlock": true },
        "east=true,north=false,south=true,variant=delta,west=false": { "model": "conquest:fence2_ne", "y": 90, "uvlock": true },
        "east=false,north=false,south=true,variant=delta,west=true": { "model": "conquest:fence2_ne", "y": 180, "uvlock": true },
        "east=false,north=true,south=false,variant=delta,west=true": { "model": "conquest:fence2_ne", "y": 270, "uvlock": true },
        "east=false,north=true,south=true,variant=delta,west=false": { "model": "conquest:fence2_ns", "uvlock": true },
        "east=true,north=false,south=false,variant=delta,west=true": { "model": "conquest:fence2_ns", "y": 90, "uvlock": true },
        "east=true,north=true,south=true,variant=delta,west=false": { "model": "conquest:fence2_nse", "uvlock": true },
        "east=true,north=false,south=true,variant=delta,west=true": { "model": "conquest:fence2_nse", "y": 90, "uvlock": true },
        "east=false,north=true,south=true,variant=delta,west=true": { "model": "conquest:fence2_nse", "y": 180, "uvlock": true },
        "east=true,north=true,south=false,variant=delta,west=true": { "model": "conquest:fence2_nse", "y": 270, "uvlock": true },
        "east=true,north=true,south=true,variant=delta,west=true": { "model": "conquest:fence2_nsew", "uvlock": true },


        "east=false,north=false,south=false,variant=echo,west=false": { "model": "conquest:fence4_post" },
        "east=false,north=true,south=false,variant=echo,west=false": { "model": "conquest:fence4_n", "uvlock": true },
        "east=true,north=false,south=false,variant=echo,west=false": { "model": "conquest:fence4_n", "y": 90, "uvlock": true },
        "east=false,north=false,south=true,variant=echo,west=false": { "model": "conquest:fence4_n", "y": 180, "uvlock": true },
        "east=false,north=false,south=false,variant=echo,west=true": { "model": "conquest:fence4_n", "y": 270, "uvlock": true },
        "east=true,north=true,south=false,variant=echo,west=false": { "model": "conquest:fence4_ne", "uvlock": true },
        "east=true,north=false,south=true,variant=echo,west=false": { "model": "conquest:fence4_ne", "y": 90, "uvlock": true },
        "east=false,north=false,south=true,variant=echo,west=true": { "model": "conquest:fence4_ne", "y": 180, "uvlock": true },
        "east=false,north=true,south=false,variant=echo,west=true": { "model": "conquest:fence4_ne", "y": 270, "uvlock": true },
        "east=false,north=true,south=true,variant=echo,west=false": { "model": "conquest:fence4_ns", "uvlock": true },
        "east=true,north=false,south=false,variant=echo,west=true": { "model": "conquest:fence4_ns", "y": 90, "uvlock": true },
        "east=true,north=true,south=true,variant=echo,west=false": { "model": "conquest:fence4_nse", "uvlock": true },
        "east=true,north=false,south=true,variant=echo,west=true": { "model": "conquest:fence4_nse", "y": 90, "uvlock": true },
        "east=false,north=true,south=true,variant=echo,west=true": { "model": "conquest:fence4_nse", "y": 180, "uvlock": true },
        "east=true,north=true,south=false,variant=echo,west=true": { "model": "conquest:fence4_nse", "y": 270, "uvlock": true },
        "east=true,north=true,south=true,variant=echo,west=true": { "model": "conquest:fence4_nsew", "uvlock": true },


        "east=false,north=false,south=false,variant=fox,west=false": { "model": "conquest:fence7_post" },
        "east=false,north=true,south=false,variant=fox,west=false": { "model": "conquest:fence7_n", "uvlock": true },
        "east=true,north=false,south=false,variant=fox,west=false": { "model": "conquest:fence7_n", "y": 90, "uvlock": true },
        "east=false,north=false,south=true,variant=fox,west=false": { "model": "conquest:fence7_n", "y": 180, "uvlock": true },
        "east=false,north=false,south=false,variant=fox,west=true": { "model": "conquest:fence7_n", "y": 270, "uvlock": true },
        "east=true,north=true,south=false,variant=fox,west=false": { "model": "conquest:fence7_ne", "uvlock": true },
        "east=true,north=false,south=true,variant=fox,west=false": { "model": "conquest:fence7_ne", "y": 90, "uvlock": true },
        "east=false,north=false,south=true,variant=fox,west=true": { "model": "conquest:fence7_ne", "y": 180, "uvlock": true },
        "east=false,north=true,south=false,variant=fox,west=true": { "model": "conquest:fence7_ne", "y": 270, "uvlock": true },
        "east=false,north=true,south=true,variant=fox,west=false": { "model": "conquest:fence7_ns", "uvlock": true },
        "east=true,north=false,south=false,variant=fox,west=true": { "model": "conquest:fence7_ns", "y": 90, "uvlock": true },
        "east=true,north=true,south=true,variant=fox,west=false": { "model": "conquest:fence7_nse", "uvlock": true },
        "east=true,north=false,south=true,variant=fox,west=true": { "model": "conquest:fence7_nse", "y": 90, "uvlock": true },
        "east=false,north=true,south=true,variant=fox,west=true": { "model": "conquest:fence7_nse", "y": 180, "uvlock": true },
        "east=true,north=true,south=false,variant=fox,west=true": { "model": "conquest:fence7_nse", "y": 270, "uvlock": true },
        "east=true,north=true,south=true,variant=fox,west=true": { "model": "conquest:fence7_nsew", "uvlock": true },


        "east=false,north=false,south=false,variant=golf,west=false": { "model": "conquest:fence6_post" },
        "east=false,north=true,south=false,variant=golf,west=false": { "model": "conquest:fence6_n", "uvlock": true },
        "east=true,north=false,south=false,variant=golf,west=false": { "model": "conquest:fence6_n", "y": 90, "uvlock": true },
        "east=false,north=false,south=true,variant=golf,west=false": { "model": "conquest:fence6_n", "y": 180, "uvlock": true },
        "east=false,north=false,south=false,variant=golf,west=true": { "model": "conquest:fence6_n", "y": 270, "uvlock": true },
        "east=true,north=true,south=false,variant=golf,west=false": { "model": "conquest:fence6_ne", "uvlock": true },
        "east=true,north=false,south=true,variant=golf,west=false": { "model": "conquest:fence6_ne", "y": 90, "uvlock": true },
        "east=false,north=false,south=true,variant=golf,west=true": { "model": "conquest:fence6_ne", "y": 180, "uvlock": true },
        "east=false,north=true,south=false,variant=golf,west=true": { "model": "conquest:fence6_ne", "y": 270, "uvlock": true },
        "east=false,north=true,south=true,variant=golf,west=false": { "model": "conquest:fence6_ns", "uvlock": true },
        "east=true,north=false,south=false,variant=golf,west=true": { "model": "conquest:fence6_ns", "y": 90, "uvlock": true },
        "east=true,north=true,south=true,variant=golf,west=false": { "model": "conquest:fence6_nse", "uvlock": true },
        "east=true,north=false,south=true,variant=golf,west=true": { "model": "conquest:fence6_nse", "y": 90, "uvlock": true },
        "east=false,north=true,south=true,variant=golf,west=true": { "model": "conquest:fence6_nse", "y": 180, "uvlock": true },
        "east=true,north=true,south=false,variant=golf,west=true": { "model": "conquest:fence6_nse", "y": 270, "uvlock": true },
        "east=true,north=true,south=true,variant=golf,west=true": { "model": "conquest:fence6_nsew", "uvlock": true },


        "east=false,north=false,south=false,variant=hotel,west=false": { "model": "conquest:netherbrickfence3_post" },
        "east=false,north=true,south=false,variant=hotel,west=false": { "model": "conquest:netherbrickfence3_n", "uvlock": true },
        "east=true,north=false,south=false,variant=hotel,west=false": { "model": "conquest:netherbrickfence3_n", "y": 90, "uvlock": true },
        "east=false,north=false,south=true,variant=hotel,west=false": { "model": "conquest:netherbrickfence3_n", "y": 180, "uvlock": true },
        "east=false,north=false,south=false,variant=hotel,west=true": { "model": "conquest:netherbrickfence3_n", "y": 270, "uvlock": true },
        "east=true,north=true,south=false,variant=hotel,west=false": { "model": "conquest:netherbrickfence3_ne", "uvlock": true },
        "east=true,north=false,south=true,variant=hotel,west=false": { "model": "conquest:netherbrickfence3_ne", "y": 90, "uvlock": true },
        "east=false,north=false,south=true,variant=hotel,west=true": { "model": "conquest:netherbrickfence3_ne", "y": 180, "uvlock": true },
        "east=false,north=true,south=false,variant=hotel,west=true": { "model": "conquest:netherbrickfence3_ne", "y": 270, "uvlock": true },
        "east=false,north=true,south=true,variant=hotel,west=false": { "model": "conquest:netherbrickfence3_ns", "uvlock": true },
        "east=true,north=false,south=false,variant=hotel,west=true": { "model": "conquest:netherbrickfence3_ns", "y": 90, "uvlock": true },
        "east=true,north=true,south=true,variant=hotel,west=false": { "model": "conquest:netherbrickfence3_nse", "uvlock": true },
        "east=true,north=false,south=true,variant=hotel,west=true": { "model": "conquest:netherbrickfence3_nse", "y": 90, "uvlock": true },
        "east=false,north=true,south=true,variant=hotel,west=true": { "model": "conquest:netherbrickfence3_nse", "y": 180, "uvlock": true },
        "east=true,north=true,south=false,variant=hotel,west=true": { "model": "conquest:netherbrickfence3_nse", "y": 270, "uvlock": true },
        "east=true,north=true,south=true,variant=hotel,west=true": { "model": "conquest:netherbrickfence3_nsew", "uvlock": true },


        "east=false,north=false,south=false,variant=india,west=false": { "model": "conquest:netherbrickfence4_post" },
        "east=false,north=true,south=false,variant=india,west=false": { "model": "conquest:netherbrickfence4_n", "uvlock": true },
        "east=true,north=false,south=false,variant=india,west=false": { "model": "conquest:netherbrickfence4_n", "y": 90, "uvlock": true },
        "east=false,north=false,south=true,variant=india,west=false": { "model": "conquest:netherbrickfence4_n", "y": 180, "uvlock": true },
        "east=false,north=false,south=false,variant=india,west=true": { "model": "conquest:netherbrickfence4_n", "y": 270, "uvlock": true },
        "east=true,north=true,south=false,variant=india,west=false": { "model": "conquest:netherbrickfence4_ne", "uvlock": true },
        "east=true,north=false,south=true,variant=india,west=false": { "model": "conquest:netherbrickfence4_ne", "y": 90, "uvlock": true },
        "east=false,north=false,south=true,variant=india,west=true": { "model": "conquest:netherbrickfence4_ne", "y": 180, "uvlock": true },
        "east=false,north=true,south=false,variant=india,west=true": { "model": "conquest:netherbrickfence4_ne", "y": 270, "uvlock": true },
        "east=false,north=true,south=true,variant=india,west=false": { "model": "conquest:netherbrickfence4_ns", "uvlock": true },
        "east=true,north=false,south=false,variant=india,west=true": { "model": "conquest:netherbrickfence4_ns", "y": 90, "uvlock": true },
        "east=true,north=true,south=true,variant=india,west=false": { "model": "conquest:netherbrickfence4_nse", "uvlock": true },
        "east=true,north=false,south=true,variant=india,west=true": { "model": "conquest:netherbrickfence4_nse", "y": 90, "uvlock": true },
        "east=false,north=true,south=true,variant=india,west=true": { "model": "conquest:netherbrickfence4_nse", "y": 180, "uvlock": true },
        "east=true,north=true,south=false,variant=india,west=true": { "model": "conquest:netherbrickfence4_nse", "y": 270, "uvlock": true },
        "east=true,north=true,south=true,variant=india,west=true": { "model": "conquest:netherbrickfence4_nsew", "uvlock": true },


        "east=false,north=false,south=false,variant=juliet,west=false": { "model": "conquest:netherbrickfence2_post" },
        "east=false,north=true,south=false,variant=juliet,west=false": { "model": "conquest:netherbrickfence2_n", "uvlock": true },
        "east=true,north=false,south=false,variant=juliet,west=false": { "model": "conquest:netherbrickfence2_n", "y": 90, "uvlock": true },
        "east=false,north=false,south=true,variant=juliet,west=false": { "model": "conquest:netherbrickfence2_n", "y": 180, "uvlock": true },
        "east=false,north=false,south=false,variant=juliet,west=true": { "model": "conquest:netherbrickfence2_n", "y": 270, "uvlock": true },
        "east=true,north=true,south=false,variant=juliet,west=false": { "model": "conquest:netherbrickfence2_ne", "uvlock": true },
        "east=true,north=false,south=true,variant=juliet,west=false": { "model": "conquest:netherbrickfence2_ne", "y": 90, "uvlock": true },
        "east=false,north=false,south=true,variant=juliet,west=true": { "model": "conquest:netherbrickfence2_ne", "y": 180, "uvlock": true },
        "east=false,north=true,south=false,variant=juliet,west=true": { "model": "conquest:netherbrickfence2_ne", "y": 270, "uvlock": true },
        "east=false,north=true,south=true,variant=juliet,west=false": { "model": "conquest:netherbrickfence2_ns", "uvlock": true },
        "east=true,north=false,south=false,variant=juliet,west=true": { "model": "conquest:netherbrickfence2_ns", "y": 90, "uvlock": true },
        "east=true,north=true,south=true,variant=juliet,west=false": { "model": "conquest:netherbrickfence2_nse", "uvlock": true },
        "east=true,north=false,south=true,variant=juliet,west=true": { "model": "conquest:netherbrickfence2_nse", "y": 90, "uvlock": true },
        "east=false,north=true,south=true,variant=juliet,west=true": { "model": "conquest:netherbrickfence2_nse", "y": 180, "uvlock": true },
        "east=true,north=true,south=false,variant=juliet,west=true": { "model": "conquest:netherbrickfence2_nse", "y": 270, "uvlock": true },
        "east=true,north=true,south=true,variant=juliet,west=true": { "model": "conquest:netherbrickfence2_nsew", "uvlock": true },


        "east=false,north=false,south=false,variant=kilo,west=false": { "model": "conquest:oak_mossylog_fence_post" },
        "east=false,north=true,south=false,variant=kilo,west=false": { "model": "conquest:oak_mossylog_fence_n", "uvlock": true },
        "east=true,north=false,south=false,variant=kilo,west=false": { "model": "conquest:oak_mossylog_fence_n", "y": 90, "uvlock": true },
        "east=false,north=false,south=true,variant=kilo,west=false": { "model": "conquest:oak_mossylog_fence_n", "y": 180, "uvlock": true },
        "east=false,north=false,south=false,variant=kilo,west=true": { "model": "conquest:oak_mossylog_fence_n", "y": 270, "uvlock": true },
        "east=true,north=true,south=false,variant=kilo,west=false": { "model": "conquest:oak_mossylog_fence_ne", "uvlock": true },
        "east=true,north=false,south=true,variant=kilo,west=false": { "model": "conquest:oak_mossylog_fence_ne", "y": 90, "uvlock": true },
        "east=false,north=false,south=true,variant=kilo,west=true": { "model": "conquest:oak_mossylog_fence_ne", "y": 180, "uvlock": true },
        "east=false,north=true,south=false,variant=kilo,west=true": { "model": "conquest:oak_mossylog_fence_ne", "y": 270, "uvlock": true },
        "east=false,north=true,south=true,variant=kilo,west=false": { "model": "conquest:oak_mossylog_fence_ns", "uvlock": true },
        "east=true,north=false,south=false,variant=kilo,west=true": { "model": "conquest:oak_mossylog_fence_ns", "y": 90, "uvlock": true },
        "east=true,north=true,south=true,variant=kilo,west=false": { "model": "conquest:oak_mossylog_fence_nse", "uvlock": true },
        "east=true,north=false,south=true,variant=kilo,west=true": { "model": "conquest:oak_mossylog_fence_nse", "y": 90, "uvlock": true },
        "east=false,north=true,south=true,variant=kilo,west=true": { "model": "conquest:oak_mossylog_fence_nse", "y": 180, "uvlock": true },
        "east=true,north=true,south=false,variant=kilo,west=true": { "model": "conquest:oak_mossylog_fence_nse", "y": 270, "uvlock": true },
        "east=true,north=true,south=true,variant=kilo,west=true": { "model": "conquest:oak_mossylog_fence_nsew", "uvlock": true },


        "east=false,north=false,south=false,variant=lima,west=false": { "model": "conquest:spruce_mossylog_fence_post" },
        "east=false,north=true,south=false,variant=lima,west=false": { "model": "conquest:spruce_mossylog_fence_n", "uvlock": true },
        "east=true,north=false,south=false,variant=lima,west=false": { "model": "conquest:spruce_mossylog_fence_n", "y": 90, "uvlock": true },
        "east=false,north=false,south=true,variant=lima,west=false": { "model": "conquest:spruce_mossylog_fence_n", "y": 180, "uvlock": true },
        "east=false,north=false,south=false,variant=lima,west=true": { "model": "conquest:spruce_mossylog_fence_n", "y": 270, "uvlock": true },
        "east=true,north=true,south=false,variant=lima,west=false": { "model": "conquest:spruce_mossylog_fence_ne", "uvlock": true },
        "east=true,north=false,south=true,variant=lima,west=false": { "model": "conquest:spruce_mossylog_fence_ne", "y": 90, "uvlock": true },
        "east=false,north=false,south=true,variant=lima,west=true": { "model": "conquest:spruce_mossylog_fence_ne", "y": 180, "uvlock": true },
        "east=false,north=true,south=false,variant=lima,west=true": { "model": "conquest:spruce_mossylog_fence_ne", "y": 270, "uvlock": true },
        "east=false,north=true,south=true,variant=lima,west=false": { "model": "conquest:spruce_mossylog_fence_ns", "uvlock": true },
        "east=true,north=false,south=false,variant=lima,west=true": { "model": "conquest:spruce_mossylog_fence_ns", "y": 90, "uvlock": true },
        "east=true,north=true,south=true,variant=lima,west=false": { "model": "conquest:spruce_mossylog_fence_nse", "uvlock": true },
        "east=true,north=false,south=true,variant=lima,west=true": { "model": "conquest:spruce_mossylog_fence_nse", "y": 90, "uvlock": true },
        "east=false,north=true,south=true,variant=lima,west=true": { "model": "conquest:spruce_mossylog_fence_nse", "y": 180, "uvlock": true },
        "east=true,north=true,south=false,variant=lima,west=true": { "model": "conquest:spruce_mossylog_fence_nse", "y": 270, "uvlock": true },
        "east=true,north=true,south=true,variant=lima,west=true": { "model": "conquest:spruce_mossylog_fence_nsew", "uvlock": true },


        "east=false,north=false,south=false,variant=mike,west=false": { "model": "conquest:birch_mossylog_fence_post" },
        "east=false,north=true,south=false,variant=mike,west=false": { "model": "conquest:birch_mossylog_fence_n", "uvlock": true },
        "east=true,north=false,south=false,variant=mike,west=false": { "model": "conquest:birch_mossylog_fence_n", "y": 90, "uvlock": true },
        "east=false,north=false,south=true,variant=mike,west=false": { "model": "conquest:birch_mossylog_fence_n", "y": 180, "uvlock": true },
        "east=false,north=false,south=false,variant=mike,west=true": { "model": "conquest:birch_mossylog_fence_n", "y": 270, "uvlock": true },
        "east=true,north=true,south=false,variant=mike,west=false": { "model": "conquest:birch_mossylog_fence_ne", "uvlock": true },
        "east=true,north=false,south=true,variant=mike,west=false": { "model": "conquest:birch_mossylog_fence_ne", "y": 90, "uvlock": true },
        "east=false,north=false,south=true,variant=mike,west=true": { "model": "conquest:birch_mossylog_fence_ne", "y": 180, "uvlock": true },
        "east=false,north=true,south=false,variant=mike,west=true": { "model": "conquest:birch_mossylog_fence_ne", "y": 270, "uvlock": true },
        "east=false,north=true,south=true,variant=mike,west=false": { "model": "conquest:birch_mossylog_fence_ns", "uvlock": true },
        "east=true,north=false,south=false,variant=mike,west=true": { "model": "conquest:birch_mossylog_fence_ns", "y": 90, "uvlock": true },
        "east=true,north=true,south=true,variant=mike,west=false": { "model": "conquest:birch_mossylog_fence_nse", "uvlock": true },
        "east=true,north=false,south=true,variant=mike,west=true": { "model": "conquest:birch_mossylog_fence_nse", "y": 90, "uvlock": true },
        "east=false,north=true,south=true,variant=mike,west=true": { "model": "conquest:birch_mossylog_fence_nse", "y": 180, "uvlock": true },
        "east=true,north=true,south=false,variant=mike,west=true": { "model": "conquest:birch_mossylog_fence_nse", "y": 270, "uvlock": true },
        "east=true,north=true,south=true,variant=mike,west=true": { "model": "conquest:birch_mossylog_fence_nsew", "uvlock": true },


        "east=false,north=false,south=false,variant=november,west=false": { "model": "conquest:jungle_mossylog_fence_post" },
        "east=false,north=true,south=false,variant=november,west=false": { "model": "conquest:jungle_mossylog_fence_n", "uvlock": true },
        "east=true,north=false,south=false,variant=november,west=false": { "model": "conquest:jungle_mossylog_fence_n", "y": 90, "uvlock": true },
        "east=false,north=false,south=true,variant=november,west=false": { "model": "conquest:jungle_mossylog_fence_n", "y": 180, "uvlock": true },
        "east=false,north=false,south=false,variant=november,west=true": { "model": "conquest:jungle_mossylog_fence_n", "y": 270, "uvlock": true },
        "east=true,north=true,south=false,variant=november,west=false": { "model": "conquest:jungle_mossylog_fence_ne", "uvlock": true },
        "east=true,north=false,south=true,variant=november,west=false": { "model": "conquest:jungle_mossylog_fence_ne", "y": 90, "uvlock": true },
        "east=false,north=false,south=true,variant=november,west=true": { "model": "conquest:jungle_mossylog_fence_ne", "y": 180, "uvlock": true },
        "east=false,north=true,south=false,variant=november,west=true": { "model": "conquest:jungle_mossylog_fence_ne", "y": 270, "uvlock": true },
        "east=false,north=true,south=true,variant=november,west=false": { "model": "conquest:jungle_mossylog_fence_ns", "uvlock": true },
        "east=true,north=false,south=false,variant=november,west=true": { "model": "conquest:jungle_mossylog_fence_ns", "y": 90, "uvlock": true },
        "east=true,north=true,south=true,variant=november,west=false": { "model": "conquest:jungle_mossylog_fence_nse", "uvlock": true },
        "east=true,north=false,south=true,variant=november,west=true": { "model": "conquest:jungle_mossylog_fence_nse", "y": 90, "uvlock": true },
        "east=false,north=true,south=true,variant=november,west=true": { "model": "conquest:jungle_mossylog_fence_nse", "y": 180, "uvlock": true },
        "east=true,north=true,south=false,variant=november,west=true": { "model": "conquest:jungle_mossylog_fence_nse", "y": 270, "uvlock": true },
        "east=true,north=true,south=true,variant=november,west=true": { "model": "conquest:jungle_mossylog_fence_nsew", "uvlock": true },


        "east=false,north=false,south=false,variant=oscar,west=false": { "model": "conquest:acacia_mossylog_fence_post" },
        "east=false,north=true,south=false,variant=oscar,west=false": { "model": "conquest:acacia_mossylog_fence_n", "uvlock": true },
        "east=true,north=false,south=false,variant=oscar,west=false": { "model": "conquest:acacia_mossylog_fence_n", "y": 90, "uvlock": true },
        "east=false,north=false,south=true,variant=oscar,west=false": { "model": "conquest:acacia_mossylog_fence_n", "y": 180, "uvlock": true },
        "east=false,north=false,south=false,variant=oscar,west=true": { "model": "conquest:acacia_mossylog_fence_n", "y": 270, "uvlock": true },
        "east=true,north=true,south=false,variant=oscar,west=false": { "model": "conquest:acacia_mossylog_fence_ne", "uvlock": true },
        "east=true,north=false,south=true,variant=oscar,west=false": { "model": "conquest:acacia_mossylog_fence_ne", "y": 90, "uvlock": true },
        "east=false,north=false,south=true,variant=oscar,west=true": { "model": "conquest:acacia_mossylog_fence_ne", "y": 180, "uvlock": true },
        "east=false,north=true,south=false,variant=oscar,west=true": { "model": "conquest:acacia_mossylog_fence_ne", "y": 270, "uvlock": true },
        "east=false,north=true,south=true,variant=oscar,west=false": { "model": "conquest:acacia_mossylog_fence_ns", "uvlock": true },
        "east=true,north=false,south=false,variant=oscar,west=true": { "model": "conquest:acacia_mossylog_fence_ns", "y": 90, "uvlock": true },
        "east=true,north=true,south=true,variant=oscar,west=false": { "model": "conquest:acacia_mossylog_fence_nse", "uvlock": true },
        "east=true,north=false,south=true,variant=oscar,west=true": { "model": "conquest:acacia_mossylog_fence_nse", "y": 90, "uvlock": true },
        "east=false,north=true,south=true,variant=oscar,west=true": { "model": "conquest:acacia_mossylog_fence_nse", "y": 180, "uvlock": true },
        "east=true,north=true,south=false,variant=oscar,west=true": { "model": "conquest:acacia_mossylog_fence_nse", "y": 270, "uvlock": true },
        "east=true,north=true,south=true,variant=oscar,west=true": { "model": "conquest:acacia_mossylog_fence_nsew", "uvlock": true },


        "east=false,north=false,south=false,variant=papa,west=false": { "model": "conquest:oak_mossydark_fence_post" },
        "east=false,north=true,south=false,variant=papa,west=false": { "model": "conquest:oak_mossydark_fence_n", "uvlock": true },
        "east=true,north=false,south=false,variant=papa,west=false": { "model": "conquest:oak_mossydark_fence_n", "y": 90, "uvlock": true },
        "east=false,north=false,south=true,variant=papa,west=false": { "model": "conquest:oak_mossydark_fence_n", "y": 180, "uvlock": true },
        "east=false,north=false,south=false,variant=papa,west=true": { "model": "conquest:oak_mossydark_fence_n", "y": 270, "uvlock": true },
        "east=true,north=true,south=false,variant=papa,west=false": { "model": "conquest:oak_mossydark_fence_ne", "uvlock": true },
        "east=true,north=false,south=true,variant=papa,west=false": { "model": "conquest:oak_mossydark_fence_ne", "y": 90, "uvlock": true },
        "east=false,north=false,south=true,variant=papa,west=true": { "model": "conquest:oak_mossydark_fence_ne", "y": 180, "uvlock": true },
        "east=false,north=true,south=false,variant=papa,west=true": { "model": "conquest:oak_mossydark_fence_ne", "y": 270, "uvlock": true },
        "east=false,north=true,south=true,variant=papa,west=false": { "model": "conquest:oak_mossydark_fence_ns", "uvlock": true },
        "east=true,north=false,south=false,variant=papa,west=true": { "model": "conquest:oak_mossydark_fence_ns", "y": 90, "uvlock": true },
        "east=true,north=true,south=true,variant=papa,west=false": { "model": "conquest:oak_mossydark_fence_nse", "uvlock": true },
        "east=true,north=false,south=true,variant=papa,west=true": { "model": "conquest:oak_mossydark_fence_nse", "y": 90, "uvlock": true },
        "east=false,north=true,south=true,variant=papa,west=true": { "model": "conquest:oak_mossydark_fence_nse", "y": 180, "uvlock": true },
        "east=true,north=true,south=false,variant=papa,west=true": { "model": "conquest:oak_mossydark_fence_nse", "y": 270, "uvlock": true },
        "east=true,north=true,south=true,variant=papa,west=true": { "model": "conquest:oak_mossydark_fence_nsew", "uvlock": true }
    }
}

