{
    "variants": {
        "facing=south,variant=alpha": { "model": "conquest:bookshelf_elven_verticalslab", "y": 270, "uvlock": true },
        "facing=west,variant=alpha": { "model": "conquest:bookshelf_elven_verticalslab", "uvlock": true },
        "facing=north,variant=alpha": { "model": "conquest:bookshelf_elven_verticalslab", "y": 90, "uvlock": true },
        "facing=east,variant=alpha": { "model": "conquest:bookshelf_elven_verticalslab", "y": 180, "uvlock": true },

        "facing=south,variant=bravo": { "model": "conquest:rack_elvenwine_verticalslab", "y": 270, "uvlock": true },
        "facing=west,variant=bravo": { "model": "conquest:rack_elvenwine_verticalslab", "uvlock": true },
        "facing=north,variant=bravo": { "model": "conquest:rack_elvenwine_verticalslab", "y": 90, "uvlock": true },
        "facing=east,variant=bravo": { "model": "conquest:rack_elvenwine_verticalslab", "y": 180, "uvlock": true },

        "facing=south,variant=charlie": { "model": "conquest:bookshelf_elvenempty_verticalslab", "y": 270, "uvlock": true },
        "facing=west,variant=charlie": { "model": "conquest:bookshelf_elvenempty_verticalslab", "uvlock": true },
        "facing=north,variant=charlie": { "model": "conquest:bookshelf_elvenempty_verticalslab", "y": 90, "uvlock": true },
        "facing=east,variant=charlie": { "model": "conquest:bookshelf_elvenempty_verticalslab", "y": 180, "uvlock": true },

        "facing=south,variant=delta": { "model": "conquest:cabinet_elven1_verticalslab", "y": 270, "uvlock": true },
        "facing=west,variant=delta": { "model": "conquest:cabinet_elven1_verticalslab", "uvlock": true },
        "facing=north,variant=delta": { "model": "conquest:cabinet_elven1_verticalslab", "y": 90, "uvlock": true },
        "facing=east,variant=delta": { "model": "conquest:cabinet_elven1_verticalslab", "y": 180, "uvlock": true }
    }
}