{
    "variants": {
        "variant=alpha": { "model": "conquest:acacialog3taiga_bark" },
        "variant=bravo": { "model": "conquest:panel1" },
        "variant=charlie": { "model": "conquest:wardrobe_fancy_full" },
        "variant=delta": { "model": "conquest:wardrobe_poor_full" },
        "variant=echo": { "model": "conquest:crate_tanplanks_full" },
        "variant=fox": { "model": "conquest:barrel_turnip_full" },
        "variant=golf": { "model": "conquest:crate_grayplanks_full" },
        "variant=hotel": { "model": "conquest:barrel_eggs_full" },
        "variant=india": { "model": "conquest:barrel_dirt_full" },
        "variant=juliet": { "model": "conquest:birch_carveddesign_full" },
        "variant=kilo": { "model": "conquest:pillar_carvedwoodgilded_full" },
        "variant=lima": { "model": "conquest:oak_carveddesign_full" },
        "variant=mike": { "model": "conquest:planks_oaklog_full" },
        "variant=november": { "model": "conquest:planks_oak1_full" },
        "variant=oscar": { "model": "conquest:planks_reinforcedoak_full" },
        "variant=papa": { "model": "conquest:planks_oaknails_full" }
    }
}