{
    "variants": {
        "facing=south,variant=alpha": { "model": "conquest:rack_scrolls_verticalslab", "y": 270, "uvlock": true },
        "facing=west,variant=alpha": { "model": "conquest:rack_scrolls_verticalslab", "uvlock": true },
        "facing=north,variant=alpha": { "model": "conquest:rack_scrolls_verticalslab", "y": 90, "uvlock": true },
        "facing=east,variant=alpha": { "model": "conquest:rack_scrolls_verticalslab", "y": 180, "uvlock": true },

        "facing=south,variant=bravo": { "model": "conquest:cupboards_wooden_verticalslab", "y": 270, "uvlock": true },
        "facing=west,variant=bravo": { "model": "conquest:cupboards_wooden_verticalslab", "uvlock": true },
        "facing=north,variant=bravo": { "model": "conquest:cupboards_wooden_verticalslab", "y": 90, "uvlock": true },
        "facing=east,variant=bravo": { "model": "conquest:cupboards_wooden_verticalslab", "y": 180, "uvlock": true },

        "facing=south,variant=charlie": { "model": "conquest:wood_panel_verticalslab", "y": 270, "uvlock": true },
        "facing=west,variant=charlie": { "model": "conquest:wood_panel_verticalslab", "uvlock": true },
        "facing=north,variant=charlie": { "model": "conquest:wood_panel_verticalslab", "y": 90, "uvlock": true },
        "facing=east,variant=charlie": { "model": "conquest:wood_panel_verticalslab", "y": 180, "uvlock": true },

        "facing=south,variant=delta": { "model": "conquest:wardrobe_fancy_verticalslab", "y": 270, "uvlock": true },
        "facing=west,variant=delta": { "model": "conquest:wardrobe_fancy_verticalslab", "uvlock": true },
        "facing=north,variant=delta": { "model": "conquest:wardrobe_fancy_verticalslab", "y": 90, "uvlock": true },
        "facing=east,variant=delta": { "model": "conquest:wardrobe_fancy_verticalslab", "y": 180, "uvlock": true }
    }
}