{
    "variants": {
        "axis=y,variant=alpha": { "model": "conquest:planks_sprucenormal_slit" },
        "axis=z,variant=alpha": { "model": "conquest:planks_sprucenormal_slit", "x": 90 },
        "axis=x,variant=alpha": { "model": "conquest:planks_sprucenormal_slit", "x": 90, "y": 90 },
        "axis=none,variant=alpha": { "model": "conquest:none" },

        "axis=y,variant=bravo": { "model": "conquest:planks_birchnormal_slit" },
        "axis=z,variant=bravo": { "model": "conquest:planks_birchnormal_slit", "x": 90 },
        "axis=x,variant=bravo": { "model": "conquest:planks_birchnormal_slit", "x": 90, "y": 90 },
        "axis=none,variant=bravo": { "model": "conquest:none" },

        "axis=y,variant=charlie": { "model": "conquest:planks_junglenormal_slit" },
        "axis=z,variant=charlie": { "model": "conquest:planks_junglenormal_slit", "x": 90 },
        "axis=x,variant=charlie": { "model": "conquest:planks_junglenormal_slit", "x": 90, "y": 90 },
        "axis=none,variant=charlie": { "model": "conquest:none" },

        "axis=y,variant=delta": { "model": "conquest:planks_acacianormal_slit" },
        "axis=z,variant=delta": { "model": "conquest:planks_acacianormal_slit", "x": 90 },
        "axis=x,variant=delta": { "model": "conquest:planks_acacianormal_slit", "x": 90, "y": 90 },
        "axis=none,variant=delta": { "model": "conquest:none" }
    }
}
