{
    "variants": {
        "half=bottom,variant=alpha": { "model": "conquest:half_wood_carvedsprucehorizontal" },
        "half=bottom,variant=bravo": { "model": "conquest:half_planks_pinesmooth" },
        "half=bottom,variant=charlie": { "model": "conquest:half_planks_stave" },
        "half=bottom,variant=delta": { "model": "conquest:half_log_goatsallow" },
        "half=bottom,variant=echo": { "model": "conquest:half_log_pinered" },
        "half=bottom,variant=fox": { "model": "conquest:half_log_pineredgray" },
        "half=bottom,variant=golf": { "model": "conquest:half_log_pine" },
        "half=bottom,variant=hotel": { "model": "conquest:half_log_pine1" },
        "half=top,variant=alpha": { "model": "conquest:upper_wood_carvedsprucehorizontal" },
        "half=top,variant=bravo": { "model": "conquest:upper_planks_pinesmooth" },
        "half=top,variant=charlie": { "model": "conquest:upper_planks_stave" },
        "half=top,variant=delta": { "model": "conquest:upper_log_goatsallow" },
        "half=top,variant=echo": { "model": "conquest:upper_log_pinered" },
        "half=top,variant=fox": { "model": "conquest:upper_log_pineredgray" },
        "half=top,variant=golf": { "model": "conquest:upper_log_pine" },
        "half=top,variant=hotel": { "model": "conquest:upper_log_pine1" }
    }
}