{
    "variants": {
        "axis=y,variant=alpha": { "model": "conquest:planks_darkoakwood_slit" },
        "axis=z,variant=alpha": { "model": "conquest:planks_darkoakwood_slit", "x": 90 },
        "axis=x,variant=alpha": { "model": "conquest:planks_darkoakwood_slit", "x": 90, "y": 90 },
        "axis=none,variant=alpha": { "model": "conquest:none" },

        "axis=y,variant=bravo": { "model": "conquest:planks_darkwood_slit" },
        "axis=z,variant=bravo": { "model": "conquest:planks_darkwood_slit", "x": 90 },
        "axis=x,variant=bravo": { "model": "conquest:planks_darkwood_slit", "x": 90, "y": 90 },
        "axis=none,variant=bravo": { "model": "conquest:none" },

        "axis=y,variant=charlie": { "model": "conquest:planks_lightplainbirch_slit" },
        "axis=z,variant=charlie": { "model": "conquest:planks_lightplainbirch_slit", "x": 90 },
        "axis=x,variant=charlie": { "model": "conquest:planks_lightplainbirch_slit", "x": 90, "y": 90 },
        "axis=none,variant=charlie": { "model": "conquest:none" },

        "axis=y,variant=delta": { "model": "conquest:planks_jungleframe_slit" },
        "axis=z,variant=delta": { "model": "conquest:planks_jungleframe_slit", "x": 90 },
        "axis=x,variant=delta": { "model": "conquest:planks_jungleframe_slit", "x": 90, "y": 90 },
        "axis=none,variant=delta": { "model": "conquest:none" }
    }
}
