{
    "variants": {
        "facing=south,variant=alpha": { "model": "conquest:ironbar6_1_ns" },
        "facing=west,variant=alpha": { "model": "conquest:ironbar6_1_ns", "y": 90 },
        "facing=north,variant=alpha": { "model": "conquest:ironbar6_1_ns", "y": 180 },
        "facing=east,variant=alpha": { "model": "conquest:ironbar6_1_ns", "y":270 },

        "facing=south,variant=bravo": { "model": "conquest:ironbar13_ns" },
        "facing=west,variant=bravo": { "model": "conquest:ironbar13_ns", "y": 90 },
        "facing=north,variant=bravo": { "model": "conquest:ironbar13_ns", "y": 180 },
        "facing=east,variant=bravo": { "model": "conquest:ironbar13_ns", "y": 270 },

        "facing=south,variant=charlie": { "model": "conquest:ironbar13birchforest_ns" },
        "facing=west,variant=charlie": { "model": "conquest:ironbar13birchforest_ns", "y": 90 },
        "facing=north,variant=charlie": { "model": "conquest:ironbar13birchforest_ns", "y": 180 },
        "facing=east,variant=charlie": { "model": "conquest:ironbar13birchforest_ns", "y": 270 },

        "facing=south,variant=delta": { "model": "conquest:ironbar6_2_ns" },
        "facing=west,variant=delta": { "model": "conquest:ironbar6_2_ns", "y": 90 },
        "facing=north,variant=delta": { "model": "conquest:ironbar6_2_ns", "y": 180 },
        "facing=east,variant=delta": { "model": "conquest:ironbar6_2_ns", "y": 270 }
    }
}