{
    "variants": {
        "variant=alpha": { "model": "conquest:spruce_mossylog_fence_post" },
        "variant=bravo": { "model": "conquest:birch_mossylog_fence_post" },
        "variant=charlie": { "model": "conquest:jungle_mossylog_fence_post" },
        "variant=delta": { "model": "conquest:acacia_mossylog_fence_post" },
        "variant=echo": { "model": "conquest:darkoak_mossylog_fence_post" },
        "variant=fox": { "model": "conquest:ash_burntlog_fence_post" },
        "variant=golf": { "model": "conquest:log_rope_fence_post" },
        "variant=hotel": { "model": "conquest:log_chain_fence_post" },
        "variant=india": { "model": "conquest:planks_whiteweathered_fence_post" },
        "variant=juliet": { "model": "conquest:planks_redweathered_fence_post" },
        "variant=kilo": { "model": "conquest:planks_lightredweathered_fence_post" },
        "variant=lima": { "model": "conquest:planks_orangepainted_fence_post" },
        "variant=mike": { "model": "conquest:planks_yellowweathered_fence_post" },
        "variant=november": { "model": "conquest:planks_greenweathered_fence_post" },
        "variant=oscar": { "model": "conquest:planks_limeweathered_fence_post" },
        "variant=papa": { "model": "conquest:planks_cyanweathered_fence_post" }
    }
}