{
    "variants": {
        "east=false,north=false,south=false,up=false,variant=alpha,west=false": { "model": "conquest:wood_smalloak_wall_post" },
        "east=false,north=true,south=false,up=false,variant=alpha,west=false":  { "model": "conquest:wood_smalloak_wall_n" },
        "east=true,north=false,south=false,up=false,variant=alpha,west=false":  { "model": "conquest:wood_smalloak_wall_n", "y": 90, "uvlock": true },
        "east=false,north=false,south=true,up=false,variant=alpha,west=false":  { "model": "conquest:wood_smalloak_wall_n", "y": 180, "uvlock": true },
        "east=false,north=false,south=false,up=false,variant=alpha,west=true":  { "model": "conquest:wood_smalloak_wall_n", "y": 270, "uvlock": true },
        "east=true,north=true,south=false,up=false,variant=alpha,west=false":   { "model": "conquest:wood_smalloak_wall_ne" },
        "east=true,north=false,south=true,up=false,variant=alpha,west=false":   { "model": "conquest:wood_smalloak_wall_ne", "y": 90, "uvlock": true },
        "east=false,north=false,south=true,up=false,variant=alpha,west=true":   { "model": "conquest:wood_smalloak_wall_ne", "y": 180, "uvlock": true },
        "east=false,north=true,south=false,up=false,variant=alpha,west=true":   { "model": "conquest:wood_smalloak_wall_ne", "y": 270, "uvlock": true },
        "east=false,north=true,south=true,up=false,variant=alpha,west=false":   { "model": "conquest:wood_smalloak_wall_ns" },
        "east=true,north=false,south=false,up=false,variant=alpha,west=true":   { "model": "conquest:wood_smalloak_wall_ns", "y": 90, "uvlock": true },
        "east=true,north=true,south=true,up=false,variant=alpha,west=false":    { "model": "conquest:wood_smalloak_wall_nse" },
        "east=true,north=false,south=true,up=false,variant=alpha,west=true":    { "model": "conquest:wood_smalloak_wall_nse", "y": 90, "uvlock": true },
        "east=false,north=true,south=true,up=false,variant=alpha,west=true":    { "model": "conquest:wood_smalloak_wall_nse", "y": 180, "uvlock": true },
        "east=true,north=true,south=false,up=false,variant=alpha,west=true":    { "model": "conquest:wood_smalloak_wall_nse", "y": 270, "uvlock": true },
        "east=true,north=true,south=true,up=false,variant=alpha,west=true":     { "model": "conquest:wood_smalloak_wall_nsew" },
        "east=false,north=false,south=false,up=true,variant=alpha,west=false":  { "model": "conquest:wood_smalloak_wall_post" },
        "east=false,north=true,south=false,up=true,variant=alpha,west=false":   { "model": "conquest:wood_smalloak_wall_n" },
        "east=true,north=false,south=false,up=true,variant=alpha,west=false":   { "model": "conquest:wood_smalloak_wall_n", "y": 90, "uvlock": true },
        "east=false,north=false,south=true,up=true,variant=alpha,west=false":   { "model": "conquest:wood_smalloak_wall_n", "y": 180, "uvlock": true },
        "east=false,north=false,south=false,up=true,variant=alpha,west=true":   { "model": "conquest:wood_smalloak_wall_n", "y": 270, "uvlock": true },
        "east=true,north=true,south=false,up=true,variant=alpha,west=false":    { "model": "conquest:wood_smalloak_wall_ne" },
        "east=true,north=false,south=true,up=true,variant=alpha,west=false":    { "model": "conquest:wood_smalloak_wall_ne", "y": 90, "uvlock": true },
        "east=false,north=false,south=true,up=true,variant=alpha,west=true":    { "model": "conquest:wood_smalloak_wall_ne", "y": 180, "uvlock": true },
        "east=false,north=true,south=false,up=true,variant=alpha,west=true":    { "model": "conquest:wood_smalloak_wall_ne", "y": 270, "uvlock": true },
        "east=false,north=true,south=true,up=true,variant=alpha,west=false":    { "model": "conquest:wood_smalloak_wall_ns_above" },
        "east=true,north=false,south=false,up=true,variant=alpha,west=true":    { "model": "conquest:wood_smalloak_wall_ns_above", "y": 90, "uvlock": true },
        "east=true,north=true,south=true,up=true,variant=alpha,west=false":     { "model": "conquest:wood_smalloak_wall_nse" },
        "east=true,north=false,south=true,up=true,variant=alpha,west=true":     { "model": "conquest:wood_smalloak_wall_nse", "y": 90, "uvlock": true },
        "east=false,north=true,south=true,up=true,variant=alpha,west=true":     { "model": "conquest:wood_smalloak_wall_nse", "y": 180, "uvlock": true },
        "east=true,north=true,south=false,up=true,variant=alpha,west=true":     { "model": "conquest:wood_smalloak_wall_nse", "y": 270, "uvlock": true },
        "east=true,north=true,south=true,up=true,variant=alpha,west=true":      { "model": "conquest:wood_smalloak_wall_nsew" },


        "east=false,north=false,south=false,up=false,variant=bravo,west=false": { "model": "conquest:wood_smallspruce_wall_post" },
        "east=false,north=true,south=false,up=false,variant=bravo,west=false":  { "model": "conquest:wood_smallspruce_wall_n" },
        "east=true,north=false,south=false,up=false,variant=bravo,west=false":  { "model": "conquest:wood_smallspruce_wall_n", "y": 90, "uvlock": true },
        "east=false,north=false,south=true,up=false,variant=bravo,west=false":  { "model": "conquest:wood_smallspruce_wall_n", "y": 180, "uvlock": true },
        "east=false,north=false,south=false,up=false,variant=bravo,west=true":  { "model": "conquest:wood_smallspruce_wall_n", "y": 270, "uvlock": true },
        "east=true,north=true,south=false,up=false,variant=bravo,west=false":   { "model": "conquest:wood_smallspruce_wall_ne" },
        "east=true,north=false,south=true,up=false,variant=bravo,west=false":   { "model": "conquest:wood_smallspruce_wall_ne", "y": 90, "uvlock": true },
        "east=false,north=false,south=true,up=false,variant=bravo,west=true":   { "model": "conquest:wood_smallspruce_wall_ne", "y": 180, "uvlock": true },
        "east=false,north=true,south=false,up=false,variant=bravo,west=true":   { "model": "conquest:wood_smallspruce_wall_ne", "y": 270, "uvlock": true },
        "east=false,north=true,south=true,up=false,variant=bravo,west=false":   { "model": "conquest:wood_smallspruce_wall_ns" },
        "east=true,north=false,south=false,up=false,variant=bravo,west=true":   { "model": "conquest:wood_smallspruce_wall_ns", "y": 90, "uvlock": true },
        "east=true,north=true,south=true,up=false,variant=bravo,west=false":    { "model": "conquest:wood_smallspruce_wall_nse" },
        "east=true,north=false,south=true,up=false,variant=bravo,west=true":    { "model": "conquest:wood_smallspruce_wall_nse", "y": 90, "uvlock": true },
        "east=false,north=true,south=true,up=false,variant=bravo,west=true":    { "model": "conquest:wood_smallspruce_wall_nse", "y": 180, "uvlock": true },
        "east=true,north=true,south=false,up=false,variant=bravo,west=true":    { "model": "conquest:wood_smallspruce_wall_nse", "y": 270, "uvlock": true },
        "east=true,north=true,south=true,up=false,variant=bravo,west=true":     { "model": "conquest:wood_smallspruce_wall_nsew" },
        "east=false,north=false,south=false,up=true,variant=bravo,west=false":  { "model": "conquest:wood_smallspruce_wall_post" },
        "east=false,north=true,south=false,up=true,variant=bravo,west=false":   { "model": "conquest:wood_smallspruce_wall_n" },
        "east=true,north=false,south=false,up=true,variant=bravo,west=false":   { "model": "conquest:wood_smallspruce_wall_n", "y": 90, "uvlock": true },
        "east=false,north=false,south=true,up=true,variant=bravo,west=false":   { "model": "conquest:wood_smallspruce_wall_n", "y": 180, "uvlock": true },
        "east=false,north=false,south=false,up=true,variant=bravo,west=true":   { "model": "conquest:wood_smallspruce_wall_n", "y": 270, "uvlock": true },
        "east=true,north=true,south=false,up=true,variant=bravo,west=false":    { "model": "conquest:wood_smallspruce_wall_ne" },
        "east=true,north=false,south=true,up=true,variant=bravo,west=false":    { "model": "conquest:wood_smallspruce_wall_ne", "y": 90, "uvlock": true },
        "east=false,north=false,south=true,up=true,variant=bravo,west=true":    { "model": "conquest:wood_smallspruce_wall_ne", "y": 180, "uvlock": true },
        "east=false,north=true,south=false,up=true,variant=bravo,west=true":    { "model": "conquest:wood_smallspruce_wall_ne", "y": 270, "uvlock": true },
        "east=false,north=true,south=true,up=true,variant=bravo,west=false":    { "model": "conquest:wood_smallspruce_wall_ns_above" },
        "east=true,north=false,south=false,up=true,variant=bravo,west=true":    { "model": "conquest:wood_smallspruce_wall_ns_above", "y": 90, "uvlock": true },
        "east=true,north=true,south=true,up=true,variant=bravo,west=false":     { "model": "conquest:wood_smallspruce_wall_nse" },
        "east=true,north=false,south=true,up=true,variant=bravo,west=true":     { "model": "conquest:wood_smallspruce_wall_nse", "y": 90, "uvlock": true },
        "east=false,north=true,south=true,up=true,variant=bravo,west=true":     { "model": "conquest:wood_smallspruce_wall_nse", "y": 180, "uvlock": true },
        "east=true,north=true,south=false,up=true,variant=bravo,west=true":     { "model": "conquest:wood_smallspruce_wall_nse", "y": 270, "uvlock": true },
        "east=true,north=true,south=true,up=true,variant=bravo,west=true":      { "model": "conquest:wood_smallspruce_wall_nsew" },


        "east=false,north=false,south=false,up=false,variant=charlie,west=false": { "model": "conquest:wood_smallbirch_wall_post" },
        "east=false,north=true,south=false,up=false,variant=charlie,west=false":  { "model": "conquest:wood_smallbirch_wall_n" },
        "east=true,north=false,south=false,up=false,variant=charlie,west=false":  { "model": "conquest:wood_smallbirch_wall_n", "y": 90, "uvlock": true },
        "east=false,north=false,south=true,up=false,variant=charlie,west=false":  { "model": "conquest:wood_smallbirch_wall_n", "y": 180, "uvlock": true },
        "east=false,north=false,south=false,up=false,variant=charlie,west=true":  { "model": "conquest:wood_smallbirch_wall_n", "y": 270, "uvlock": true },
        "east=true,north=true,south=false,up=false,variant=charlie,west=false":   { "model": "conquest:wood_smallbirch_wall_ne" },
        "east=true,north=false,south=true,up=false,variant=charlie,west=false":   { "model": "conquest:wood_smallbirch_wall_ne", "y": 90, "uvlock": true },
        "east=false,north=false,south=true,up=false,variant=charlie,west=true":   { "model": "conquest:wood_smallbirch_wall_ne", "y": 180, "uvlock": true },
        "east=false,north=true,south=false,up=false,variant=charlie,west=true":   { "model": "conquest:wood_smallbirch_wall_ne", "y": 270, "uvlock": true },
        "east=false,north=true,south=true,up=false,variant=charlie,west=false":   { "model": "conquest:wood_smallbirch_wall_ns" },
        "east=true,north=false,south=false,up=false,variant=charlie,west=true":   { "model": "conquest:wood_smallbirch_wall_ns", "y": 90, "uvlock": true },
        "east=true,north=true,south=true,up=false,variant=charlie,west=false":    { "model": "conquest:wood_smallbirch_wall_nse" },
        "east=true,north=false,south=true,up=false,variant=charlie,west=true":    { "model": "conquest:wood_smallbirch_wall_nse", "y": 90, "uvlock": true },
        "east=false,north=true,south=true,up=false,variant=charlie,west=true":    { "model": "conquest:wood_smallbirch_wall_nse", "y": 180, "uvlock": true },
        "east=true,north=true,south=false,up=false,variant=charlie,west=true":    { "model": "conquest:wood_smallbirch_wall_nse", "y": 270, "uvlock": true },
        "east=true,north=true,south=true,up=false,variant=charlie,west=true":     { "model": "conquest:wood_smallbirch_wall_nsew" },
        "east=false,north=false,south=false,up=true,variant=charlie,west=false":  { "model": "conquest:wood_smallbirch_wall_post" },
        "east=false,north=true,south=false,up=true,variant=charlie,west=false":   { "model": "conquest:wood_smallbirch_wall_n" },
        "east=true,north=false,south=false,up=true,variant=charlie,west=false":   { "model": "conquest:wood_smallbirch_wall_n", "y": 90, "uvlock": true },
        "east=false,north=false,south=true,up=true,variant=charlie,west=false":   { "model": "conquest:wood_smallbirch_wall_n", "y": 180, "uvlock": true },
        "east=false,north=false,south=false,up=true,variant=charlie,west=true":   { "model": "conquest:wood_smallbirch_wall_n", "y": 270, "uvlock": true },
        "east=true,north=true,south=false,up=true,variant=charlie,west=false":    { "model": "conquest:wood_smallbirch_wall_ne" },
        "east=true,north=false,south=true,up=true,variant=charlie,west=false":    { "model": "conquest:wood_smallbirch_wall_ne", "y": 90, "uvlock": true },
        "east=false,north=false,south=true,up=true,variant=charlie,west=true":    { "model": "conquest:wood_smallbirch_wall_ne", "y": 180, "uvlock": true },
        "east=false,north=true,south=false,up=true,variant=charlie,west=true":    { "model": "conquest:wood_smallbirch_wall_ne", "y": 270, "uvlock": true },
        "east=false,north=true,south=true,up=true,variant=charlie,west=false":    { "model": "conquest:wood_smallbirch_wall_ns_above" },
        "east=true,north=false,south=false,up=true,variant=charlie,west=true":    { "model": "conquest:wood_smallbirch_wall_ns_above", "y": 90, "uvlock": true },
        "east=true,north=true,south=true,up=true,variant=charlie,west=false":     { "model": "conquest:wood_smallbirch_wall_nse" },
        "east=true,north=false,south=true,up=true,variant=charlie,west=true":     { "model": "conquest:wood_smallbirch_wall_nse", "y": 90, "uvlock": true },
        "east=false,north=true,south=true,up=true,variant=charlie,west=true":     { "model": "conquest:wood_smallbirch_wall_nse", "y": 180, "uvlock": true },
        "east=true,north=true,south=false,up=true,variant=charlie,west=true":     { "model": "conquest:wood_smallbirch_wall_nse", "y": 270, "uvlock": true },
        "east=true,north=true,south=true,up=true,variant=charlie,west=true":      { "model": "conquest:wood_smallbirch_wall_nsew" },


        "east=false,north=false,south=false,up=false,variant=delta,west=false": { "model": "conquest:wood_smalljungle_wall_post" },
        "east=false,north=true,south=false,up=false,variant=delta,west=false":  { "model": "conquest:wood_smalljungle_wall_n" },
        "east=true,north=false,south=false,up=false,variant=delta,west=false":  { "model": "conquest:wood_smalljungle_wall_n", "y": 90, "uvlock": true },
        "east=false,north=false,south=true,up=false,variant=delta,west=false":  { "model": "conquest:wood_smalljungle_wall_n", "y": 180, "uvlock": true },
        "east=false,north=false,south=false,up=false,variant=delta,west=true":  { "model": "conquest:wood_smalljungle_wall_n", "y": 270, "uvlock": true },
        "east=true,north=true,south=false,up=false,variant=delta,west=false":   { "model": "conquest:wood_smalljungle_wall_ne" },
        "east=true,north=false,south=true,up=false,variant=delta,west=false":   { "model": "conquest:wood_smalljungle_wall_ne", "y": 90, "uvlock": true },
        "east=false,north=false,south=true,up=false,variant=delta,west=true":   { "model": "conquest:wood_smalljungle_wall_ne", "y": 180, "uvlock": true },
        "east=false,north=true,south=false,up=false,variant=delta,west=true":   { "model": "conquest:wood_smalljungle_wall_ne", "y": 270, "uvlock": true },
        "east=false,north=true,south=true,up=false,variant=delta,west=false":   { "model": "conquest:wood_smalljungle_wall_ns" },
        "east=true,north=false,south=false,up=false,variant=delta,west=true":   { "model": "conquest:wood_smalljungle_wall_ns", "y": 90, "uvlock": true },
        "east=true,north=true,south=true,up=false,variant=delta,west=false":    { "model": "conquest:wood_smalljungle_wall_nse" },
        "east=true,north=false,south=true,up=false,variant=delta,west=true":    { "model": "conquest:wood_smalljungle_wall_nse", "y": 90, "uvlock": true },
        "east=false,north=true,south=true,up=false,variant=delta,west=true":    { "model": "conquest:wood_smalljungle_wall_nse", "y": 180, "uvlock": true },
        "east=true,north=true,south=false,up=false,variant=delta,west=true":    { "model": "conquest:wood_smalljungle_wall_nse", "y": 270, "uvlock": true },
        "east=true,north=true,south=true,up=false,variant=delta,west=true":     { "model": "conquest:wood_smalljungle_wall_nsew" },
        "east=false,north=false,south=false,up=true,variant=delta,west=false":  { "model": "conquest:wood_smalljungle_wall_post" },
        "east=false,north=true,south=false,up=true,variant=delta,west=false":   { "model": "conquest:wood_smalljungle_wall_n" },
        "east=true,north=false,south=false,up=true,variant=delta,west=false":   { "model": "conquest:wood_smalljungle_wall_n", "y": 90, "uvlock": true },
        "east=false,north=false,south=true,up=true,variant=delta,west=false":   { "model": "conquest:wood_smalljungle_wall_n", "y": 180, "uvlock": true },
        "east=false,north=false,south=false,up=true,variant=delta,west=true":   { "model": "conquest:wood_smalljungle_wall_n", "y": 270, "uvlock": true },
        "east=true,north=true,south=false,up=true,variant=delta,west=false":    { "model": "conquest:wood_smalljungle_wall_ne" },
        "east=true,north=false,south=true,up=true,variant=delta,west=false":    { "model": "conquest:wood_smalljungle_wall_ne", "y": 90, "uvlock": true },
        "east=false,north=false,south=true,up=true,variant=delta,west=true":    { "model": "conquest:wood_smalljungle_wall_ne", "y": 180, "uvlock": true },
        "east=false,north=true,south=false,up=true,variant=delta,west=true":    { "model": "conquest:wood_smalljungle_wall_ne", "y": 270, "uvlock": true },
        "east=false,north=true,south=true,up=true,variant=delta,west=false":    { "model": "conquest:wood_smalljungle_wall_ns_above" },
        "east=true,north=false,south=false,up=true,variant=delta,west=true":    { "model": "conquest:wood_smalljungle_wall_ns_above", "y": 90, "uvlock": true },
        "east=true,north=true,south=true,up=true,variant=delta,west=false":     { "model": "conquest:wood_smalljungle_wall_nse" },
        "east=true,north=false,south=true,up=true,variant=delta,west=true":     { "model": "conquest:wood_smalljungle_wall_nse", "y": 90, "uvlock": true },
        "east=false,north=true,south=true,up=true,variant=delta,west=true":     { "model": "conquest:wood_smalljungle_wall_nse", "y": 180, "uvlock": true },
        "east=true,north=true,south=false,up=true,variant=delta,west=true":     { "model": "conquest:wood_smalljungle_wall_nse", "y": 270, "uvlock": true },
        "east=true,north=true,south=true,up=true,variant=delta,west=true":      { "model": "conquest:wood_smalljungle_wall_nsew" },


        "east=false,north=false,south=false,up=false,variant=echo,west=false": { "model": "conquest:wood_smallacacia_wall_post" },
        "east=false,north=true,south=false,up=false,variant=echo,west=false":  { "model": "conquest:wood_smallacacia_wall_n" },
        "east=true,north=false,south=false,up=false,variant=echo,west=false":  { "model": "conquest:wood_smallacacia_wall_n", "y": 90, "uvlock": true },
        "east=false,north=false,south=true,up=false,variant=echo,west=false":  { "model": "conquest:wood_smallacacia_wall_n", "y": 180, "uvlock": true },
        "east=false,north=false,south=false,up=false,variant=echo,west=true":  { "model": "conquest:wood_smallacacia_wall_n", "y": 270, "uvlock": true },
        "east=true,north=true,south=false,up=false,variant=echo,west=false":   { "model": "conquest:wood_smallacacia_wall_ne" },
        "east=true,north=false,south=true,up=false,variant=echo,west=false":   { "model": "conquest:wood_smallacacia_wall_ne", "y": 90, "uvlock": true },
        "east=false,north=false,south=true,up=false,variant=echo,west=true":   { "model": "conquest:wood_smallacacia_wall_ne", "y": 180, "uvlock": true },
        "east=false,north=true,south=false,up=false,variant=echo,west=true":   { "model": "conquest:wood_smallacacia_wall_ne", "y": 270, "uvlock": true },
        "east=false,north=true,south=true,up=false,variant=echo,west=false":   { "model": "conquest:wood_smallacacia_wall_ns" },
        "east=true,north=false,south=false,up=false,variant=echo,west=true":   { "model": "conquest:wood_smallacacia_wall_ns", "y": 90, "uvlock": true },
        "east=true,north=true,south=true,up=false,variant=echo,west=false":    { "model": "conquest:wood_smallacacia_wall_nse" },
        "east=true,north=false,south=true,up=false,variant=echo,west=true":    { "model": "conquest:wood_smallacacia_wall_nse", "y": 90, "uvlock": true },
        "east=false,north=true,south=true,up=false,variant=echo,west=true":    { "model": "conquest:wood_smallacacia_wall_nse", "y": 180, "uvlock": true },
        "east=true,north=true,south=false,up=false,variant=echo,west=true":    { "model": "conquest:wood_smallacacia_wall_nse", "y": 270, "uvlock": true },
        "east=true,north=true,south=true,up=false,variant=echo,west=true":     { "model": "conquest:wood_smallacacia_wall_nsew" },
        "east=false,north=false,south=false,up=true,variant=echo,west=false":  { "model": "conquest:wood_smallacacia_wall_post" },
        "east=false,north=true,south=false,up=true,variant=echo,west=false":   { "model": "conquest:wood_smallacacia_wall_n" },
        "east=true,north=false,south=false,up=true,variant=echo,west=false":   { "model": "conquest:wood_smallacacia_wall_n", "y": 90, "uvlock": true },
        "east=false,north=false,south=true,up=true,variant=echo,west=false":   { "model": "conquest:wood_smallacacia_wall_n", "y": 180, "uvlock": true },
        "east=false,north=false,south=false,up=true,variant=echo,west=true":   { "model": "conquest:wood_smallacacia_wall_n", "y": 270, "uvlock": true },
        "east=true,north=true,south=false,up=true,variant=echo,west=false":    { "model": "conquest:wood_smallacacia_wall_ne" },
        "east=true,north=false,south=true,up=true,variant=echo,west=false":    { "model": "conquest:wood_smallacacia_wall_ne", "y": 90, "uvlock": true },
        "east=false,north=false,south=true,up=true,variant=echo,west=true":    { "model": "conquest:wood_smallacacia_wall_ne", "y": 180, "uvlock": true },
        "east=false,north=true,south=false,up=true,variant=echo,west=true":    { "model": "conquest:wood_smallacacia_wall_ne", "y": 270, "uvlock": true },
        "east=false,north=true,south=true,up=true,variant=echo,west=false":    { "model": "conquest:wood_smallacacia_wall_ns_above" },
        "east=true,north=false,south=false,up=true,variant=echo,west=true":    { "model": "conquest:wood_smallacacia_wall_ns_above", "y": 90, "uvlock": true },
        "east=true,north=true,south=true,up=true,variant=echo,west=false":     { "model": "conquest:wood_smallacacia_wall_nse" },
        "east=true,north=false,south=true,up=true,variant=echo,west=true":     { "model": "conquest:wood_smallacacia_wall_nse", "y": 90, "uvlock": true },
        "east=false,north=true,south=true,up=true,variant=echo,west=true":     { "model": "conquest:wood_smallacacia_wall_nse", "y": 180, "uvlock": true },
        "east=true,north=true,south=false,up=true,variant=echo,west=true":     { "model": "conquest:wood_smallacacia_wall_nse", "y": 270, "uvlock": true },
        "east=true,north=true,south=true,up=true,variant=echo,west=true":      { "model": "conquest:wood_smallacacia_wall_nsew" },


        "east=false,north=false,south=false,up=false,variant=fox,west=false": { "model": "conquest:wood_smalldarkoak_wall_post" },
        "east=false,north=true,south=false,up=false,variant=fox,west=false":  { "model": "conquest:wood_smalldarkoak_wall_n" },
        "east=true,north=false,south=false,up=false,variant=fox,west=false":  { "model": "conquest:wood_smalldarkoak_wall_n", "y": 90, "uvlock": true },
        "east=false,north=false,south=true,up=false,variant=fox,west=false":  { "model": "conquest:wood_smalldarkoak_wall_n", "y": 180, "uvlock": true },
        "east=false,north=false,south=false,up=false,variant=fox,west=true":  { "model": "conquest:wood_smalldarkoak_wall_n", "y": 270, "uvlock": true },
        "east=true,north=true,south=false,up=false,variant=fox,west=false":   { "model": "conquest:wood_smalldarkoak_wall_ne" },
        "east=true,north=false,south=true,up=false,variant=fox,west=false":   { "model": "conquest:wood_smalldarkoak_wall_ne", "y": 90, "uvlock": true },
        "east=false,north=false,south=true,up=false,variant=fox,west=true":   { "model": "conquest:wood_smalldarkoak_wall_ne", "y": 180, "uvlock": true },
        "east=false,north=true,south=false,up=false,variant=fox,west=true":   { "model": "conquest:wood_smalldarkoak_wall_ne", "y": 270, "uvlock": true },
        "east=false,north=true,south=true,up=false,variant=fox,west=false":   { "model": "conquest:wood_smalldarkoak_wall_ns" },
        "east=true,north=false,south=false,up=false,variant=fox,west=true":   { "model": "conquest:wood_smalldarkoak_wall_ns", "y": 90, "uvlock": true },
        "east=true,north=true,south=true,up=false,variant=fox,west=false":    { "model": "conquest:wood_smalldarkoak_wall_nse" },
        "east=true,north=false,south=true,up=false,variant=fox,west=true":    { "model": "conquest:wood_smalldarkoak_wall_nse", "y": 90, "uvlock": true },
        "east=false,north=true,south=true,up=false,variant=fox,west=true":    { "model": "conquest:wood_smalldarkoak_wall_nse", "y": 180, "uvlock": true },
        "east=true,north=true,south=false,up=false,variant=fox,west=true":    { "model": "conquest:wood_smalldarkoak_wall_nse", "y": 270, "uvlock": true },
        "east=true,north=true,south=true,up=false,variant=fox,west=true":     { "model": "conquest:wood_smalldarkoak_wall_nsew" },
        "east=false,north=false,south=false,up=true,variant=fox,west=false":  { "model": "conquest:wood_smalldarkoak_wall_post" },
        "east=false,north=true,south=false,up=true,variant=fox,west=false":   { "model": "conquest:wood_smalldarkoak_wall_n" },
        "east=true,north=false,south=false,up=true,variant=fox,west=false":   { "model": "conquest:wood_smalldarkoak_wall_n", "y": 90, "uvlock": true },
        "east=false,north=false,south=true,up=true,variant=fox,west=false":   { "model": "conquest:wood_smalldarkoak_wall_n", "y": 180, "uvlock": true },
        "east=false,north=false,south=false,up=true,variant=fox,west=true":   { "model": "conquest:wood_smalldarkoak_wall_n", "y": 270, "uvlock": true },
        "east=true,north=true,south=false,up=true,variant=fox,west=false":    { "model": "conquest:wood_smalldarkoak_wall_ne" },
        "east=true,north=false,south=true,up=true,variant=fox,west=false":    { "model": "conquest:wood_smalldarkoak_wall_ne", "y": 90, "uvlock": true },
        "east=false,north=false,south=true,up=true,variant=fox,west=true":    { "model": "conquest:wood_smalldarkoak_wall_ne", "y": 180, "uvlock": true },
        "east=false,north=true,south=false,up=true,variant=fox,west=true":    { "model": "conquest:wood_smalldarkoak_wall_ne", "y": 270, "uvlock": true },
        "east=false,north=true,south=true,up=true,variant=fox,west=false":    { "model": "conquest:wood_smalldarkoak_wall_ns_above" },
        "east=true,north=false,south=false,up=true,variant=fox,west=true":    { "model": "conquest:wood_smalldarkoak_wall_ns_above", "y": 90, "uvlock": true },
        "east=true,north=true,south=true,up=true,variant=fox,west=false":     { "model": "conquest:wood_smalldarkoak_wall_nse" },
        "east=true,north=false,south=true,up=true,variant=fox,west=true":     { "model": "conquest:wood_smalldarkoak_wall_nse", "y": 90, "uvlock": true },
        "east=false,north=true,south=true,up=true,variant=fox,west=true":     { "model": "conquest:wood_smalldarkoak_wall_nse", "y": 180, "uvlock": true },
        "east=true,north=true,south=false,up=true,variant=fox,west=true":     { "model": "conquest:wood_smalldarkoak_wall_nse", "y": 270, "uvlock": true },
        "east=true,north=true,south=true,up=true,variant=fox,west=true":      { "model": "conquest:wood_smalldarkoak_wall_nsew" },


        "east=false,north=false,south=false,up=false,variant=golf,west=false": { "model": "conquest:wood_smallornamental_wall_post" },
        "east=false,north=true,south=false,up=false,variant=golf,west=false":  { "model": "conquest:wood_smallornamental_wall_n" },
        "east=true,north=false,south=false,up=false,variant=golf,west=false":  { "model": "conquest:wood_smallornamental_wall_n", "y": 90, "uvlock": true },
        "east=false,north=false,south=true,up=false,variant=golf,west=false":  { "model": "conquest:wood_smallornamental_wall_n", "y": 180, "uvlock": true },
        "east=false,north=false,south=false,up=false,variant=golf,west=true":  { "model": "conquest:wood_smallornamental_wall_n", "y": 270, "uvlock": true },
        "east=true,north=true,south=false,up=false,variant=golf,west=false":   { "model": "conquest:wood_smallornamental_wall_ne" },
        "east=true,north=false,south=true,up=false,variant=golf,west=false":   { "model": "conquest:wood_smallornamental_wall_ne", "y": 90, "uvlock": true },
        "east=false,north=false,south=true,up=false,variant=golf,west=true":   { "model": "conquest:wood_smallornamental_wall_ne", "y": 180, "uvlock": true },
        "east=false,north=true,south=false,up=false,variant=golf,west=true":   { "model": "conquest:wood_smallornamental_wall_ne", "y": 270, "uvlock": true },
        "east=false,north=true,south=true,up=false,variant=golf,west=false":   { "model": "conquest:wood_smallornamental_wall_ns" },
        "east=true,north=false,south=false,up=false,variant=golf,west=true":   { "model": "conquest:wood_smallornamental_wall_ns", "y": 90, "uvlock": true },
        "east=true,north=true,south=true,up=false,variant=golf,west=false":    { "model": "conquest:wood_smallornamental_wall_nse" },
        "east=true,north=false,south=true,up=false,variant=golf,west=true":    { "model": "conquest:wood_smallornamental_wall_nse", "y": 90, "uvlock": true },
        "east=false,north=true,south=true,up=false,variant=golf,west=true":    { "model": "conquest:wood_smallornamental_wall_nse", "y": 180, "uvlock": true },
        "east=true,north=true,south=false,up=false,variant=golf,west=true":    { "model": "conquest:wood_smallornamental_wall_nse", "y": 270, "uvlock": true },
        "east=true,north=true,south=true,up=false,variant=golf,west=true":     { "model": "conquest:wood_smallornamental_wall_nsew" },
        "east=false,north=false,south=false,up=true,variant=golf,west=false":  { "model": "conquest:wood_smallornamental_wall_post" },
        "east=false,north=true,south=false,up=true,variant=golf,west=false":   { "model": "conquest:wood_smallornamental_wall_n" },
        "east=true,north=false,south=false,up=true,variant=golf,west=false":   { "model": "conquest:wood_smallornamental_wall_n", "y": 90, "uvlock": true },
        "east=false,north=false,south=true,up=true,variant=golf,west=false":   { "model": "conquest:wood_smallornamental_wall_n", "y": 180, "uvlock": true },
        "east=false,north=false,south=false,up=true,variant=golf,west=true":   { "model": "conquest:wood_smallornamental_wall_n", "y": 270, "uvlock": true },
        "east=true,north=true,south=false,up=true,variant=golf,west=false":    { "model": "conquest:wood_smallornamental_wall_ne" },
        "east=true,north=false,south=true,up=true,variant=golf,west=false":    { "model": "conquest:wood_smallornamental_wall_ne", "y": 90, "uvlock": true },
        "east=false,north=false,south=true,up=true,variant=golf,west=true":    { "model": "conquest:wood_smallornamental_wall_ne", "y": 180, "uvlock": true },
        "east=false,north=true,south=false,up=true,variant=golf,west=true":    { "model": "conquest:wood_smallornamental_wall_ne", "y": 270, "uvlock": true },
        "east=false,north=true,south=true,up=true,variant=golf,west=false":    { "model": "conquest:wood_smallornamental_wall_ns_above" },
        "east=true,north=false,south=false,up=true,variant=golf,west=true":    { "model": "conquest:wood_smallornamental_wall_ns_above", "y": 90, "uvlock": true },
        "east=true,north=true,south=true,up=true,variant=golf,west=false":     { "model": "conquest:wood_smallornamental_wall_nse" },
        "east=true,north=false,south=true,up=true,variant=golf,west=true":     { "model": "conquest:wood_smallornamental_wall_nse", "y": 90, "uvlock": true },
        "east=false,north=true,south=true,up=true,variant=golf,west=true":     { "model": "conquest:wood_smallornamental_wall_nse", "y": 180, "uvlock": true },
        "east=true,north=true,south=false,up=true,variant=golf,west=true":     { "model": "conquest:wood_smallornamental_wall_nse", "y": 270, "uvlock": true },
        "east=true,north=true,south=true,up=true,variant=golf,west=true":      { "model": "conquest:wood_smallornamental_wall_nsew" },


        "east=false,north=false,south=false,up=false,variant=hotel,west=false": { "model": "conquest:wood_darkornamental_wall_post" },
        "east=false,north=true,south=false,up=false,variant=hotel,west=false":  { "model": "conquest:wood_darkornamental_wall_n" },
        "east=true,north=false,south=false,up=false,variant=hotel,west=false":  { "model": "conquest:wood_darkornamental_wall_n", "y": 90, "uvlock": true },
        "east=false,north=false,south=true,up=false,variant=hotel,west=false":  { "model": "conquest:wood_darkornamental_wall_n", "y": 180, "uvlock": true },
        "east=false,north=false,south=false,up=false,variant=hotel,west=true":  { "model": "conquest:wood_darkornamental_wall_n", "y": 270, "uvlock": true },
        "east=true,north=true,south=false,up=false,variant=hotel,west=false":   { "model": "conquest:wood_darkornamental_wall_ne" },
        "east=true,north=false,south=true,up=false,variant=hotel,west=false":   { "model": "conquest:wood_darkornamental_wall_ne", "y": 90, "uvlock": true },
        "east=false,north=false,south=true,up=false,variant=hotel,west=true":   { "model": "conquest:wood_darkornamental_wall_ne", "y": 180, "uvlock": true },
        "east=false,north=true,south=false,up=false,variant=hotel,west=true":   { "model": "conquest:wood_darkornamental_wall_ne", "y": 270, "uvlock": true },
        "east=false,north=true,south=true,up=false,variant=hotel,west=false":   { "model": "conquest:wood_darkornamental_wall_ns" },
        "east=true,north=false,south=false,up=false,variant=hotel,west=true":   { "model": "conquest:wood_darkornamental_wall_ns", "y": 90, "uvlock": true },
        "east=true,north=true,south=true,up=false,variant=hotel,west=false":    { "model": "conquest:wood_darkornamental_wall_nse" },
        "east=true,north=false,south=true,up=false,variant=hotel,west=true":    { "model": "conquest:wood_darkornamental_wall_nse", "y": 90, "uvlock": true },
        "east=false,north=true,south=true,up=false,variant=hotel,west=true":    { "model": "conquest:wood_darkornamental_wall_nse", "y": 180, "uvlock": true },
        "east=true,north=true,south=false,up=false,variant=hotel,west=true":    { "model": "conquest:wood_darkornamental_wall_nse", "y": 270, "uvlock": true },
        "east=true,north=true,south=true,up=false,variant=hotel,west=true":     { "model": "conquest:wood_darkornamental_wall_nsew" },
        "east=false,north=false,south=false,up=true,variant=hotel,west=false":  { "model": "conquest:wood_darkornamental_wall_post" },
        "east=false,north=true,south=false,up=true,variant=hotel,west=false":   { "model": "conquest:wood_darkornamental_wall_n" },
        "east=true,north=false,south=false,up=true,variant=hotel,west=false":   { "model": "conquest:wood_darkornamental_wall_n", "y": 90, "uvlock": true },
        "east=false,north=false,south=true,up=true,variant=hotel,west=false":   { "model": "conquest:wood_darkornamental_wall_n", "y": 180, "uvlock": true },
        "east=false,north=false,south=false,up=true,variant=hotel,west=true":   { "model": "conquest:wood_darkornamental_wall_n", "y": 270, "uvlock": true },
        "east=true,north=true,south=false,up=true,variant=hotel,west=false":    { "model": "conquest:wood_darkornamental_wall_ne" },
        "east=true,north=false,south=true,up=true,variant=hotel,west=false":    { "model": "conquest:wood_darkornamental_wall_ne", "y": 90, "uvlock": true },
        "east=false,north=false,south=true,up=true,variant=hotel,west=true":    { "model": "conquest:wood_darkornamental_wall_ne", "y": 180, "uvlock": true },
        "east=false,north=true,south=false,up=true,variant=hotel,west=true":    { "model": "conquest:wood_darkornamental_wall_ne", "y": 270, "uvlock": true },
        "east=false,north=true,south=true,up=true,variant=hotel,west=false":    { "model": "conquest:wood_darkornamental_wall_ns_above" },
        "east=true,north=false,south=false,up=true,variant=hotel,west=true":    { "model": "conquest:wood_darkornamental_wall_ns_above", "y": 90, "uvlock": true },
        "east=true,north=true,south=true,up=true,variant=hotel,west=false":     { "model": "conquest:wood_darkornamental_wall_nse" },
        "east=true,north=false,south=true,up=true,variant=hotel,west=true":     { "model": "conquest:wood_darkornamental_wall_nse", "y": 90, "uvlock": true },
        "east=false,north=true,south=true,up=true,variant=hotel,west=true":     { "model": "conquest:wood_darkornamental_wall_nse", "y": 180, "uvlock": true },
        "east=true,north=true,south=false,up=true,variant=hotel,west=true":     { "model": "conquest:wood_darkornamental_wall_nse", "y": 270, "uvlock": true },
        "east=true,north=true,south=true,up=true,variant=hotel,west=true":      { "model": "conquest:wood_darkornamental_wall_nsew" },


        "east=false,north=false,south=false,up=false,variant=india,west=false": { "model": "conquest:wood_carvedoak_wall_post" },
        "east=false,north=true,south=false,up=false,variant=india,west=false":  { "model": "conquest:wood_carvedoak_wall_n" },
        "east=true,north=false,south=false,up=false,variant=india,west=false":  { "model": "conquest:wood_carvedoak_wall_n", "y": 90, "uvlock": true },
        "east=false,north=false,south=true,up=false,variant=india,west=false":  { "model": "conquest:wood_carvedoak_wall_n", "y": 180, "uvlock": true },
        "east=false,north=false,south=false,up=false,variant=india,west=true":  { "model": "conquest:wood_carvedoak_wall_n", "y": 270, "uvlock": true },
        "east=true,north=true,south=false,up=false,variant=india,west=false":   { "model": "conquest:wood_carvedoak_wall_ne" },
        "east=true,north=false,south=true,up=false,variant=india,west=false":   { "model": "conquest:wood_carvedoak_wall_ne", "y": 90, "uvlock": true },
        "east=false,north=false,south=true,up=false,variant=india,west=true":   { "model": "conquest:wood_carvedoak_wall_ne", "y": 180, "uvlock": true },
        "east=false,north=true,south=false,up=false,variant=india,west=true":   { "model": "conquest:wood_carvedoak_wall_ne", "y": 270, "uvlock": true },
        "east=false,north=true,south=true,up=false,variant=india,west=false":   { "model": "conquest:wood_carvedoak_wall_ns" },
        "east=true,north=false,south=false,up=false,variant=india,west=true":   { "model": "conquest:wood_carvedoak_wall_ns", "y": 90, "uvlock": true },
        "east=true,north=true,south=true,up=false,variant=india,west=false":    { "model": "conquest:wood_carvedoak_wall_nse" },
        "east=true,north=false,south=true,up=false,variant=india,west=true":    { "model": "conquest:wood_carvedoak_wall_nse", "y": 90, "uvlock": true },
        "east=false,north=true,south=true,up=false,variant=india,west=true":    { "model": "conquest:wood_carvedoak_wall_nse", "y": 180, "uvlock": true },
        "east=true,north=true,south=false,up=false,variant=india,west=true":    { "model": "conquest:wood_carvedoak_wall_nse", "y": 270, "uvlock": true },
        "east=true,north=true,south=true,up=false,variant=india,west=true":     { "model": "conquest:wood_carvedoak_wall_nsew" },
        "east=false,north=false,south=false,up=true,variant=india,west=false":  { "model": "conquest:wood_carvedoak_wall_post" },
        "east=false,north=true,south=false,up=true,variant=india,west=false":   { "model": "conquest:wood_carvedoak_wall_n" },
        "east=true,north=false,south=false,up=true,variant=india,west=false":   { "model": "conquest:wood_carvedoak_wall_n", "y": 90, "uvlock": true },
        "east=false,north=false,south=true,up=true,variant=india,west=false":   { "model": "conquest:wood_carvedoak_wall_n", "y": 180, "uvlock": true },
        "east=false,north=false,south=false,up=true,variant=india,west=true":   { "model": "conquest:wood_carvedoak_wall_n", "y": 270, "uvlock": true },
        "east=true,north=true,south=false,up=true,variant=india,west=false":    { "model": "conquest:wood_carvedoak_wall_ne" },
        "east=true,north=false,south=true,up=true,variant=india,west=false":    { "model": "conquest:wood_carvedoak_wall_ne", "y": 90, "uvlock": true },
        "east=false,north=false,south=true,up=true,variant=india,west=true":    { "model": "conquest:wood_carvedoak_wall_ne", "y": 180, "uvlock": true },
        "east=false,north=true,south=false,up=true,variant=india,west=true":    { "model": "conquest:wood_carvedoak_wall_ne", "y": 270, "uvlock": true },
        "east=false,north=true,south=true,up=true,variant=india,west=false":    { "model": "conquest:wood_carvedoak_wall_ns_above" },
        "east=true,north=false,south=false,up=true,variant=india,west=true":    { "model": "conquest:wood_carvedoak_wall_ns_above", "y": 90, "uvlock": true },
        "east=true,north=true,south=true,up=true,variant=india,west=false":     { "model": "conquest:wood_carvedoak_wall_nse" },
        "east=true,north=false,south=true,up=true,variant=india,west=true":     { "model": "conquest:wood_carvedoak_wall_nse", "y": 90, "uvlock": true },
        "east=false,north=true,south=true,up=true,variant=india,west=true":     { "model": "conquest:wood_carvedoak_wall_nse", "y": 180, "uvlock": true },
        "east=true,north=true,south=false,up=true,variant=india,west=true":     { "model": "conquest:wood_carvedoak_wall_nse", "y": 270, "uvlock": true },
        "east=true,north=true,south=true,up=true,variant=india,west=true":      { "model": "conquest:wood_carvedoak_wall_nsew" },


        "east=false,north=false,south=false,up=false,variant=juliet,west=false": { "model": "conquest:wood_oak_wall_post" },
        "east=false,north=true,south=false,up=false,variant=juliet,west=false":  { "model": "conquest:wood_oak_wall_n" },
        "east=true,north=false,south=false,up=false,variant=juliet,west=false":  { "model": "conquest:wood_oak_wall_n", "y": 90, "uvlock": true },
        "east=false,north=false,south=true,up=false,variant=juliet,west=false":  { "model": "conquest:wood_oak_wall_n", "y": 180, "uvlock": true },
        "east=false,north=false,south=false,up=false,variant=juliet,west=true":  { "model": "conquest:wood_oak_wall_n", "y": 270, "uvlock": true },
        "east=true,north=true,south=false,up=false,variant=juliet,west=false":   { "model": "conquest:wood_oak_wall_ne" },
        "east=true,north=false,south=true,up=false,variant=juliet,west=false":   { "model": "conquest:wood_oak_wall_ne", "y": 90, "uvlock": true },
        "east=false,north=false,south=true,up=false,variant=juliet,west=true":   { "model": "conquest:wood_oak_wall_ne", "y": 180, "uvlock": true },
        "east=false,north=true,south=false,up=false,variant=juliet,west=true":   { "model": "conquest:wood_oak_wall_ne", "y": 270, "uvlock": true },
        "east=false,north=true,south=true,up=false,variant=juliet,west=false":   { "model": "conquest:wood_oak_wall_ns" },
        "east=true,north=false,south=false,up=false,variant=juliet,west=true":   { "model": "conquest:wood_oak_wall_ns", "y": 90, "uvlock": true },
        "east=true,north=true,south=true,up=false,variant=juliet,west=false":    { "model": "conquest:wood_oak_wall_nse" },
        "east=true,north=false,south=true,up=false,variant=juliet,west=true":    { "model": "conquest:wood_oak_wall_nse", "y": 90, "uvlock": true },
        "east=false,north=true,south=true,up=false,variant=juliet,west=true":    { "model": "conquest:wood_oak_wall_nse", "y": 180, "uvlock": true },
        "east=true,north=true,south=false,up=false,variant=juliet,west=true":    { "model": "conquest:wood_oak_wall_nse", "y": 270, "uvlock": true },
        "east=true,north=true,south=true,up=false,variant=juliet,west=true":     { "model": "conquest:wood_oak_wall_nsew" },
        "east=false,north=false,south=false,up=true,variant=juliet,west=false":  { "model": "conquest:wood_oak_wall_post" },
        "east=false,north=true,south=false,up=true,variant=juliet,west=false":   { "model": "conquest:wood_oak_wall_n" },
        "east=true,north=false,south=false,up=true,variant=juliet,west=false":   { "model": "conquest:wood_oak_wall_n", "y": 90, "uvlock": true },
        "east=false,north=false,south=true,up=true,variant=juliet,west=false":   { "model": "conquest:wood_oak_wall_n", "y": 180, "uvlock": true },
        "east=false,north=false,south=false,up=true,variant=juliet,west=true":   { "model": "conquest:wood_oak_wall_n", "y": 270, "uvlock": true },
        "east=true,north=true,south=false,up=true,variant=juliet,west=false":    { "model": "conquest:wood_oak_wall_ne" },
        "east=true,north=false,south=true,up=true,variant=juliet,west=false":    { "model": "conquest:wood_oak_wall_ne", "y": 90, "uvlock": true },
        "east=false,north=false,south=true,up=true,variant=juliet,west=true":    { "model": "conquest:wood_oak_wall_ne", "y": 180, "uvlock": true },
        "east=false,north=true,south=false,up=true,variant=juliet,west=true":    { "model": "conquest:wood_oak_wall_ne", "y": 270, "uvlock": true },
        "east=false,north=true,south=true,up=true,variant=juliet,west=false":    { "model": "conquest:wood_oak_wall_ns_above" },
        "east=true,north=false,south=false,up=true,variant=juliet,west=true":    { "model": "conquest:wood_oak_wall_ns_above", "y": 90, "uvlock": true },
        "east=true,north=true,south=true,up=true,variant=juliet,west=false":     { "model": "conquest:wood_oak_wall_nse" },
        "east=true,north=false,south=true,up=true,variant=juliet,west=true":     { "model": "conquest:wood_oak_wall_nse", "y": 90, "uvlock": true },
        "east=false,north=true,south=true,up=true,variant=juliet,west=true":     { "model": "conquest:wood_oak_wall_nse", "y": 180, "uvlock": true },
        "east=true,north=true,south=false,up=true,variant=juliet,west=true":     { "model": "conquest:wood_oak_wall_nse", "y": 270, "uvlock": true },
        "east=true,north=true,south=true,up=true,variant=juliet,west=true":      { "model": "conquest:wood_oak_wall_nsew" },


        "east=false,north=false,south=false,up=false,variant=kilo,west=false": { "model": "conquest:wood_carvedspruce_wall_post" },
        "east=false,north=true,south=false,up=false,variant=kilo,west=false":  { "model": "conquest:wood_carvedspruce_wall_n" },
        "east=true,north=false,south=false,up=false,variant=kilo,west=false":  { "model": "conquest:wood_carvedspruce_wall_n", "y": 90, "uvlock": true },
        "east=false,north=false,south=true,up=false,variant=kilo,west=false":  { "model": "conquest:wood_carvedspruce_wall_n", "y": 180, "uvlock": true },
        "east=false,north=false,south=false,up=false,variant=kilo,west=true":  { "model": "conquest:wood_carvedspruce_wall_n", "y": 270, "uvlock": true },
        "east=true,north=true,south=false,up=false,variant=kilo,west=false":   { "model": "conquest:wood_carvedspruce_wall_ne" },
        "east=true,north=false,south=true,up=false,variant=kilo,west=false":   { "model": "conquest:wood_carvedspruce_wall_ne", "y": 90, "uvlock": true },
        "east=false,north=false,south=true,up=false,variant=kilo,west=true":   { "model": "conquest:wood_carvedspruce_wall_ne", "y": 180, "uvlock": true },
        "east=false,north=true,south=false,up=false,variant=kilo,west=true":   { "model": "conquest:wood_carvedspruce_wall_ne", "y": 270, "uvlock": true },
        "east=false,north=true,south=true,up=false,variant=kilo,west=false":   { "model": "conquest:wood_carvedspruce_wall_ns" },
        "east=true,north=false,south=false,up=false,variant=kilo,west=true":   { "model": "conquest:wood_carvedspruce_wall_ns", "y": 90, "uvlock": true },
        "east=true,north=true,south=true,up=false,variant=kilo,west=false":    { "model": "conquest:wood_carvedspruce_wall_nse" },
        "east=true,north=false,south=true,up=false,variant=kilo,west=true":    { "model": "conquest:wood_carvedspruce_wall_nse", "y": 90, "uvlock": true },
        "east=false,north=true,south=true,up=false,variant=kilo,west=true":    { "model": "conquest:wood_carvedspruce_wall_nse", "y": 180, "uvlock": true },
        "east=true,north=true,south=false,up=false,variant=kilo,west=true":    { "model": "conquest:wood_carvedspruce_wall_nse", "y": 270, "uvlock": true },
        "east=true,north=true,south=true,up=false,variant=kilo,west=true":     { "model": "conquest:wood_carvedspruce_wall_nsew" },
        "east=false,north=false,south=false,up=true,variant=kilo,west=false":  { "model": "conquest:wood_carvedspruce_wall_post" },
        "east=false,north=true,south=false,up=true,variant=kilo,west=false":   { "model": "conquest:wood_carvedspruce_wall_n" },
        "east=true,north=false,south=false,up=true,variant=kilo,west=false":   { "model": "conquest:wood_carvedspruce_wall_n", "y": 90, "uvlock": true },
        "east=false,north=false,south=true,up=true,variant=kilo,west=false":   { "model": "conquest:wood_carvedspruce_wall_n", "y": 180, "uvlock": true },
        "east=false,north=false,south=false,up=true,variant=kilo,west=true":   { "model": "conquest:wood_carvedspruce_wall_n", "y": 270, "uvlock": true },
        "east=true,north=true,south=false,up=true,variant=kilo,west=false":    { "model": "conquest:wood_carvedspruce_wall_ne" },
        "east=true,north=false,south=true,up=true,variant=kilo,west=false":    { "model": "conquest:wood_carvedspruce_wall_ne", "y": 90, "uvlock": true },
        "east=false,north=false,south=true,up=true,variant=kilo,west=true":    { "model": "conquest:wood_carvedspruce_wall_ne", "y": 180, "uvlock": true },
        "east=false,north=true,south=false,up=true,variant=kilo,west=true":    { "model": "conquest:wood_carvedspruce_wall_ne", "y": 270, "uvlock": true },
        "east=false,north=true,south=true,up=true,variant=kilo,west=false":    { "model": "conquest:wood_carvedspruce_wall_ns_above" },
        "east=true,north=false,south=false,up=true,variant=kilo,west=true":    { "model": "conquest:wood_carvedspruce_wall_ns_above", "y": 90, "uvlock": true },
        "east=true,north=true,south=true,up=true,variant=kilo,west=false":     { "model": "conquest:wood_carvedspruce_wall_nse" },
        "east=true,north=false,south=true,up=true,variant=kilo,west=true":     { "model": "conquest:wood_carvedspruce_wall_nse", "y": 90, "uvlock": true },
        "east=false,north=true,south=true,up=true,variant=kilo,west=true":     { "model": "conquest:wood_carvedspruce_wall_nse", "y": 180, "uvlock": true },
        "east=true,north=true,south=false,up=true,variant=kilo,west=true":     { "model": "conquest:wood_carvedspruce_wall_nse", "y": 270, "uvlock": true },
        "east=true,north=true,south=true,up=true,variant=kilo,west=true":      { "model": "conquest:wood_carvedspruce_wall_nsew" },


        "east=false,north=false,south=false,up=false,variant=lima,west=false": { "model": "conquest:wood_spruce_wall_post" },
        "east=false,north=true,south=false,up=false,variant=lima,west=false":  { "model": "conquest:wood_spruce_wall_n" },
        "east=true,north=false,south=false,up=false,variant=lima,west=false":  { "model": "conquest:wood_spruce_wall_n", "y": 90, "uvlock": true },
        "east=false,north=false,south=true,up=false,variant=lima,west=false":  { "model": "conquest:wood_spruce_wall_n", "y": 180, "uvlock": true },
        "east=false,north=false,south=false,up=false,variant=lima,west=true":  { "model": "conquest:wood_spruce_wall_n", "y": 270, "uvlock": true },
        "east=true,north=true,south=false,up=false,variant=lima,west=false":   { "model": "conquest:wood_spruce_wall_ne" },
        "east=true,north=false,south=true,up=false,variant=lima,west=false":   { "model": "conquest:wood_spruce_wall_ne", "y": 90, "uvlock": true },
        "east=false,north=false,south=true,up=false,variant=lima,west=true":   { "model": "conquest:wood_spruce_wall_ne", "y": 180, "uvlock": true },
        "east=false,north=true,south=false,up=false,variant=lima,west=true":   { "model": "conquest:wood_spruce_wall_ne", "y": 270, "uvlock": true },
        "east=false,north=true,south=true,up=false,variant=lima,west=false":   { "model": "conquest:wood_spruce_wall_ns" },
        "east=true,north=false,south=false,up=false,variant=lima,west=true":   { "model": "conquest:wood_spruce_wall_ns", "y": 90, "uvlock": true },
        "east=true,north=true,south=true,up=false,variant=lima,west=false":    { "model": "conquest:wood_spruce_wall_nse" },
        "east=true,north=false,south=true,up=false,variant=lima,west=true":    { "model": "conquest:wood_spruce_wall_nse", "y": 90, "uvlock": true },
        "east=false,north=true,south=true,up=false,variant=lima,west=true":    { "model": "conquest:wood_spruce_wall_nse", "y": 180, "uvlock": true },
        "east=true,north=true,south=false,up=false,variant=lima,west=true":    { "model": "conquest:wood_spruce_wall_nse", "y": 270, "uvlock": true },
        "east=true,north=true,south=true,up=false,variant=lima,west=true":     { "model": "conquest:wood_spruce_wall_nsew" },
        "east=false,north=false,south=false,up=true,variant=lima,west=false":  { "model": "conquest:wood_spruce_wall_post" },
        "east=false,north=true,south=false,up=true,variant=lima,west=false":   { "model": "conquest:wood_spruce_wall_n" },
        "east=true,north=false,south=false,up=true,variant=lima,west=false":   { "model": "conquest:wood_spruce_wall_n", "y": 90, "uvlock": true },
        "east=false,north=false,south=true,up=true,variant=lima,west=false":   { "model": "conquest:wood_spruce_wall_n", "y": 180, "uvlock": true },
        "east=false,north=false,south=false,up=true,variant=lima,west=true":   { "model": "conquest:wood_spruce_wall_n", "y": 270, "uvlock": true },
        "east=true,north=true,south=false,up=true,variant=lima,west=false":    { "model": "conquest:wood_spruce_wall_ne" },
        "east=true,north=false,south=true,up=true,variant=lima,west=false":    { "model": "conquest:wood_spruce_wall_ne", "y": 90, "uvlock": true },
        "east=false,north=false,south=true,up=true,variant=lima,west=true":    { "model": "conquest:wood_spruce_wall_ne", "y": 180, "uvlock": true },
        "east=false,north=true,south=false,up=true,variant=lima,west=true":    { "model": "conquest:wood_spruce_wall_ne", "y": 270, "uvlock": true },
        "east=false,north=true,south=true,up=true,variant=lima,west=false":    { "model": "conquest:wood_spruce_wall_ns_above" },
        "east=true,north=false,south=false,up=true,variant=lima,west=true":    { "model": "conquest:wood_spruce_wall_ns_above", "y": 90, "uvlock": true },
        "east=true,north=true,south=true,up=true,variant=lima,west=false":     { "model": "conquest:wood_spruce_wall_nse" },
        "east=true,north=false,south=true,up=true,variant=lima,west=true":     { "model": "conquest:wood_spruce_wall_nse", "y": 90, "uvlock": true },
        "east=false,north=true,south=true,up=true,variant=lima,west=true":     { "model": "conquest:wood_spruce_wall_nse", "y": 180, "uvlock": true },
        "east=true,north=true,south=false,up=true,variant=lima,west=true":     { "model": "conquest:wood_spruce_wall_nse", "y": 270, "uvlock": true },
        "east=true,north=true,south=true,up=true,variant=lima,west=true":      { "model": "conquest:wood_spruce_wall_nsew" },


        "east=false,north=false,south=false,up=false,variant=mike,west=false": { "model": "conquest:wood_carvedbirch_wall_post" },
        "east=false,north=true,south=false,up=false,variant=mike,west=false":  { "model": "conquest:wood_carvedbirch_wall_n" },
        "east=true,north=false,south=false,up=false,variant=mike,west=false":  { "model": "conquest:wood_carvedbirch_wall_n", "y": 90, "uvlock": true },
        "east=false,north=false,south=true,up=false,variant=mike,west=false":  { "model": "conquest:wood_carvedbirch_wall_n", "y": 180, "uvlock": true },
        "east=false,north=false,south=false,up=false,variant=mike,west=true":  { "model": "conquest:wood_carvedbirch_wall_n", "y": 270, "uvlock": true },
        "east=true,north=true,south=false,up=false,variant=mike,west=false":   { "model": "conquest:wood_carvedbirch_wall_ne" },
        "east=true,north=false,south=true,up=false,variant=mike,west=false":   { "model": "conquest:wood_carvedbirch_wall_ne", "y": 90, "uvlock": true },
        "east=false,north=false,south=true,up=false,variant=mike,west=true":   { "model": "conquest:wood_carvedbirch_wall_ne", "y": 180, "uvlock": true },
        "east=false,north=true,south=false,up=false,variant=mike,west=true":   { "model": "conquest:wood_carvedbirch_wall_ne", "y": 270, "uvlock": true },
        "east=false,north=true,south=true,up=false,variant=mike,west=false":   { "model": "conquest:wood_carvedbirch_wall_ns" },
        "east=true,north=false,south=false,up=false,variant=mike,west=true":   { "model": "conquest:wood_carvedbirch_wall_ns", "y": 90, "uvlock": true },
        "east=true,north=true,south=true,up=false,variant=mike,west=false":    { "model": "conquest:wood_carvedbirch_wall_nse" },
        "east=true,north=false,south=true,up=false,variant=mike,west=true":    { "model": "conquest:wood_carvedbirch_wall_nse", "y": 90, "uvlock": true },
        "east=false,north=true,south=true,up=false,variant=mike,west=true":    { "model": "conquest:wood_carvedbirch_wall_nse", "y": 180, "uvlock": true },
        "east=true,north=true,south=false,up=false,variant=mike,west=true":    { "model": "conquest:wood_carvedbirch_wall_nse", "y": 270, "uvlock": true },
        "east=true,north=true,south=true,up=false,variant=mike,west=true":     { "model": "conquest:wood_carvedbirch_wall_nsew" },
        "east=false,north=false,south=false,up=true,variant=mike,west=false":  { "model": "conquest:wood_carvedbirch_wall_post" },
        "east=false,north=true,south=false,up=true,variant=mike,west=false":   { "model": "conquest:wood_carvedbirch_wall_n" },
        "east=true,north=false,south=false,up=true,variant=mike,west=false":   { "model": "conquest:wood_carvedbirch_wall_n", "y": 90, "uvlock": true },
        "east=false,north=false,south=true,up=true,variant=mike,west=false":   { "model": "conquest:wood_carvedbirch_wall_n", "y": 180, "uvlock": true },
        "east=false,north=false,south=false,up=true,variant=mike,west=true":   { "model": "conquest:wood_carvedbirch_wall_n", "y": 270, "uvlock": true },
        "east=true,north=true,south=false,up=true,variant=mike,west=false":    { "model": "conquest:wood_carvedbirch_wall_ne" },
        "east=true,north=false,south=true,up=true,variant=mike,west=false":    { "model": "conquest:wood_carvedbirch_wall_ne", "y": 90, "uvlock": true },
        "east=false,north=false,south=true,up=true,variant=mike,west=true":    { "model": "conquest:wood_carvedbirch_wall_ne", "y": 180, "uvlock": true },
        "east=false,north=true,south=false,up=true,variant=mike,west=true":    { "model": "conquest:wood_carvedbirch_wall_ne", "y": 270, "uvlock": true },
        "east=false,north=true,south=true,up=true,variant=mike,west=false":    { "model": "conquest:wood_carvedbirch_wall_ns_above" },
        "east=true,north=false,south=false,up=true,variant=mike,west=true":    { "model": "conquest:wood_carvedbirch_wall_ns_above", "y": 90, "uvlock": true },
        "east=true,north=true,south=true,up=true,variant=mike,west=false":     { "model": "conquest:wood_carvedbirch_wall_nse" },
        "east=true,north=false,south=true,up=true,variant=mike,west=true":     { "model": "conquest:wood_carvedbirch_wall_nse", "y": 90, "uvlock": true },
        "east=false,north=true,south=true,up=true,variant=mike,west=true":     { "model": "conquest:wood_carvedbirch_wall_nse", "y": 180, "uvlock": true },
        "east=true,north=true,south=false,up=true,variant=mike,west=true":     { "model": "conquest:wood_carvedbirch_wall_nse", "y": 270, "uvlock": true },
        "east=true,north=true,south=true,up=true,variant=mike,west=true":      { "model": "conquest:wood_carvedbirch_wall_nsew" },


        "east=false,north=false,south=false,up=false,variant=november,west=false": { "model": "conquest:wood_birch_wall_post" },
        "east=false,north=true,south=false,up=false,variant=november,west=false":  { "model": "conquest:wood_birch_wall_n" },
        "east=true,north=false,south=false,up=false,variant=november,west=false":  { "model": "conquest:wood_birch_wall_n", "y": 90, "uvlock": true },
        "east=false,north=false,south=true,up=false,variant=november,west=false":  { "model": "conquest:wood_birch_wall_n", "y": 180, "uvlock": true },
        "east=false,north=false,south=false,up=false,variant=november,west=true":  { "model": "conquest:wood_birch_wall_n", "y": 270, "uvlock": true },
        "east=true,north=true,south=false,up=false,variant=november,west=false":   { "model": "conquest:wood_birch_wall_ne" },
        "east=true,north=false,south=true,up=false,variant=november,west=false":   { "model": "conquest:wood_birch_wall_ne", "y": 90, "uvlock": true },
        "east=false,north=false,south=true,up=false,variant=november,west=true":   { "model": "conquest:wood_birch_wall_ne", "y": 180, "uvlock": true },
        "east=false,north=true,south=false,up=false,variant=november,west=true":   { "model": "conquest:wood_birch_wall_ne", "y": 270, "uvlock": true },
        "east=false,north=true,south=true,up=false,variant=november,west=false":   { "model": "conquest:wood_birch_wall_ns" },
        "east=true,north=false,south=false,up=false,variant=november,west=true":   { "model": "conquest:wood_birch_wall_ns", "y": 90, "uvlock": true },
        "east=true,north=true,south=true,up=false,variant=november,west=false":    { "model": "conquest:wood_birch_wall_nse" },
        "east=true,north=false,south=true,up=false,variant=november,west=true":    { "model": "conquest:wood_birch_wall_nse", "y": 90, "uvlock": true },
        "east=false,north=true,south=true,up=false,variant=november,west=true":    { "model": "conquest:wood_birch_wall_nse", "y": 180, "uvlock": true },
        "east=true,north=true,south=false,up=false,variant=november,west=true":    { "model": "conquest:wood_birch_wall_nse", "y": 270, "uvlock": true },
        "east=true,north=true,south=true,up=false,variant=november,west=true":     { "model": "conquest:wood_birch_wall_nsew" },
        "east=false,north=false,south=false,up=true,variant=november,west=false":  { "model": "conquest:wood_birch_wall_post" },
        "east=false,north=true,south=false,up=true,variant=november,west=false":   { "model": "conquest:wood_birch_wall_n" },
        "east=true,north=false,south=false,up=true,variant=november,west=false":   { "model": "conquest:wood_birch_wall_n", "y": 90, "uvlock": true },
        "east=false,north=false,south=true,up=true,variant=november,west=false":   { "model": "conquest:wood_birch_wall_n", "y": 180, "uvlock": true },
        "east=false,north=false,south=false,up=true,variant=november,west=true":   { "model": "conquest:wood_birch_wall_n", "y": 270, "uvlock": true },
        "east=true,north=true,south=false,up=true,variant=november,west=false":    { "model": "conquest:wood_birch_wall_ne" },
        "east=true,north=false,south=true,up=true,variant=november,west=false":    { "model": "conquest:wood_birch_wall_ne", "y": 90, "uvlock": true },
        "east=false,north=false,south=true,up=true,variant=november,west=true":    { "model": "conquest:wood_birch_wall_ne", "y": 180, "uvlock": true },
        "east=false,north=true,south=false,up=true,variant=november,west=true":    { "model": "conquest:wood_birch_wall_ne", "y": 270, "uvlock": true },
        "east=false,north=true,south=true,up=true,variant=november,west=false":    { "model": "conquest:wood_birch_wall_ns_above" },
        "east=true,north=false,south=false,up=true,variant=november,west=true":    { "model": "conquest:wood_birch_wall_ns_above", "y": 90, "uvlock": true },
        "east=true,north=true,south=true,up=true,variant=november,west=false":     { "model": "conquest:wood_birch_wall_nse" },
        "east=true,north=false,south=true,up=true,variant=november,west=true":     { "model": "conquest:wood_birch_wall_nse", "y": 90, "uvlock": true },
        "east=false,north=true,south=true,up=true,variant=november,west=true":     { "model": "conquest:wood_birch_wall_nse", "y": 180, "uvlock": true },
        "east=true,north=true,south=false,up=true,variant=november,west=true":     { "model": "conquest:wood_birch_wall_nse", "y": 270, "uvlock": true },
        "east=true,north=true,south=true,up=true,variant=november,west=true":      { "model": "conquest:wood_birch_wall_nsew" },


        "east=false,north=false,south=false,up=false,variant=oscar,west=false": { "model": "conquest:wood_carvedjungle_wall_post" },
        "east=false,north=true,south=false,up=false,variant=oscar,west=false":  { "model": "conquest:wood_carvedjungle_wall_n" },
        "east=true,north=false,south=false,up=false,variant=oscar,west=false":  { "model": "conquest:wood_carvedjungle_wall_n", "y": 90, "uvlock": true },
        "east=false,north=false,south=true,up=false,variant=oscar,west=false":  { "model": "conquest:wood_carvedjungle_wall_n", "y": 180, "uvlock": true },
        "east=false,north=false,south=false,up=false,variant=oscar,west=true":  { "model": "conquest:wood_carvedjungle_wall_n", "y": 270, "uvlock": true },
        "east=true,north=true,south=false,up=false,variant=oscar,west=false":   { "model": "conquest:wood_carvedjungle_wall_ne" },
        "east=true,north=false,south=true,up=false,variant=oscar,west=false":   { "model": "conquest:wood_carvedjungle_wall_ne", "y": 90, "uvlock": true },
        "east=false,north=false,south=true,up=false,variant=oscar,west=true":   { "model": "conquest:wood_carvedjungle_wall_ne", "y": 180, "uvlock": true },
        "east=false,north=true,south=false,up=false,variant=oscar,west=true":   { "model": "conquest:wood_carvedjungle_wall_ne", "y": 270, "uvlock": true },
        "east=false,north=true,south=true,up=false,variant=oscar,west=false":   { "model": "conquest:wood_carvedjungle_wall_ns" },
        "east=true,north=false,south=false,up=false,variant=oscar,west=true":   { "model": "conquest:wood_carvedjungle_wall_ns", "y": 90, "uvlock": true },
        "east=true,north=true,south=true,up=false,variant=oscar,west=false":    { "model": "conquest:wood_carvedjungle_wall_nse" },
        "east=true,north=false,south=true,up=false,variant=oscar,west=true":    { "model": "conquest:wood_carvedjungle_wall_nse", "y": 90, "uvlock": true },
        "east=false,north=true,south=true,up=false,variant=oscar,west=true":    { "model": "conquest:wood_carvedjungle_wall_nse", "y": 180, "uvlock": true },
        "east=true,north=true,south=false,up=false,variant=oscar,west=true":    { "model": "conquest:wood_carvedjungle_wall_nse", "y": 270, "uvlock": true },
        "east=true,north=true,south=true,up=false,variant=oscar,west=true":     { "model": "conquest:wood_carvedjungle_wall_nsew" },
        "east=false,north=false,south=false,up=true,variant=oscar,west=false":  { "model": "conquest:wood_carvedjungle_wall_post" },
        "east=false,north=true,south=false,up=true,variant=oscar,west=false":   { "model": "conquest:wood_carvedjungle_wall_n" },
        "east=true,north=false,south=false,up=true,variant=oscar,west=false":   { "model": "conquest:wood_carvedjungle_wall_n", "y": 90, "uvlock": true },
        "east=false,north=false,south=true,up=true,variant=oscar,west=false":   { "model": "conquest:wood_carvedjungle_wall_n", "y": 180, "uvlock": true },
        "east=false,north=false,south=false,up=true,variant=oscar,west=true":   { "model": "conquest:wood_carvedjungle_wall_n", "y": 270, "uvlock": true },
        "east=true,north=true,south=false,up=true,variant=oscar,west=false":    { "model": "conquest:wood_carvedjungle_wall_ne" },
        "east=true,north=false,south=true,up=true,variant=oscar,west=false":    { "model": "conquest:wood_carvedjungle_wall_ne", "y": 90, "uvlock": true },
        "east=false,north=false,south=true,up=true,variant=oscar,west=true":    { "model": "conquest:wood_carvedjungle_wall_ne", "y": 180, "uvlock": true },
        "east=false,north=true,south=false,up=true,variant=oscar,west=true":    { "model": "conquest:wood_carvedjungle_wall_ne", "y": 270, "uvlock": true },
        "east=false,north=true,south=true,up=true,variant=oscar,west=false":    { "model": "conquest:wood_carvedjungle_wall_ns_above" },
        "east=true,north=false,south=false,up=true,variant=oscar,west=true":    { "model": "conquest:wood_carvedjungle_wall_ns_above", "y": 90, "uvlock": true },
        "east=true,north=true,south=true,up=true,variant=oscar,west=false":     { "model": "conquest:wood_carvedjungle_wall_nse" },
        "east=true,north=false,south=true,up=true,variant=oscar,west=true":     { "model": "conquest:wood_carvedjungle_wall_nse", "y": 90, "uvlock": true },
        "east=false,north=true,south=true,up=true,variant=oscar,west=true":     { "model": "conquest:wood_carvedjungle_wall_nse", "y": 180, "uvlock": true },
        "east=true,north=true,south=false,up=true,variant=oscar,west=true":     { "model": "conquest:wood_carvedjungle_wall_nse", "y": 270, "uvlock": true },
        "east=true,north=true,south=true,up=true,variant=oscar,west=true":      { "model": "conquest:wood_carvedjungle_wall_nsew" },


        "east=false,north=false,south=false,up=false,variant=papa,west=false": { "model": "conquest:wood_jungle_wall_post" },
        "east=false,north=true,south=false,up=false,variant=papa,west=false":  { "model": "conquest:wood_jungle_wall_n" },
        "east=true,north=false,south=false,up=false,variant=papa,west=false":  { "model": "conquest:wood_jungle_wall_n", "y": 90, "uvlock": true },
        "east=false,north=false,south=true,up=false,variant=papa,west=false":  { "model": "conquest:wood_jungle_wall_n", "y": 180, "uvlock": true },
        "east=false,north=false,south=false,up=false,variant=papa,west=true":  { "model": "conquest:wood_jungle_wall_n", "y": 270, "uvlock": true },
        "east=true,north=true,south=false,up=false,variant=papa,west=false":   { "model": "conquest:wood_jungle_wall_ne" },
        "east=true,north=false,south=true,up=false,variant=papa,west=false":   { "model": "conquest:wood_jungle_wall_ne", "y": 90, "uvlock": true },
        "east=false,north=false,south=true,up=false,variant=papa,west=true":   { "model": "conquest:wood_jungle_wall_ne", "y": 180, "uvlock": true },
        "east=false,north=true,south=false,up=false,variant=papa,west=true":   { "model": "conquest:wood_jungle_wall_ne", "y": 270, "uvlock": true },
        "east=false,north=true,south=true,up=false,variant=papa,west=false":   { "model": "conquest:wood_jungle_wall_ns" },
        "east=true,north=false,south=false,up=false,variant=papa,west=true":   { "model": "conquest:wood_jungle_wall_ns", "y": 90, "uvlock": true },
        "east=true,north=true,south=true,up=false,variant=papa,west=false":    { "model": "conquest:wood_jungle_wall_nse" },
        "east=true,north=false,south=true,up=false,variant=papa,west=true":    { "model": "conquest:wood_jungle_wall_nse", "y": 90, "uvlock": true },
        "east=false,north=true,south=true,up=false,variant=papa,west=true":    { "model": "conquest:wood_jungle_wall_nse", "y": 180, "uvlock": true },
        "east=true,north=true,south=false,up=false,variant=papa,west=true":    { "model": "conquest:wood_jungle_wall_nse", "y": 270, "uvlock": true },
        "east=true,north=true,south=true,up=false,variant=papa,west=true":     { "model": "conquest:wood_jungle_wall_nsew" },
        "east=false,north=false,south=false,up=true,variant=papa,west=false":  { "model": "conquest:wood_jungle_wall_post" },
        "east=false,north=true,south=false,up=true,variant=papa,west=false":   { "model": "conquest:wood_jungle_wall_n" },
        "east=true,north=false,south=false,up=true,variant=papa,west=false":   { "model": "conquest:wood_jungle_wall_n", "y": 90, "uvlock": true },
        "east=false,north=false,south=true,up=true,variant=papa,west=false":   { "model": "conquest:wood_jungle_wall_n", "y": 180, "uvlock": true },
        "east=false,north=false,south=false,up=true,variant=papa,west=true":   { "model": "conquest:wood_jungle_wall_n", "y": 270, "uvlock": true },
        "east=true,north=true,south=false,up=true,variant=papa,west=false":    { "model": "conquest:wood_jungle_wall_ne" },
        "east=true,north=false,south=true,up=true,variant=papa,west=false":    { "model": "conquest:wood_jungle_wall_ne", "y": 90, "uvlock": true },
        "east=false,north=false,south=true,up=true,variant=papa,west=true":    { "model": "conquest:wood_jungle_wall_ne", "y": 180, "uvlock": true },
        "east=false,north=true,south=false,up=true,variant=papa,west=true":    { "model": "conquest:wood_jungle_wall_ne", "y": 270, "uvlock": true },
        "east=false,north=true,south=true,up=true,variant=papa,west=false":    { "model": "conquest:wood_jungle_wall_ns_above" },
        "east=true,north=false,south=false,up=true,variant=papa,west=true":    { "model": "conquest:wood_jungle_wall_ns_above", "y": 90, "uvlock": true },
        "east=true,north=true,south=true,up=true,variant=papa,west=false":     { "model": "conquest:wood_jungle_wall_nse" },
        "east=true,north=false,south=true,up=true,variant=papa,west=true":     { "model": "conquest:wood_jungle_wall_nse", "y": 90, "uvlock": true },
        "east=false,north=true,south=true,up=true,variant=papa,west=true":     { "model": "conquest:wood_jungle_wall_nse", "y": 180, "uvlock": true },
        "east=true,north=true,south=false,up=true,variant=papa,west=true":     { "model": "conquest:wood_jungle_wall_nse", "y": 270, "uvlock": true },
        "east=true,north=true,south=true,up=true,variant=papa,west=true":      { "model": "conquest:wood_jungle_wall_nsew" }
    }
}