{
    "variants": {
        "facing=north,half=bottom": { "model": "conquest:wooden_boardoak_slab_lower" },
        "facing=south,half=bottom": { "model": "conquest:wooden_boardoak_slab_lower", "y": 180 },
        "facing=east,half=bottom": { "model": "conquest:wooden_boardoak_slab_lower", "y": 90 },
        "facing=west,half=bottom": { "model": "conquest:wooden_boardoak_slab_lower", "y": 270 },
        "facing=north,half=top": { "model": "conquest:wooden_boardoak_slab_upper" },
        "facing=south,half=top": { "model": "conquest:wooden_boardoak_slab_upper", "y": 180 },
        "facing=east,half=top": { "model": "conquest:wooden_boardoak_slab_upper", "y": 90 },
        "facing=west,half=top": { "model": "conquest:wooden_boardoak_slab_upper", "y": 270 }
    }
}
