{
    "variants": {
        "variant=alpha": { "model": "conquest:woodslab6desert" },
        "variant=bravo": { "model": "conquest:woodchair" },
        "variant=charlie": { "model": "conquest:woodslab6" },
        "variant=delta": { "model": "conquest:bluechair" },
        "variant=echo": { "model": "conquest:woodslab6plains" },
        "variant=fox": { "model": "conquest:woodslab6taiga" },
        "variant=golf": { "model": "conquest:leatherchair" },
        "variant=hotel": { "model": "conquest:chair_mesh" },
        "variant=india": { "model": "conquest:chair_thatch" },
        "variant=juliet": { "model": "conquest:wooden_stool" },
        "variant=kilo": { "model": "conquest:none" },
        "variant=lima": { "model": "conquest:none" },
        "variant=mike": { "model": "conquest:none" },
        "variant=november": { "model": "conquest:none" },
        "variant=oscar": { "model": "conquest:none" },
        "variant=papa": { "model": "conquest:none" }
    }
}