{
    "variants": {
        "axis=y,variant=alpha": { "model": "conquest:anviltaiga_base" },
        "axis=x,variant=alpha": { "model": "conquest:anviltaiga", "y": 90 },
        "axis=z,variant=alpha": { "model": "conquest:anviltaiga", "y": 180 },
        "axis=none,variant=alpha": { "model": "conquest:none" },

        "axis=y,variant=bravo": { "model": "conquest:well_support" },
        "axis=x,variant=bravo": { "model": "conquest:well_support", "y": 90 },
        "axis=z,variant=bravo": { "model": "conquest:well_support", "y": 180 },
        "axis=none,variant=bravo": { "model": "conquest:none" },

        "axis=y,variant=charlie": { "model": "conquest:planks_oakplatform_base" },
        "axis=x,variant=charlie": { "model": "conquest:planks_oakplatform_anvil", "y": 90 },
        "axis=z,variant=charlie": { "model": "conquest:planks_oakplatform_anvil", "y": 180 },
        "axis=none,variant=charlie": { "model": "conquest:none" },

        "axis=y,variant=delta": { "model": "conquest:planks_spruceplatform_base" },
        "axis=x,variant=delta": { "model": "conquest:planks_spruceplatform_anvil", "y": 90 },
        "axis=z,variant=delta": { "model": "conquest:planks_spruceplatform_anvil", "y": 180 },
        "axis=none,variant=delta": { "model": "conquest:none" }
    }
}