{
"__comment": "Designed by Jugbot with BDcraft Cubik PRO 0.96 Beta - http://bdcraft.net",
"parent": "block/block",
"textures": {
    "particle": "conquest:blocks/acacia_plank",
    "texture": "conquest:blocks/acacia_plank",
    "acacia_fence": "conquest:blocks/acacia_fence",
    "acacia_fence_top": "conquest:blocks/acacia_fence_top",
    "acacia_fence_gate": "conquest:blocks/acacia_fence_gate"
},
"elements": [ 
{
    "__comment": "Rail_slant",
    "from": [ -0.01, -8.82843, 10 ],
    "to": [ 1.99, -6, 21.3137 ],
    "rotation": { "origin": [ -0.01, -6, 10 ], "axis": "x", "angle": 45 },
    "faces": {
        "down":  { "uv": [ 5, 10, 16, 8 ], "rotation": 90, "texture": "#texture" },
        "up":    { "uv": [ 7, 5, 9, 16 ], "texture": "#acacia_fence_top" },
        "north": { "uv": [ 0, 6.5, 2, 9.5 ], "texture": "#acacia_fence_top" },
        "south": { "uv": [ 0, 6.5, 2, 9.5 ], "texture": "#acacia_fence_top" },
        "west":  { "uv": [ 5, 6.5, 16, 9.5 ], "texture": "#acacia_fence_top" },
        "east":  { "uv": [ 16, 8, 5, 11 ], "texture": "#texture" }
    }
},
{
    "__comment": "Rail_slant",
    "from": [ -0.01, -0.82843, 2 ],
    "to": [ 1.99, 2, 13.3137 ],
    "rotation": { "origin": [ -0.01, 2, 2 ], "axis": "x", "angle": 45 },
    "faces": {
        "down":  { "uv": [ 5, 10, 16, 8 ], "rotation": 90, "texture": "#texture" },
        "up":    { "uv": [ 7, 5, 9, 16 ], "texture": "#acacia_fence_top" },
        "north": { "uv": [ 0, 6.5, 2, 9.5 ], "texture": "#acacia_fence_top" },
        "south": { "uv": [ 0, 6.5, 2, 9.5 ], "texture": "#acacia_fence_top" },
        "west":  { "uv": [ 5, 6.5, 16, 9.5 ], "texture": "#acacia_fence_top" },
        "east":  { "uv": [ 16, 8, 5, 11 ], "texture": "#texture" }
    }
},
{
    "__comment": "Rail_slant",
    "from": [ 0, -9, 11 ],
    "to": [ 1.98, 4.5, 13 ],
    "faces": {
        "down":  { "uv": [ 9, 9.5, 7, 7.5 ], "texture": "#acacia_fence" },
        "up":    { "uv": [ 7, 12, 9, 14 ], "texture": "#acacia_fence" },
        "north": { "uv": [ 0, 14, 13.5, 16 ], "rotation": 270, "texture": "#acacia_fence_gate" },
        "south": { "uv": [ 0, 14, 13.5, 16 ], "rotation": 90, "texture": "#acacia_fence_gate" },
        "west":  { "uv": [ 7, 0, 9, 13.5 ], "texture": "#acacia_fence" },
        "east":  { "uv": [ 7, 0, 9, 13.5 ], "texture": "#acacia_fence" }
    }
},
{
    "__comment": "Rail_slant",
    "from": [ 0, -1, 3 ],
    "to": [ 1.98, 12.5, 5 ],
    "faces": {
        "down":  { "uv": [ 9, 9.5, 7, 7.5 ], "texture": "#acacia_fence" },
        "up":    { "uv": [ 7, 12, 9, 14 ], "texture": "#acacia_fence" },
        "north": { "uv": [ 0, 14, 13.5, 16 ], "rotation": 270, "texture": "#acacia_fence_gate" },
        "south": { "uv": [ 0, 14, 13.5, 16 ], "rotation": 90, "texture": "#acacia_fence_gate" },
        "west":  { "uv": [ 7, 0, 9, 13.5 ], "texture": "#acacia_fence" },
        "east":  { "uv": [ 7, 0, 9, 13.5 ], "texture": "#acacia_fence" }
    }
},
{
    "__comment": "Rail_slant",
    "from": [ 0, -16, 16 ],
    "to": [ 1.98, -14, 18 ],
    "faces": {
        "down":  { "uv": [ 7, 10.5, 9, 12.5 ], "texture": "#acacia_fence_top" },
        "up":    { "uv": [ 7, 3.5, 9, 5.5 ], "texture": "#acacia_fence_top" },
        "north": { "uv": [ 0.5, 7, 2.5, 9 ], "texture": "#acacia_fence_top" },
        "south": { "uv": [ 11, 7, 13, 9 ], "texture": "#acacia_fence_top" },
        "west":  { "uv": [ 12, 7, 14, 9 ], "texture": "#acacia_fence_top" },
        "east":  { "uv": [ 1.5, 7, 3.5, 9 ], "texture": "#acacia_fence_top" }
    }
},
{
    "__comment": "Rail_slant",
    "from": [ 0, 0, 0 ],
    "to": [ 1.98, 2, 2 ],
    "faces": {
        "down":  { "uv": [ 7, 10.5, 9, 12.5 ], "texture": "#acacia_fence_top" },
        "up":    { "uv": [ 7, 3.5, 9, 5.5 ], "texture": "#acacia_fence_top" },
        "north": { "uv": [ 0.5, 7, 2.5, 9 ], "texture": "#acacia_fence_top" },
        "south": { "uv": [ 11, 7, 13, 9 ], "texture": "#acacia_fence_top" },
        "west":  { "uv": [ 12, 7, 14, 9 ], "texture": "#acacia_fence_top" },
        "east":  { "uv": [ 1.5, 7, 3.5, 9 ], "texture": "#acacia_fence_top" }
    }
},
{
    "__comment": "Rail_slant",
    "from": [ 0.49, 1.08579, 9 ],
    "to": [ 1.49, 2.5, 20.3137 ],
    "rotation": { "origin": [ 0.49, 2.5, 9 ], "axis": "x", "angle": 45 },
    "faces": {
        "down":  { "uv": [ 0, 2.5, 11, 3.5 ], "rotation": 270, "texture": "#acacia_fence_gate" },
        "up":    { "uv": [ 0, 1.5, 11, 2.5 ], "rotation": 90, "texture": "#acacia_fence_gate" },
        "north": { "uv": [ 0, 1.5, 1, 3 ], "texture": "#acacia_fence_gate" },
        "south": { "uv": [ 0, 1.5, 1, 3 ], "texture": "#acacia_fence_gate" },
        "west":  { "uv": [ 0, 1.5, 11, 3 ], "texture": "#acacia_fence_gate" },
        "east":  { "uv": [ 0, 1.5, 11, 3 ], "texture": "#acacia_fence_gate" }
    }
},
{
    "__comment": "Rail_slant",
    "from": [ 0.49, 9.08579, 1 ],
    "to": [ 1.49, 10.5, 12.3137 ],
    "rotation": { "origin": [ 0.49, 10.5, 1 ], "axis": "x", "angle": 45 },
    "faces": {
        "down":  { "uv": [ 0, 2.5, 11, 3.5 ], "rotation": 270, "texture": "#acacia_fence_gate" },
        "up":    { "uv": [ 0, 1.5, 11, 2.5 ], "rotation": 90, "texture": "#acacia_fence_gate" },
        "north": { "uv": [ 0, 1.5, 1, 3 ], "texture": "#acacia_fence_gate" },
        "south": { "uv": [ 0, 1.5, 1, 3 ], "texture": "#acacia_fence_gate" },
        "west":  { "uv": [ 0, 1.5, 11, 3 ], "texture": "#acacia_fence_gate" },
        "east":  { "uv": [ 0, 1.5, 11, 3 ], "texture": "#acacia_fence_gate" }
    }
},
{
    "__comment": "Rail_slant",
    "from": [ 0.5, -6.5, 16 ],
    "to": [ 1.48, -5.5, 17 ],
    "faces": {
        "down":  { "uv": [ 7.5, 6, 8.5, 7 ], "texture": "#acacia_fence_gate" },
        "up":    { "uv": [ 4, 5, 5, 6 ], "texture": "#acacia_fence_gate" },
        "north": { "uv": [ 0, 2, 1, 3 ], "texture": "#acacia_fence_gate" },
        "south": { "uv": [ 14, 2, 15, 3 ], "texture": "#acacia_fence_gate" },
        "west":  { "uv": [ 7, 2, 8, 3 ], "texture": "#acacia_fence_gate" },
        "east":  { "uv": [ 4.5, 5.5, 5.5, 6.5 ], "texture": "#acacia_fence_gate" }
    }
},
{
    "__comment": "Rail_slant",
    "from": [ 0.5, 9.5, 0 ],
    "to": [ 1.48, 10.5, 1 ],
    "faces": {
        "down":  { "uv": [ 7.5, 6, 8.5, 7 ], "texture": "#acacia_fence_gate" },
        "up":    { "uv": [ 4, 5, 5, 6 ], "texture": "#acacia_fence_gate" },
        "north": { "uv": [ 0, 2, 1, 3 ], "texture": "#acacia_fence_gate" },
        "south": { "uv": [ 14, 2, 15, 3 ], "texture": "#acacia_fence_gate" },
        "west":  { "uv": [ 7, 2, 8, 3 ], "texture": "#acacia_fence_gate" },
        "east":  { "uv": [ 4.5, 5.5, 5.5, 6.5 ], "texture": "#acacia_fence_gate" }
    }
},
{
    "__comment": "Rail_slant",
    "from": [ 0.49, 4.58579, 9 ],
    "to": [ 1.49, 6, 20.3137 ],
    "rotation": { "origin": [ 0.49, 6, 9 ], "axis": "x", "angle": 45 },
    "faces": {
        "down":  { "uv": [ 0, 2.5, 11, 3.5 ], "rotation": 270, "texture": "#acacia_fence_gate" },
        "up":    { "uv": [ 0, 1.5, 11, 2.5 ], "rotation": 90, "texture": "#acacia_fence_gate" },
        "north": { "uv": [ 0, 1.5, 1, 3 ], "texture": "#acacia_fence_gate" },
        "south": { "uv": [ 0, 1.5, 1, 3 ], "texture": "#acacia_fence_gate" },
        "west":  { "uv": [ 0, 1.5, 11, 3 ], "texture": "#acacia_fence_gate" },
        "east":  { "uv": [ 0, 1.5, 11, 3 ], "texture": "#acacia_fence_gate" }
    }
},
{
    "__comment": "Rail_slant",
    "from": [ 0.49, 12.5858, 1 ],
    "to": [ 1.49, 14, 12.3137 ],
    "rotation": { "origin": [ 0.49, 14, 1 ], "axis": "x", "angle": 45 },
    "faces": {
        "down":  { "uv": [ 0, 2.5, 11, 3.5 ], "rotation": 270, "texture": "#acacia_fence_gate" },
        "up":    { "uv": [ 0, 1.5, 11, 2.5 ], "rotation": 90, "texture": "#acacia_fence_gate" },
        "north": { "uv": [ 0, 1.5, 1, 3 ], "texture": "#acacia_fence_gate" },
        "south": { "uv": [ 0, 1.5, 1, 3 ], "texture": "#acacia_fence_gate" },
        "west":  { "uv": [ 0, 1.5, 11, 3 ], "texture": "#acacia_fence_gate" },
        "east":  { "uv": [ 0, 1.5, 11, 3 ], "texture": "#acacia_fence_gate" }
    }
},
{
    "__comment": "Rail_slant",
    "from": [ 0.5, -3, 16 ],
    "to": [ 1.48, -2, 17 ],
    "faces": {
        "down":  { "uv": [ 7.5, 6, 8.5, 7 ], "texture": "#acacia_fence_gate" },
        "up":    { "uv": [ 4, 5, 5, 6 ], "texture": "#acacia_fence_gate" },
        "north": { "uv": [ 0, 2, 1, 3 ], "texture": "#acacia_fence_gate" },
        "south": { "uv": [ 14, 2, 15, 3 ], "texture": "#acacia_fence_gate" },
        "west":  { "uv": [ 7, 2, 8, 3 ], "texture": "#acacia_fence_gate" },
        "east":  { "uv": [ 4.5, 5.5, 5.5, 6.5 ], "texture": "#acacia_fence_gate" }
    }
},
{
    "__comment": "Rail_slant",
    "from": [ 0.5, 13, 0 ],
    "to": [ 1.48, 14, 1 ],
    "faces": {
        "down":  { "uv": [ 7.5, 6, 8.5, 7 ], "texture": "#acacia_fence_gate" },
        "up":    { "uv": [ 4, 5, 5, 6 ], "texture": "#acacia_fence_gate" },
        "north": { "uv": [ 0, 2, 1, 3 ], "texture": "#acacia_fence_gate" },
        "south": { "uv": [ 14, 2, 15, 3 ], "texture": "#acacia_fence_gate" },
        "west":  { "uv": [ 7, 2, 8, 3 ], "texture": "#acacia_fence_gate" },
        "east":  { "uv": [ 4.5, 5.5, 5.5, 6.5 ], "texture": "#acacia_fence_gate" }
    }
},
{
    "__comment": "Rail_slant",
    "from": [ 0, 4.5, 11 ],
    "to": [ 1.98, 6, 13 ],
    "faces": {
        "down":  { "uv": [ 9, 9.5, 7, 7.5 ], "texture": "#acacia_fence" },
        "up":    { "uv": [ 7, 12, 9, 14 ], "texture": "#acacia_fence" },
        "north": { "uv": [ 5, 14, 6.5, 16 ], "rotation": 270, "texture": "#acacia_fence_gate" },
        "south": { "uv": [ 5, 14, 6.5, 16 ], "rotation": 90, "texture": "#acacia_fence_gate" },
        "west":  { "uv": [ 7, 12.5, 9, 14 ], "texture": "#acacia_fence" },
        "east":  { "uv": [ 7, 12, 9, 13.5 ], "texture": "#acacia_fence" }
    }
},
{
    "__comment": "Rail_slant",
    "from": [ 0, 12.5, 3 ],
    "to": [ 1.98, 14, 5 ],
    "faces": {
        "down":  { "uv": [ 9, 9.5, 7, 7.5 ], "texture": "#acacia_fence" },
        "up":    { "uv": [ 7, 12, 9, 14 ], "texture": "#acacia_fence" },
        "north": { "uv": [ 5, 14, 6.5, 16 ], "rotation": 270, "texture": "#acacia_fence_gate" },
        "south": { "uv": [ 5, 14, 6.5, 16 ], "rotation": 90, "texture": "#acacia_fence_gate" },
        "west":  { "uv": [ 7, 12.5, 9, 14 ], "texture": "#acacia_fence" },
        "east":  { "uv": [ 7, 12, 9, 13.5 ], "texture": "#acacia_fence" }
    }
}
],
"display": {
    "gui": {
        "rotation": [ 30, -135, 0 ],
        "translation": [ -3.2, 2.3, 0 ],
        "scale": [ 0.62, 0.62, 0.62 ]
    }
}
}