{
    "parent": "block/outer_stairs",
    "textures": {
        "bottom": "conquest:blocks/andesite_natural",
        "top": "conquest:blocks/andesite_natural",
        "side": "conquest:blocks/andesite_natural"
    }
}
