{
"parent": "block/parent_verticalslab",
"textures": {
    "texture": "conquest:blocks/roman_architrave_polychrome",
	"top": "conquest:blocks/roman_marble_top1",
	"bottom": "conquest:blocks/roman_marble_top1"
	}
}	