{
	"parent": "block/parent_base_doric_corner",
	"textures": {
		"side": "conquest:blocks/roman_column_blue_base_marble",
		"down": "conquest:blocks/roman_capital_marble_top",
		"up": "conquest:blocks/roman_column_blue_top"
	}
}
