{
  "parent": "block/parent_base_doric_wall_ns",
  "textures": {
    "side": "conquest:blocks/roman_column_red_base_marble",
    "down": "conquest:blocks/roman_capital_marble_top",
    "up": "conquest:blocks/roman_column_red_top"
  }
}
