{
    "parent": "block/parent_base_doric_fence_post",
    "textures": {
        "side": "conquest:blocks/roman_column_red_base_sandstone",
        "down": "conquest:blocks/roman_capital_sandstone_top",
        "up": "conquest:blocks/roman_column_red_top"
    }
}
