{
    "parent": "block/parent_base_doric_trapdoor_open",
    "textures": {
        "side": "conquest:blocks/roman_column_sandstone_base",
        "down": "conquest:blocks/roman_capital_sandstone_top",
        "up": "conquest:blocks/roman_column_sandstone_top"
    }
}
