{
	"__comment": "Designed by RomanCapitalist with Cubik Studio - https://cubik.studio",
	"parent": "block/block",
	"textures": {
		"particle": "conquest:blocks/roman_base_marblesandstone",
		"end": "conquest:blocks/roman_capital_marble_top",
		"bottom": "conquest:blocks/sandstone5",
		"side": "conquest:blocks/roman_base_marblesandstone"
	},
	"elements": [
		{
			"__comment": "Long Side",
			"from": [ 0, 0, 4 ],
			"to": [ 16, 16, 12 ],
			"faces": {
				"down": { "uv": [ 0, 4, 15.99999, 12 ], "texture": "#end" },
				"up": { "uv": [ 0, 4, 15.99999, 12 ], "texture": "#end" },
				"north": { "uv": [ 5.722046E-06, 0, 16, 16 ], "texture": "#side" },
				"south": { "uv": [ 0, 0, 15.99999, 16 ], "texture": "#side" },
				"west": { "uv": [ 4, 0, 12, 16 ], "texture": "#side" },
				"east": { "uv": [ 4, 0, 12, 16 ], "texture": "#side" }
			}
		},
		{
			"__comment": "Long Side9",
			"from": [ 4, 0, 12 ],
			"to": [ 12, 16, 16 ],
			"faces": {
				"down": { "uv": [ 4.000003, 0, 12, 4 ], "texture": "#end" },
				"up": { "uv": [ 4.000003, 12, 12, 16 ], "texture": "#end" },
				"south": { "uv": [ 4, 0, 12, 16 ], "texture": "#side" },
				"west": { "uv": [ 12, 0, 16, 16 ], "texture": "#side" },
				"east": { "uv": [ 0, 0, 4, 16 ], "texture": "#side" }
			}
		},
		{
			"__comment": "Long Side7",
			"from": [ 12.5, 0, 12 ],
			"to": [ 16, 1, 12.5 ],
			"faces": {
				"down": { "uv": [ 12.5, 3.500003, 16, 4.000003 ], "texture": "#end" },
				"up": { "uv": [ 12.5, 12, 16, 12.5 ], "texture": "#end" },
				"south": { "uv": [ 12.5, 15, 16, 16 ], "texture": "#side" },
				"east": { "uv": [ 3.500003, 15, 4.000003, 16 ], "texture": "#side" }
			}
		},
		{
			"__comment": "Long Side7",
			"from": [ 13, 7, 12 ],
			"to": [ 16, 8, 13 ],
			"faces": {
				"down": { "uv": [ 13, 3.000003, 16, 4.000003 ], "texture": "#end" },
				"south": { "uv": [ 13, 8, 16, 9 ], "texture": "#side" },
				"east": { "uv": [ 3.000003, 8, 4.000003, 9 ], "texture": "#side" }
			}
		},
		{
			"__comment": "Long Side7",
			"from": [ 14, 8, 12 ],
			"to": [ 16, 9.5, 14 ],
			"faces": {
				"down": { "uv": [ 14, 2.000003, 16, 4.000003 ], "texture": "#end" },
				"south": { "uv": [ 14, 6.5, 16, 8 ], "texture": "#side" },
				"east": { "uv": [ 2.000003, 6.5, 4.000003, 8 ], "texture": "#side" }
			}
		},
		{
			"__comment": "Long Side7",
			"from": [ 15, 9.5, 12 ],
			"to": [ 16, 12, 15 ],
			"faces": {
				"down": { "uv": [ 15, 1.000003, 16, 4.000003 ], "texture": "#end" },
				"south": { "uv": [ 15, 4, 16, 6.5 ], "texture": "#side" },
				"east": { "uv": [ 1.000003, 4, 4.000003, 6.5 ], "texture": "#side" }
			}
		},
		{
			"__comment": "Long Side7",
			"from": [ 12, 12, 12 ],
			"to": [ 16, 16, 16 ],
			"faces": {
				"down": { "uv": [ 12, 2.861023E-06, 16, 4.000003 ], "texture": "#end" },
				"up": { "uv": [ 12, 12, 16, 16 ], "texture": "#end" },
				"south": { "uv": [ 12, 0, 16, 4 ], "texture": "#side" },
				"east": { "uv": [ 2.861023E-06, 0, 4.000003, 4 ], "texture": "#side" }
			}
		},
		{
			"__comment": "Long Side7",
			"from": [ 12, 9.5, 12 ],
			"to": [ 15, 12, 16 ],
			"faces": {
				"down": { "uv": [ 12, 2.861023E-06, 15, 4.000003 ], "texture": "#end" },
				"south": { "uv": [ 12, 4, 15, 6.5 ], "texture": "#side" },
				"east": { "uv": [ 2.861023E-06, 4, 4.000003, 6.5 ], "texture": "#side" }
			}
		},
		{
			"__comment": "Long Side7",
			"from": [ 12, 8, 12 ],
			"to": [ 14, 9.5, 16 ],
			"faces": {
				"down": { "uv": [ 12, 1.907349E-06, 14, 4.000002 ], "texture": "#end" },
				"south": { "uv": [ 12, 6.5, 14, 8 ], "texture": "#side" },
				"east": { "uv": [ 1.907349E-06, 6.5, 4.000002, 8 ], "texture": "#side" }
			}
		},
		{
			"__comment": "Long Side7",
			"from": [ 12, 7, 12 ],
			"to": [ 13, 8, 16 ],
			"faces": {
				"down": { "uv": [ 12, 1.907349E-06, 13, 4.000002 ], "texture": "#end" },
				"south": { "uv": [ 12, 8, 13, 9 ], "texture": "#side" },
				"east": { "uv": [ 1.907349E-06, 8, 4.000002, 9 ], "texture": "#side" }
			}
		},
		{
			"__comment": "Long Side7",
			"from": [ 12, 0, 12 ],
			"to": [ 12.5, 1, 16 ],
			"faces": {
				"down": { "uv": [ 12, 1.907349E-06, 12.5, 4.000002 ], "texture": "#end" },
				"up": { "uv": [ 12, 12, 12.5, 16 ], "texture": "#end" },
				"south": { "uv": [ 12, 15, 12.5, 16 ], "texture": "#side" },
				"east": { "uv": [ 1.907349E-06, 15, 4.000002, 16 ], "texture": "#side" }
			}
		},
		{
			"__comment": "Long Side7",
			"from": [ 0, 0, 12 ],
			"to": [ 4, 1, 12.5 ],
			"faces": {
				"down": { "uv": [ 0, 3.5, 4, 4 ], "texture": "#end" },
				"up": { "uv": [ 0, 12, 4, 12.5 ], "texture": "#end" },
				"south": { "uv": [ 0, 15, 4, 16 ], "texture": "#side" },
				"west": { "uv": [ 12, 15, 12.5, 16 ], "texture": "#side" }
			}
		},
		{
			"__comment": "Long Side7",
			"from": [ 3.5, 0, 12.5 ],
			"to": [ 4, 1, 16 ],
			"faces": {
				"down": { "uv": [ 3.5, 0, 4, 3.5 ], "texture": "#end" },
				"up": { "uv": [ 3.5, 12.5, 4, 16 ], "texture": "#end" },
				"south": { "uv": [ 3.5, 15, 4, 16 ], "texture": "#side" },
				"west": { "uv": [ 12.5, 15, 16, 16 ], "texture": "#side" }
			}
		},
		{
			"__comment": "Long Side7",
			"from": [ 3, 7, 13 ],
			"to": [ 4, 8, 16 ],
			"faces": {
				"down": { "uv": [ 3, 0, 4, 3 ], "texture": "#end" },
				"south": { "uv": [ 3, 8, 4, 9 ], "texture": "#side" },
				"west": { "uv": [ 13, 8, 16, 9 ], "texture": "#side" }
			}
		},
		{
			"__comment": "Long Side7",
			"from": [ 2, 8, 14 ],
			"to": [ 4, 9.5, 16 ],
			"faces": {
				"down": { "uv": [ 2, 0, 4, 2 ], "texture": "#end" },
				"south": { "uv": [ 2, 6.5, 4, 8 ], "texture": "#side" },
				"west": { "uv": [ 14, 6.5, 16, 8 ], "texture": "#side" }
			}
		},
		{
			"__comment": "Long Side7",
			"from": [ 1, 9.5, 15 ],
			"to": [ 4, 12, 16 ],
			"faces": {
				"down": { "uv": [ 1, 0, 4, 1 ], "texture": "#end" },
				"south": { "uv": [ 1, 4, 4, 6.5 ], "texture": "#side" },
				"west": { "uv": [ 15, 4, 16, 6.5 ], "texture": "#side" }
			}
		},
		{
			"__comment": "Long Side7",
			"from": [ 0, 12, 12 ],
			"to": [ 4, 16, 16 ],
			"faces": {
				"down": { "uv": [ 0, 0, 4, 4 ], "texture": "#end" },
				"up": { "uv": [ 0, 12, 4, 16 ], "texture": "#end" },
				"south": { "uv": [ 0, 0, 4, 4 ], "texture": "#side" },
				"west": { "uv": [ 12, 0, 16, 4 ], "texture": "#side" }
			}
		},
		{
			"__comment": "Long Side7",
			"from": [ 0, 9.5, 12 ],
			"to": [ 4, 12, 15 ],
			"faces": {
				"down": { "uv": [ 0, 1, 4, 4 ], "texture": "#end" },
				"south": { "uv": [ 0, 4, 4, 6.5 ], "texture": "#side" },
				"west": { "uv": [ 12, 4, 15, 6.5 ], "texture": "#side" }
			}
		},
		{
			"__comment": "Long Side7",
			"from": [ 0, 8, 12 ],
			"to": [ 4, 9.5, 14 ],
			"faces": {
				"down": { "uv": [ 0, 2, 4, 4 ], "texture": "#end" },
				"south": { "uv": [ 0, 6.5, 4, 8 ], "texture": "#side" },
				"west": { "uv": [ 12, 6.5, 14, 8 ], "texture": "#side" }
			}
		},
		{
			"__comment": "Long Side7",
			"from": [ 0, 7, 12 ],
			"to": [ 4, 8, 13 ],
			"faces": {
				"down": { "uv": [ 0, 3, 4, 4 ], "texture": "#end" },
				"south": { "uv": [ 0, 8, 4, 9 ], "texture": "#side" },
				"west": { "uv": [ 12, 8, 13, 9 ], "texture": "#side" }
			}
		},
		{
			"__comment": "Long Side7",
			"from": [ 3.5, 0, 0 ],
			"to": [ 4, 1, 4 ],
			"faces": {
				"down": { "uv": [ 3.5, 12, 4, 16 ], "texture": "#end" },
				"up": { "uv": [ 3.5, 9.536743E-07, 4, 4.000001 ], "texture": "#end" },
				"north": { "uv": [ 12, 15, 12.5, 16 ], "texture": "#side" },
				"west": { "uv": [ 9.536743E-07, 15, 4.000001, 16 ], "texture": "#side" }
			}
		},
		{
			"__comment": "Long Side7",
			"from": [ 0, 0, 3.5 ],
			"to": [ 3.5, 1, 4 ],
			"faces": {
				"down": { "uv": [ 2.384186E-07, 12, 3.5, 12.5 ], "texture": "#end" },
				"up": { "uv": [ 2.384186E-07, 3.5, 3.5, 4 ], "texture": "#end" },
				"north": { "uv": [ 12.5, 15, 16, 16 ], "texture": "#side" },
				"west": { "uv": [ 3.5, 15, 4, 16 ], "texture": "#side" }
			}
		},
		{
			"__comment": "Long Side7",
			"from": [ 0, 7, 3 ],
			"to": [ 3, 8, 4 ],
			"faces": {
				"down": { "uv": [ 0, 12, 3, 13 ], "texture": "#end" },
				"north": { "uv": [ 13, 8, 16, 9 ], "texture": "#side" },
				"west": { "uv": [ 3, 8, 4, 9 ], "texture": "#side" }
			}
		},
		{
			"__comment": "Long Side7",
			"from": [ 0, 8, 2 ],
			"to": [ 2, 9.5, 4 ],
			"faces": {
				"down": { "uv": [ 0, 12, 2, 14 ], "texture": "#end" },
				"north": { "uv": [ 14, 6.5, 16, 8 ], "texture": "#side" },
				"west": { "uv": [ 2.000001, 6.5, 4.000001, 8 ], "texture": "#side" }
			}
		},
		{
			"__comment": "Long Side7",
			"from": [ 0, 9.5, 1 ],
			"to": [ 1, 12, 4 ],
			"faces": {
				"down": { "uv": [ 0, 12, 0.9999999, 15 ], "texture": "#end" },
				"north": { "uv": [ 15, 4, 16, 6.5 ], "texture": "#side" },
				"west": { "uv": [ 1.000001, 4, 4.000001, 6.5 ], "texture": "#side" }
			}
		},
		{
			"__comment": "Long Side7",
			"from": [ 0, 12, 0 ],
			"to": [ 4, 16, 4 ],
			"faces": {
				"down": { "uv": [ 0, 12, 4, 16 ], "texture": "#end" },
				"up": { "uv": [ 0, 9.536743E-07, 4, 4.000001 ], "texture": "#end" },
				"north": { "uv": [ 12, 0, 16, 4 ], "texture": "#side" },
				"west": { "uv": [ 9.536743E-07, 0, 4.000001, 4 ], "texture": "#side" }
			}
		},
		{
			"__comment": "Long Side7",
			"from": [ 1, 9.5, 0 ],
			"to": [ 4, 12, 4 ],
			"faces": {
				"down": { "uv": [ 1, 12, 4, 16 ], "texture": "#end" },
				"north": { "uv": [ 12, 4, 15, 6.5 ], "texture": "#side" },
				"west": { "uv": [ 9.536743E-07, 4, 4.000001, 6.5 ], "texture": "#side" }
			}
		},
		{
			"__comment": "Long Side7",
			"from": [ 2, 8, 0 ],
			"to": [ 4, 9.5, 4 ],
			"faces": {
				"down": { "uv": [ 2, 12, 4, 16 ], "texture": "#end" },
				"north": { "uv": [ 12, 6.5, 14, 8 ], "texture": "#side" },
				"west": { "uv": [ 9.536743E-07, 6.5, 4.000001, 8 ], "texture": "#side" }
			}
		},
		{
			"__comment": "Long Side7",
			"from": [ 3, 7, 0 ],
			"to": [ 4, 8, 4 ],
			"faces": {
				"down": { "uv": [ 3, 12, 4, 16 ], "texture": "#end" },
				"north": { "uv": [ 12, 8, 13, 9 ], "texture": "#side" },
				"west": { "uv": [ 9.536743E-07, 8, 4.000001, 9 ], "texture": "#side" }
			}
		},
		{
			"__comment": "Long Side7",
			"from": [ 12, 0, 3.5 ],
			"to": [ 16, 1, 4 ],
			"faces": {
				"down": { "uv": [ 12, 12, 16, 12.5 ], "texture": "#end" },
				"up": { "uv": [ 12, 3.5, 16, 4 ], "texture": "#end" },
				"north": { "uv": [ 1.907349E-06, 15, 4.000002, 16 ], "texture": "#side" },
				"east": { "uv": [ 12, 15, 12.5, 16 ], "texture": "#side" }
			}
		},
		{
			"__comment": "Long Side7",
			"from": [ 12, 0, 0 ],
			"to": [ 12.5, 1, 3.5 ],
			"faces": {
				"down": { "uv": [ 12, 12.5, 12.5, 16 ], "texture": "#end" },
				"up": { "uv": [ 12, 0, 12.5, 3.5 ], "texture": "#end" },
				"north": { "uv": [ 3.500002, 15, 4.000002, 16 ], "texture": "#side" },
				"east": { "uv": [ 12.5, 15, 16, 16 ], "texture": "#side" }
			}
		},
		{
			"__comment": "Long Side7",
			"from": [ 12, 7, 0 ],
			"to": [ 13, 8, 3 ],
			"faces": {
				"down": { "uv": [ 12, 13, 13, 16 ], "texture": "#end" },
				"north": { "uv": [ 3.000002, 8, 4.000002, 9 ], "texture": "#side" },
				"east": { "uv": [ 13, 8, 16, 9 ], "texture": "#side" }
			}
		},
		{
			"__comment": "Long Side7",
			"from": [ 12, 8, 0 ],
			"to": [ 14, 9.5, 2 ],
			"faces": {
				"down": { "uv": [ 12, 14, 14, 16 ], "texture": "#end" },
				"north": { "uv": [ 2.000002, 6.5, 4.000002, 8 ], "texture": "#side" },
				"east": { "uv": [ 14, 6.5, 16, 8 ], "texture": "#side" }
			}
		},
		{
			"__comment": "Long Side7",
			"from": [ 12, 9.5, 0 ],
			"to": [ 15, 12, 1 ],
			"faces": {
				"down": { "uv": [ 12, 15, 15, 16 ], "texture": "#end" },
				"north": { "uv": [ 1.000002, 4, 4.000002, 6.5 ], "texture": "#side" },
				"east": { "uv": [ 15, 4, 16, 6.5 ], "texture": "#side" }
			}
		},
		{
			"__comment": "Long Side7",
			"from": [ 12, 12, 0 ],
			"to": [ 16, 16, 4 ],
			"faces": {
				"down": { "uv": [ 12, 12, 16, 16 ], "texture": "#end" },
				"up": { "uv": [ 12, 0, 16, 4 ], "texture": "#end" },
				"north": { "uv": [ 1.907349E-06, 0, 4.000002, 4 ], "texture": "#side" },
				"east": { "uv": [ 12, 0, 16, 4 ], "texture": "#side" }
			}
		},
		{
			"__comment": "Long Side7",
			"from": [ 12, 9.5, 1 ],
			"to": [ 16, 12, 4 ],
			"faces": {
				"down": { "uv": [ 12, 12, 16, 15 ], "texture": "#end" },
				"north": { "uv": [ 1.907349E-06, 4, 4.000002, 6.5 ], "texture": "#side" },
				"east": { "uv": [ 12, 4, 15, 6.5 ], "texture": "#side" }
			}
		},
		{
			"__comment": "Long Side7",
			"from": [ 12, 8, 2 ],
			"to": [ 16, 9.5, 4 ],
			"faces": {
				"down": { "uv": [ 12, 12, 16, 14 ], "texture": "#end" },
				"north": { "uv": [ 1.907349E-06, 6.5, 4.000002, 8 ], "texture": "#side" },
				"east": { "uv": [ 12, 6.5, 14, 8 ], "texture": "#side" }
			}
		},
		{
			"__comment": "Long Side7",
			"from": [ 12, 7, 3 ],
			"to": [ 16, 8, 4 ],
			"faces": {
				"down": { "uv": [ 12, 12, 16, 13 ], "texture": "#end" },
				"north": { "uv": [ 1.907349E-06, 8, 4.000002, 9 ], "texture": "#side" },
				"east": { "uv": [ 12, 8, 13, 9 ], "texture": "#side" }
			}
		},
		{
			"__comment": "Long Side9",
			"from": [ 4, 0, 0 ],
			"to": [ 12, 16, 4 ],
			"faces": {
				"down": { "uv": [ 4, 12, 12, 16 ], "texture": "#end" },
				"up": { "uv": [ 4, 0, 12, 4 ], "texture": "#end" },
				"north": { "uv": [ 4, 0, 12, 16 ], "texture": "#side" },
				"west": { "uv": [ 0, 0, 4, 16 ], "texture": "#side" },
				"east": { "uv": [ 12, 0, 16, 16 ], "texture": "#side" }
			}
		}
	]
}