{
    "parent": "block/parent_hopper_side_topbottom",
    "textures": {
        "side": "conquest:blocks/roman_base_sandstone",
        "top": "conquest:blocks/roman_capital_sandstone_top",
        "bottom": "conquest:blocks/roman_capital_sandstone_top"
    }
}
