{
    "parent": "block/parent_base_doric_wall_nsew",
    "textures": {
        "side": "conquest:blocks/roman_column_marble_base",
        "down": "conquest:blocks/roman_capital_marble_top",
        "up": "conquest:blocks/roman_column_marble_top"
    }
}
