{
	"__comment": "Designed by RomanCapitalist with Cubik Studio - https://cubik.studio",
	"parent": "block/block",
	"textures": {
		"particle": "conquest:blocks/roman_base_marble",
		"end": "conquest:blocks/roman_capital_marble_top",
		"side": "conquest:blocks/roman_base_marble"
	},
	"elements": [
		{
			"__comment": "Long Side",
			"from": [ 0, 0, 0 ],
			"to": [ 16, 16, 8 ],
			"faces": {
				"down": { "uv": [ 0, 8, 16, 16 ], "texture": "#end" },
				"up": { "uv": [ 0, 0, 16, 8 ], "texture": "#end" },
				"north": { "uv": [ 0, 0, 16, 16 ], "texture": "#side" },
				"south": { "uv": [ 0, 0, 16, 16 ], "texture": "#side" },
				"west": { "uv": [ 0, 0, 8, 16 ], "texture": "#side" },
				"east": { "uv": [ 8, 0, 16, 16 ], "texture": "#side" }
			}
		},
		{
			"__comment": "Long Side7",
			"from": [ 0, 0, -0.5 ],
			"to": [ 16, 1, 0 ],
			"faces": {
				"down": { "uv": [ 0, 0, 16, 0.5 ], "texture": "#end" },
				"up": { "uv": [ 0, 15.5, 16, 16 ], "texture": "#end" },
				"north": { "uv": [ 0, 15, 16, 16 ], "texture": "#side" }
			}
		},
		{
			"__comment": "Long Side9",
			"from": [ 0, 7, -1 ],
			"to": [ 16, 8, 0 ],
			"faces": {
				"down": { "uv": [ 0, 0, 16, 1 ], "texture": "#end" },
				"north": { "uv": [ 0, 8, 16, 9 ], "texture": "#side" }
			}
		},
		{
			"__comment": "Long Side22",
			"from": [ 16, 0, -0.5 ],
			"to": [ 16.5, 1, 0 ],
			"faces": {
				"down": { "uv": [ 16, 0, 15.5, 1 ], "texture": "#end" },
				"up": { "uv": [ 0, 16, 0.5, 15.5 ], "texture": "#end" },
				"north": { "uv": [ 0, 15, 0.5, 16 ], "texture": "#side" },
				"east": { "uv": [ 0, 15, 0.5, 16 ], "texture": "#side" }
			}
		},
		{
			"__comment": "Long Side23",
			"from": [ 16, 12, -4.5 ],
			"to": [ 20.5, 16, 0 ],
			"faces": {
				"down": { "uv": [ 0, 11.5, 4.5, 16 ], "texture": "#end" },
				"up": { "uv": [ 0, 11.5, 4.5, 16 ], "texture": "#end" },
				"north": { "uv": [ 0, 0, 4.5, 4 ], "texture": "#side" },
				"east": { "uv": [ 11.5, 0, 16, 4 ], "texture": "#side" }
			}
		},
		{
			"__comment": "Long Side24",
			"from": [ 16, 7, -1 ],
			"to": [ 17, 8, 0 ],
			"faces": {
				"down": { "uv": [ 16, 0, 15, 1 ], "texture": "#end" },
				"north": { "uv": [ 15, 8, 16, 9 ], "texture": "#side" },
				"east": { "uv": [ 15, 8, 16, 9 ], "texture": "#side" }
			}
		},
		{
			"__comment": "Long Side9",
			"from": [ 0, 8, -2 ],
			"to": [ 16, 9.5, 0 ],
			"faces": {
				"down": { "uv": [ 0, 0, 16, 2 ], "texture": "#end" },
				"north": { "uv": [ 0, 6.5, 16, 8 ], "texture": "#side" }
			}
		},
		{
			"__comment": "Long Side9",
			"from": [ 0, 9.5, -3 ],
			"to": [ 16, 12, 0 ],
			"faces": {
				"down": { "uv": [ 0, 0, 16, 3 ], "texture": "#end" },
				"north": { "uv": [ 0, 4, 16, 6.5 ], "texture": "#side" }
			}
		},
		{
			"__comment": "Long Side9",
			"from": [ 0, 12, -4.5 ],
			"to": [ 16, 16, 0 ],
			"faces": {
				"down": { "uv": [ 0, 0, 16, 4.5 ], "texture": "#end" },
				"up": { "uv": [ 0, 11.5, 16, 16 ], "texture": "#end" },
				"north": { "uv": [ 0, 0, 16, 4 ], "texture": "#side" }
			}
		},
		{
			"__comment": "Long Side24",
			"from": [ 16, 8, -2 ],
			"to": [ 18, 9.5, 0 ],
			"faces": {
				"down": { "uv": [ 0, 0, 2, 2 ], "texture": "#end" },
				"north": { "uv": [ 14, 6.5, 16, 8 ], "texture": "#side" },
				"east": { "uv": [ 0, 6.5, 2, 8 ], "texture": "#side" }
			}
		},
		{
			"__comment": "Long Side24",
			"from": [ 16, 9.5, -3 ],
			"to": [ 19, 12, 0 ],
			"faces": {
				"down": { "uv": [ 0, 0, 3, 3 ], "texture": "#end" },
				"north": { "uv": [ 13, 4, 16, 6.5 ], "texture": "#side" },
				"east": { "uv": [ 0, 4, 3, 6.5 ], "texture": "#side" }
			}
		},
		{
			"__comment": "Long Side24",
			"from": [ -3, 9.5, -3 ],
			"to": [ 0, 12, 0 ],
			"faces": {
				"down": { "uv": [ 0, 0, 3, 3 ], "texture": "#end", "rotation": 90 },
				"north": { "uv": [ 0, 4, 3, 6.5 ], "texture": "#side" },
				"west": { "uv": [ 13, 4, 16, 6.5 ], "texture": "#side" }
			}
		},
		{
			"__comment": "Long Side7",
			"from": [ -0.5, 0, 0 ],
			"to": [ 0, 1, 8 ],
			"faces": {
				"down": { "uv": [ 0, 0, 16, 0.5 ], "texture": "#end", "rotation": 90 },
				"up": { "uv": [ 0, 15.5, 16, 16 ], "texture": "#end", "rotation": 270 },
				"west": { "uv": [ 0, 15, 16, 16 ], "texture": "#side" }
			}
		},
		{
			"__comment": "Long Side9",
			"from": [ -1, 7, 0 ],
			"to": [ 0, 8, 8 ],
			"faces": {
				"down": { "uv": [ 9.536743E-07, 7.999998, 1.000001, 16 ], "texture": "#end" },
				"west": { "uv": [ 2.384186E-06, 8, 8.000002, 9 ], "texture": "#side" }
			}
		},
		{
			"__comment": "Long Side22",
			"from": [ -0.5, 0, -0.5 ],
			"to": [ 0, 1, 0 ],
			"faces": {
				"down": { "uv": [ 16, 0, 15.5, 1 ], "texture": "#end", "rotation": 90 },
				"up": { "uv": [ 0, 16, 0.5, 15.5 ], "texture": "#end", "rotation": 270 },
				"north": { "uv": [ 0, 15, 0.5, 16 ], "texture": "#side" },
				"west": { "uv": [ 0, 15, 0.5, 16 ], "texture": "#side" }
			}
		},
		{
			"__comment": "Long Side23",
			"from": [ -4.5, 12, -4.5 ],
			"to": [ 0, 16, 0 ],
			"faces": {
				"down": { "uv": [ 0, 11.5, 4.5, 16 ], "texture": "#end", "rotation": 90 },
				"up": { "uv": [ 0, 11.5, 4.5, 16 ], "texture": "#end", "rotation": 270 },
				"north": { "uv": [ 11.5, 0, 16, 4 ], "texture": "#side" },
				"west": { "uv": [ 0, 0, 4.5, 4 ], "texture": "#side" }
			}
		},
		{
			"__comment": "Long Side24",
			"from": [ -1, 7, -1 ],
			"to": [ 0, 8, 0 ],
			"faces": {
				"down": { "uv": [ 16, 0, 15, 1 ], "texture": "#end", "rotation": 90 },
				"north": { "uv": [ 0, 8, 1, 9 ], "texture": "#side" },
				"west": { "uv": [ 15, 8, 16, 9 ], "texture": "#side" }
			}
		},
		{
			"__comment": "Long Side9",
			"from": [ -2, 8, 0 ],
			"to": [ 0, 9.5, 8 ],
			"faces": {
				"down": { "uv": [ 14, 8, 16, 16 ], "texture": "#end" },
				"west": { "uv": [ 2.384186E-06, 6.5, 8.000002, 8 ], "texture": "#side" }
			}
		},
		{
			"__comment": "Long Side9",
			"from": [ -3, 9.5, 0 ],
			"to": [ 0, 12, 8 ],
			"faces": {
				"down": { "uv": [ 4, 8, 7, 16 ], "texture": "#end" },
				"west": { "uv": [ 2.384186E-06, 4, 8.000002, 6.5 ], "texture": "#side" }
			}
		},
		{
			"__comment": "Long Side9",
			"from": [ -4.5, 12, 0 ],
			"to": [ 0, 16, 8 ],
			"faces": {
				"down": { "uv": [ 2.5, 8, 7, 16 ], "texture": "#end" },
				"up": { "uv": [ 4.768372E-07, 1.907349E-06, 4.5, 8.000002 ], "texture": "#end" },
				"west": { "uv": [ 2.384186E-06, 0, 8.000002, 4 ], "texture": "#side" }
			}
		},
		{
			"__comment": "Long Side24",
			"from": [ -2, 8, -2 ],
			"to": [ 0, 9.5, 0 ],
			"faces": {
				"down": { "uv": [ 0, 0, 2, 2 ], "texture": "#end", "rotation": 90 },
				"north": { "uv": [ 0, 6.5, 2, 8 ], "texture": "#side" },
				"west": { "uv": [ 14, 6.5, 16, 8 ], "texture": "#side" }
			}
		},
		{
			"__comment": "Long Side24",
			"from": [ 16, 9.5, 8 ],
			"to": [ 19, 12, 11 ],
			"faces": {
				"down": { "uv": [ 0, 0, 3, 3 ], "texture": "#end", "rotation": 270 },
				"south": { "uv": [ 0, 4, 3, 6.5 ], "texture": "#side" },
				"east": { "uv": [ 13, 4, 16, 6.5 ], "texture": "#side" }
			}
		},
		{
			"__comment": "Long Side7",
			"from": [ 16, 0, 0 ],
			"to": [ 16.5, 1, 8 ],
			"faces": {
				"down": { "uv": [ 0, 0, 16, 0.5 ], "texture": "#end", "rotation": 270 },
				"up": { "uv": [ 0, 15.5, 16, 16 ], "texture": "#end", "rotation": 90 },
				"east": { "uv": [ 0, 15, 16, 16 ], "texture": "#side" }
			}
		},
		{
			"__comment": "Long Side9",
			"from": [ 16, 7, 0 ],
			"to": [ 17, 8, 8 ],
			"faces": {
				"down": { "uv": [ 8.999999, 8, 9.999999, 16 ], "texture": "#end" },
				"east": { "uv": [ 8.000003, 8, 16, 9 ], "texture": "#side" }
			}
		},
		{
			"__comment": "Long Side22",
			"from": [ 16, 0, 8 ],
			"to": [ 16.5, 1, 8.5 ],
			"faces": {
				"down": { "uv": [ 16, 0, 15.5, 1 ], "texture": "#end", "rotation": 270 },
				"up": { "uv": [ 0, 16, 0.5, 15.5 ], "texture": "#end", "rotation": 90 },
				"south": { "uv": [ 0, 15, 0.5, 16 ], "texture": "#side" },
				"east": { "uv": [ 0, 15, 0.5, 16 ], "texture": "#side" }
			}
		},
		{
			"__comment": "Long Side23",
			"from": [ 16, 12, 8 ],
			"to": [ 20.5, 16, 12.5 ],
			"faces": {
				"down": { "uv": [ 0, 11.5, 4.5, 16 ], "texture": "#end", "rotation": 270 },
				"up": { "uv": [ 0, 11.5, 4.5, 16 ], "texture": "#end", "rotation": 90 },
				"south": { "uv": [ 11.5, 0, 16, 4 ], "texture": "#side" },
				"east": { "uv": [ 0, 0, 4.5, 4 ], "texture": "#side" }
			}
		},
		{
			"__comment": "Long Side24",
			"from": [ 16, 7, 8 ],
			"to": [ 17, 8, 9 ],
			"faces": {
				"down": { "uv": [ 16, 0, 15, 1 ], "texture": "#end", "rotation": 270 },
				"south": { "uv": [ 0, 8, 1, 9 ], "texture": "#side" },
				"east": { "uv": [ 15, 8, 16, 9 ], "texture": "#side" }
			}
		},
		{
			"__comment": "Long Side9",
			"from": [ 16, 8, 0 ],
			"to": [ 18, 9.5, 8 ],
			"faces": {
				"down": { "uv": [ 14, 8.000005, 16, 16 ], "texture": "#end" },
				"east": { "uv": [ 8.000005, 6.5, 16, 8 ], "texture": "#side" }
			}
		},
		{
			"__comment": "Long Side9",
			"from": [ 16, 9.5, 0 ],
			"to": [ 19, 12, 8 ],
			"faces": {
				"down": { "uv": [ 4, 8.000002, 7, 16 ], "texture": "#end" },
				"east": { "uv": [ 8.000002, 4, 16, 6.5 ], "texture": "#side" }
			}
		},
		{
			"__comment": "Long Side9",
			"from": [ 16, 12, 0 ],
			"to": [ 20.5, 16, 8 ],
			"faces": {
				"down": { "uv": [ 11.5, 0, 16, 16 ], "texture": "#end" },
				"up": { "uv": [ 0, 0, 4.5, 16 ], "texture": "#end" },
				"east": { "uv": [ 0, 0, 16, 4 ], "texture": "#side" }
			}
		},
		{
			"__comment": "Long Side24",
			"from": [ 16, 8, 8 ],
			"to": [ 18, 9.5, 10 ],
			"faces": {
				"down": { "uv": [ 0, 0, 2, 2 ], "texture": "#end", "rotation": 270 },
				"south": { "uv": [ 0, 6.5, 2, 8 ], "texture": "#side" },
				"east": { "uv": [ 14, 6.5, 16, 8 ], "texture": "#side" }
			}
		},
		{
			"__comment": "Long Side24",
			"from": [ -3, 9.5, 8 ],
			"to": [ 0, 12, 11 ],
			"faces": {
				"down": { "uv": [ 0, 0, 3, 3 ], "texture": "#end", "rotation": 180 },
				"south": { "uv": [ 13, 4, 16, 6.5 ], "texture": "#side" },
				"west": { "uv": [ 0, 4, 3, 6.5 ], "texture": "#side" }
			}
		},
		{
			"__comment": "Long Side7",
			"from": [ 0, 0, 8 ],
			"to": [ 16, 1, 8.5 ],
			"faces": {
				"down": { "uv": [ 0, 0, 16, 0.5 ], "texture": "#end", "rotation": 180 },
				"up": { "uv": [ 0, 15.5, 16, 16 ], "texture": "#end", "rotation": 180 },
				"south": { "uv": [ 0, 15, 16, 16 ], "texture": "#side" }
			}
		},
		{
			"__comment": "Long Side9",
			"from": [ 0, 7, 8 ],
			"to": [ 16, 8, 9 ],
			"faces": {
				"down": { "uv": [ 0, 0, 16, 1 ], "texture": "#end", "rotation": 180 },
				"south": { "uv": [ 0, 8, 16, 9 ], "texture": "#side" }
			}
		},
		{
			"__comment": "Long Side22",
			"from": [ -0.5, 0, 8 ],
			"to": [ 0, 1, 8.5 ],
			"faces": {
				"down": { "uv": [ 16, 0, 15.5, 1 ], "texture": "#end", "rotation": 180 },
				"up": { "uv": [ 0, 16, 0.5, 15.5 ], "texture": "#end", "rotation": 180 },
				"south": { "uv": [ 0, 15, 0.5, 16 ], "texture": "#side" },
				"west": { "uv": [ 0, 15, 0.5, 16 ], "texture": "#side" }
			}
		},
		{
			"__comment": "Long Side23",
			"from": [ -4.5, 12, 8 ],
			"to": [ 0, 16, 12.5 ],
			"faces": {
				"down": { "uv": [ 0, 11.5, 4.5, 16 ], "texture": "#end", "rotation": 180 },
				"up": { "uv": [ 0, 11.5, 4.5, 16 ], "texture": "#end", "rotation": 180 },
				"south": { "uv": [ 0, 0, 4.5, 4 ], "texture": "#side" },
				"west": { "uv": [ 11.5, 0, 16, 4 ], "texture": "#side" }
			}
		},
		{
			"__comment": "Long Side24",
			"from": [ -1, 7, 8 ],
			"to": [ 0, 8, 9 ],
			"faces": {
				"down": { "uv": [ 16, 0, 15, 1 ], "texture": "#end", "rotation": 180 },
				"south": { "uv": [ 15, 8, 16, 9 ], "texture": "#side" },
				"west": { "uv": [ 0, 8, 1, 9 ], "texture": "#side" }
			}
		},
		{
			"__comment": "Long Side9",
			"from": [ 0, 8, 8 ],
			"to": [ 16, 9.5, 10 ],
			"faces": {
				"down": { "uv": [ 0, 0, 16, 2 ], "texture": "#end", "rotation": 180 },
				"south": { "uv": [ 0, 6.5, 16, 8 ], "texture": "#side" }
			}
		},
		{
			"__comment": "Long Side9",
			"from": [ 0, 9.5, 8 ],
			"to": [ 16, 12, 11 ],
			"faces": {
				"down": { "uv": [ 0, 0, 16, 3 ], "texture": "#end", "rotation": 180 },
				"south": { "uv": [ 0, 4, 16, 6.5 ], "texture": "#side" }
			}
		},
		{
			"__comment": "Long Side9",
			"from": [ 0, 12, 8 ],
			"to": [ 16, 16, 12.5 ],
			"faces": {
				"down": { "uv": [ 11.5, 0, 16, 16 ], "texture": "#end", "rotation": 270 },
				"up": { "uv": [ 0, 0, 4.5, 16 ], "texture": "#end", "rotation": 90 },
				"south": { "uv": [ 0, 0, 16, 4 ], "texture": "#side" }
			}
		},
		{
			"__comment": "Long Side24",
			"from": [ -2, 8, 8 ],
			"to": [ 0, 9.5, 10 ],
			"faces": {
				"down": { "uv": [ 0, 0, 2, 2 ], "texture": "#end", "rotation": 180 },
				"south": { "uv": [ 14, 6.5, 16, 8 ], "texture": "#side" },
				"west": { "uv": [ 0, 6.5, 2, 8 ], "texture": "#side" }
			}
		}
	]
}