{
"parent": "block/parent_verticalslab",
"textures": {
    "texture": "conquest:blocks/beam_forlonddarkcarved",
	"top": "conquest:blocks/beam_forlonddarkcarved",
	"bottom": "conquest:blocks/beam_forlonddarkcarved"
	}
}	