
{
    "parent": "block/outer_stairs",
    "textures": {
        "bottom": "conquest:blocks/sandstone11",
        "top": "conquest:blocks/sandstone11",
        "side": "conquest:blocks/sandstone11"
    }
}