{
    "parent": "block/inner_stairs",
    "textures": {
        "bottom": "conquest:blocks/bigslab_darksandstone",
        "top": "conquest:blocks/bigslab_darksandstone",
        "side": "conquest:blocks/bigslab_darksandstone"
    }
}
