{
    "parent": "conquest:block/anvil_base",
    "textures": {
        "particle": "conquest:blocks/roman_marble_block1",
        "body": "conquest:blocks/roman_marble_block1",
        "top": "conquest:blocks/roman_marble_block1"
    }
}