{
    "parent": "block/anvil",
    "textures": {
        "particle": "conquest:blocks/roman_black_block_inscribed1",
        "body": "conquest:blocks/roman_black_block_inscribed1",
        "top": "conquest:blocks/roman_black_block_inscribed1"
    }
}
