{
"__comment": "Model generated using MrCrayfish's Model Creator (http://mrcrayfish.com/modelcreator/)",
"textures": {
    "particle": "conquest:blocks/beam_birch",
    "texture_0": "conquest:blocks/beam_birch",
    "texture_1": "conquest:blocks/beam_birch"
},
"elements": [ 
{
    "from": [ 0, 0, 5 ],
    "to": [ 4, 16, 11 ],
    "faces": {
        "down":  { "uv": [ 16, 11, 12, 5 ], "texture": "#texture_1" },
        "up":    { "uv": [ 0, 5, 4, 11 ], "texture": "#texture_1" },
        "north": { "uv": [ 12, 0, 16, 16 ], "texture": "#texture_0" },
        "south": { "uv": [ 0, 0, 4, 16 ], "texture": "#texture_0" },
        "west":  { "uv": [ 5, 0, 11, 16 ], "texture": "#texture_0" },
        "east":  { "uv": [ 5, 0, 11, 16 ], "texture": "#texture_0" }
    }
}
]
}