
{
    "parent": "block/shelf_log",
    "textures": {
        "side": "conquest:blocks/bookshelf_elvenempty",
        "top": "conquest:blocks/storage_side",
        "side1": "conquest:blocks/storage_side"
    }
}