
{
    "parent": "block/cube_bottom_top",
    "textures": {
        "bottom": "conquest:blocks/bookshelf_topbottom",
        "top": "conquest:blocks/bookshelf_topbottom",
        "side": "conquest:blocks/bookshelf4_sides"
    }
}