{
	"__comment": "Designed by Snoku bot with Cubik Studio - https://cubik.studio",
	"textures": {
		"particle": "blocks/rebellion/book_covers",
		"texture": "blocks/rebellion/book_covers"
	},
	"elements": [
		{
			"__comment": "Cube1",
			"from": [ 3, 0, 6.5 ],
			"to": [ 8.599999, 1.6, 16.1 ],
			"faces": {
				"down": { "uv": [ 2.5, 4, 0, 0 ], "texture": "#texture", "cullface": "down" },
				"up": { "uv": [ 0, 0, 2.5, 4 ], "texture": "#texture" },
				"north": { "uv": [ 7.5, 5, 5, 4 ], "texture": "#texture" },
				"south": { "uv": [ 5, 4, 7.5, 5 ], "texture": "#texture" },
				"west": { "uv": [ 1.5, 0, 2.5, 3.999999 ], "texture": "#texture", "rotation": 270 },
				"east": { "uv": [ 5, 12, 6, 16 ], "texture": "#texture", "rotation": 90 }
			}
		},
		{
			"__comment": "Cube1",
			"from": [ 1, 1.5, 7.5 ],
			"to": [ 5.8, 3.1, 15.5 ],
			"rotation": { "origin": [ 1, 1.5, 7.5 ], "axis": "y", "angle": 22.5 },
			"faces": {
				"down": { "uv": [ 2.5, 4, 5, 0 ], "texture": "#texture" },
				"up": { "uv": [ 2.5, 0, 5, 4 ], "texture": "#texture" },
				"north": { "uv": [ 7.5, 5, 5, 4 ], "texture": "#texture" },
				"south": { "uv": [ 5, 4, 7.5, 5 ], "texture": "#texture" },
				"west": { "uv": [ 2.5, 0, 3, 4 ], "texture": "#texture", "rotation": 270 },
				"east": { "uv": [ 5, 12, 6, 16 ], "texture": "#texture", "rotation": 90 }
			}
		},
		{
			"__comment": "Cube1",
			"from": [ 9.5, 0, 7.5 ],
			"to": [ 15.1, 1.6, 14.7 ],
			"faces": {
				"down": { "uv": [ 5, 0, 7.5, 4 ], "texture": "#texture", "rotation": 180 },
				"up": { "uv": [ 5, 4, 7.5, 0 ], "texture": "#texture", "rotation": 180 },
				"north": { "uv": [ 5, 5, 7.5, 6 ], "texture": "#texture" },
				"south": { "uv": [ 7.5, 6, 5, 5 ], "texture": "#texture" },
				"west": { "uv": [ 6, 12, 7, 16 ], "texture": "#texture", "rotation": 270 },
				"east": { "uv": [ 7, 0, 7.5, 4 ], "texture": "#texture", "rotation": 90 }
			}
		},
		{
			"__comment": "Cube1",
			"from": [ 9.832399, 1.6, 8.1109 ],
			"to": [ 14.6324, 2.4, 15.3109 ],
			"faces": {
				"down": { "uv": [ 0, 4, 2.5, 8 ], "texture": "#texture", "rotation": 180 },
				"up": { "uv": [ 0, 8, 2.5, 4 ], "texture": "#texture", "rotation": 180 },
				"north": { "uv": [ 5, 5, 7.5, 6 ], "texture": "#texture" },
				"south": { "uv": [ 7.5, 6, 5, 5 ], "texture": "#texture" },
				"west": { "uv": [ 6, 12, 7, 16 ], "texture": "#texture", "rotation": 270 },
				"east": { "uv": [ 0.5, 4, 1, 8 ], "texture": "#texture", "rotation": 90 }
			}
		},
		{
			"__comment": "Cube1",
			"from": [ 1, 0, -1 ],
			"to": [ 8.200001, 0.8, 3.800001 ],
			"rotation": { "origin": [ 1, 0, -1 ], "axis": "y", "angle": -22.5 },
			"faces": {
				"down": { "uv": [ 0, 8, 2.5, 12 ], "texture": "#texture", "rotation": 90 },
				"up": { "uv": [ 0, 12, 2.5, 8 ], "texture": "#texture", "rotation": 270 },
				"north": { "uv": [ 8.5, 12, 10, 16 ], "texture": "#texture", "rotation": 270 },
				"south": { "uv": [ 0.5, 12, 2, 16 ], "texture": "#texture", "rotation": 90 },
				"west": { "uv": [ 7.5, 9, 5, 7.5 ], "texture": "#texture" },
				"east": { "uv": [ 5, 7.5, 7.5, 9 ], "texture": "#texture" }
			}
		}
	]
}