{
    "__comment": "Designed by Snoku bot with Cubik Studio - https://cubik.studio",
    "textures": {
        "particle": "blocks/rebellion/book_covers",
        "0": "blocks/rebellion/book_covers"
    },
    "elements": [
        {
            "name": "Element",
            "from": [ 3.0, 3.5, 7.5 ], 
            "to": [ 7.8, 5.1, 15.5 ], 
            "faces": {
                "north": { "texture": "#0", "uv": [ 7.5, 5.0, 5.0, 4.0 ] },
                "east": { "texture": "#0", "uv": [ 5.0, 12.0, 6.0, 16.0 ], "rotation": 90 },
                "south": { "texture": "#0", "uv": [ 5.0, 4.0, 7.5, 5.0 ] },
                "west": { "texture": "#0", "uv": [ 6.5, 0.0, 7.5, 4.0 ], "rotation": 270 },
                "up": { "texture": "#0", "uv": [ 5.0, 0.0, 7.5, 4.0 ] },
                "down": { "texture": "#0", "uv": [ 5.0, 4.0, 7.5, 0.0 ] }
            }
        },
        {
            "name": "Element",
            "from": [ 9.8, -0.10000000000000009, 6.5 ], 
            "to": [ 15.399999999999999, 0.7, 14.5 ], 
            "faces": {
                "north": { "texture": "#0", "uv": [ 5.0, 5.0, 7.5, 6.0 ] },
                "east": { "texture": "#0", "uv": [ 7.0, 0.0, 7.5, 4.0 ], "rotation": 90 },
                "south": { "texture": "#0", "uv": [ 7.5, 6.0, 5.0, 5.0 ] },
                "west": { "texture": "#0", "uv": [ 6.0, 12.0, 7.0, 16.0 ], "rotation": 270 },
                "up": { "texture": "#0", "uv": [ 5.0, 4.0, 7.5, 0.0 ], "rotation": 180 },
                "down": { "texture": "#0", "uv": [ 5.0, 0.0, 7.5, 4.0 ], "rotation": 180 }
            }
        },
        {
            "name": "Element",
            "from": [ 10.899999983608723, 0.7, 6.5 ], 
            "to": [ 15.699999983608723, 1.5000001, 13.7 ], 
            "faces": {
                "north": { "texture": "#0", "uv": [ 5.0, 5.0, 7.5, 6.0 ] },
                "east": { "texture": "#0", "uv": [ 3.5, 8.0, 4.0, 12.0 ], "rotation": 90 },
                "south": { "texture": "#0", "uv": [ 7.5, 6.0, 5.0, 5.0 ] },
                "west": { "texture": "#0", "uv": [ 6.0, 12.0, 7.0, 16.0 ], "rotation": 270 },
                "up": { "texture": "#0", "uv": [ 2.5, 12.0, 5.0, 8.0 ], "rotation": 180 },
                "down": { "texture": "#0", "uv": [ 2.5, 8.0, 5.0, 12.0 ], "rotation": 180 }
            }
        },
        {
            "name": "Element",
            "from": [ 7.3941, -0.10000000000000009, -2.4941 ], 
            "to": [ 14.5941, 0.7, 2.3059 ], 
            "rotation": { "origin": [ 4.0, -1.3, 0.9000001 ], "axis": "y", "angle": -22.5 },
            "faces": {
                "north": { "texture": "#0", "uv": [ 8.5, 12.0, 10.0, 16.0 ], "rotation": 270 },
                "east": { "texture": "#0", "uv": [ 5.0, 7.5, 7.5, 9.0 ] },
                "south": { "texture": "#0", "uv": [ 2.5, 12.0, 3.0, 16.0 ], "rotation": 90 },
                "west": { "texture": "#0", "uv": [ 7.5, 9.0, 5.0, 7.5 ] },
                "up": { "texture": "#0", "uv": [ 2.5, 16.0, 5.0, 12.0 ], "rotation": 270 },
                "down": { "texture": "#0", "uv": [ 2.5, 12.0, 5.0, 16.0 ], "rotation": 90 }
            }
        },
        {
            "name": "Element",
            "from": [ 5.6738, 1.0, 7.1308 ], 
            "to": [ 11.2738, 2.6, 16.7308 ], 
            "rotation": { "origin": [ 2.0, 1.0, 16.0 ], "axis": "y", "angle": 22.5 },
            "faces": {
                "north": { "texture": "#0", "uv": [ 7.5, 5.0, 5.0, 4.0 ] },
                "east": { "texture": "#0", "uv": [ 5.0, 12.0, 6.0, 16.0 ], "rotation": 90 },
                "south": { "texture": "#0", "uv": [ 5.0, 4.0, 7.5, 5.0 ] },
                "west": { "texture": "#0", "uv": [ 1.5, 0.0, 2.5, 3.999999 ], "rotation": 270 },
                "up": { "texture": "#0", "uv": [ 0.0, 0.0, 2.5, 4.0 ] },
                "down": { "texture": "#0", "uv": [ 2.5, 4.0, 0.0, 0.0 ], "cullface": "down" }
            }
        },
        {
            "name": "Element",
            "from": [ 4.0, 0.3, 5.7 ], 
            "to": [ 9.6, 1.1, 15.3 ], 
            "rotation": { "origin": [ 4.0, 0.3, 5.7 ], "axis": "y", "angle": -22.5 },
            "faces": {
                "north": { "texture": "#0", "uv": [ 7.5, 5.0, 5.0, 4.0 ] },
                "east": { "texture": "#0", "uv": [ 5.0, 12.0, 6.0, 16.0 ], "rotation": 90 },
                "south": { "texture": "#0", "uv": [ 5.0, 4.0, 7.5, 5.0 ] },
                "west": { "texture": "#0", "uv": [ 1.5, 0.0, 2.5, 3.999999 ], "rotation": 270 },
                "up": { "texture": "#0", "uv": [ 0.0, 0.0, 2.5, 4.0 ] },
                "down": { "texture": "#0", "uv": [ 2.5, 4.0, 0.0, 0.0 ], "cullface": "down" }
            }
        },
        {
            "name": "Element",
            "from": [ 7.4713, 2.5, 10.5188 ], 
            "to": [ 12.4713, 3.5, 18.5188 ], 
            "rotation": { "origin": [ 4.5, 2.5, 18.0 ], "axis": "y", "angle": 45.0 },
            "faces": {
                "north": { "texture": "#0", "uv": [ 7.5, 5.0, 5.0, 4.0 ] },
                "east": { "texture": "#0", "uv": [ 5.0, 12.0, 6.0, 16.0 ], "rotation": 90 },
                "south": { "texture": "#0", "uv": [ 5.0, 4.0, 7.5, 5.0 ] },
                "west": { "texture": "#0", "uv": [ 2.5, 0.0, 3.0, 4.0 ], "rotation": 270 },
                "up": { "texture": "#0", "uv": [ 2.5, 0.0, 5.0, 4.0 ] },
                "down": { "texture": "#0", "uv": [ 2.5, 4.0, 5.0, 0.0 ] }
            }
        }
    ]
}