{
	"__comment": "Designed by Snoku bot with Cubik Studio - https://cubik.studio",
	"textures": {
		"texture": "conquest:blocks/planks_oakvertical",
		"particle": "conquest:blocks/dried_hops_sack_top"
	},
	"elements": [
		{
			"__comment": "Cube1",
			"from": [ 10, 0, -6 ],
			"to": [ 13.75, 1.5, 15 ],
			"faces": {
				"down": { "uv": [ 10.5, 2.5, 13, 13 ], "texture": "#texture" },
				"up": { "uv": [ 10.5, 3, 13, 13.5 ], "texture": "#texture" },
				"north": { "uv": [ 3, 15, 5.5, 16 ], "texture": "#texture" },
				"south": { "uv": [ 10.5, 15, 13, 16 ], "texture": "#texture" },
				"west": { "uv": [ 3, 15, 13.5, 16 ], "texture": "#texture" },
				"east": { "uv": [ 2.5, 15, 13, 16 ], "texture": "#texture" }
			}
		},
		{
			"__comment": "Cube1",
			"from": [ 0.25, 0, -6 ],
			"to": [ 1, 3.75, 15 ],
			"faces": {
				"down": { "uv": [ 8, 5.5, 8.5, 16 ], "texture": "#texture" },
				"up": { "uv": [ 8, 16, 7.5, 5.5 ], "texture": "#texture" },
				"north": { "uv": [ 8.5, 9, 8, 6.5 ], "texture": "#texture" },
				"south": { "uv": [ 8, 7, 8.5, 9.5 ], "texture": "#texture" },
				"west": { "uv": [ 10.5, 0, 13, 14 ], "texture": "#texture", "rotation": 90 },
				"east": { "uv": [ 6, 0, 8.5, 14 ], "texture": "#texture", "rotation": 270 }
			}
		},
		{
			"__comment": "Cube1",
			"from": [ -0.125, -0.1875, -4.5 ],
			"to": [ 0.625, 8.0625, -2.25 ],
			"faces": {
				"down": { "uv": [ 3.5, 10.5, 4, 12 ], "texture": "#texture" },
				"up": { "uv": [ 3.5, 4, 4, 5.5 ], "texture": "#texture" },
				"north": { "uv": [ 12, 10.5, 12.5, 16 ], "texture": "#texture" },
				"south": { "uv": [ 3.5, 10.5, 4, 16 ], "texture": "#texture" },
				"west": { "uv": [ 4, 10.5, 5.5, 16 ], "texture": "#texture" },
				"east": { "uv": [ 10.5, 10.5, 12, 16 ], "texture": "#texture" }
			}
		},
		{
			"__comment": "Cube1",
			"from": [ 0.25, 0, -6.75 ],
			"to": [ 14.5, 3.75, -6 ],
			"faces": {
				"down": { "uv": [ 2.000001, 5.999999, 2.500001, 15.5 ], "texture": "#texture", "rotation": 90 },
				"up": { "uv": [ 14, 15.5, 13.5, 5.999999 ], "texture": "#texture", "rotation": 270 },
				"north": { "uv": [ 12.5, 0, 15, 9.5 ], "texture": "#texture", "rotation": 270 },
				"south": { "uv": [ 4, 5.999999, 6.5, 15.5 ], "texture": "#texture", "rotation": 90 },
				"west": { "uv": [ 10.5, 8.500001, 13, 9.000001 ], "texture": "#texture", "rotation": 90 },
				"east": { "uv": [ 13, 13.5, 10.5, 13 ], "texture": "#texture", "rotation": 270 }
			}
		},
		{
			"__comment": "Cube1",
			"from": [ 5.5, 0, -6 ],
			"to": [ 9.25, 1.5, 15 ],
			"faces": {
				"down": { "uv": [ 7.5, 2.5, 10, 13 ], "texture": "#texture" },
				"up": { "uv": [ 7.5, 3, 10, 13.5 ], "texture": "#texture" },
				"north": { "uv": [ 6, 15, 8.5, 16 ], "texture": "#texture" },
				"south": { "uv": [ 7.5, 15, 10, 16 ], "texture": "#texture" },
				"west": { "uv": [ 3, 15, 13.5, 16 ], "texture": "#texture" },
				"east": { "uv": [ 2.5, 15, 13, 16 ], "texture": "#texture" }
			}
		},
		{
			"__comment": "Cube1",
			"from": [ 2.5, -0.1875, 15.375 ],
			"to": [ 4.75, 8.0625, 16.125 ],
			"faces": {
				"down": { "uv": [ 5.5, 1.5, 7, 2 ], "texture": "#texture" },
				"up": { "uv": [ 5.5, 14, 7, 14.5 ], "texture": "#texture" },
				"north": { "uv": [ 9, 10.5, 10.5, 16 ], "texture": "#texture" },
				"south": { "uv": [ 5.5, 10.5, 7, 16 ], "texture": "#texture" },
				"west": { "uv": [ 14, 10.5, 14.5, 16 ], "texture": "#texture" },
				"east": { "uv": [ 1.5, 10.5, 2, 16 ], "texture": "#texture" }
			}
		},
		{
			"__comment": "Cube1",
			"from": [ 10, 0, -7.125 ],
			"to": [ 12.25, 8.25, -6.375 ],
			"faces": {
				"down": { "uv": [ 10.5, 13.5, 12, 14 ], "texture": "#texture" },
				"up": { "uv": [ 10.5, 2, 12, 2.5 ], "texture": "#texture" },
				"north": { "uv": [ 4, 10.5, 5.5, 16 ], "texture": "#texture" },
				"south": { "uv": [ 10.5, 10.5, 12, 16 ], "texture": "#texture" },
				"west": { "uv": [ 2, 10.5, 2.5, 16 ], "texture": "#texture" },
				"east": { "uv": [ 13.5, 10.5, 14, 16 ], "texture": "#texture" }
			}
		},
		{
			"__comment": "Cube1",
			"from": [ 2.5, 0, -7.125 ],
			"to": [ 4.75, 8.25, -6.375 ],
			"faces": {
				"down": { "uv": [ 5.5, 13.5, 7, 14 ], "texture": "#texture" },
				"up": { "uv": [ 5.5, 2, 7, 2.5 ], "texture": "#texture" },
				"north": { "uv": [ 9, 10.5, 10.5, 16 ], "texture": "#texture" },
				"south": { "uv": [ 5.5, 10.5, 7, 16 ], "texture": "#texture" },
				"west": { "uv": [ 2, 10.5, 2.5, 16 ], "texture": "#texture" },
				"east": { "uv": [ 13.5, 10.5, 14, 16 ], "texture": "#texture" }
			}
		},
		{
			"__comment": "Cube1",
			"from": [ 10, -0.1875, 15.375 ],
			"to": [ 12.25, 8.0625, 16.125 ],
			"faces": {
				"down": { "uv": [ 10.5, 1.5, 12, 2 ], "texture": "#texture" },
				"up": { "uv": [ 10.5, 14, 12, 14.5 ], "texture": "#texture" },
				"north": { "uv": [ 4, 10.5, 5.5, 16 ], "texture": "#texture" },
				"south": { "uv": [ 10.5, 10.5, 12, 16 ], "texture": "#texture" },
				"west": { "uv": [ 14, 10.5, 14.5, 16 ], "texture": "#texture" },
				"east": { "uv": [ 1.5, 10.5, 2, 16 ], "texture": "#texture" }
			}
		},
		{
			"__comment": "Cube1",
			"from": [ -0.125, -0.1875, 11.25 ],
			"to": [ 0.625, 8.0625, 13.5 ],
			"faces": {
				"down": { "uv": [ 3.5, 3.5, 4, 5 ], "texture": "#texture" },
				"up": { "uv": [ 3.5, 11, 4, 12.5 ], "texture": "#texture" },
				"north": { "uv": [ 12, 10.5, 12.5, 16 ], "texture": "#texture" },
				"south": { "uv": [ 3.5, 10.5, 4, 16 ], "texture": "#texture" },
				"west": { "uv": [ 11, 10.5, 12.5, 16 ], "texture": "#texture" },
				"east": { "uv": [ 3.5, 10.5, 5, 16 ], "texture": "#texture" }
			}
		},
		{
			"__comment": "Cube1",
			"from": [ 14.125, -0.1875, -4.5 ],
			"to": [ 14.875, 8.0625, -2.25 ],
			"faces": {
				"down": { "uv": [ 13.5, 10.5, 14, 12 ], "texture": "#texture" },
				"up": { "uv": [ 13.5, 4, 14, 5.5 ], "texture": "#texture" },
				"north": { "uv": [ 2, 10.5, 2.5, 16 ], "texture": "#texture" },
				"south": { "uv": [ 13.5, 10.5, 14, 16 ], "texture": "#texture" },
				"west": { "uv": [ 4, 10.5, 5.5, 16 ], "texture": "#texture" },
				"east": { "uv": [ 10.5, 10.5, 12, 16 ], "texture": "#texture" }
			}
		},
		{
			"__comment": "Cube1",
			"from": [ 14.125, -0.1875, 11.25 ],
			"to": [ 14.875, 8.0625, 13.5 ],
			"faces": {
				"down": { "uv": [ 13.5, 3.5, 14, 5 ], "texture": "#texture" },
				"up": { "uv": [ 13.5, 11, 14, 12.5 ], "texture": "#texture" },
				"north": { "uv": [ 2, 10.5, 2.5, 16 ], "texture": "#texture" },
				"south": { "uv": [ 13.5, 10.5, 14, 16 ], "texture": "#texture" },
				"west": { "uv": [ 11, 10.5, 12.5, 16 ], "texture": "#texture" },
				"east": { "uv": [ 3.5, 10.5, 5, 16 ], "texture": "#texture" }
			}
		},
		{
			"__comment": "Cube1",
			"from": [ 1, 0, -6 ],
			"to": [ 4.75, 1.5, 15 ],
			"faces": {
				"down": { "uv": [ 4.5, 2.5, 7, 13 ], "texture": "#texture" },
				"up": { "uv": [ 4.5, 3, 7, 13.5 ], "texture": "#texture" },
				"north": { "uv": [ 9, 15, 11.5, 16 ], "texture": "#texture" },
				"south": { "uv": [ 4.5, 15, 7, 16 ], "texture": "#texture" },
				"west": { "uv": [ 3, 15, 13.5, 16 ], "texture": "#texture" },
				"east": { "uv": [ 2.5, 15, 13, 16 ], "texture": "#texture" }
			}
		},
		{
			"__comment": "Cube1",
			"from": [ 1, 1.5, -4.5 ],
			"to": [ 13.75, 2.25, -2.25 ],
			"faces": {
				"down": { "uv": [ 4.500005, 10.5, 13, 12 ], "texture": "#texture" },
				"up": { "uv": [ 4.500005, 4, 13, 5.5 ], "texture": "#texture" },
				"north": { "uv": [ 2.999995, 14, 11.5, 14.5 ], "texture": "#texture" },
				"south": { "uv": [ 4.500005, 14, 13, 14.5 ], "texture": "#texture" },
				"west": { "uv": [ 4, 14, 5.5, 14.5 ], "texture": "#texture" },
				"east": { "uv": [ 10.5, 14, 12, 14.5 ], "texture": "#texture" }
			}
		},
		{
			"__comment": "Cube1",
			"from": [ 1, 1.5, 11.25 ],
			"to": [ 13.75, 2.25, 13.5 ],
			"faces": {
				"down": { "uv": [ 4.500005, 3.5, 13, 5 ], "texture": "#texture" },
				"up": { "uv": [ 0, 7, 8.5, 8.5 ], "texture": "#texture" },
				"north": { "uv": [ 2.999995, 14, 11.5, 14.5 ], "texture": "#texture" },
				"south": { "uv": [ 4.500005, 14, 13, 14.5 ], "texture": "#texture" },
				"west": { "uv": [ 11, 14, 12.5, 14.5 ], "texture": "#texture" },
				"east": { "uv": [ 3.5, 14, 5, 14.5 ], "texture": "#texture" }
			}
		},
		{
			"__comment": "Cube1",
			"from": [ 0.25, 4.5, -6 ],
			"to": [ 1, 8.25, 15 ],
			"faces": {
				"down": { "uv": [ 8, 5.5, 8.5, 16 ], "texture": "#texture" },
				"up": { "uv": [ 8, 16, 7.5, 5.5 ], "texture": "#texture" },
				"north": { "uv": [ 8.5, 9, 8, 6.5 ], "texture": "#texture" },
				"south": { "uv": [ 8, 7, 8.5, 9.5 ], "texture": "#texture" },
				"west": { "uv": [ 7, 1, 9.5, 15 ], "texture": "#texture", "rotation": 90 },
				"east": { "uv": [ 7, 0.5, 9.5, 14.5 ], "texture": "#texture", "rotation": 270 }
			}
		},
		{
			"__comment": "Cube1",
			"from": [ 13.75, 0, -6 ],
			"to": [ 14.5, 3.75, 15 ],
			"faces": {
				"down": { "uv": [ 8, 5.5, 8.5, 16 ], "texture": "#texture" },
				"up": { "uv": [ 8, 16, 7.5, 5.5 ], "texture": "#texture" },
				"north": { "uv": [ 8.5, 9, 8, 6.5 ], "texture": "#texture" },
				"south": { "uv": [ 8, 7, 8.5, 9.5 ], "texture": "#texture" },
				"west": { "uv": [ 10.5, 0, 13, 14 ], "texture": "#texture", "rotation": 90 },
				"east": { "uv": [ 12.5, 0, 15, 14 ], "texture": "#texture", "rotation": 270 }
			}
		},
		{
			"__comment": "Cube1",
			"from": [ 13.75, 4.5, -6 ],
			"to": [ 14.5, 8.25, 15 ],
			"faces": {
				"down": { "uv": [ 8, 5.5, 8.5, 16 ], "texture": "#texture" },
				"up": { "uv": [ 8, 16, 7.5, 5.5 ], "texture": "#texture" },
				"north": { "uv": [ 8.5, 9, 8, 6.5 ], "texture": "#texture" },
				"south": { "uv": [ 8, 7, 8.5, 9.5 ], "texture": "#texture" },
				"west": { "uv": [ 7, 1, 9.5, 15 ], "texture": "#texture", "rotation": 90 },
				"east": { "uv": [ 6, 0.5, 8.5, 14.5 ], "texture": "#texture", "rotation": 270 }
			}
		},
		{
			"__comment": "Cube1",
			"from": [ 0.25, 4.5, -6.75 ],
			"to": [ 14.5, 8.25, -6 ],
			"faces": {
				"down": { "uv": [ 2.000001, 5.999999, 2.500001, 15.5 ], "texture": "#texture", "rotation": 90 },
				"up": { "uv": [ 14, 15.5, 13.5, 5.999999 ], "texture": "#texture", "rotation": 270 },
				"north": { "uv": [ 7, 4.5, 9.5, 14 ], "texture": "#texture", "rotation": 270 },
				"south": { "uv": [ 6, 5, 8.5, 14.5 ], "texture": "#texture", "rotation": 90 },
				"west": { "uv": [ 3, 3, 5.5, 3.5 ], "texture": "#texture", "rotation": 90 },
				"east": { "uv": [ 10, 10, 7.5, 9.500001 ], "texture": "#texture", "rotation": 270 }
			}
		},
		{
			"__comment": "Cube1",
			"from": [ 0.25, 0, 15 ],
			"to": [ 14.5, 3.75, 15.75 ],
			"faces": {
				"down": { "uv": [ 2.000001, 5.999999, 2.500001, 15.5 ], "texture": "#texture", "rotation": 90 },
				"up": { "uv": [ 14, 15.5, 13.5, 5.999999 ], "texture": "#texture", "rotation": 270 },
				"north": { "uv": [ 13.5, 2.5, 16, 12 ], "texture": "#texture", "rotation": 270 },
				"south": { "uv": [ 10.5, 4, 13, 13.5 ], "texture": "#texture", "rotation": 90 },
				"west": { "uv": [ 10.5, 3.5, 13, 4 ], "texture": "#texture", "rotation": 90 },
				"east": { "uv": [ 6, 14.5, 3.5, 14 ], "texture": "#texture", "rotation": 270 }
			}
		},
		{
			"__comment": "Cube1",
			"from": [ 0.25, 4.5, 15 ],
			"to": [ 14.5, 8.25, 15.75 ],
			"faces": {
				"down": { "uv": [ 2.000001, 5.999999, 2.500001, 15.5 ], "texture": "#texture", "rotation": 90 },
				"up": { "uv": [ 14, 15.5, 13.5, 5.999999 ], "texture": "#texture", "rotation": 270 },
				"north": { "uv": [ 5, 3.5, 7.5, 13 ], "texture": "#texture", "rotation": 270 },
				"south": { "uv": [ 2, 4, 4.5, 13.5 ], "texture": "#texture", "rotation": 90 },
				"west": { "uv": [ 9, 5, 11.5, 5.5 ], "texture": "#texture", "rotation": 90 },
				"east": { "uv": [ 10, 9, 7.5, 8.5 ], "texture": "#texture", "rotation": 270 }
			}
		},
		{
			"__comment": "Cube43",
			"from": [ 5.5, 6.75, 1.5 ],
			"to": [ 8.5, 7.5, 4.5 ],
			"faces": {
				"down": { "uv": [ 7, 8, 9, 10 ], "texture": "#particle" },
				"up": { "uv": [ 7, 6, 9, 8 ], "texture": "#particle" },
				"north": { "uv": [ 7, 11, 9, 11.5 ], "texture": "#particle" },
				"south": { "uv": [ 7, 11, 9, 11.5 ], "texture": "#particle" },
				"west": { "uv": [ 6, 11, 8, 11.5 ], "texture": "#particle" },
				"east": { "uv": [ 8, 11, 10, 11.5 ], "texture": "#particle" }
			}
		},
		{
			"__comment": "Cube43",
			"from": [ 1, 0.75, -6 ],
			"to": [ 13.75, 6.75, 15 ],
			"faces": {
				"down": { "uv": [ 4, 1, 12.5, 15 ], "texture": "#particle" },
				"up": { "uv": [ 4, 1, 12.5, 15 ], "texture": "#particle" },
				"north": { "uv": [ 3.5, 11.5, 12, 15.5 ], "texture": "#particle" },
				"south": { "uv": [ 4, 11.5, 12.5, 15.5 ], "texture": "#particle" },
				"west": { "uv": [ 1, 11.5, 15, 15.5 ], "texture": "#particle" },
				"east": { "uv": [ 1, 11.5, 15, 15.5 ], "texture": "#particle" }
			}
		},
		{
			"__comment": "Cube43",
			"from": [ 3.25, 6.75, 3 ],
			"to": [ 6.25, 8.25, 6 ],
			"faces": {
				"down": { "uv": [ 5.5, 7, 7.5, 9 ], "texture": "#particle" },
				"up": { "uv": [ 5.5, 7, 7.5, 9 ], "texture": "#particle" },
				"north": { "uv": [ 8.5, 10.5, 10.5, 11.5 ], "texture": "#particle" },
				"south": { "uv": [ 5.5, 10.5, 7.5, 11.5 ], "texture": "#particle" },
				"west": { "uv": [ 7, 10.5, 9, 11.5 ], "texture": "#particle" },
				"east": { "uv": [ 7, 10.5, 9, 11.5 ], "texture": "#particle" }
			}
		},
		{
			"__comment": "Cube43",
			"from": [ 1, 6, 11.25 ],
			"to": [ 5.5, 7.5, 13.5 ],
			"faces": {
				"down": { "uv": [ 4, 2, 7, 3.5 ], "texture": "#particle" },
				"up": { "uv": [ 4, 12.5, 7, 14 ], "texture": "#particle" },
				"north": { "uv": [ 9, 11, 12, 12 ], "texture": "#particle" },
				"south": { "uv": [ 4, 11, 7, 12 ], "texture": "#particle" },
				"west": { "uv": [ 12.5, 11, 14, 12 ], "texture": "#particle" },
				"east": { "uv": [ 2, 11, 3.5, 12 ], "texture": "#particle" }
			}
		},
		{
			"__comment": "Cube43",
			"from": [ 2.5, 6.75, -3 ],
			"to": [ 5.5, 8.25, 0 ],
			"faces": {
				"down": { "uv": [ 5, 11, 7, 13 ], "texture": "#particle" },
				"up": { "uv": [ 5, 3, 7, 5 ], "texture": "#particle" },
				"north": { "uv": [ 9, 10.5, 11, 11.5 ], "texture": "#particle" },
				"south": { "uv": [ 5, 10.5, 7, 11.5 ], "texture": "#particle" },
				"west": { "uv": [ 3, 10.5, 5, 11.5 ], "texture": "#particle" },
				"east": { "uv": [ 11, 10.5, 13, 11.5 ], "texture": "#particle" }
			}
		},
		{
			"__comment": "Cube43",
			"from": [ 3.25, 6, 2.25 ],
			"to": [ 7, 7.5, 6 ],
			"faces": {
				"down": { "uv": [ 5.5, 7, 8, 9.5 ], "texture": "#particle" },
				"up": { "uv": [ 5.5, 6.5, 8, 9 ], "texture": "#particle" },
				"north": { "uv": [ 8, 11, 10.5, 12 ], "texture": "#particle" },
				"south": { "uv": [ 5.5, 11, 8, 12 ], "texture": "#particle" },
				"west": { "uv": [ 6.5, 11, 9, 12 ], "texture": "#particle" },
				"east": { "uv": [ 7, 11, 9.5, 12 ], "texture": "#particle" }
			}
		},
		{
			"__comment": "Cube43",
			"from": [ 11.5, 6.75, 9 ],
			"to": [ 13.75, 7.5, 12 ],
			"faces": {
				"down": { "uv": [ 11, 3, 12.5, 5 ], "texture": "#particle" },
				"up": { "uv": [ 11, 11, 12.5, 13 ], "texture": "#particle" },
				"north": { "uv": [ 3.5, 11, 5, 11.5 ], "texture": "#particle" },
				"south": { "uv": [ 11, 11, 12.5, 11.5 ], "texture": "#particle" },
				"west": { "uv": [ 11, 11, 13, 11.5 ], "texture": "#particle" },
				"east": { "uv": [ 3, 11, 5, 11.5 ], "texture": "#particle" }
			}
		},
		{
			"__comment": "Cube43",
			"from": [ 5.5, 6.75, 12 ],
			"to": [ 7.75, 7.5, 14.25 ],
			"faces": {
				"down": { "uv": [ 7, 1.5, 8.5, 3 ], "texture": "#particle" },
				"up": { "uv": [ 7, 13, 8.5, 14.5 ], "texture": "#particle" },
				"north": { "uv": [ 7.5, 11, 9, 11.5 ], "texture": "#particle" },
				"south": { "uv": [ 7, 11, 8.5, 11.5 ], "texture": "#particle" },
				"west": { "uv": [ 13, 11, 14.5, 11.5 ], "texture": "#particle" },
				"east": { "uv": [ 1.5, 11, 3, 11.5 ], "texture": "#particle" }
			}
		},
		{
			"__comment": "Cube43",
			"from": [ 10, 6.75, 5.25 ],
			"to": [ 12.25, 7.5, 7.5 ],
			"faces": {
				"down": { "uv": [ 10, 6, 11.5, 7.5 ], "texture": "#particle" },
				"up": { "uv": [ 10, 8.5, 11.5, 10 ], "texture": "#particle" },
				"north": { "uv": [ 4.5, 11, 6, 11.5 ], "texture": "#particle" },
				"south": { "uv": [ 10, 11, 11.5, 11.5 ], "texture": "#particle" },
				"west": { "uv": [ 8.5, 11, 10, 11.5 ], "texture": "#particle" },
				"east": { "uv": [ 6, 11, 7.5, 11.5 ], "texture": "#particle" }
			}
		},
		{
			"__comment": "Cube43",
			"from": [ 4, 6.75, 9.75 ],
			"to": [ 5.5, 7.5, 11.25 ],
			"faces": {
				"down": { "uv": [ 6, 3.5, 7, 4.5 ], "texture": "#particle" },
				"up": { "uv": [ 6, 11.5, 7, 12.5 ], "texture": "#particle" },
				"north": { "uv": [ 9, 11, 10, 11.5 ], "texture": "#particle" },
				"south": { "uv": [ 6, 11, 7, 11.5 ], "texture": "#particle" },
				"west": { "uv": [ 11.5, 11, 12.5, 11.5 ], "texture": "#particle" },
				"east": { "uv": [ 3.5, 11, 4.5, 11.5 ], "texture": "#particle" }
			}
		},
		{
			"__comment": "Cube43",
			"from": [ 7.75, 7.5, -0.75 ],
			"to": [ 10, 8.25, 1.5 ],
			"faces": {
				"down": { "uv": [ 8.5, 10, 10, 11.5 ], "texture": "#particle" },
				"up": { "uv": [ 8.5, 4.5, 10, 6 ], "texture": "#particle" },
				"north": { "uv": [ 6, 10.5, 7.5, 11 ], "texture": "#particle" },
				"south": { "uv": [ 8.5, 10.5, 10, 11 ], "texture": "#particle" },
				"west": { "uv": [ 4.5, 10.5, 6, 11 ], "texture": "#particle" },
				"east": { "uv": [ 10, 10.5, 11.5, 11 ], "texture": "#particle" }
			}
		},
		{
			"__comment": "Cube43",
			"from": [ 7.75, 7.5, -3.75 ],
			"to": [ 10, 8.25, -1.5 ],
			"faces": {
				"down": { "uv": [ 8.5, 12, 10, 13.5 ], "texture": "#particle" },
				"up": { "uv": [ 8.5, 2.5, 10, 4 ], "texture": "#particle" },
				"north": { "uv": [ 6, 10.5, 7.5, 11 ], "texture": "#particle" },
				"south": { "uv": [ 8.5, 10.5, 10, 11 ], "texture": "#particle" },
				"west": { "uv": [ 2.5, 10.5, 4, 11 ], "texture": "#particle" },
				"east": { "uv": [ 12, 10.5, 13.5, 11 ], "texture": "#particle" }
			}
		},
		{
			"__comment": "Cube43",
			"from": [ 8.5, 6.75, 1.5 ],
			"to": [ 10.75, 7.5, 3.75 ],
			"faces": {
				"down": { "uv": [ 9, 8.5, 10.5, 10 ], "texture": "#particle" },
				"up": { "uv": [ 9, 6, 10.5, 7.5 ], "texture": "#particle" },
				"north": { "uv": [ 5.5, 11, 7, 11.5 ], "texture": "#particle" },
				"south": { "uv": [ 9, 11, 10.5, 11.5 ], "texture": "#particle" },
				"west": { "uv": [ 6, 11, 7.5, 11.5 ], "texture": "#particle" },
				"east": { "uv": [ 8.5, 11, 10, 11.5 ], "texture": "#particle" }
			}
		},
		{
			"__comment": "Cube43",
			"from": [ 10, 6.75, -2.25 ],
			"to": [ 12.25, 7.5, 0 ],
			"faces": {
				"down": { "uv": [ 10, 11, 11.5, 12.5 ], "texture": "#particle" },
				"up": { "uv": [ 10, 3.5, 11.5, 5 ], "texture": "#particle" },
				"north": { "uv": [ 4.5, 11, 6, 11.5 ], "texture": "#particle" },
				"south": { "uv": [ 10, 11, 11.5, 11.5 ], "texture": "#particle" },
				"west": { "uv": [ 3.5, 11, 5, 11.5 ], "texture": "#particle" },
				"east": { "uv": [ 11, 11, 12.5, 11.5 ], "texture": "#particle" }
			}
		},
		{
			"__comment": "Cube43",
			"from": [ 3.25, 6.75, -6 ],
			"to": [ 6.25, 7.5, -3 ],
			"faces": {
				"down": { "uv": [ 5.5, 13, 7.5, 15 ], "texture": "#particle" },
				"up": { "uv": [ 5.5, 1, 7.5, 3 ], "texture": "#particle" },
				"north": { "uv": [ 8.5, 11, 10.5, 11.5 ], "texture": "#particle" },
				"south": { "uv": [ 5.5, 11, 7.5, 11.5 ], "texture": "#particle" },
				"west": { "uv": [ 1, 11, 3, 11.5 ], "texture": "#particle" },
				"east": { "uv": [ 13, 11, 15, 11.5 ], "texture": "#particle" }
			}
		},
		{
			"__comment": "Cube43",
			"from": [ 6.25, 6.75, -4.5 ],
			"to": [ 10, 7.5, -0.75 ],
			"faces": {
				"down": { "uv": [ 7.5, 11.5, 10, 14 ], "texture": "#particle" },
				"up": { "uv": [ 7.5, 2, 10, 4.5 ], "texture": "#particle" },
				"north": { "uv": [ 6, 11, 8.5, 11.5 ], "texture": "#particle" },
				"south": { "uv": [ 7.5, 11, 10, 11.5 ], "texture": "#particle" },
				"west": { "uv": [ 2, 11, 4.5, 11.5 ], "texture": "#particle" },
				"east": { "uv": [ 11.5, 11, 14, 11.5 ], "texture": "#particle" }
			}
		},
		{
			"__comment": "Cube43",
			"from": [ 5.5, 6.75, -0.75 ],
			"to": [ 7.75, 8.25, 1.5 ],
			"faces": {
				"down": { "uv": [ 7, 10, 8.5, 11.5 ], "texture": "#particle" },
				"up": { "uv": [ 7, 4.5, 8.5, 6 ], "texture": "#particle" },
				"north": { "uv": [ 7.5, 10.5, 9, 11.5 ], "texture": "#particle" },
				"south": { "uv": [ 7, 10.5, 8.5, 11.5 ], "texture": "#particle" },
				"west": { "uv": [ 4.5, 10.5, 6, 11.5 ], "texture": "#particle" },
				"east": { "uv": [ 10, 10.5, 11.5, 11.5 ], "texture": "#particle" }
			}
		},
		{
			"__comment": "Cube43",
			"from": [ 1.75, 6.75, 0 ],
			"to": [ 4.75, 8.25, 3 ],
			"faces": {
				"down": { "uv": [ 4.5, 9, 6.5, 11 ], "texture": "#particle" },
				"up": { "uv": [ 4.5, 5, 6.5, 7 ], "texture": "#particle" },
				"north": { "uv": [ 9.5, 10.5, 11.5, 11.5 ], "texture": "#particle" },
				"south": { "uv": [ 4.5, 10.5, 6.5, 11.5 ], "texture": "#particle" },
				"west": { "uv": [ 5, 10.5, 7, 11.5 ], "texture": "#particle" },
				"east": { "uv": [ 9, 10.5, 11, 11.5 ], "texture": "#particle" }
			}
		},
		{
			"__comment": "Cube43",
			"from": [ 7.75, 6.75, 7.5 ],
			"to": [ 10.75, 7.5, 10.5 ],
			"faces": {
				"down": { "uv": [ 8.5, 4, 10.5, 6 ], "texture": "#particle" },
				"up": { "uv": [ 8.5, 10, 10.5, 12 ], "texture": "#particle" },
				"north": { "uv": [ 5.5, 11, 7.5, 11.5 ], "texture": "#particle" },
				"south": { "uv": [ 8.5, 11, 10.5, 11.5 ], "texture": "#particle" },
				"west": { "uv": [ 10, 11, 12, 11.5 ], "texture": "#particle" },
				"east": { "uv": [ 4, 11, 6, 11.5 ], "texture": "#particle" }
			}
		},
		{
			"__comment": "Cube43",
			"from": [ 7.75, 6.75, 12 ],
			"to": [ 10, 7.5, 14.25 ],
			"faces": {
				"down": { "uv": [ 8.5, 1.5, 10, 3 ], "texture": "#particle" },
				"up": { "uv": [ 8.5, 13, 10, 14.5 ], "texture": "#particle" },
				"north": { "uv": [ 6, 11, 7.5, 11.5 ], "texture": "#particle" },
				"south": { "uv": [ 8.5, 11, 10, 11.5 ], "texture": "#particle" },
				"west": { "uv": [ 13, 11, 14.5, 11.5 ], "texture": "#particle" },
				"east": { "uv": [ 1.5, 11, 3, 11.5 ], "texture": "#particle" }
			}
		},
		{
			"__comment": "Cube43",
			"from": [ 10, 6, 1.5 ],
			"to": [ 12.25, 7.5, 3.75 ],
			"faces": {
				"down": { "uv": [ 10, 8.5, 11.5, 10 ], "texture": "#particle" },
				"up": { "uv": [ 10, 6, 11.5, 7.5 ], "texture": "#particle" },
				"north": { "uv": [ 4.5, 11, 6, 12 ], "texture": "#particle" },
				"south": { "uv": [ 10, 11, 11.5, 12 ], "texture": "#particle" },
				"west": { "uv": [ 6, 11, 7.5, 12 ], "texture": "#particle" },
				"east": { "uv": [ 8.5, 11, 10, 12 ], "texture": "#particle" }
			}
		},
		{
			"__comment": "Cube43",
			"from": [ 10.75, 6, -1.5 ],
			"to": [ 13, 7.5, 1.5 ],
			"faces": {
				"down": { "uv": [ 10.5, 10, 12, 12 ], "texture": "#particle" },
				"up": { "uv": [ 10.5, 4, 12, 6 ], "texture": "#particle" },
				"north": { "uv": [ 4, 11, 5.5, 12 ], "texture": "#particle" },
				"south": { "uv": [ 10.5, 11, 12, 12 ], "texture": "#particle" },
				"west": { "uv": [ 4, 11, 6, 12 ], "texture": "#particle" },
				"east": { "uv": [ 10, 11, 12, 12 ], "texture": "#particle" }
			}
		},
		{
			"__comment": "Cube43",
			"from": [ 2.5, 6.75, 5.25 ],
			"to": [ 5.5, 7.5, 8.25 ],
			"faces": {
				"down": { "uv": [ 5, 5.5, 7, 7.5 ], "texture": "#particle" },
				"up": { "uv": [ 5, 8.5, 7, 10.5 ], "texture": "#particle" },
				"north": { "uv": [ 9, 11, 11, 11.5 ], "texture": "#particle" },
				"south": { "uv": [ 5, 11, 7, 11.5 ], "texture": "#particle" },
				"west": { "uv": [ 8.5, 11, 10.5, 11.5 ], "texture": "#particle" },
				"east": { "uv": [ 5.5, 11, 7.5, 11.5 ], "texture": "#particle" }
			}
		},
		{
			"__comment": "Cube43",
			"from": [ 5.5, 6.75, 6.75 ],
			"to": [ 7.75, 7.5, 9 ],
			"faces": {
				"down": { "uv": [ 7, 5, 8.5, 6.5 ], "texture": "#particle" },
				"up": { "uv": [ 7, 9.5, 8.5, 11 ], "texture": "#particle" },
				"north": { "uv": [ 7.5, 11, 9, 11.5 ], "texture": "#particle" },
				"south": { "uv": [ 7, 11, 8.5, 11.5 ], "texture": "#particle" },
				"west": { "uv": [ 9.5, 11, 11, 11.5 ], "texture": "#particle" },
				"east": { "uv": [ 5, 11, 6.5, 11.5 ], "texture": "#particle" }
			}
		},
		{
			"__comment": "Cube43",
			"from": [ 7.75, 6.75, 5.25 ],
			"to": [ 10, 7.5, 7.5 ],
			"faces": {
				"down": { "uv": [ 8.5, 6, 10, 7.5 ], "texture": "#particle" },
				"up": { "uv": [ 8.5, 8.5, 10, 10 ], "texture": "#particle" },
				"north": { "uv": [ 6, 11, 7.5, 11.5 ], "texture": "#particle" },
				"south": { "uv": [ 8.5, 11, 10, 11.5 ], "texture": "#particle" },
				"west": { "uv": [ 8.5, 11, 10, 11.5 ], "texture": "#particle" },
				"east": { "uv": [ 6, 11, 7.5, 11.5 ], "texture": "#particle" }
			}
		}
	],
	"display": {
		"thirdperson_righthand": {
			"rotation":  [ 144, 0, 0 ],
			"translation":  [ -6.26, -12.51, 11.825 ]
		},
		"thirdperson_lefthand": {
			"rotation":  [ 144, 0, 0 ],
			"translation":  [ -6.26, -12.51, 11.825 ]
		},
		"firstperson_righthand": {
			"rotation":  [ 56, 0, 0 ],
			"scale":  [ 0.7, 0.7, 0.7 ]
		},
		"firstperson_lefthand": {
			"rotation":  [ 56, 0, 0 ],
			"scale":  [ 0.7, 0.7, 0.7 ]
		},
		"gui": {
			"rotation":  [ 88, 0, 9 ],
			"translation":  [ -1.391, 0, 0 ],
			"scale":  [ 0.8, 0.8, 0.8 ]
		},
		"fixed": {
			"translation":  [ 0, 8, -24 ],
			"scale":  [ 3, 3, 3 ]
		}
	}
}