{
	"__comment": "Designed by Snoku bot with Cubik Studio - https://cubik.studio",
	"textures": {
		"texture": "conquest:blocks/planks_oakvertical",
		"particle": "conquest:blocks/barrel_pipeweed"
	},
	"elements": [
		{
			"__comment": "Cube1",
			"from": [ 9.999935, -0.0003181699, 1.000059 ],
			"to": [ 13.74994, 1.499682, 22.00006 ],
			"rotation": { "origin": [ 10, 0, 1 ], "axis": "z", "angle": -45 },
			"faces": {
				"down": { "uv": [ 10.5, 2.5, 13, 13 ], "texture": "#texture" },
				"up": { "uv": [ 10.5, 3, 13, 13.5 ], "texture": "#texture" },
				"north": { "uv": [ 3, 15, 5.5, 16 ], "texture": "#texture" },
				"south": { "uv": [ 10.5, 15, 13, 16 ], "texture": "#texture" },
				"west": { "uv": [ 3, 15, 13.5, 16 ], "texture": "#texture" },
				"east": { "uv": [ 2.5, 15, 13, 16 ], "texture": "#texture" }
			}
		},
		{
			"__comment": "Cube1",
			"from": [ 0.2491578, 0.000318548, 1.000652 ],
			"to": [ 0.9991578, 3.750319, 22.00065 ],
			"rotation": { "origin": [ 10, 0, 1 ], "axis": "z", "angle": -45 },
			"faces": {
				"down": { "uv": [ 8, 5.5, 8.5, 16 ], "texture": "#texture" },
				"up": { "uv": [ 8, 16, 7.5, 5.5 ], "texture": "#texture" },
				"north": { "uv": [ 8.5, 9, 8, 6.5 ], "texture": "#texture" },
				"south": { "uv": [ 8, 7, 8.5, 9.5 ], "texture": "#texture" },
				"west": { "uv": [ 10.5, 0, 13, 14 ], "texture": "#texture", "rotation": 90 },
				"east": { "uv": [ 6, 0, 8.5, 14 ], "texture": "#texture", "rotation": 270 }
			}
		},
		{
			"__comment": "Cube1",
			"from": [ -0.1242772, -0.1879484, 2.500596 ],
			"to": [ 0.6257228, 8.062052, 4.750596 ],
			"rotation": { "origin": [ 10, 0, 1 ], "axis": "z", "angle": -45 },
			"faces": {
				"down": { "uv": [ 3.5, 10.5, 4, 12 ], "texture": "#texture" },
				"up": { "uv": [ 3.5, 4, 4, 5.5 ], "texture": "#texture" },
				"north": { "uv": [ 12, 10.5, 12.5, 16 ], "texture": "#texture" },
				"south": { "uv": [ 3.5, 10.5, 4, 16 ], "texture": "#texture" },
				"west": { "uv": [ 4, 10.5, 5.5, 16 ], "texture": "#texture" },
				"east": { "uv": [ 10.5, 10.5, 12, 16 ], "texture": "#texture" }
			}
		},
		{
			"__comment": "Cube1",
			"from": [ 0.2508018, -0.0001392763, 0.2491656 ],
			"to": [ 14.5008, 3.749861, 0.9991656 ],
			"rotation": { "origin": [ 10, 0, 1 ], "axis": "z", "angle": -45 },
			"faces": {
				"down": { "uv": [ 2.000001, 5.999999, 2.500001, 15.5 ], "texture": "#texture", "rotation": 90 },
				"up": { "uv": [ 14, 15.5, 13.5, 5.999999 ], "texture": "#texture", "rotation": 270 },
				"north": { "uv": [ 12.5, 0, 15, 9.5 ], "texture": "#texture", "rotation": 270 },
				"south": { "uv": [ 4, 5.999999, 6.5, 15.5 ], "texture": "#texture", "rotation": 90 },
				"west": { "uv": [ 10.5, 8.500001, 13, 9.000001 ], "texture": "#texture", "rotation": 90 },
				"east": { "uv": [ 13, 13.5, 10.5, 13 ], "texture": "#texture", "rotation": 270 }
			}
		},
		{
			"__comment": "Cube1",
			"from": [ 5.500295, 0.0007568577, 1.000134 ],
			"to": [ 9.250295, 1.500757, 22.00013 ],
			"rotation": { "origin": [ 10, 0, 1 ], "axis": "z", "angle": -45 },
			"faces": {
				"down": { "uv": [ 7.5, 2.5, 10, 13 ], "texture": "#texture" },
				"up": { "uv": [ 7.5, 3, 10, 13.5 ], "texture": "#texture" },
				"north": { "uv": [ 6, 15, 8.5, 16 ], "texture": "#texture" },
				"south": { "uv": [ 7.5, 15, 10, 16 ], "texture": "#texture" },
				"west": { "uv": [ 3, 15, 13.5, 16 ], "texture": "#texture" },
				"east": { "uv": [ 2.5, 15, 13, 16 ], "texture": "#texture" }
			}
		},
		{
			"__comment": "Cube1",
			"from": [ 2.499774, -0.1871935, 22.37447 ],
			"to": [ 4.749774, 8.062806, 23.12447 ],
			"rotation": { "origin": [ 10, 0, 1 ], "axis": "z", "angle": -45 },
			"faces": {
				"down": { "uv": [ 5.5, 1.5, 7, 2 ], "texture": "#texture" },
				"up": { "uv": [ 5.5, 14, 7, 14.5 ], "texture": "#texture" },
				"north": { "uv": [ 9, 10.5, 10.5, 16 ], "texture": "#texture" },
				"south": { "uv": [ 5.5, 10.5, 7, 16 ], "texture": "#texture" },
				"west": { "uv": [ 14, 10.5, 14.5, 16 ], "texture": "#texture" },
				"east": { "uv": [ 1.5, 10.5, 2, 16 ], "texture": "#texture" }
			}
		},
		{
			"__comment": "Cube1",
			"from": [ 9.999784, 0.000144076, -0.1245426 ],
			"to": [ 12.24978, 8.250144, 0.6254574 ],
			"rotation": { "origin": [ 10, 0, 1 ], "axis": "z", "angle": -45 },
			"faces": {
				"down": { "uv": [ 10.5, 13.5, 12, 14 ], "texture": "#texture" },
				"up": { "uv": [ 10.5, 2, 12, 2.5 ], "texture": "#texture" },
				"north": { "uv": [ 4, 10.5, 5.5, 16 ], "texture": "#texture" },
				"south": { "uv": [ 10.5, 10.5, 12, 16 ], "texture": "#texture" },
				"west": { "uv": [ 2, 10.5, 2.5, 16 ], "texture": "#texture" },
				"east": { "uv": [ 13.5, 10.5, 14, 16 ], "texture": "#texture" }
			}
		},
		{
			"__comment": "Cube1",
			"from": [ 2.500591, 0.001004839, -0.1244746 ],
			"to": [ 4.750591, 8.251005, 0.6255254 ],
			"rotation": { "origin": [ 10, 0, 1 ], "axis": "z", "angle": -45 },
			"faces": {
				"down": { "uv": [ 5.5, 13.5, 7, 14 ], "texture": "#texture" },
				"up": { "uv": [ 5.5, 2, 7, 2.5 ], "texture": "#texture" },
				"north": { "uv": [ 9, 10.5, 10.5, 16 ], "texture": "#texture" },
				"south": { "uv": [ 5.5, 10.5, 7, 16 ], "texture": "#texture" },
				"west": { "uv": [ 2, 10.5, 2.5, 16 ], "texture": "#texture" },
				"east": { "uv": [ 13.5, 10.5, 14, 16 ], "texture": "#texture" }
			}
		},
		{
			"__comment": "Cube1",
			"from": [ 10.0005, -0.1871642, 22.37575 ],
			"to": [ 12.2505, 8.062836, 23.12575 ],
			"rotation": { "origin": [ 10, 0, 1 ], "axis": "z", "angle": -45 },
			"faces": {
				"down": { "uv": [ 10.5, 1.5, 12, 2 ], "texture": "#texture" },
				"up": { "uv": [ 10.5, 14, 12, 14.5 ], "texture": "#texture" },
				"north": { "uv": [ 4, 10.5, 5.5, 16 ], "texture": "#texture" },
				"south": { "uv": [ 10.5, 10.5, 12, 16 ], "texture": "#texture" },
				"west": { "uv": [ 14, 10.5, 14.5, 16 ], "texture": "#texture" },
				"east": { "uv": [ 1.5, 10.5, 2, 16 ], "texture": "#texture" }
			}
		},
		{
			"__comment": "Cube1",
			"from": [ -0.1254936, -0.1877281, 18.2506 ],
			"to": [ 0.6245064, 8.062272, 20.5006 ],
			"rotation": { "origin": [ 10, 0, 1 ], "axis": "z", "angle": -45 },
			"faces": {
				"down": { "uv": [ 3.5, 3.5, 4, 5 ], "texture": "#texture" },
				"up": { "uv": [ 3.5, 11, 4, 12.5 ], "texture": "#texture" },
				"north": { "uv": [ 12, 10.5, 12.5, 16 ], "texture": "#texture" },
				"south": { "uv": [ 3.5, 10.5, 4, 16 ], "texture": "#texture" },
				"west": { "uv": [ 11, 10.5, 12.5, 16 ], "texture": "#texture" },
				"east": { "uv": [ 3.5, 10.5, 5, 16 ], "texture": "#texture" }
			}
		},
		{
			"__comment": "Cube1",
			"from": [ 14.12513, -0.1876977, 2.499893 ],
			"to": [ 14.87513, 8.062303, 4.749893 ],
			"rotation": { "origin": [ 10, 0, 1 ], "axis": "z", "angle": -45 },
			"faces": {
				"down": { "uv": [ 13.5, 10.5, 14, 12 ], "texture": "#texture" },
				"up": { "uv": [ 13.5, 4, 14, 5.5 ], "texture": "#texture" },
				"north": { "uv": [ 2, 10.5, 2.5, 16 ], "texture": "#texture" },
				"south": { "uv": [ 13.5, 10.5, 14, 16 ], "texture": "#texture" },
				"west": { "uv": [ 4, 10.5, 5.5, 16 ], "texture": "#texture" },
				"east": { "uv": [ 10.5, 10.5, 12, 16 ], "texture": "#texture" }
			}
		},
		{
			"__comment": "Cube1",
			"from": [ 14.12491, -0.1866743, 18.25002 ],
			"to": [ 14.87491, 8.063326, 20.50002 ],
			"rotation": { "origin": [ 10, 0, 1 ], "axis": "z", "angle": -45 },
			"faces": {
				"down": { "uv": [ 13.5, 3.5, 14, 5 ], "texture": "#texture" },
				"up": { "uv": [ 13.5, 11, 14, 12.5 ], "texture": "#texture" },
				"north": { "uv": [ 2, 10.5, 2.5, 16 ], "texture": "#texture" },
				"south": { "uv": [ 13.5, 10.5, 14, 16 ], "texture": "#texture" },
				"west": { "uv": [ 11, 10.5, 12.5, 16 ], "texture": "#texture" },
				"east": { "uv": [ 3.5, 10.5, 5, 16 ], "texture": "#texture" }
			}
		},
		{
			"__comment": "Cube1",
			"from": [ 0.9998673, 0.0001798036, 0.9990309 ],
			"to": [ 4.749867, 1.50018, 21.99903 ],
			"rotation": { "origin": [ 10, 0, 1 ], "axis": "z", "angle": -45 },
			"faces": {
				"down": { "uv": [ 4.5, 2.5, 7, 13 ], "texture": "#texture" },
				"up": { "uv": [ 4.5, 3, 7, 13.5 ], "texture": "#texture" },
				"north": { "uv": [ 9, 15, 11.5, 16 ], "texture": "#texture" },
				"south": { "uv": [ 4.5, 15, 7, 16 ], "texture": "#texture" },
				"west": { "uv": [ 3, 15, 13.5, 16 ], "texture": "#texture" },
				"east": { "uv": [ 2.5, 15, 13, 16 ], "texture": "#texture" }
			}
		},
		{
			"__comment": "Cube1",
			"from": [ 1.000465, 1.501005, 2.500983 ],
			"to": [ 13.75047, 2.251005, 4.750982 ],
			"rotation": { "origin": [ 10, 0, 1 ], "axis": "z", "angle": -45 },
			"faces": {
				"down": { "uv": [ 4.500005, 10.5, 13, 12 ], "texture": "#texture" },
				"up": { "uv": [ 4.500005, 4, 13, 5.5 ], "texture": "#texture" },
				"north": { "uv": [ 2.999995, 14, 11.5, 14.5 ], "texture": "#texture" },
				"south": { "uv": [ 4.500005, 14, 13, 14.5 ], "texture": "#texture" },
				"west": { "uv": [ 4, 14, 5.5, 14.5 ], "texture": "#texture" },
				"east": { "uv": [ 10.5, 14, 12, 14.5 ], "texture": "#texture" }
			}
		},
		{
			"__comment": "Cube1",
			"from": [ 1.000726, 1.499247, 18.25067 ],
			"to": [ 13.75073, 2.249247, 20.50067 ],
			"rotation": { "origin": [ 10, 0, 1 ], "axis": "z", "angle": -45 },
			"faces": {
				"down": { "uv": [ 4.500005, 3.5, 13, 5 ], "texture": "#texture" },
				"up": { "uv": [ 0, 7, 8.5, 8.5 ], "texture": "#texture" },
				"north": { "uv": [ 2.999995, 14, 11.5, 14.5 ], "texture": "#texture" },
				"south": { "uv": [ 4.500005, 14, 13, 14.5 ], "texture": "#texture" },
				"west": { "uv": [ 11, 14, 12.5, 14.5 ], "texture": "#texture" },
				"east": { "uv": [ 3.5, 14, 5, 14.5 ], "texture": "#texture" }
			}
		},
		{
			"__comment": "Cube1",
			"from": [ 0.249928, 4.500739, 1.000345 ],
			"to": [ 0.999928, 8.250738, 22.00035 ],
			"rotation": { "origin": [ 10, 0, 1 ], "axis": "z", "angle": -45 },
			"faces": {
				"down": { "uv": [ 8, 5.5, 8.5, 16 ], "texture": "#texture" },
				"up": { "uv": [ 8, 16, 7.5, 5.5 ], "texture": "#texture" },
				"north": { "uv": [ 8.5, 9, 8, 6.5 ], "texture": "#texture" },
				"south": { "uv": [ 8, 7, 8.5, 9.5 ], "texture": "#texture" },
				"west": { "uv": [ 7, 1, 9.5, 15 ], "texture": "#texture", "rotation": 90 },
				"east": { "uv": [ 7, 0.5, 9.5, 14.5 ], "texture": "#texture", "rotation": 270 }
			}
		},
		{
			"__comment": "Cube1",
			"from": [ 13.75075, -0.0001637732, 1.000364 ],
			"to": [ 14.50075, 3.749836, 22.00036 ],
			"rotation": { "origin": [ 10, 0, 1 ], "axis": "z", "angle": -45 },
			"faces": {
				"down": { "uv": [ 8, 5.5, 8.5, 16 ], "texture": "#texture" },
				"up": { "uv": [ 8, 16, 7.5, 5.5 ], "texture": "#texture" },
				"north": { "uv": [ 8.5, 9, 8, 6.5 ], "texture": "#texture" },
				"south": { "uv": [ 8, 7, 8.5, 9.5 ], "texture": "#texture" },
				"west": { "uv": [ 10.5, 0, 13, 14 ], "texture": "#texture", "rotation": 90 },
				"east": { "uv": [ 12.5, 0, 15, 14 ], "texture": "#texture", "rotation": 270 }
			}
		},
		{
			"__comment": "Cube1",
			"from": [ 13.75087, 4.500871, 1.000574 ],
			"to": [ 14.50087, 8.250872, 22.00057 ],
			"rotation": { "origin": [ 10, 0, 1 ], "axis": "z", "angle": -45 },
			"faces": {
				"down": { "uv": [ 8, 5.5, 8.5, 16 ], "texture": "#texture" },
				"up": { "uv": [ 8, 16, 7.5, 5.5 ], "texture": "#texture" },
				"north": { "uv": [ 8.5, 9, 8, 6.5 ], "texture": "#texture" },
				"south": { "uv": [ 8, 7, 8.5, 9.5 ], "texture": "#texture" },
				"west": { "uv": [ 7, 1, 9.5, 15 ], "texture": "#texture", "rotation": 90 },
				"east": { "uv": [ 6, 0.5, 8.5, 14.5 ], "texture": "#texture", "rotation": 270 }
			}
		},
		{
			"__comment": "Cube1",
			"from": [ 0.2500424, 4.500587, 0.2495674 ],
			"to": [ 14.50004, 8.250586, 0.9995674 ],
			"rotation": { "origin": [ 10, 0, 1 ], "axis": "z", "angle": -45 },
			"faces": {
				"down": { "uv": [ 2.000001, 5.999999, 2.500001, 15.5 ], "texture": "#texture", "rotation": 90 },
				"up": { "uv": [ 14, 15.5, 13.5, 5.999999 ], "texture": "#texture", "rotation": 270 },
				"north": { "uv": [ 7, 4.5, 9.5, 14 ], "texture": "#texture", "rotation": 270 },
				"south": { "uv": [ 6, 5, 8.5, 14.5 ], "texture": "#texture", "rotation": 90 },
				"west": { "uv": [ 3, 3, 5.5, 3.5 ], "texture": "#texture", "rotation": 90 },
				"east": { "uv": [ 10, 10, 7.5, 9.500001 ], "texture": "#texture", "rotation": 270 }
			}
		},
		{
			"__comment": "Cube1",
			"from": [ 0.2498112, -0.0001851404, 21.99903 ],
			"to": [ 14.49981, 3.749815, 22.74903 ],
			"rotation": { "origin": [ 10, 0, 1 ], "axis": "z", "angle": -45 },
			"faces": {
				"down": { "uv": [ 2.000001, 5.999999, 2.500001, 15.5 ], "texture": "#texture", "rotation": 90 },
				"up": { "uv": [ 14, 15.5, 13.5, 5.999999 ], "texture": "#texture", "rotation": 270 },
				"north": { "uv": [ 13.5, 2.5, 16, 12 ], "texture": "#texture", "rotation": 270 },
				"south": { "uv": [ 10.5, 4, 13, 13.5 ], "texture": "#texture", "rotation": 90 },
				"west": { "uv": [ 10.5, 3.5, 13, 4 ], "texture": "#texture", "rotation": 90 },
				"east": { "uv": [ 6, 14.5, 3.5, 14 ], "texture": "#texture", "rotation": 270 }
			}
		},
		{
			"__comment": "Cube1",
			"from": [ 0.2490919, 4.499125, 22.00006 ],
			"to": [ 14.49909, 8.249125, 22.75006 ],
			"rotation": { "origin": [ 10, 0, 1 ], "axis": "z", "angle": -45 },
			"faces": {
				"down": { "uv": [ 2.000001, 5.999999, 2.500001, 15.5 ], "texture": "#texture", "rotation": 90 },
				"up": { "uv": [ 14, 15.5, 13.5, 5.999999 ], "texture": "#texture", "rotation": 270 },
				"north": { "uv": [ 5, 3.5, 7.5, 13 ], "texture": "#texture", "rotation": 270 },
				"south": { "uv": [ 2, 4, 4.5, 13.5 ], "texture": "#texture", "rotation": 90 },
				"west": { "uv": [ 9, 5, 11.5, 5.5 ], "texture": "#texture", "rotation": 90 },
				"east": { "uv": [ 10, 9, 7.5, 8.5 ], "texture": "#texture", "rotation": 270 }
			}
		},
		{
			"__comment": "Cube43",
			"from": [ 5.500634, 6.750687, 8.500885 ],
			"to": [ 8.500634, 7.500687, 11.50089 ],
			"rotation": { "origin": [ 10, 0, 1 ], "axis": "z", "angle": -45 },
			"faces": {
				"down": { "uv": [ 7, 8, 9, 10 ], "texture": "#particle" },
				"up": { "uv": [ 7, 6, 9, 8 ], "texture": "#particle" },
				"north": { "uv": [ 7, 11, 9, 11.5 ], "texture": "#particle" },
				"south": { "uv": [ 7, 11, 9, 11.5 ], "texture": "#particle" },
				"west": { "uv": [ 6, 11, 8, 11.5 ], "texture": "#particle" },
				"east": { "uv": [ 8, 11, 10, 11.5 ], "texture": "#particle" }
			}
		},
		{
			"__comment": "Cube43",
			"from": [ 0.9998606, 0.7494427, 1.000313 ],
			"to": [ 13.74986, 6.749443, 22.00031 ],
			"rotation": { "origin": [ 10, 0, 1 ], "axis": "z", "angle": -45 },
			"faces": {
				"down": { "uv": [ 4, 1, 12.5, 15 ], "texture": "#particle" },
				"up": { "uv": [ 4, 1, 12.5, 15 ], "texture": "#particle" },
				"north": { "uv": [ 3.5, 11.5, 12, 15.5 ], "texture": "#particle" },
				"south": { "uv": [ 4, 11.5, 12.5, 15.5 ], "texture": "#particle" },
				"west": { "uv": [ 1, 11.5, 15, 15.5 ], "texture": "#particle" },
				"east": { "uv": [ 1, 11.5, 15, 15.5 ], "texture": "#particle" }
			}
		},
		{
			"__comment": "Cube43",
			"from": [ 3.249683, 6.750296, 9.99998 ],
			"to": [ 6.249683, 8.250295, 12.99998 ],
			"rotation": { "origin": [ 10, 0, 1 ], "axis": "z", "angle": -45 },
			"faces": {
				"down": { "uv": [ 5.5, 7, 7.5, 9 ], "texture": "#particle" },
				"up": { "uv": [ 5.5, 7, 7.5, 9 ], "texture": "#particle" },
				"north": { "uv": [ 8.5, 10.5, 10.5, 11.5 ], "texture": "#particle" },
				"south": { "uv": [ 5.5, 10.5, 7.5, 11.5 ], "texture": "#particle" },
				"west": { "uv": [ 7, 10.5, 9, 11.5 ], "texture": "#particle" },
				"east": { "uv": [ 7, 10.5, 9, 11.5 ], "texture": "#particle" }
			}
		},
		{
			"__comment": "Cube43",
			"from": [ 0.9996201, 5.999906, 18.25035 ],
			"to": [ 5.49962, 7.499906, 20.50035 ],
			"rotation": { "origin": [ 10, 0, 1 ], "axis": "z", "angle": -45 },
			"faces": {
				"down": { "uv": [ 4, 2, 7, 3.5 ], "texture": "#particle" },
				"up": { "uv": [ 4, 12.5, 7, 14 ], "texture": "#particle" },
				"north": { "uv": [ 9, 11, 12, 12 ], "texture": "#particle" },
				"south": { "uv": [ 4, 11, 7, 12 ], "texture": "#particle" },
				"west": { "uv": [ 12.5, 11, 14, 12 ], "texture": "#particle" },
				"east": { "uv": [ 2, 11, 3.5, 12 ], "texture": "#particle" }
			}
		},
		{
			"__comment": "Cube43",
			"from": [ 2.499385, 6.750825, 4.000602 ],
			"to": [ 5.499385, 8.250824, 7.000602 ],
			"rotation": { "origin": [ 10, 0, 1 ], "axis": "z", "angle": -45 },
			"faces": {
				"down": { "uv": [ 5, 11, 7, 13 ], "texture": "#particle" },
				"up": { "uv": [ 5, 3, 7, 5 ], "texture": "#particle" },
				"north": { "uv": [ 9, 10.5, 11, 11.5 ], "texture": "#particle" },
				"south": { "uv": [ 5, 10.5, 7, 11.5 ], "texture": "#particle" },
				"west": { "uv": [ 3, 10.5, 5, 11.5 ], "texture": "#particle" },
				"east": { "uv": [ 11, 10.5, 13, 11.5 ], "texture": "#particle" }
			}
		},
		{
			"__comment": "Cube43",
			"from": [ 3.250531, 6.000343, 9.250235 ],
			"to": [ 7.000531, 7.500343, 13.00023 ],
			"rotation": { "origin": [ 10, 0, 1 ], "axis": "z", "angle": -45 },
			"faces": {
				"down": { "uv": [ 5.5, 7, 8, 9.5 ], "texture": "#particle" },
				"up": { "uv": [ 5.5, 6.5, 8, 9 ], "texture": "#particle" },
				"north": { "uv": [ 8, 11, 10.5, 12 ], "texture": "#particle" },
				"south": { "uv": [ 5.5, 11, 8, 12 ], "texture": "#particle" },
				"west": { "uv": [ 6.5, 11, 9, 12 ], "texture": "#particle" },
				"east": { "uv": [ 7, 11, 9.5, 12 ], "texture": "#particle" }
			}
		},
		{
			"__comment": "Cube43",
			"from": [ 11.50037, 6.749298, 16.00033 ],
			"to": [ 13.75037, 7.499298, 19.00033 ],
			"rotation": { "origin": [ 10, 0, 1 ], "axis": "z", "angle": -45 },
			"faces": {
				"down": { "uv": [ 11, 3, 12.5, 5 ], "texture": "#particle" },
				"up": { "uv": [ 11, 11, 12.5, 13 ], "texture": "#particle" },
				"north": { "uv": [ 3.5, 11, 5, 11.5 ], "texture": "#particle" },
				"south": { "uv": [ 11, 11, 12.5, 11.5 ], "texture": "#particle" },
				"west": { "uv": [ 11, 11, 13, 11.5 ], "texture": "#particle" },
				"east": { "uv": [ 3, 11, 5, 11.5 ], "texture": "#particle" }
			}
		},
		{
			"__comment": "Cube43",
			"from": [ 5.500381, 6.750753, 18.99943 ],
			"to": [ 7.750381, 7.500753, 21.24943 ],
			"rotation": { "origin": [ 10, 0, 1 ], "axis": "z", "angle": -45 },
			"faces": {
				"down": { "uv": [ 7, 1.5, 8.5, 3 ], "texture": "#particle" },
				"up": { "uv": [ 7, 13, 8.5, 14.5 ], "texture": "#particle" },
				"north": { "uv": [ 7.5, 11, 9, 11.5 ], "texture": "#particle" },
				"south": { "uv": [ 7, 11, 8.5, 11.5 ], "texture": "#particle" },
				"west": { "uv": [ 13, 11, 14.5, 11.5 ], "texture": "#particle" },
				"east": { "uv": [ 1.5, 11, 3, 11.5 ], "texture": "#particle" }
			}
		},
		{
			"__comment": "Cube43",
			"from": [ 9.999346, 6.749102, 12.24905 ],
			"to": [ 12.24935, 7.499102, 14.49905 ],
			"rotation": { "origin": [ 10, 0, 1 ], "axis": "z", "angle": -45 },
			"faces": {
				"down": { "uv": [ 10, 6, 11.5, 7.5 ], "texture": "#particle" },
				"up": { "uv": [ 10, 8.5, 11.5, 10 ], "texture": "#particle" },
				"north": { "uv": [ 4.5, 11, 6, 11.5 ], "texture": "#particle" },
				"south": { "uv": [ 10, 11, 11.5, 11.5 ], "texture": "#particle" },
				"west": { "uv": [ 8.5, 11, 10, 11.5 ], "texture": "#particle" },
				"east": { "uv": [ 6, 11, 7.5, 11.5 ], "texture": "#particle" }
			}
		},
		{
			"__comment": "Cube43",
			"from": [ 3.999522, 6.75059, 16.74931 ],
			"to": [ 5.499522, 7.50059, 18.24931 ],
			"rotation": { "origin": [ 10, 0, 1 ], "axis": "z", "angle": -45 },
			"faces": {
				"down": { "uv": [ 6, 3.5, 7, 4.5 ], "texture": "#particle" },
				"up": { "uv": [ 6, 11.5, 7, 12.5 ], "texture": "#particle" },
				"north": { "uv": [ 9, 11, 10, 11.5 ], "texture": "#particle" },
				"south": { "uv": [ 6, 11, 7, 11.5 ], "texture": "#particle" },
				"west": { "uv": [ 11.5, 11, 12.5, 11.5 ], "texture": "#particle" },
				"east": { "uv": [ 3.5, 11, 4.5, 11.5 ], "texture": "#particle" }
			}
		},
		{
			"__comment": "Cube43",
			"from": [ 7.749402, 7.49926, 6.250478 ],
			"to": [ 9.999401, 8.24926, 8.500478 ],
			"rotation": { "origin": [ 10, 0, 1 ], "axis": "z", "angle": -45 },
			"faces": {
				"down": { "uv": [ 8.5, 10, 10, 11.5 ], "texture": "#particle" },
				"up": { "uv": [ 8.5, 4.5, 10, 6 ], "texture": "#particle" },
				"north": { "uv": [ 6, 10.5, 7.5, 11 ], "texture": "#particle" },
				"south": { "uv": [ 8.5, 10.5, 10, 11 ], "texture": "#particle" },
				"west": { "uv": [ 4.5, 10.5, 6, 11 ], "texture": "#particle" },
				"east": { "uv": [ 10, 10.5, 11.5, 11 ], "texture": "#particle" }
			}
		},
		{
			"__comment": "Cube43",
			"from": [ 7.749855, 7.499946, 3.2502 ],
			"to": [ 9.999855, 8.249946, 5.500199 ],
			"rotation": { "origin": [ 10, 0, 1 ], "axis": "z", "angle": -45 },
			"faces": {
				"down": { "uv": [ 8.5, 12, 10, 13.5 ], "texture": "#particle" },
				"up": { "uv": [ 8.5, 2.5, 10, 4 ], "texture": "#particle" },
				"north": { "uv": [ 6, 10.5, 7.5, 11 ], "texture": "#particle" },
				"south": { "uv": [ 8.5, 10.5, 10, 11 ], "texture": "#particle" },
				"west": { "uv": [ 2.5, 10.5, 4, 11 ], "texture": "#particle" },
				"east": { "uv": [ 12, 10.5, 13.5, 11 ], "texture": "#particle" }
			}
		},
		{
			"__comment": "Cube43",
			"from": [ 8.500509, 6.750395, 8.500342 ],
			"to": [ 10.75051, 7.500395, 10.75034 ],
			"rotation": { "origin": [ 10, 0, 1 ], "axis": "z", "angle": -45 },
			"faces": {
				"down": { "uv": [ 9, 8.5, 10.5, 10 ], "texture": "#particle" },
				"up": { "uv": [ 9, 6, 10.5, 7.5 ], "texture": "#particle" },
				"north": { "uv": [ 5.5, 11, 7, 11.5 ], "texture": "#particle" },
				"south": { "uv": [ 9, 11, 10.5, 11.5 ], "texture": "#particle" },
				"west": { "uv": [ 6, 11, 7.5, 11.5 ], "texture": "#particle" },
				"east": { "uv": [ 8.5, 11, 10, 11.5 ], "texture": "#particle" }
			}
		},
		{
			"__comment": "Cube43",
			"from": [ 9.999853, 6.7499, 4.750219 ],
			"to": [ 12.24985, 7.4999, 7.000219 ],
			"rotation": { "origin": [ 10, 0, 1 ], "axis": "z", "angle": -45 },
			"faces": {
				"down": { "uv": [ 10, 11, 11.5, 12.5 ], "texture": "#particle" },
				"up": { "uv": [ 10, 3.5, 11.5, 5 ], "texture": "#particle" },
				"north": { "uv": [ 4.5, 11, 6, 11.5 ], "texture": "#particle" },
				"south": { "uv": [ 10, 11, 11.5, 11.5 ], "texture": "#particle" },
				"west": { "uv": [ 3.5, 11, 5, 11.5 ], "texture": "#particle" },
				"east": { "uv": [ 11, 11, 12.5, 11.5 ], "texture": "#particle" }
			}
		},
		{
			"__comment": "Cube43",
			"from": [ 3.250455, 6.750443, 1.00068 ],
			"to": [ 6.250455, 7.500443, 4.00068 ],
			"rotation": { "origin": [ 10, 0, 1 ], "axis": "z", "angle": -45 },
			"faces": {
				"down": { "uv": [ 5.5, 13, 7.5, 15 ], "texture": "#particle" },
				"up": { "uv": [ 5.5, 1, 7.5, 3 ], "texture": "#particle" },
				"north": { "uv": [ 8.5, 11, 10.5, 11.5 ], "texture": "#particle" },
				"south": { "uv": [ 5.5, 11, 7.5, 11.5 ], "texture": "#particle" },
				"west": { "uv": [ 1, 11, 3, 11.5 ], "texture": "#particle" },
				"east": { "uv": [ 13, 11, 15, 11.5 ], "texture": "#particle" }
			}
		},
		{
			"__comment": "Cube43",
			"from": [ 6.249503, 6.750639, 2.500611 ],
			"to": [ 9.999503, 7.500639, 6.250611 ],
			"rotation": { "origin": [ 10, 0, 1 ], "axis": "z", "angle": -45 },
			"faces": {
				"down": { "uv": [ 7.5, 11.5, 10, 14 ], "texture": "#particle" },
				"up": { "uv": [ 7.5, 2, 10, 4.5 ], "texture": "#particle" },
				"north": { "uv": [ 6, 11, 8.5, 11.5 ], "texture": "#particle" },
				"south": { "uv": [ 7.5, 11, 10, 11.5 ], "texture": "#particle" },
				"west": { "uv": [ 2, 11, 4.5, 11.5 ], "texture": "#particle" },
				"east": { "uv": [ 11.5, 11, 14, 11.5 ], "texture": "#particle" }
			}
		},
		{
			"__comment": "Cube43",
			"from": [ 5.499005, 6.750957, 6.249676 ],
			"to": [ 7.749005, 8.250957, 8.499676 ],
			"rotation": { "origin": [ 10, 0, 1 ], "axis": "z", "angle": -45 },
			"faces": {
				"down": { "uv": [ 7, 10, 8.5, 11.5 ], "texture": "#particle" },
				"up": { "uv": [ 7, 4.5, 8.5, 6 ], "texture": "#particle" },
				"north": { "uv": [ 7.5, 10.5, 9, 11.5 ], "texture": "#particle" },
				"south": { "uv": [ 7, 10.5, 8.5, 11.5 ], "texture": "#particle" },
				"west": { "uv": [ 4.5, 10.5, 6, 11.5 ], "texture": "#particle" },
				"east": { "uv": [ 10, 10.5, 11.5, 11.5 ], "texture": "#particle" }
			}
		},
		{
			"__comment": "Cube43",
			"from": [ 1.751093, 6.750921, 6.999183 ],
			"to": [ 4.751093, 8.250919, 9.999184 ],
			"rotation": { "origin": [ 10, 0, 1 ], "axis": "z", "angle": -45 },
			"faces": {
				"down": { "uv": [ 4.5, 9, 6.5, 11 ], "texture": "#particle" },
				"up": { "uv": [ 4.5, 5, 6.5, 7 ], "texture": "#particle" },
				"north": { "uv": [ 9.5, 10.5, 11.5, 11.5 ], "texture": "#particle" },
				"south": { "uv": [ 4.5, 10.5, 6.5, 11.5 ], "texture": "#particle" },
				"west": { "uv": [ 5, 10.5, 7, 11.5 ], "texture": "#particle" },
				"east": { "uv": [ 9, 10.5, 11, 11.5 ], "texture": "#particle" }
			}
		},
		{
			"__comment": "Cube43",
			"from": [ 7.749158, 6.749338, 14.50074 ],
			"to": [ 10.74916, 7.499338, 17.50074 ],
			"rotation": { "origin": [ 10, 0, 1 ], "axis": "z", "angle": -45 },
			"faces": {
				"down": { "uv": [ 8.5, 4, 10.5, 6 ], "texture": "#particle" },
				"up": { "uv": [ 8.5, 10, 10.5, 12 ], "texture": "#particle" },
				"north": { "uv": [ 5.5, 11, 7.5, 11.5 ], "texture": "#particle" },
				"south": { "uv": [ 8.5, 11, 10.5, 11.5 ], "texture": "#particle" },
				"west": { "uv": [ 10, 11, 12, 11.5 ], "texture": "#particle" },
				"east": { "uv": [ 4, 11, 6, 11.5 ], "texture": "#particle" }
			}
		},
		{
			"__comment": "Cube43",
			"from": [ 7.750382, 6.749134, 19.00099 ],
			"to": [ 10.00038, 7.499134, 21.25099 ],
			"rotation": { "origin": [ 10, 0, 1 ], "axis": "z", "angle": -45 },
			"faces": {
				"down": { "uv": [ 8.5, 1.5, 10, 3 ], "texture": "#particle" },
				"up": { "uv": [ 8.5, 13, 10, 14.5 ], "texture": "#particle" },
				"north": { "uv": [ 6, 11, 7.5, 11.5 ], "texture": "#particle" },
				"south": { "uv": [ 8.5, 11, 10, 11.5 ], "texture": "#particle" },
				"west": { "uv": [ 13, 11, 14.5, 11.5 ], "texture": "#particle" },
				"east": { "uv": [ 1.5, 11, 3, 11.5 ], "texture": "#particle" }
			}
		},
		{
			"__comment": "Cube43",
			"from": [ 10.00094, 6.000729, 8.500472 ],
			"to": [ 12.25094, 7.500729, 10.75047 ],
			"rotation": { "origin": [ 10, 0, 1 ], "axis": "z", "angle": -45 },
			"faces": {
				"down": { "uv": [ 10, 8.5, 11.5, 10 ], "texture": "#particle" },
				"up": { "uv": [ 10, 6, 11.5, 7.5 ], "texture": "#particle" },
				"north": { "uv": [ 4.5, 11, 6, 12 ], "texture": "#particle" },
				"south": { "uv": [ 10, 11, 11.5, 12 ], "texture": "#particle" },
				"west": { "uv": [ 6, 11, 7.5, 12 ], "texture": "#particle" },
				"east": { "uv": [ 8.5, 11, 10, 12 ], "texture": "#particle" }
			}
		},
		{
			"__comment": "Cube43",
			"from": [ 10.75089, 5.999713, 5.500399 ],
			"to": [ 13.00089, 7.499713, 8.500399 ],
			"rotation": { "origin": [ 10, 0, 1 ], "axis": "z", "angle": -45 },
			"faces": {
				"down": { "uv": [ 10.5, 10, 12, 12 ], "texture": "#particle" },
				"up": { "uv": [ 10.5, 4, 12, 6 ], "texture": "#particle" },
				"north": { "uv": [ 4, 11, 5.5, 12 ], "texture": "#particle" },
				"south": { "uv": [ 10.5, 11, 12, 12 ], "texture": "#particle" },
				"west": { "uv": [ 4, 11, 6, 12 ], "texture": "#particle" },
				"east": { "uv": [ 10, 11, 12, 12 ], "texture": "#particle" }
			}
		},
		{
			"__comment": "Cube43",
			"from": [ 2.500137, 6.749259, 12.25012 ],
			"to": [ 5.500137, 7.499259, 15.25012 ],
			"rotation": { "origin": [ 10, 0, 1 ], "axis": "z", "angle": -45 },
			"faces": {
				"down": { "uv": [ 5, 5.5, 7, 7.5 ], "texture": "#particle" },
				"up": { "uv": [ 5, 8.5, 7, 10.5 ], "texture": "#particle" },
				"north": { "uv": [ 9, 11, 11, 11.5 ], "texture": "#particle" },
				"south": { "uv": [ 5, 11, 7, 11.5 ], "texture": "#particle" },
				"west": { "uv": [ 8.5, 11, 10.5, 11.5 ], "texture": "#particle" },
				"east": { "uv": [ 5.5, 11, 7.5, 11.5 ], "texture": "#particle" }
			}
		},
		{
			"__comment": "Cube43",
			"from": [ 5.500877, 6.749987, 13.7494 ],
			"to": [ 7.750877, 7.499987, 15.9994 ],
			"rotation": { "origin": [ 10, 0, 1 ], "axis": "z", "angle": -45 },
			"faces": {
				"down": { "uv": [ 7, 5, 8.5, 6.5 ], "texture": "#particle" },
				"up": { "uv": [ 7, 9.5, 8.5, 11 ], "texture": "#particle" },
				"north": { "uv": [ 7.5, 11, 9, 11.5 ], "texture": "#particle" },
				"south": { "uv": [ 7, 11, 8.5, 11.5 ], "texture": "#particle" },
				"west": { "uv": [ 9.5, 11, 11, 11.5 ], "texture": "#particle" },
				"east": { "uv": [ 5, 11, 6.5, 11.5 ], "texture": "#particle" }
			}
		},
		{
			"__comment": "Cube43",
			"from": [ 7.74991, 6.749259, 12.24942 ],
			"to": [ 9.99991, 7.499259, 14.49942 ],
			"rotation": { "origin": [ 10, 0, 1 ], "axis": "z", "angle": -45 },
			"faces": {
				"down": { "uv": [ 8.5, 6, 10, 7.5 ], "texture": "#particle" },
				"up": { "uv": [ 8.5, 8.5, 10, 10 ], "texture": "#particle" },
				"north": { "uv": [ 6, 11, 7.5, 11.5 ], "texture": "#particle" },
				"south": { "uv": [ 8.5, 11, 10, 11.5 ], "texture": "#particle" },
				"west": { "uv": [ 8.5, 11, 10, 11.5 ], "texture": "#particle" },
				"east": { "uv": [ 6, 11, 7.5, 11.5 ], "texture": "#particle" }
			}
		}
	],
	"display": {
		"thirdperson_righthand": {
			"rotation":  [ 144, 0, 0 ],
			"translation":  [ -6.26, -12.51, 11.825 ]
		},
		"thirdperson_lefthand": {
			"rotation":  [ 144, 0, 0 ],
			"translation":  [ -6.26, -12.51, 11.825 ]
		},
		"firstperson_righthand": {
			"rotation":  [ 56, 0, 0 ],
			"scale":  [ 0.7, 0.7, 0.7 ]
		},
		"firstperson_lefthand": {
			"rotation":  [ 56, 0, 0 ],
			"scale":  [ 0.7, 0.7, 0.7 ]
		},
		"gui": {
			"rotation":  [ 88, 0, 9 ],
			"translation":  [ -1.391, 0, 0 ],
			"scale":  [ 0.8, 0.8, 0.8 ]
		},
		"fixed": {
			"translation":  [ 0, 8, -24 ],
			"scale":  [ 3, 3, 3 ]
		}
	}
}