{
"parent": "block/parent_corner",
"textures": {
    "texture": "conquest:blocks/brickextremehills_sides",
	"top": "conquest:blocks/brickextremehills",
	"bottom": "conquest:blocks/brickextremehills_sides"
}
}