{
    "parent": "block/stairs",
    "textures": {
        "bottom": "conquest:blocks/brick_orangered",
        "top": "conquest:blocks/brick_orangered",
        "side": "conquest:blocks/brick_orangered"
    }
}
