{
"parent": "block/parent_slit",
"textures": {
        "bottom": "blocks/sandstone_bottom",
        "side": "conquest:blocks/roman_brick_stacked",
        "top": "conquest:blocks/roman_brick"
    }
}

