{
    "parent": "conquest:block/anvil_body",
    "textures": {
        "particle": "conquest:blocks/roman_sandstone",
        "body": "conquest:blocks/roman_sandstone",
        "top": "conquest:blocks/roman_sandstone"
    }
}