{
    "parent": "block/inner_stairs",
    "textures": {
        "bottom": "conquest:blocks/roman_brick_dark",
        "top": "conquest:blocks/roman_brick_dark",
        "side": "conquest:blocks/roman_brick_dark"
    }
}
