{
"parent": "block/parent_verticalslab",
"textures": {
    "texture": "conquest:blocks/brickextremehills_sides",
	"top": "conquest:blocks/brickextremehills",
	"bottom": "conquest:blocks/brickextremehills"
	}
}	