{
"parent": "block/parent_arch",
"textures": {
    "texture": "conquest:blocks/roman_travertine",
    "edge": "conquest:blocks/roman_travertine",
    "side": "conquest:blocks/roman_travertine",
    "side_alt": "conquest:blocks/roman_travertine"
}
}