{
    "parent": "conquest:block/anvil_base",
    "textures": {
        "particle": "conquest:blocks/roman_brick_dark",
        "body": "conquest:blocks/roman_brick_dark",
        "top": "conquest:blocks/roman_brick_dark"
    }
}