{
"parent": "block/parent_windowslit",
"textures": {
    "texture": "conquest:blocks/roman_brick_vertical",
    "top": "conquest:blocks/roman_brick_vertical",
	"bottom": "conquest:blocks/roman_brick_vertical"
	}
}