{
"parent": "block/parent_windowslit",
"textures": {
    "texture": "conquest:blocks/roman_brick_dark",
    "top": "conquest:blocks/roman_brick_dark",
	"bottom": "conquest:blocks/roman_brick_dark"
	}
}