
{
    "parent": "block/inner_stairs",
    "textures": {
        "bottom": "conquest:blocks/brickbirchforest",
        "top": "conquest:blocks/brickbirchforest",
        "side": "conquest:blocks/brickbirchforest_sides"
    }
}