{
	"parent": "block/parent_capital_doric_verticalslab",
	"textures": {
		"side": "conquest:blocks/roman_column_blue_capital_marble",
		"down": "conquest:blocks/roman_column_blue_top",
		"up": "conquest:blocks/roman_capital_marble_top"
	}
}
