{
	"__comment": "Designed by RomanCapitalist with Cubik Studio - https://cubik.studio",
	"parent": "block/block",
	"textures": {
		"particle": "conquest:blocks/capitalionian_marble",
		"texture": "conquest:blocks/capitalionian_marble",
		"texture1": "conquest:blocks/roman_capital_marble_top",
		"texture2": "conquest:blocks/capitalionian_marble_spirals"
	},
	"elements": [ 	 
		{
			"__comment": "Box1",
			"from": [ 0, 0, 0 ],
			"to": [ 16, 16, 16 ],
			"faces": {
				"down": { "uv": [ 0, 0, 16, 16 ], "texture": "#texture1" },
				"up": { "uv": [ 0, 0, 16, 16 ], "texture": "#texture1" },
				"north": { "uv": [ 0, 0, 16, 16 ], "texture": "#texture" },
				"south": { "uv": [ 0, 0, 16, 16 ], "texture": "#texture" },
				"west": { "uv": [ 0, 0, 16, 16 ], "texture": "#texture" },
				"east": { "uv": [ 0, 0, 16, 16 ], "texture": "#texture" }
			}
		},
		{
			"__comment": "Box2",
			"from": [ -4.5, 8.5, 15 ],
			"to": [ 1, 14.5, 20.5 ],
			"faces": {
				"down": { "uv": [ 10.5, 10.5, 16, 16 ], "texture": "#texture1", "rotation": 90 },
				"up": { "uv": [ 10.5, 0, 16, 5.5 ], "texture": "#texture1", "rotation": 270 },
				"north": { "uv": [ 0, 0, 5.5, 6 ], "texture": "#texture2" },
				"south": { "uv": [ 5.5, 0, 11, 6 ], "texture": "#texture2" },
				"west": { "uv": [ 0, 0, 5.5, 6 ], "texture": "#texture2" },
				"east": { "uv": [ 5.5, 0, 11, 6 ], "texture": "#texture2" }
			}
		},
		{
			"__comment": "Box3",
			"from": [ -1.3647, 10.491, 0.3266 ],
			"to": [ 2.1353, 14.491, 8.8266 ],
			"rotation": { "origin": [ -1.499999, 10.5, 8.500002 ], "axis": "y", "angle": 22.5 },
			"faces": {
				"down": { "uv": [ 7.5, 9, 16, 12.5 ], "texture": "#texture1", "rotation": 90 },
				"up": { "uv": [ 7.5, 3.5, 16, 7 ], "texture": "#texture1", "rotation": 270 },
				"north": { "uv": [ 9, 1.51, 12.5, 5.51 ], "texture": "#texture" },
				"south": { "uv": [ 3.5, 1.51, 7, 5.51 ], "texture": "#texture" },
				"west": { "uv": [ 0, 1.51, 8.5, 5.51 ], "texture": "#texture" },
				"east": { "uv": [ 7.5, 1.51, 16, 5.51 ], "texture": "#texture" }
			}
		},
		{
			"__comment": "Box3",
			"from": [ -0.5, 0, 0 ],
			"to": [ 0, 1, 16 ],
			"faces": {
				"down": { "uv": [ 0, 15.5, 16, 16 ], "texture": "#texture", "rotation": 90 },
				"up": { "uv": [ 0, 0, 16, 0.5 ], "texture": "#texture", "rotation": 270 },
				"north": { "uv": [ 15.5, 15, 16, 16 ], "texture": "#texture" },
				"south": { "uv": [ 0, 15, 0.5, 16 ], "texture": "#texture" },
				"west": { "uv": [ 0, 15, 16, 16 ], "texture": "#texture" },
				"east": { "uv": [ 0, 15, 16, 16 ], "texture": "#texture" }
			}
		},
		{
			"__comment": "Box3",
			"from": [ -0.5, 6.5, 0 ],
			"to": [ 0, 8, 16 ],
			"faces": {
				"down": { "uv": [ 0, 15.5, 16, 16 ], "texture": "#texture", "rotation": 90 },
				"up": { "uv": [ 0, 0, 16, 0.5 ], "texture": "#texture", "rotation": 270 },
				"north": { "uv": [ 15.5, 8, 16, 9.5 ], "texture": "#texture" },
				"south": { "uv": [ 0, 8, 0.5, 9.5 ], "texture": "#texture" },
				"west": { "uv": [ 0, 8, 16, 9.5 ], "texture": "#texture" },
				"east": { "uv": [ 0, 8, 16, 9.5 ], "texture": "#texture" }
			}
		},
		{
			"__comment": "Box3",
			"from": [ -1.5, 8, 0 ],
			"to": [ 0, 9.5, 16 ],
			"faces": {
				"down": { "uv": [ 0, 14.5, 16, 16 ], "texture": "#texture", "rotation": 90 },
				"up": { "uv": [ 0, 0, 16, 1.5 ], "texture": "#texture", "rotation": 270 },
				"north": { "uv": [ 14.5, 6.5, 16, 8 ], "texture": "#texture" },
				"south": { "uv": [ 0, 6.5, 1.5, 8 ], "texture": "#texture" },
				"west": { "uv": [ 0, 6.5, 16, 8 ], "texture": "#texture" },
				"east": { "uv": [ 0, 6.5, 16, 8 ], "texture": "#texture" }
			}
		},
		{
			"__comment": "Box3",
			"from": [ -4, 14.5, 0 ],
			"to": [ 0, 16, 16 ],
			"faces": {
				"down": { "uv": [ 0, 12, 16, 16 ], "texture": "#texture1", "rotation": 90 },
				"up": { "uv": [ 0, 0, 16, 4 ], "texture": "#texture1", "rotation": 270 },
				"north": { "uv": [ 12, 0, 16, 1.5 ], "texture": "#texture" },
				"south": { "uv": [ 0, 0, 4, 1.5 ], "texture": "#texture" },
				"west": { "uv": [ 0, 0, 16, 1.5 ], "texture": "#texture" },
				"east": { "uv": [ 0, 0, 16, 1.5 ], "texture": "#texture" }
			}
		},
		{
			"__comment": "Box3",
			"from": [ -4.5, 10.49, 6.5 ],
			"to": [ -1, 14.49, 15 ],
			"rotation": { "origin": [ -4.5, 10.5, 15 ], "axis": "y", "angle": -22.5 },
			"faces": {
				"down": { "uv": [ 0, 11.5, 8.5, 15 ], "texture": "#texture1", "rotation": 90 },
				"up": { "uv": [ 0, 1, 8.5, 4.5 ], "texture": "#texture1", "rotation": 270 },
				"north": { "uv": [ 11.5, 1.5, 15, 5.5 ], "texture": "#texture" },
				"south": { "uv": [ 1, 1.5, 4.5, 5.5 ], "texture": "#texture" },
				"west": { "uv": [ 7.5, 1.5, 16, 5.5 ], "texture": "#texture" },
				"east": { "uv": [ 0, 1.5, 8.5, 5.5 ], "texture": "#texture" }
			}
		},
		{
			"__comment": "Box3",
			"from": [ -2, 9.5, 0 ],
			"to": [ 0, 10.5, 16 ],
			"faces": {
				"down": { "uv": [ 0, 14, 16, 16 ], "texture": "#texture", "rotation": 90 },
				"up": { "uv": [ 0, 0, 16, 2 ], "texture": "#texture", "rotation": 270 },
				"north": { "uv": [ 14, 5.5, 16, 6.5 ], "texture": "#texture" },
				"south": { "uv": [ 0, 5.5, 2, 6.5 ], "texture": "#texture" },
				"west": { "uv": [ 0, 5.5, 16, 6.5 ], "texture": "#texture" },
				"east": { "uv": [ 0, 5.5, 16, 6.5 ], "texture": "#texture" }
			}
		},
		{
			"__comment": "Box3",
			"from": [ 0, 9.5, -2 ],
			"to": [ 16, 10.5, 0 ],
			"faces": {
				"down": { "uv": [ 0, 14, 16, 16 ], "texture": "#texture" },
				"up": { "uv": [ 0, 0, 16, 2 ], "texture": "#texture" },
				"north": { "uv": [ 0, 5.5, 16, 6.5 ], "texture": "#texture" },
				"south": { "uv": [ 0, 5.5, 16, 6.5 ], "texture": "#texture" },
				"west": { "uv": [ 0, 5.5, 2, 6.5 ], "texture": "#texture" },
				"east": { "uv": [ 14, 5.5, 16, 6.5 ], "texture": "#texture" }
			}
		},
		{
			"__comment": "Box2",
			"from": [ -4.5, 8.5, -4.5 ],
			"to": [ 1, 14.5, 1 ],
			"faces": {
				"down": { "uv": [ 10.5, 10.5, 16, 16 ], "texture": "#texture1" },
				"up": { "uv": [ 10.5, 0, 16, 5.5 ], "texture": "#texture1" },
				"north": { "uv": [ 0, 0, 5.5, 6 ], "texture": "#texture2" },
				"south": { "uv": [ 5.5, 0, 11, 6 ], "texture": "#texture2" },
				"west": { "uv": [ 5.5, 0, 11, 6 ], "texture": "#texture2" },
				"east": { "uv": [ 0, 0, 5.5, 6 ], "texture": "#texture2" }
			}
		},
		{
			"__comment": "Box3",
			"from": [ 7.1734, 10.491, -1.3647 ],
			"to": [ 15.6734, 14.491, 2.1353 ],
			"rotation": { "origin": [ 7.5, 10.5, -1.5 ], "axis": "y", "angle": 22.5 },
			"faces": {
				"down": { "uv": [ 7.5, 9, 16, 12.5 ], "texture": "#texture1" },
				"up": { "uv": [ 7.5, 3.5, 16, 7 ], "texture": "#texture1" },
				"north": { "uv": [ 0, 1.51, 8.5, 5.51 ], "texture": "#texture" },
				"south": { "uv": [ 7.5, 1.51, 16, 5.51 ], "texture": "#texture" },
				"west": { "uv": [ 3.5, 1.51, 7, 5.51 ], "texture": "#texture" },
				"east": { "uv": [ 9, 1.51, 12.5, 5.51 ], "texture": "#texture" }
			}
		},
		{
			"__comment": "Box3",
			"from": [ 0, 0, -0.5 ],
			"to": [ 16, 1, 0 ],
			"faces": {
				"down": { "uv": [ 0, 15.5, 16, 16 ], "texture": "#texture" },
				"up": { "uv": [ 0, 0, 16, 0.5 ], "texture": "#texture" },
				"north": { "uv": [ 0, 15, 16, 16 ], "texture": "#texture" },
				"south": { "uv": [ 0, 15, 16, 16 ], "texture": "#texture" },
				"west": { "uv": [ 0, 15, 0.5, 16 ], "texture": "#texture" },
				"east": { "uv": [ 15.5, 15, 16, 16 ], "texture": "#texture" }
			}
		},
		{
			"__comment": "Box3",
			"from": [ 0, 6.5, -0.5 ],
			"to": [ 16, 8, 0 ],
			"faces": {
				"down": { "uv": [ 0, 15.5, 16, 16 ], "texture": "#texture" },
				"up": { "uv": [ 0, 0, 16, 0.5 ], "texture": "#texture" },
				"north": { "uv": [ 0, 8, 16, 9.5 ], "texture": "#texture" },
				"south": { "uv": [ 0, 8, 16, 9.5 ], "texture": "#texture" },
				"west": { "uv": [ 0, 8, 0.5, 9.5 ], "texture": "#texture" },
				"east": { "uv": [ 15.5, 8, 16, 9.5 ], "texture": "#texture" }
			}
		},
		{
			"__comment": "Box3",
			"from": [ 0, 8, -1.5 ],
			"to": [ 16, 9.5, 0 ],
			"faces": {
				"down": { "uv": [ 0, 14.5, 16, 16 ], "texture": "#texture" },
				"up": { "uv": [ 0, 0, 16, 1.5 ], "texture": "#texture" },
				"north": { "uv": [ 0, 6.5, 16, 8 ], "texture": "#texture" },
				"south": { "uv": [ 0, 6.5, 16, 8 ], "texture": "#texture" },
				"west": { "uv": [ 0, 6.5, 1.5, 8 ], "texture": "#texture" },
				"east": { "uv": [ 14.5, 6.5, 16, 8 ], "texture": "#texture" }
			}
		},
		{
			"__comment": "Box3",
			"from": [ 0, 14.5, -4 ],
			"to": [ 16, 16, 0 ],
			"faces": {
				"down": { "uv": [ 0, 12, 16, 16 ], "texture": "#texture1" },
				"up": { "uv": [ 0, 0, 16, 4 ], "texture": "#texture1" },
				"north": { "uv": [ 0, 0, 16, 1.5 ], "texture": "#texture" },
				"south": { "uv": [ 0, 0, 16, 1.5 ], "texture": "#texture" },
				"west": { "uv": [ 0, 0, 4, 1.5 ], "texture": "#texture" },
				"east": { "uv": [ 12, 0, 16, 1.5 ], "texture": "#texture" }
			}
		},
		{
			"__comment": "Box3",
			"from": [ 1, 10.49, -4.5 ],
			"to": [ 9.5, 14.49, -1 ],
			"rotation": { "origin": [ 1, 10.5, -4.5 ], "axis": "y", "angle": -22.5 },
			"faces": {
				"down": { "uv": [ 0, 11.5, 8.5, 15 ], "texture": "#texture1" },
				"up": { "uv": [ 0, 1, 8.5, 4.5 ], "texture": "#texture1" },
				"north": { "uv": [ 7.5, 1.5, 16, 5.5 ], "texture": "#texture" },
				"south": { "uv": [ 0, 1.5, 8.5, 5.5 ], "texture": "#texture" },
				"west": { "uv": [ 1, 1.5, 4.5, 5.5 ], "texture": "#texture" },
				"east": { "uv": [ 11.5, 1.5, 15, 5.5 ], "texture": "#texture" }
			}
		},
		{
			"__comment": "Box3",
			"from": [ 16, 9.5, 0 ],
			"to": [ 18, 10.5, 16 ],
			"faces": {
				"down": { "uv": [ 0, 14, 16, 16 ], "texture": "#texture", "rotation": 270 },
				"up": { "uv": [ 0, 0, 16, 2 ], "texture": "#texture", "rotation": 90 },
				"north": { "uv": [ 0, 5.5, 2, 6.5 ], "texture": "#texture" },
				"south": { "uv": [ 14, 5.5, 16, 6.5 ], "texture": "#texture" },
				"west": { "uv": [ 0, 5.5, 16, 6.5 ], "texture": "#texture" },
				"east": { "uv": [ 0, 5.5, 16, 6.5 ], "texture": "#texture" }
			}
		},
		{
			"__comment": "Box2",
			"from": [ 15, 8.5, -4.5 ],
			"to": [ 20.5, 14.5, 1 ],
			"faces": {
				"down": { "uv": [ 10.5, 10.5, 16, 16 ], "texture": "#texture1", "rotation": 270 },
				"up": { "uv": [ 10.5, 0, 16, 5.5 ], "texture": "#texture1", "rotation": 90 },
				"north": { "uv": [ 5.5, 0, 11, 6 ], "texture": "#texture2" },
				"south": { "uv": [ 0, 0, 5.5, 6 ], "texture": "#texture2" },
				"west": { "uv": [ 5.5, 0, 11, 6 ], "texture": "#texture2" },
				"east": { "uv": [ 0, 0, 5.5, 6 ], "texture": "#texture2" }
			}
		},
		{
			"__comment": "Box3",
			"from": [ 13.8647, 10.491, 7.1734 ],
			"to": [ 17.3647, 14.491, 15.6734 ],
			"rotation": { "origin": [ 17.5, 10.5, 7.5 ], "axis": "y", "angle": 22.5 },
			"faces": {
				"down": { "uv": [ 7.5, 9, 16, 12.5 ], "texture": "#texture1", "rotation": 270 },
				"up": { "uv": [ 7.5, 3.5, 16, 7 ], "texture": "#texture1", "rotation": 90 },
				"north": { "uv": [ 3.5, 1.51, 7, 5.51 ], "texture": "#texture" },
				"south": { "uv": [ 9, 1.51, 12.5, 5.51 ], "texture": "#texture" },
				"west": { "uv": [ 7.5, 1.51, 16, 5.51 ], "texture": "#texture" },
				"east": { "uv": [ 0, 1.51, 8.5, 5.51 ], "texture": "#texture" }
			}
		},
		{
			"__comment": "Box3",
			"from": [ 16, 0, 0 ],
			"to": [ 16.5, 1, 16 ],
			"faces": {
				"down": { "uv": [ 0, 15.5, 16, 16 ], "texture": "#texture", "rotation": 270 },
				"up": { "uv": [ 0, 0, 16, 0.5 ], "texture": "#texture", "rotation": 90 },
				"north": { "uv": [ 0, 15, 0.5, 16 ], "texture": "#texture" },
				"south": { "uv": [ 15.5, 15, 16, 16 ], "texture": "#texture" },
				"west": { "uv": [ 0, 15, 16, 16 ], "texture": "#texture" },
				"east": { "uv": [ 0, 15, 16, 16 ], "texture": "#texture" }
			}
		},
		{
			"__comment": "Box3",
			"from": [ 16, 6.5, 0 ],
			"to": [ 16.5, 8, 16 ],
			"faces": {
				"down": { "uv": [ 0, 15.5, 16, 16 ], "texture": "#texture", "rotation": 270 },
				"up": { "uv": [ 0, 0, 16, 0.5 ], "texture": "#texture", "rotation": 90 },
				"north": { "uv": [ 0, 8, 0.5, 9.5 ], "texture": "#texture" },
				"south": { "uv": [ 15.5, 8, 16, 9.5 ], "texture": "#texture" },
				"west": { "uv": [ 0, 8, 16, 9.5 ], "texture": "#texture" },
				"east": { "uv": [ 0, 8, 16, 9.5 ], "texture": "#texture" }
			}
		},
		{
			"__comment": "Box3",
			"from": [ 16, 8, 0 ],
			"to": [ 17.5, 9.5, 16 ],
			"faces": {
				"down": { "uv": [ 0, 14.5, 16, 16 ], "texture": "#texture", "rotation": 270 },
				"up": { "uv": [ 0, 0, 16, 1.5 ], "texture": "#texture", "rotation": 90 },
				"north": { "uv": [ 0, 6.5, 1.5, 8 ], "texture": "#texture" },
				"south": { "uv": [ 14.5, 6.5, 16, 8 ], "texture": "#texture" },
				"west": { "uv": [ 0, 6.5, 16, 8 ], "texture": "#texture" },
				"east": { "uv": [ 0, 6.5, 16, 8 ], "texture": "#texture" }
			}
		},
		{
			"__comment": "Box3",
			"from": [ 16, 8, -1.5 ],
			"to": [ 17.5, 8.5, 0 ],
			"faces": {
				"down": { "uv": [ 9.536743E-07, 0, 1.500001, 1.5 ], "texture": "#texture1", "rotation": 180 },
				"up": { "uv": [ 9.536743E-07, 14.5, 1.500001, 16 ], "texture": "#texture1", "rotation": 180 },
				"north": { "uv": [ 9.536743E-07, 7.5, 1.500001, 8 ], "texture": "#texture" },
				"south": { "uv": [ 14.5, 7.5, 16, 8 ], "texture": "#texture" },
				"west": { "uv": [ 0, 7.5, 1.5, 8 ], "texture": "#texture" },
				"east": { "uv": [ 14.5, 7.5, 16, 8 ], "texture": "#texture" }
			}
		},
		{
			"__comment": "Box3",
			"from": [ 17, 10.49, 1 ],
			"to": [ 20.5, 14.49, 9.5 ],
			"rotation": { "origin": [ 20.5, 10.5, 0.9999995 ], "axis": "y", "angle": -22.5 },
			"faces": {
				"down": { "uv": [ 0, 11.5, 8.5, 15 ], "texture": "#texture1", "rotation": 270 },
				"up": { "uv": [ 0, 1, 8.5, 4.5 ], "texture": "#texture1", "rotation": 90 },
				"north": { "uv": [ 1, 1.5, 4.5, 5.5 ], "texture": "#texture" },
				"south": { "uv": [ 11.5, 1.5, 15, 5.5 ], "texture": "#texture" },
				"west": { "uv": [ 0, 1.5, 8.5, 5.5 ], "texture": "#texture" },
				"east": { "uv": [ 7.5, 1.5, 16, 5.5 ], "texture": "#texture" }
			}
		},
		{
			"__comment": "Box3",
			"from": [ 0, 9.5, 16 ],
			"to": [ 16, 10.5, 18 ],
			"faces": {
				"down": { "uv": [ 0, 14, 16, 16 ], "texture": "#texture", "rotation": 180 },
				"up": { "uv": [ 0, 0, 16, 2 ], "texture": "#texture", "rotation": 180 },
				"north": { "uv": [ 0, 5.5, 16, 6.5 ], "texture": "#texture" },
				"south": { "uv": [ 0, 5.5, 16, 6.5 ], "texture": "#texture" },
				"west": { "uv": [ 14, 5.5, 16, 6.5 ], "texture": "#texture" },
				"east": { "uv": [ 0, 5.5, 2, 6.5 ], "texture": "#texture" }
			}
		},
		{
			"__comment": "Box2",
			"from": [ 15, 8.5, 15 ],
			"to": [ 20.5, 14.5, 20.5 ],
			"faces": {
				"down": { "uv": [ 10.5, 10.5, 16, 16 ], "texture": "#texture1", "rotation": 180 },
				"up": { "uv": [ 10.5, 0, 16, 5.5 ], "texture": "#texture1", "rotation": 180 },
				"north": { "uv": [ 5.5, 0, 11, 6 ], "texture": "#texture2" },
				"south": { "uv": [ 0, 0, 5.5, 6 ], "texture": "#texture2" },
				"west": { "uv": [ 0, 0, 5.5, 6 ], "texture": "#texture2" },
				"east": { "uv": [ 5.5, 0, 11, 6 ], "texture": "#texture2" }
			}
		},
		{
			"__comment": "Box3",
			"from": [ 0.3266, 10.491, 13.8647 ],
			"to": [ 8.8266, 14.491, 17.3647 ],
			"rotation": { "origin": [ 8.500001, 10.5, 17.5 ], "axis": "y", "angle": 22.5 },
			"faces": {
				"down": { "uv": [ 7.5, 9, 16, 12.5 ], "texture": "#texture1", "rotation": 180 },
				"up": { "uv": [ 7.5, 3.5, 16, 7 ], "texture": "#texture1", "rotation": 180 },
				"north": { "uv": [ 7.5, 1.51, 16, 5.51 ], "texture": "#texture" },
				"south": { "uv": [ 0, 1.51, 8.5, 5.51 ], "texture": "#texture" },
				"west": { "uv": [ 9, 1.51, 12.5, 5.51 ], "texture": "#texture" },
				"east": { "uv": [ 3.5, 1.51, 7, 5.51 ], "texture": "#texture" }
			}
		},
		{
			"__comment": "Box3",
			"from": [ 0, 0, 16 ],
			"to": [ 16, 1, 16.5 ],
			"faces": {
				"down": { "uv": [ 0, 15.5, 16, 16 ], "texture": "#texture", "rotation": 180 },
				"up": { "uv": [ 0, 0, 16, 0.5 ], "texture": "#texture", "rotation": 180 },
				"north": { "uv": [ 0, 15, 16, 16 ], "texture": "#texture" },
				"south": { "uv": [ 0, 15, 16, 16 ], "texture": "#texture" },
				"west": { "uv": [ 15.5, 15, 16, 16 ], "texture": "#texture" },
				"east": { "uv": [ 0, 15, 0.5, 16 ], "texture": "#texture" }
			}
		},
		{
			"__comment": "Box3",
			"from": [ 0, 6.5, 16 ],
			"to": [ 16, 8, 16.5 ],
			"faces": {
				"down": { "uv": [ 0, 15.5, 16, 16 ], "texture": "#texture", "rotation": 180 },
				"up": { "uv": [ 0, 0, 16, 0.5 ], "texture": "#texture", "rotation": 180 },
				"north": { "uv": [ 0, 8, 16, 9.5 ], "texture": "#texture" },
				"south": { "uv": [ 0, 8, 16, 9.5 ], "texture": "#texture" },
				"west": { "uv": [ 15.5, 8, 16, 9.5 ], "texture": "#texture" },
				"east": { "uv": [ 0, 8, 0.5, 9.5 ], "texture": "#texture" }
			}
		},
		{
			"__comment": "Box3",
			"from": [ 0, 8, 16 ],
			"to": [ 16, 9.5, 17.5 ],
			"faces": {
				"down": { "uv": [ 0, 14.5, 16, 16 ], "texture": "#texture", "rotation": 180 },
				"up": { "uv": [ 0, 0, 16, 1.5 ], "texture": "#texture", "rotation": 180 },
				"north": { "uv": [ 0, 6.5, 16, 8 ], "texture": "#texture" },
				"south": { "uv": [ 0, 6.5, 16, 8 ], "texture": "#texture" },
				"west": { "uv": [ 14.5, 6.5, 16, 8 ], "texture": "#texture" },
				"east": { "uv": [ 0, 6.5, 1.5, 8 ], "texture": "#texture" }
			}
		},
		{
			"__comment": "Box3",
			"from": [ 0, 14.5, 16 ],
			"to": [ 16, 16, 20 ],
			"faces": {
				"down": { "uv": [ 0, 12, 16, 16 ], "texture": "#texture1", "rotation": 180 },
				"up": { "uv": [ 0, 0, 16, 4 ], "texture": "#texture1", "rotation": 180 },
				"north": { "uv": [ 0, 0, 16, 1.5 ], "texture": "#texture" },
				"south": { "uv": [ 0, 0, 16, 1.5 ], "texture": "#texture" },
				"west": { "uv": [ 12, 0, 16, 1.5 ], "texture": "#texture" },
				"east": { "uv": [ 0, 0, 4, 1.5 ], "texture": "#texture" }
			}
		},
		{
			"__comment": "Box3",
			"from": [ 6.5, 10.49, 17 ],
			"to": [ 15, 14.49, 20.5 ],
			"rotation": { "origin": [ 15, 10.5, 20.5 ], "axis": "y", "angle": -22.5 },
			"faces": {
				"down": { "uv": [ 0, 11.5, 8.5, 15 ], "texture": "#texture1", "rotation": 180 },
				"up": { "uv": [ 0, 1, 8.5, 4.5 ], "texture": "#texture1", "rotation": 180 },
				"north": { "uv": [ 0, 1.5, 8.5, 5.5 ], "texture": "#texture" },
				"south": { "uv": [ 7.5, 1.5, 16, 5.5 ], "texture": "#texture" },
				"west": { "uv": [ 11.5, 1.5, 15, 5.5 ], "texture": "#texture" },
				"east": { "uv": [ 1, 1.5, 4.5, 5.5 ], "texture": "#texture" }
			}
		},
		{
			"__comment": "Box3",
			"from": [ 16, 14.5, 0 ],
			"to": [ 20, 16, 16 ],
			"faces": {
				"down": { "uv": [ 0, 12, 16, 16 ], "texture": "#texture1", "rotation": 270 },
				"up": { "uv": [ 0, 0, 16, 4 ], "texture": "#texture1", "rotation": 90 },
				"north": { "uv": [ 0, 0, 4, 1.5 ], "texture": "#texture" },
				"south": { "uv": [ 12, 0, 16, 1.5 ], "texture": "#texture" },
				"west": { "uv": [ 0, 0, 16, 1.5 ], "texture": "#texture" },
				"east": { "uv": [ 0, 0, 16, 1.5 ], "texture": "#texture" }
			}
		},
		{
			"__comment": "Box3",
			"from": [ 16, 14.5, -4 ],
			"to": [ 20, 16, 0 ],
			"faces": {
				"down": { "uv": [ 0.499999, 12, 4.499999, 16 ], "texture": "#texture1", "rotation": 90 },
				"up": { "uv": [ 0.499999, 0, 4.499999, 4 ], "texture": "#texture1", "rotation": 270 },
				"north": { "uv": [ 12, 0, 16, 1.5 ], "texture": "#texture" },
				"south": { "uv": [ 0, 0, 4, 1.5 ], "texture": "#texture" },
				"west": { "uv": [ 11.5, 0, 15.5, 1.5 ], "texture": "#texture" },
				"east": { "uv": [ 0.499999, 0, 4.499999, 1.5 ], "texture": "#texture" }
			}
		},
		{
			"__comment": "Box3",
			"from": [ 16, 14.5, 16 ],
			"to": [ 20, 16, 20 ],
			"faces": {
				"down": { "uv": [ 0.499999, 12, 4.499999, 16 ], "texture": "#texture1" },
				"up": { "uv": [ 0.499999, 0, 4.499999, 4 ], "texture": "#texture1" },
				"north": { "uv": [ 11.5, 0, 15.5, 1.5 ], "texture": "#texture" },
				"south": { "uv": [ 0.499999, 0, 4.499999, 1.5 ], "texture": "#texture" },
				"west": { "uv": [ 0, 0, 4, 1.5 ], "texture": "#texture" },
				"east": { "uv": [ 12, 0, 16, 1.5 ], "texture": "#texture" }
			}
		},
		{
			"__comment": "Box3",
			"from": [ -4, 14.5, 16 ],
			"to": [ 0, 16, 20 ],
			"faces": {
				"down": { "uv": [ 0.499999, 12, 4.499999, 16 ], "texture": "#texture1", "rotation": 270 },
				"up": { "uv": [ 0.499999, 0, 4.499999, 4 ], "texture": "#texture1", "rotation": 90 },
				"north": { "uv": [ 0, 0, 4, 1.5 ], "texture": "#texture" },
				"south": { "uv": [ 12, 0, 16, 1.5 ], "texture": "#texture" },
				"west": { "uv": [ 0.499999, 0, 4.499999, 1.5 ], "texture": "#texture" },
				"east": { "uv": [ 11.5, 0, 15.5, 1.5 ], "texture": "#texture" }
			}
		},
		{
			"__comment": "Box3",
			"from": [ -4, 14.5, -4 ],
			"to": [ 0, 16, 0 ],
			"faces": {
				"down": { "uv": [ 0.499999, 12, 4.499999, 16 ], "texture": "#texture1", "rotation": 180 },
				"up": { "uv": [ 0.499999, 0, 4.499999, 4 ], "texture": "#texture1", "rotation": 180 },
				"north": { "uv": [ 0.499999, 0, 4.499999, 1.5 ], "texture": "#texture" },
				"south": { "uv": [ 11.5, 0, 15.5, 1.5 ], "texture": "#texture" },
				"west": { "uv": [ 12, 0, 16, 1.5 ], "texture": "#texture" },
				"east": { "uv": [ 0, 0, 4, 1.5 ], "texture": "#texture" }
			}
		},
		{
			"__comment": "Box3",
			"from": [ 16, 8, 16 ],
			"to": [ 17.5, 8.5, 17.5 ],
			"faces": {
				"down": { "uv": [ 14.5, 0, 16, 1.5 ], "texture": "#texture1" },
				"up": { "uv": [ 14.5, 14.5, 16, 16 ], "texture": "#texture1" },
				"north": { "uv": [ 0, 7.5, 1.5, 8 ], "texture": "#texture" },
				"south": { "uv": [ 14.5, 7.5, 16, 8 ], "texture": "#texture" },
				"west": { "uv": [ 14.5, 7.5, 16, 8 ], "texture": "#texture" },
				"east": { "uv": [ 0, 7.5, 1.5, 8 ], "texture": "#texture" }
			}
		},
		{
			"__comment": "Box3",
			"from": [ -1.5, 8, 16 ],
			"to": [ 0, 8.5, 17.5 ],
			"faces": {
				"down": { "uv": [ 9.536743E-07, 0, 1.500001, 1.5 ], "texture": "#texture1" },
				"up": { "uv": [ 9.536743E-07, 14.5, 1.500001, 16 ], "texture": "#texture1" },
				"north": { "uv": [ 14.5, 7.5, 16, 8 ], "texture": "#texture" },
				"south": { "uv": [ 9.536743E-07, 7.5, 1.500001, 8 ], "texture": "#texture" },
				"west": { "uv": [ 14.5, 7.5, 16, 8 ], "texture": "#texture" },
				"east": { "uv": [ 0, 7.5, 1.5, 8 ], "texture": "#texture" }
			}
		},
		{
			"__comment": "Box3",
			"from": [ -1.5, 8, -1.5 ],
			"to": [ 0, 8.5, 0 ],
			"faces": {
				"down": { "uv": [ 9.536743E-07, 0, 1.500001, 1.5 ], "texture": "#texture1", "rotation": 270 },
				"up": { "uv": [ 9.536743E-07, 14.5, 1.500001, 16 ], "texture": "#texture1", "rotation": 90 },
				"north": { "uv": [ 14.5, 7.5, 16, 8 ], "texture": "#texture" },
				"south": { "uv": [ 0, 7.5, 1.5, 8 ], "texture": "#texture" },
				"west": { "uv": [ 9.536743E-07, 7.5, 1.500001, 8 ], "texture": "#texture" },
				"east": { "uv": [ 14.5, 7.5, 16, 8 ], "texture": "#texture" }
			}
		}
	]
}