{
	"__comment": "Designed by RomanCapitalist with Cubik Studio - https://cubik.studio",
	"parent": "block/block",
	"textures": {
		"particle": "conquest:blocks/roman_corinthian_capital",
		"side": "conquest:blocks/roman_corinthian_capital",
		"up": "conquest:blocks/roman_capital_marble_top",
		"down": "conquest:blocks/roman_capital_marble_top"
	},
	"elements": [ 	 
		{
			"from": [ 4.000942, -0.0009075552, 0.0009818432 ],
			"to": [ 12.00094, 15.99909, 16.00098 ],
			"faces": {
				"down": { "uv": [ 4, 0, 12, 16 ], "texture": "#down" },
				"up": { "uv": [ 4, 0, 12, 16 ], "texture": "#up" },
				"north": { "uv": [ 4, 0, 12, 16 ], "texture": "#side" },
				"south": { "uv": [ 4, 0, 12, 16 ], "texture": "#side" },
				"west": { "uv": [ 0, 0, 16, 16 ], "texture": "#side" },
				"east": { "uv": [ 0, 0, 16, 16 ], "texture": "#side" }
			}
		},
		{
			"__comment": "Box10",
			"from": [ 10.001, 1.0001, 11.00093 ],
			"to": [ 11.501, 5.0001, 12.00093 ],
			"rotation": { "origin": [ 10, 1, 12 ], "axis": "z", "angle": -22.5 },
			"faces": {
				"north": { "uv": [ 1.5, 11, 3, 15 ], "texture": "#side" },
				"south": { "uv": [ 13, 11, 14.5, 15 ], "texture": "#side" },
				"east": { "uv": [ 4, 11, 5, 15 ], "texture": "#side" }
			}
		},
		{
			"__comment": "Box10",
			"from": [ 11.99901, 14.9998, 0.0003534608 ],
			"to": [ 13.99901, 15.9998, 16.00035 ],
			"faces": {
				"down": { "uv": [ 0, 0, 16, 1.5 ], "texture": "#down", "rotation": 90 },
				"up": { "uv": [ 0, 14.5, 16, 16 ], "texture": "#down", "rotation": 270 },
				"north": { "uv": [ 0, 0, 1.5, 1 ], "texture": "#side" },
				"south": { "uv": [ 14.5, 0, 16, 1 ], "texture": "#side" },
				"east": { "uv": [ 0, 0, 16, 1 ], "texture": "#side" }
			}
		},
		{
			"__comment": "Box10",
			"from": [ 12.00058, 14.00098, 8.999942 ],
			"to": [ 14.50058, 15.50098, 9.499942 ],
			"faces": {
				"down": { "uv": [ 6.5, 0, 7, 1.5 ], "texture": "#side", "rotation": 90 },
				"up": { "uv": [ 6.5, 14.5, 7, 16 ], "texture": "#side", "rotation": 270 },
				"south": { "uv": [ 14.5, 0.5, 16, 2 ], "texture": "#side" },
				"east": { "uv": [ 6.5, 0.5, 7, 2 ], "texture": "#side" }
			}
		},
		{
			"__comment": "Box10",
			"from": [ 11.9999, 14.00086, 6.499732 ],
			"to": [ 14.4999, 15.50086, 6.999732 ],
			"faces": {
				"down": { "uv": [ 9, 0, 9.5, 1.5 ], "texture": "#side", "rotation": 90 },
				"up": { "uv": [ 9, 14.5, 9.5, 16 ], "texture": "#side", "rotation": 270 },
				"north": { "uv": [ 0, 0.5, 1.5, 2 ], "texture": "#side" },
				"east": { "uv": [ 9, 0.5, 9.5, 2 ], "texture": "#side" }
			}
		},
		{
			"__comment": "Box10",
			"from": [ 12.0003, 3.999296, 3.49917 ],
			"to": [ 13.0003, 4.999296, 5.49917 ],
			"faces": {
				"down": { "uv": [ 10.5, 0, 12.5, 1 ], "texture": "#side", "rotation": 90 },
				"up": { "uv": [ 10.5, 15, 12.5, 16 ], "texture": "#side", "rotation": 270 },
				"north": { "uv": [ 0, 11, 1, 12 ], "texture": "#side" },
				"south": { "uv": [ 15, 11, 16, 12 ], "texture": "#side" },
				"east": { "uv": [ 10.5, 11, 12.5, 12 ], "texture": "#side" }
			}
		},
		{
			"__comment": "Box10",
			"from": [ 12.00092, 7.499901, 6.999941 ],
			"to": [ 13.50092, 8.499901, 8.999941 ],
			"faces": {
				"down": { "uv": [ 7, 0, 9, 1.5 ], "texture": "#side", "rotation": 90 },
				"up": { "uv": [ 7, 7.5, 9, 9 ], "texture": "#side", "rotation": 270 },
				"north": { "uv": [ 7, 7.5, 8.5, 8.5 ], "texture": "#side" },
				"south": { "uv": [ 7.5, 7.5, 9, 8.5 ], "texture": "#side" },
				"east": { "uv": [ 7, 7.5, 9, 8.5 ], "texture": "#side" }
			}
		},
		{
			"__comment": "Box10",
			"from": [ 10.49954, 7.499721, 0.009206455 ],
			"to": [ 11.99954, 11.49972, 3.009207 ],
			"rotation": { "origin": [ 10.5, 7.5, 3.000001 ], "axis": "z", "angle": -22.5 },
			"faces": {
				"north": { "uv": [ 1.5, 4.5, 3, 8.5 ], "texture": "#side" },
				"south": { "uv": [ 13, 4.5, 14.5, 8.5 ], "texture": "#side" },
				"east": { "uv": [ 13, 4.5, 16, 8.5 ], "texture": "#side" }
			}
		},
		{
			"__comment": "Box10",
			"from": [ 11.99936, 7.500448, 0.5004777 ],
			"to": [ 13.49936, 8.500448, 2.500478 ],
			"faces": {
				"down": { "uv": [ 13.5, 0, 15.5, 1.5 ], "texture": "#side", "rotation": 90 },
				"up": { "uv": [ 13.5, 14.5, 15.5, 16 ], "texture": "#side", "rotation": 270 },
				"north": { "uv": [ 0, 7.5, 1.5, 8.5 ], "texture": "#side" },
				"south": { "uv": [ 14.5, 7.5, 16, 8.5 ], "texture": "#side" },
				"east": { "uv": [ 13.5, 7.5, 15.5, 8.5 ], "texture": "#side" }
			}
		},
		{
			"__comment": "Box10",
			"from": [ 11.99959, 4.000602, 10.49905 ],
			"to": [ 12.99959, 5.000602, 12.49905 ],
			"faces": {
				"down": { "uv": [ 3.5, 0, 5.5, 1 ], "texture": "#side", "rotation": 90 },
				"up": { "uv": [ 3.5, 15, 5.5, 16 ], "texture": "#side", "rotation": 270 },
				"north": { "uv": [ 0, 11, 1, 12 ], "texture": "#side" },
				"south": { "uv": [ 15, 11, 16, 12 ], "texture": "#side" },
				"east": { "uv": [ 3.5, 11, 5.5, 12 ], "texture": "#side" }
			}
		},
		{
			"__comment": "Box10",
			"from": [ 11.99934, 7.500509, 13.49975 ],
			"to": [ 13.49934, 8.500509, 15.49975 ],
			"faces": {
				"down": { "uv": [ 0.5, 0, 2.5, 1.5 ], "texture": "#side", "rotation": 90 },
				"up": { "uv": [ 0.5, 14.5, 2.5, 16 ], "texture": "#side", "rotation": 270 },
				"north": { "uv": [ 0, 7.5, 1.5, 8.5 ], "texture": "#side" },
				"south": { "uv": [ 14.5, 7.5, 16, 8.5 ], "texture": "#side" },
				"east": { "uv": [ 0.5, 7.5, 2.5, 8.5 ], "texture": "#side" }
			}
		},
		{
			"__comment": "Box10",
			"from": [ 11.99965, 13.50018, 0.0002864501 ],
			"to": [ 13.49965, 15.00018, 16.00029 ],
			"faces": {
				"down": { "uv": [ 0, 0, 16, 1.5 ], "texture": "#up", "rotation": 90 },
				"north": { "uv": [ 0, 1, 1.5, 2.5 ], "texture": "#side" },
				"south": { "uv": [ 14.5, 1, 16, 2.5 ], "texture": "#side" },
				"east": { "uv": [ 0, 1, 16, 2.5 ], "texture": "#side" }
			}
		},
		{
			"__comment": "Box10",
			"from": [ 11.9993, 13.00054, -0.000929158 ],
			"to": [ 12.9993, 13.50054, 15.99907 ],
			"faces": {
				"down": { "uv": [ 0, 0, 16, 1 ], "texture": "#up", "rotation": 90 },
				"north": { "uv": [ 0, 2.5, 1, 3 ], "texture": "#side" },
				"south": { "uv": [ 15, 2.5, 16, 3 ], "texture": "#side" },
				"east": { "uv": [ 0, 2.5, 16, 3 ], "texture": "#side" }
			}
		},
		{
			"__comment": "Box10",
			"from": [ 10.00018, 10.00951, 1.500591 ],
			"to": [ 12.00018, 12.98951, 7.000591 ],
			"rotation": { "origin": [ 9.999999, 10, 7.000001 ], "axis": "y", "angle": -22.5 },
			"faces": {
				"down": { "uv": [ 9, 2, 14.5, 4 ], "texture": "#side", "rotation": 90 },
				"up": { "uv": [ 9, 12, 14.5, 14 ], "texture": "#side", "rotation": 270 },
				"east": { "uv": [ 8, 3, 13.5, 6 ], "texture": "#side" }
			}
		},
		{
			"__comment": "Box10",
			"from": [ 12.49922, 13.49045, 6.999533 ],
			"to": [ 14.49922, 15.98545, 8.999533 ],
			"faces": {
				"down": { "uv": [ 7, 0, 9, 2 ], "texture": "#side", "rotation": 90 },
				"up": { "uv": [ 7, 14, 9, 16 ], "texture": "#side", "rotation": 270 },
				"north": { "uv": [ 0, 0, 2, 2.5 ], "texture": "#side" },
				"south": { "uv": [ 14, 0, 16, 2.5 ], "texture": "#side" },
				"east": { "uv": [ 7, 0, 9, 2.5 ], "texture": "#side" }
			}
		},
		{
			"__comment": "Box10",
			"from": [ 12.00085, 10.00032, -0.0008561485 ],
			"to": [ 14.00085, 13.00032, 3.499144 ],
			"faces": {
				"down": { "uv": [ 12.5, 0, 16, 2 ], "texture": "#side", "rotation": 90 },
				"up": { "uv": [ 12.5, 14, 16, 16 ], "texture": "#side", "rotation": 270 },
				"north": { "uv": [ 0, 3, 2, 6 ], "texture": "#side" },
				"south": { "uv": [ 14, 3, 16, 6 ], "texture": "#side" },
				"east": { "uv": [ 12.5, 3, 16, 6 ], "texture": "#side" }
			}
		},
		{
			"__comment": "Box10",
			"from": [ 12.00044, 10.00032, 12.49994 ],
			"to": [ 14.00044, 13.00032, 15.99994 ],
			"faces": {
				"down": { "uv": [ 0, 0, 3.5, 2 ], "texture": "#side", "rotation": 90 },
				"up": { "uv": [ 0, 14, 3.5, 16 ], "texture": "#side", "rotation": 270 },
				"north": { "uv": [ 0, 3, 2, 6 ], "texture": "#side" },
				"south": { "uv": [ 14, 3, 16, 6 ], "texture": "#side" },
				"east": { "uv": [ 0, 3, 3.5, 6 ], "texture": "#side" }
			}
		},
		{
			"__comment": "Box10",
			"from": [ 11.99902, 10.01035, 7.999907 ],
			"to": [ 13.99902, 12.99035, 13.49991 ],
			"rotation": { "origin": [ 12, 10, 13.5 ], "axis": "y", "angle": 22.5 },
			"faces": {
				"down": { "uv": [ 2.5, 0, 8, 1.5 ], "texture": "#side", "rotation": 90 },
				"up": { "uv": [ 2.5, 14.5, 8, 16 ], "texture": "#side", "rotation": 270 },
				"east": { "uv": [ 2.5, 3, 8, 6 ], "texture": "#side" }
			}
		},
		{
			"__comment": "Box10",
			"from": [ 9.999414, 4.499697, 1.000726 ],
			"to": [ 11.49941, 8.499697, 2.000726 ],
			"rotation": { "origin": [ 9.999998, 4.5, 2.000001 ], "axis": "z", "angle": -22.5 },
			"faces": {
				"north": { "uv": [ 1.5, 7.5, 3, 11.5 ], "texture": "#side" },
				"south": { "uv": [ 13, 7.5, 14.5, 11.5 ], "texture": "#side" },
				"east": { "uv": [ 14, 7.5, 15, 11.5 ], "texture": "#side" }
			}
		},
		{
			"__comment": "Box10",
			"from": [ 10.00087, 0.9997494, 4.000669 ],
			"to": [ 11.50087, 4.999749, 5.000669 ],
			"rotation": { "origin": [ 9.999999, 1, 5.000001 ], "axis": "z", "angle": -22.5 },
			"faces": {
				"north": { "uv": [ 1.5, 11, 3, 15 ], "texture": "#side" },
				"south": { "uv": [ 13, 11, 14.5, 15 ], "texture": "#side" },
				"east": { "uv": [ 11, 11, 12, 15 ], "texture": "#side" }
			}
		},
		{
			"__comment": "Box10",
			"from": [ 10.49915, 7.49918, 12.9891 ],
			"to": [ 11.99915, 11.49918, 15.9891 ],
			"rotation": { "origin": [ 10.5, 7.5, 16 ], "axis": "z", "angle": -22.5 },
			"faces": {
				"north": { "uv": [ 1.5, 4.5, 3, 8.5 ], "texture": "#side" },
				"south": { "uv": [ 13, 4.5, 14.5, 8.5 ], "texture": "#side" },
				"east": { "uv": [ 0, 4.5, 3, 8.5 ], "texture": "#side" }
			}
		},
		{
			"__comment": "Box10",
			"from": [ 9.999909, 4.499475, 14.00035 ],
			"to": [ 11.49991, 8.499475, 15.00035 ],
			"rotation": { "origin": [ 10, 4.5, 15 ], "axis": "z", "angle": -22.5 },
			"faces": {
				"north": { "uv": [ 1.5, 7.5, 3, 11.5 ], "texture": "#side" },
				"south": { "uv": [ 13, 7.5, 14.5, 11.5 ], "texture": "#side" },
				"east": { "uv": [ 1, 7.5, 2, 11.5 ], "texture": "#side" }
			}
		},
		{
			"__comment": "Box10",
			"from": [ 9.999576, 4.499029, 7.500802 ],
			"to": [ 11.49958, 8.499029, 8.500802 ],
			"rotation": { "origin": [ 9.999999, 4.5, 8.5 ], "axis": "z", "angle": -22.5 },
			"faces": {
				"north": { "uv": [ 1.5, 7.5, 3, 11.5 ], "texture": "#side" },
				"south": { "uv": [ 13, 7.5, 14.5, 11.5 ], "texture": "#side" },
				"east": { "uv": [ 7.5, 7.5, 8.5, 11.5 ], "texture": "#side" }
			}
		},
		{
			"__comment": "Box2",
			"from": [ 12.00072, 0.0003374572, -0.0003785244 ],
			"to": [ 12.50072, 1.500337, 15.99962 ],
			"faces": {
				"down": { "uv": [ 0, 1.907349E-06, 16, 0.5000019 ], "texture": "#up", "rotation": 90 },
				"up": { "uv": [ 0, 15.5, 16, 16 ], "texture": "#up", "rotation": 270 },
				"north": { "uv": [ 1.907349E-06, 14.5, 0.5000019, 16 ], "texture": "#side" },
				"south": { "uv": [ 15.5, 14.5, 16, 16 ], "texture": "#side" },
				"east": { "uv": [ 0, 14.5, 16, 16 ], "texture": "#side" }
			}
		},
		{
			"__comment": "Box10",
			"from": [ 4.49959, 1.000176, 4.000103 ],
			"to": [ 5.99959, 5.000175, 5.000103 ],
			"rotation": { "origin": [ 5.999999, 1, 4.000002 ], "axis": "z", "angle": 22.5 },
			"faces": {
				"north": { "uv": [ 13, 11, 14.5, 15 ], "texture": "#side" },
				"south": { "uv": [ 1.5, 11, 3, 15 ], "texture": "#side" },
				"west": { "uv": [ 4, 11, 5, 15 ], "texture": "#side" }
			}
		},
		{
			"__comment": "Box10",
			"from": [ 2.000411, 14.99959, -0.0007455879 ],
			"to": [ 4.000411, 15.99959, 15.99925 ],
			"faces": {
				"down": { "uv": [ 0, 0, 16, 1.5 ], "texture": "#down", "rotation": 270 },
				"up": { "uv": [ 0, 14.5, 16, 16 ], "texture": "#down", "rotation": 90 },
				"north": { "uv": [ 14.5, 0, 16, 1 ], "texture": "#side" },
				"south": { "uv": [ 0, 0, 1.5, 1 ], "texture": "#side" },
				"west": { "uv": [ 0, 0, 16, 1 ], "texture": "#side" }
			}
		},
		{
			"__comment": "Box10",
			"from": [ 1.500111, 13.99975, 6.500372 ],
			"to": [ 4.000111, 15.49975, 7.000372 ],
			"faces": {
				"down": { "uv": [ 6.5, 0, 7, 1.5 ], "texture": "#side", "rotation": 270 },
				"up": { "uv": [ 6.5, 14.5, 7, 16 ], "texture": "#side", "rotation": 90 },
				"north": { "uv": [ 14.5, 0.5, 16, 2 ], "texture": "#side" },
				"south": { "uv": [ 0, 0.5, 1.5, 2 ], "texture": "#side" },
				"west": { "uv": [ 6.5, 0.5, 7, 2 ], "texture": "#side" }
			}
		},
		{
			"__comment": "Box10",
			"from": [ 1.499588, 13.99929, 9.000542 ],
			"to": [ 3.999588, 15.49929, 9.500542 ],
			"faces": {
				"down": { "uv": [ 9, 0, 9.5, 1.5 ], "texture": "#side", "rotation": 270 },
				"up": { "uv": [ 9, 14.5, 9.5, 16 ], "texture": "#side", "rotation": 90 },
				"north": { "uv": [ 14.5, 0.5, 16, 2 ], "texture": "#side" },
				"south": { "uv": [ 0, 0.5, 1.5, 2 ], "texture": "#side" },
				"west": { "uv": [ 9, 0.5, 9.5, 2 ], "texture": "#side" }
			}
		},
		{
			"__comment": "Box10",
			"from": [ 3.000578, 4.000604, 10.50053 ],
			"to": [ 4.000578, 5.000604, 12.50053 ],
			"faces": {
				"down": { "uv": [ 10.5, 0, 12.5, 1 ], "texture": "#side", "rotation": 270 },
				"up": { "uv": [ 10.5, 15, 12.5, 16 ], "texture": "#side", "rotation": 90 },
				"north": { "uv": [ 15, 11, 16, 12 ], "texture": "#side" },
				"south": { "uv": [ 0, 11, 1, 12 ], "texture": "#side" },
				"west": { "uv": [ 10.5, 11, 12.5, 12 ], "texture": "#side" }
			}
		},
		{
			"__comment": "Box10",
			"from": [ 3.000425, 7.500147, 0.4999903 ],
			"to": [ 4.500425, 8.500147, 2.49999 ],
			"faces": {
				"down": { "uv": [ 13.5, 7.499999, 15.5, 8.999999 ], "texture": "#side", "rotation": 90 },
				"up": { "uv": [ 13.5, 7.000001, 15.5, 8.500001 ], "texture": "#side", "rotation": 270 },
				"north": { "uv": [ 7.499999, 7.5, 8.999999, 8.5 ], "texture": "#side" },
				"south": { "uv": [ 7.000001, 7.5, 8.500001, 8.5 ], "texture": "#side" },
				"west": { "uv": [ 0.500001, 7.5, 2.500001, 8.5 ], "texture": "#side" }
			}
		},
		{
			"__comment": "Box10",
			"from": [ 4.000162, 7.499934, 12.98913 ],
			"to": [ 5.500162, 11.49993, 15.98913 ],
			"rotation": { "origin": [ 5.5, 7.5, 13 ], "axis": "z", "angle": 22.5 },
			"faces": {
				"north": { "uv": [ 13, 4.5, 14.5, 8.5 ], "texture": "#side" },
				"south": { "uv": [ 1.5, 4.5, 3, 8.5 ], "texture": "#side" },
				"west": { "uv": [ 13, 4.5, 16, 8.5 ], "texture": "#side" }
			}
		},
		{
			"__comment": "Box10",
			"from": [ 2.499881, 7.500037, 13.50079 ],
			"to": [ 3.999881, 8.500036, 15.50079 ],
			"faces": {
				"down": { "uv": [ 13.5, 0, 15.5, 1.5 ], "texture": "#side", "rotation": 270 },
				"up": { "uv": [ 13.5, 14.5, 15.5, 16 ], "texture": "#side", "rotation": 90 },
				"north": { "uv": [ 14.5, 7.5, 16, 8.5 ], "texture": "#side" },
				"south": { "uv": [ 0, 7.5, 1.5, 8.5 ], "texture": "#side" },
				"west": { "uv": [ 13.5, 7.5, 15.5, 8.5 ], "texture": "#side" }
			}
		},
		{
			"__comment": "Box10",
			"from": [ 3.000846, 3.99938, 3.499907 ],
			"to": [ 4.000846, 4.99938, 5.499907 ],
			"faces": {
				"down": { "uv": [ 3.5, 0, 5.5, 1 ], "texture": "#side", "rotation": 270 },
				"up": { "uv": [ 3.5, 15, 5.5, 16 ], "texture": "#side", "rotation": 90 },
				"north": { "uv": [ 15, 11, 16, 12 ], "texture": "#side" },
				"south": { "uv": [ 0, 11, 1, 12 ], "texture": "#side" },
				"west": { "uv": [ 3.5, 11, 5.5, 12 ], "texture": "#side" }
			}
		},
		{
			"__comment": "Box10",
			"from": [ 2.499232, 13.49944, -0.0009118915 ],
			"to": [ 3.999232, 14.99944, 15.99909 ],
			"faces": {
				"down": { "uv": [ 0, 0, 16, 1.5 ], "texture": "#up", "rotation": 270 },
				"north": { "uv": [ 14.5, 1, 16, 2.5 ], "texture": "#side" },
				"south": { "uv": [ 0, 1, 1.5, 2.5 ], "texture": "#side" },
				"west": { "uv": [ 0, 1, 16, 2.5 ], "texture": "#side" }
			}
		},
		{
			"__comment": "Box10",
			"from": [ 3.999861, 10.01066, 9.000076 ],
			"to": [ 5.999861, 12.99067, 14.50008 ],
			"rotation": { "origin": [ 6, 10, 9.000001 ], "axis": "y", "angle": -22.5 },
			"faces": {
				"down": { "uv": [ 9, 2, 14.5, 4 ], "texture": "#side", "rotation": 270 },
				"up": { "uv": [ 9, 12, 14.5, 14 ], "texture": "#side", "rotation": 90 },
				"west": { "uv": [ 8, 3, 13.5, 6 ], "texture": "#side" }
			}
		},
		{
			"__comment": "Box10",
			"from": [ 1.499255, 13.49037, 6.999655 ],
			"to": [ 3.499255, 15.98537, 8.999655 ],
			"faces": {
				"down": { "uv": [ 7, 14, 9, 16 ], "texture": "#side", "rotation": 90 },
				"up": { "uv": [ 7, 0, 9, 2 ], "texture": "#side", "rotation": 270 },
				"north": { "uv": [ 14, 0.01498127, 16, 2.509981 ], "texture": "#side" },
				"south": { "uv": [ 0, 0.01498127, 2, 2.509981 ], "texture": "#side" },
				"west": { "uv": [ 7, 0.01498127, 9, 2.509981 ], "texture": "#side" }
			}
		},
		{
			"__comment": "Box10",
			"from": [ 2.000017, 10.00002, 12.49953 ],
			"to": [ 4.000017, 13.00002, 15.99953 ],
			"faces": {
				"down": { "uv": [ 12.5, 0, 16, 2 ], "texture": "#side", "rotation": 270 },
				"up": { "uv": [ 12.5, 14, 16, 16 ], "texture": "#side", "rotation": 90 },
				"north": { "uv": [ 14, 3, 16, 6 ], "texture": "#side" },
				"south": { "uv": [ 0, 3, 2, 6 ], "texture": "#side" },
				"west": { "uv": [ 12.5, 3, 16, 6 ], "texture": "#side" }
			}
		},
		{
			"__comment": "Box10",
			"from": [ 1.999417, 9.99943, -0.000579566 ],
			"to": [ 3.999417, 12.99943, 3.49942 ],
			"faces": {
				"down": { "uv": [ 0, 0, 3.5, 2 ], "texture": "#side", "rotation": 270 },
				"up": { "uv": [ 0, 14, 3.5, 16 ], "texture": "#side", "rotation": 90 },
				"north": { "uv": [ 14, 3, 16, 6 ], "texture": "#side" },
				"south": { "uv": [ 0, 3, 2, 6 ], "texture": "#side" },
				"west": { "uv": [ 0, 3, 3.5, 6 ], "texture": "#side" }
			}
		},
		{
			"__comment": "Box10",
			"from": [ 2.000594, 10.01036, 2.500956 ],
			"to": [ 4.000594, 12.99036, 8.000956 ],
			"rotation": { "origin": [ 4, 10, 2.500004 ], "axis": "y", "angle": 22.5 },
			"faces": {
				"down": { "uv": [ 2.5, 0, 8, 1.5 ], "texture": "#side", "rotation": 270 },
				"up": { "uv": [ 2.5, 14.5, 8, 16 ], "texture": "#side", "rotation": 90 },
				"west": { "uv": [ 2.5, 3, 8, 6 ], "texture": "#side" }
			}
		},
		{
			"__comment": "Box10",
			"from": [ 4.500035, 4.499754, 13.99964 ],
			"to": [ 6.000035, 8.499754, 14.99964 ],
			"rotation": { "origin": [ 6.000001, 4.5, 14 ], "axis": "z", "angle": 22.5 },
			"faces": {
				"north": { "uv": [ 13, 7.5, 14.5, 11.5 ], "texture": "#side" },
				"south": { "uv": [ 1.5, 7.5, 3, 11.5 ], "texture": "#side" },
				"west": { "uv": [ 14, 7.5, 15, 11.5 ], "texture": "#side" }
			}
		},
		{
			"__comment": "Box10",
			"from": [ 4.499524, 1.000389, 11.00072 ],
			"to": [ 5.999524, 5.000389, 12.00072 ],
			"rotation": { "origin": [ 6, 1, 11 ], "axis": "z", "angle": 22.5 },
			"faces": {
				"north": { "uv": [ 13, 11, 14.5, 15 ], "texture": "#side" },
				"south": { "uv": [ 1.5, 11, 3, 15 ], "texture": "#side" },
				"west": { "uv": [ 11, 11, 12, 15 ], "texture": "#side" }
			}
		},
		{
			"__comment": "Box10",
			"from": [ 3.999967, 7.500354, 0.009960175 ],
			"to": [ 5.499968, 11.50035, 3.00996 ],
			"rotation": { "origin": [ 5.499999, 7.5, 2.384186E-06 ], "axis": "z", "angle": 22.5 },
			"faces": {
				"north": { "uv": [ 13, 4.5, 14.5, 8.5 ], "texture": "#side" },
				"south": { "uv": [ 1.5, 4.5, 3, 8.5 ], "texture": "#side" },
				"west": { "uv": [ 0, 4.5, 3, 8.5 ], "texture": "#side" }
			}
		},
		{
			"__comment": "Box10",
			"from": [ 5.000028, 4.500316, 1.000121 ],
			"to": [ 6.500028, 8.500317, 2.000121 ],
			"rotation": { "origin": [ 6.5, 4.5, 1 ], "axis": "z", "angle": 22.5 },
			"faces": {
				"north": { "uv": [ 13, 7.5, 14.5, 11.5 ], "texture": "#side" },
				"south": { "uv": [ 1.5, 7.5, 3, 11.5 ], "texture": "#side" },
				"west": { "uv": [ 1, 7.5, 2, 11.5 ], "texture": "#side" }
			}
		},
		{
			"__comment": "Box10",
			"from": [ 4.999882, 4.499205, 7.499591 ],
			"to": [ 6.499882, 8.499205, 8.499591 ],
			"rotation": { "origin": [ 6.5, 4.5, 7.5 ], "axis": "z", "angle": 22.5 },
			"faces": {
				"north": { "uv": [ 13, 7.5, 14.5, 11.5 ], "texture": "#side" },
				"south": { "uv": [ 1.5, 7.5, 3, 11.5 ], "texture": "#side" },
				"west": { "uv": [ 7.5, 7.5, 8.5, 11.5 ], "texture": "#side" }
			}
		},
		{
			"__comment": "Box2",
			"from": [ 3.499536, 0.0003583813, 0.0001942471 ],
			"to": [ 3.999536, 1.500358, 16.00019 ],
			"faces": {
				"down": { "uv": [ 0, 1.907349E-06, 16, 0.5000019 ], "texture": "#up", "rotation": 270 },
				"up": { "uv": [ 0, 15.5, 16, 16 ], "texture": "#up", "rotation": 90 },
				"north": { "uv": [ 15.5, 14.5, 16, 16 ], "texture": "#side" },
				"south": { "uv": [ 1.907349E-06, 14.5, 0.5000019, 16 ], "texture": "#side" },
				"west": { "uv": [ 0, 14.5, 16, 16 ], "texture": "#side" }
			}
		},
		{
			"__comment": "Box10",
			"from": [ 3.000976, 12.99916, -0.0008867073 ],
			"to": [ 4.000976, 13.49916, 15.99911 ],
			"faces": {
				"down": { "uv": [ 0, 15, 16, 16 ], "texture": "#up", "rotation": 90 },
				"north": { "uv": [ 15, 2.5, 16, 3 ], "texture": "#side" },
				"south": { "uv": [ 0, 2.5, 0.9999993, 3 ], "texture": "#side" },
				"west": { "uv": [ 0, 2.5, 16, 3 ], "texture": "#side" }
			}
		},
		{
			"__comment": "Box10",
			"from": [ 2.99977, 7.499855, 7.000177 ],
			"to": [ 4.49977, 8.499855, 9.000177 ],
			"faces": {
				"down": { "uv": [ 7, 0, 9, 1.5 ], "texture": "#side", "rotation": 270 },
				"up": { "uv": [ 7, 7.5, 9, 9 ], "texture": "#side", "rotation": 90 },
				"north": { "uv": [ 7.5, 7.5, 9, 8.5 ], "texture": "#side" },
				"south": { "uv": [ 7, 7.5, 8.5, 8.5 ], "texture": "#side" },
				"west": { "uv": [ 7, 7.5, 9, 8.5 ], "texture": "#side" }
			}
		}
	]
}