{
	"__comment": "Designed by RomanCapitalist with Cubik Studio - https://cubik.studio",
	"parent": "block/block",
	"textures": {
		"particle": "conquest:blocks/roman_corinthian_capital_polychrome",
		"side": "conquest:blocks/roman_corinthian_capital_polychrome",
		"up": "conquest:blocks/roman_capital_sandstone_top",
		"down": "conquest:blocks/roman_capital_sandstone_top"
	},
	"elements": [ 	 
		{
			"from": [ 12.00029, -0.0003293716, 3.999583 ],
			"to": [ 16.00029, 15.99967, 11.99958 ],
			"faces": {
				"down": { "uv": [ 12, 4, 16, 12 ], "texture": "#down" },
				"up": { "uv": [ 12, 4, 16, 12 ], "texture": "#up" },
				"north": { "uv": [ 0, 0, 4, 16 ], "texture": "#side" },
				"south": { "uv": [ 12, 0, 16, 16 ], "texture": "#side" },
				"west": { "uv": [ 4, 0, 12, 16 ], "texture": "#side" },
				"east": { "uv": [ 4, 0, 12, 16 ], "texture": "#side" }
			}
		},
		{
			"__comment": "Box10",
			"from": [ 12.98901, 7.499248, 10.50097 ],
			"to": [ 15.98901, 11.49925, 12.00097 ],
			"rotation": { "origin": [ 13, 7.5, 10.5 ], "axis": "x", "angle": 22.5 },
			"faces": {
				"south": { "uv": [ 13, 4.5, 16, 8.5 ], "texture": "#side" },
				"west": { "uv": [ 13, 4.5, 14.5, 8.5 ], "texture": "#side" },
				"east": { "uv": [ 1.5, 4.5, 3, 8.5 ], "texture": "#side" }
			}
		},
		{
			"__comment": "Box10",
			"from": [ 13.49945, 7.5006, 11.99957 ],
			"to": [ 15.49945, 8.500601, 13.49957 ],
			"faces": {
				"down": { "uv": [ 13.5, 0, 15.5, 1.5 ], "texture": "#side" },
				"up": { "uv": [ 13.5, 14.5, 15.5, 16 ], "texture": "#side" },
				"south": { "uv": [ 13.5, 7.5, 15.5, 8.5 ], "texture": "#side" },
				"west": { "uv": [ 14.5, 7.5, 16, 8.5 ], "texture": "#side" },
				"east": { "uv": [ 0, 7.5, 1.5, 8.5 ], "texture": "#side" }
			}
		},
		{
			"__comment": "Box10",
			"from": [ 8.999783, 10.00934, 10.001 ],
			"to": [ 14.49978, 12.98934, 12.001 ],
			"rotation": { "origin": [ 8.999999, 10, 9.999999 ], "axis": "y", "angle": -22.5 },
			"faces": {
				"down": { "uv": [ 9, 2, 14.5, 4 ], "texture": "#side" },
				"up": { "uv": [ 9, 12, 14.5, 14 ], "texture": "#side" },
				"south": { "uv": [ 8, 3, 13.5, 6 ], "texture": "#side" }
			}
		},
		{
			"__comment": "Box10",
			"from": [ 12.49947, 10.00915, 12.00068 ],
			"to": [ 15.99947, 13.00915, 14.00068 ],
			"faces": {
				"down": { "uv": [ 12.5, 0, 16, 2 ], "texture": "#side" },
				"up": { "uv": [ 12.5, 14, 16, 16 ], "texture": "#side" },
				"south": { "uv": [ 12.5, 3, 16, 6 ], "texture": "#side" },
				"west": { "uv": [ 14, 3, 16, 6 ], "texture": "#side" },
				"east": { "uv": [ 0, 3, 2, 6 ], "texture": "#side" }
			}
		},
		{
			"__comment": "Box10",
			"from": [ 14.00031, 4.499377, 10.00035 ],
			"to": [ 15.00031, 8.499376, 11.50035 ],
			"rotation": { "origin": [ 14, 4.5, 9.999998 ], "axis": "x", "angle": 22.5 },
			"faces": {
				"south": { "uv": [ 14, 7.5, 15, 11.5 ], "texture": "#side" },
				"west": { "uv": [ 13, 7.5, 14.5, 11.5 ], "texture": "#side" },
				"east": { "uv": [ 1.5, 7.5, 3, 11.5 ], "texture": "#side" }
			}
		},
		{
			"__comment": "Box2",
			"from": [ 12.49945, 3.70635E-05, 11.9991 ],
			"to": [ 15.99945, 1.500037, 12.4991 ],
			"faces": {
				"down": { "uv": [ 12.5, 3.500004, 16, 4.000004 ], "texture": "#up" },
				"up": { "uv": [ 12.5, 12, 16, 12.5 ], "texture": "#up" },
				"south": { "uv": [ 12.5, 14.5, 16, 16 ], "texture": "#side" },
				"west": { "uv": [ 12, 14.5, 12.5, 16 ], "texture": "#side" },
				"east": { "uv": [ 3.500004, 14.5, 4.000004, 16 ], "texture": "#side" }
			}
		},
		{
			"__comment": "Box10",
			"from": [ 13.50002, 7.500838, 3.000743 ],
			"to": [ 15.50002, 8.500837, 4.500743 ],
			"faces": {
				"down": { "uv": [ 13.5, 7.499999, 15.5, 8.999999 ], "texture": "#side" },
				"up": { "uv": [ 13.5, 7.000001, 15.5, 8.500001 ], "texture": "#side" },
				"north": { "uv": [ 0.500001, 7.5, 2.500001, 8.5 ], "texture": "#side" },
				"west": { "uv": [ 7.000001, 7.5, 8.500001, 8.5 ], "texture": "#side" },
				"east": { "uv": [ 7.499999, 7.5, 8.999999, 8.5 ], "texture": "#side" }
			}
		},
		{
			"__comment": "Box10",
			"from": [ 12.50082, 10.01, 1.999555 ],
			"to": [ 16.00082, 13.01, 3.999555 ],
			"faces": {
				"down": { "uv": [ 0, 0, 3.5, 2 ], "texture": "#side", "rotation": 180 },
				"up": { "uv": [ 0, 14, 3.5, 16 ], "texture": "#side", "rotation": 180 },
				"north": { "uv": [ 0, 3, 3.5, 6 ], "texture": "#side" },
				"west": { "uv": [ 0, 3, 2, 6 ], "texture": "#side" },
				"east": { "uv": [ 14, 3, 16, 6 ], "texture": "#side" }
			}
		},
		{
			"__comment": "Box10",
			"from": [ 8.000216, 10.01062, 1.999798 ],
			"to": [ 13.50022, 12.99062, 3.999798 ],
			"rotation": { "origin": [ 13.5, 10, 4 ], "axis": "y", "angle": 22.5 },
			"faces": {
				"down": { "uv": [ 2.5, 0, 8, 1.5 ], "texture": "#side", "rotation": 180 },
				"up": { "uv": [ 2.5, 14.5, 8, 16 ], "texture": "#side", "rotation": 180 },
				"north": { "uv": [ 2.5, 3, 8, 6 ], "texture": "#side" }
			}
		},
		{
			"__comment": "Box10",
			"from": [ 12.99059, 7.500987, 4.00009 ],
			"to": [ 15.99059, 11.50099, 5.50009 ],
			"rotation": { "origin": [ 16, 7.5, 5.499999 ], "axis": "x", "angle": -22.5 },
			"faces": {
				"north": { "uv": [ 0, 4.5, 3, 8.5 ], "texture": "#side" },
				"west": { "uv": [ 1.5, 4.5, 3, 8.5 ], "texture": "#side" },
				"east": { "uv": [ 13, 4.5, 14.5, 8.5 ], "texture": "#side" }
			}
		},
		{
			"__comment": "Box10",
			"from": [ 14.00049, 4.500721, 4.999868 ],
			"to": [ 15.00049, 8.500721, 6.499868 ],
			"rotation": { "origin": [ 15, 4.5, 6.5 ], "axis": "x", "angle": -22.5 },
			"faces": {
				"north": { "uv": [ 1, 7.5, 2, 11.5 ], "texture": "#side" },
				"west": { "uv": [ 1.5, 7.5, 3, 11.5 ], "texture": "#side" },
				"east": { "uv": [ 13, 7.5, 14.5, 11.5 ], "texture": "#side" }
			}
		},
		{
			"from": [ 3.999496, 0.0004653059, -0.000155656 ],
			"to": [ 11.9995, 16.00047, 15.99984 ],
			"faces": {
				"down": { "uv": [ 4, 0, 12, 16 ], "texture": "#down" },
				"up": { "uv": [ 4, 0, 12, 16 ], "texture": "#up" },
				"north": { "uv": [ 4, 0, 12, 16 ], "texture": "#side" },
				"south": { "uv": [ 4, 0, 12, 16 ], "texture": "#side" },
				"west": { "uv": [ 0, 0, 16, 16 ], "texture": "#side" },
				"east": { "uv": [ 0, 0, 16, 16 ], "texture": "#side" }
			}
		},
		{
			"__comment": "Box10",
			"from": [ 12.00077, 14.99989, -0.0001453678 ],
			"to": [ 14.00077, 15.99989, 3.999855 ],
			"faces": {
				"down": { "uv": [ 12, 12, 14, 16 ], "texture": "#down" },
				"up": { "uv": [ 12, 0, 14, 3.999999 ], "texture": "#down" },
				"north": { "uv": [ 2.000001, 0, 4.000001, 1 ], "texture": "#side" },
				"south": { "uv": [ 12, 0, 14, 1 ], "texture": "#side" },
				"east": { "uv": [ 12, 0, 16, 1 ], "texture": "#side" }
			}
		},
		{
			"__comment": "Box10",
			"from": [ 10.49966, 7.499983, 0.01068094 ],
			"to": [ 11.99966, 11.49998, 3.010681 ],
			"rotation": { "origin": [ 10.5, 7.5, 3.000001 ], "axis": "z", "angle": -22.5 },
			"faces": {
				"north": { "uv": [ 1.5, 4.5, 3, 8.5 ], "texture": "#side" },
				"south": { "uv": [ 13, 4.5, 14.5, 8.5 ], "texture": "#side" },
				"east": { "uv": [ 13, 4.5, 16, 8.5 ], "texture": "#side" }
			}
		},
		{
			"__comment": "Box10",
			"from": [ 12.0005, 7.500051, 0.50075 ],
			"to": [ 13.5005, 8.500051, 2.50075 ],
			"faces": {
				"down": { "uv": [ 13.5, 0, 15.5, 1.5 ], "texture": "#side", "rotation": 90 },
				"up": { "uv": [ 13.5, 14.5, 15.5, 16 ], "texture": "#side", "rotation": 270 },
				"north": { "uv": [ 0, 7.5, 1.5, 8.5 ], "texture": "#side" },
				"south": { "uv": [ 14.5, 7.5, 16, 8.5 ], "texture": "#side" },
				"east": { "uv": [ 13.5, 7.5, 15.5, 8.5 ], "texture": "#side" }
			}
		},
		{
			"__comment": "Box10",
			"from": [ 11.9999, 7.499396, 13.49922 ],
			"to": [ 13.4999, 8.499396, 15.49922 ],
			"faces": {
				"down": { "uv": [ 0.5, 0, 2.5, 1.5 ], "texture": "#side", "rotation": 90 },
				"up": { "uv": [ 0.5, 14.5, 2.5, 16 ], "texture": "#side", "rotation": 270 },
				"north": { "uv": [ 0, 7.5, 1.5, 8.5 ], "texture": "#side" },
				"south": { "uv": [ 14.5, 7.5, 16, 8.5 ], "texture": "#side" },
				"east": { "uv": [ 0.5, 7.5, 2.5, 8.5 ], "texture": "#side" }
			}
		},
		{
			"__comment": "Box10",
			"from": [ 11.99924, 13.49961, 7.690827E-05 ],
			"to": [ 13.49924, 14.99961, 4.000077 ],
			"faces": {
				"down": { "uv": [ 12, 12, 13.5, 16 ], "texture": "#up" },
				"north": { "uv": [ 2.500001, 1, 4.000001, 2.5 ], "texture": "#side" },
				"south": { "uv": [ 12, 1, 13.5, 2.5 ], "texture": "#side" },
				"east": { "uv": [ 12, 1, 16, 2.5 ], "texture": "#side" }
			}
		},
		{
			"__comment": "Box10",
			"from": [ 12.00087, 13.00003, -0.0004036926 ],
			"to": [ 13.00087, 13.50003, 3.999596 ],
			"faces": {
				"down": { "uv": [ 12, 12, 13, 16 ], "texture": "#up" },
				"north": { "uv": [ 3.000001, 2.5, 4.000001, 3 ], "texture": "#side" },
				"south": { "uv": [ 12, 2.5, 13, 3 ], "texture": "#side" },
				"east": { "uv": [ 12, 2.5, 16, 3 ], "texture": "#side" }
			}
		},
		{
			"__comment": "Box10",
			"from": [ 12.00051, 9.999502, -0.0009656506 ],
			"to": [ 14.00051, 12.9995, 3.499034 ],
			"faces": {
				"down": { "uv": [ 12.5, 0, 16, 2 ], "texture": "#side", "rotation": 90 },
				"up": { "uv": [ 12.5, 14, 16, 16 ], "texture": "#side", "rotation": 270 },
				"north": { "uv": [ 0, 3, 2, 6 ], "texture": "#side" },
				"south": { "uv": [ 14, 3, 16, 6 ], "texture": "#side" },
				"east": { "uv": [ 12.5, 3, 16, 6 ], "texture": "#side" }
			}
		},
		{
			"__comment": "Box10",
			"from": [ 11.99904, 10.00017, 12.49984 ],
			"to": [ 13.99904, 13.00017, 15.99984 ],
			"faces": {
				"down": { "uv": [ 0, 0, 3.5, 2 ], "texture": "#side", "rotation": 90 },
				"up": { "uv": [ 0, 14, 3.5, 16 ], "texture": "#side", "rotation": 270 },
				"north": { "uv": [ 0, 3, 2, 6 ], "texture": "#side" },
				"south": { "uv": [ 14, 3, 16, 6 ], "texture": "#side" },
				"east": { "uv": [ 0, 3, 3.5, 6 ], "texture": "#side" }
			}
		},
		{
			"__comment": "Box10",
			"from": [ 9.999866, 4.499427, 1.000284 ],
			"to": [ 11.49987, 8.499427, 2.000284 ],
			"rotation": { "origin": [ 9.999998, 4.5, 2.000001 ], "axis": "z", "angle": -22.5 },
			"faces": {
				"north": { "uv": [ 1.5, 7.5, 3, 11.5 ], "texture": "#side" },
				"south": { "uv": [ 13, 7.5, 14.5, 11.5 ], "texture": "#side" },
				"east": { "uv": [ 14, 7.5, 15, 11.5 ], "texture": "#side" }
			}
		},
		{
			"__comment": "Box10",
			"from": [ 10.50003, 7.500415, 12.98966 ],
			"to": [ 12.00003, 11.50042, 15.98966 ],
			"rotation": { "origin": [ 10.5, 7.5, 16 ], "axis": "z", "angle": -22.5 },
			"faces": {
				"north": { "uv": [ 1.5, 4.5, 3, 8.5 ], "texture": "#side" },
				"south": { "uv": [ 13, 4.5, 14.5, 8.5 ], "texture": "#side" },
				"east": { "uv": [ 0, 4.5, 3, 8.5 ], "texture": "#side" }
			}
		},
		{
			"__comment": "Box10",
			"from": [ 9.999492, 4.500476, 14.00079 ],
			"to": [ 11.49949, 8.500477, 15.00079 ],
			"rotation": { "origin": [ 10, 4.5, 15 ], "axis": "z", "angle": -22.5 },
			"faces": {
				"north": { "uv": [ 1.5, 7.5, 3, 11.5 ], "texture": "#side" },
				"south": { "uv": [ 13, 7.5, 14.5, 11.5 ], "texture": "#side" },
				"east": { "uv": [ 1, 7.5, 2, 11.5 ], "texture": "#side" }
			}
		},
		{
			"__comment": "Box2",
			"from": [ 12.00023, -0.0004217979, 0.0002916232 ],
			"to": [ 12.50023, 1.499578, 16.00029 ],
			"faces": {
				"down": { "uv": [ 0, 1.907349E-06, 16, 0.5000019 ], "texture": "#up", "rotation": 90 },
				"up": { "uv": [ 0, 15.5, 16, 16 ], "texture": "#up", "rotation": 270 },
				"north": { "uv": [ 1.907349E-06, 14.5, 0.5000019, 16 ], "texture": "#side" },
				"south": { "uv": [ 15.5, 14.5, 16, 16 ], "texture": "#side" },
				"east": { "uv": [ 0, 14.5, 16, 16 ], "texture": "#side" }
			}
		},
		{
			"__comment": "Box10",
			"from": [ 4.499171, 0.9999646, 4.000352 ],
			"to": [ 5.999171, 4.999965, 5.000352 ],
			"rotation": { "origin": [ 5.999999, 1, 4.000002 ], "axis": "z", "angle": 22.5 },
			"faces": {
				"north": { "uv": [ 13, 11, 14.5, 15 ], "texture": "#side" },
				"south": { "uv": [ 1.5, 11, 3, 15 ], "texture": "#side" },
				"west": { "uv": [ 4, 11, 5, 15 ], "texture": "#side" }
			}
		},
		{
			"__comment": "Box10",
			"from": [ 2.000057, 14.99915, 3.570039E-05 ],
			"to": [ 4.000057, 15.99915, 16.00004 ],
			"faces": {
				"down": { "uv": [ 0, 0, 16, 1.5 ], "texture": "#down", "rotation": 270 },
				"up": { "uv": [ 0, 14.5, 16, 16 ], "texture": "#down", "rotation": 90 },
				"north": { "uv": [ 14.5, 0, 16, 1 ], "texture": "#side" },
				"south": { "uv": [ 0, 0, 1.5, 1 ], "texture": "#side" },
				"west": { "uv": [ 0, 0, 16, 1 ], "texture": "#side" }
			}
		},
		{
			"__comment": "Box10",
			"from": [ 1.500861, 14.00073, 6.499641 ],
			"to": [ 4.000861, 15.50073, 6.999641 ],
			"faces": {
				"down": { "uv": [ 6.5, 0, 7, 1.5 ], "texture": "#side", "rotation": 270 },
				"up": { "uv": [ 6.5, 14.5, 7, 16 ], "texture": "#side", "rotation": 90 },
				"north": { "uv": [ 14.5, 0.5, 16, 2 ], "texture": "#side" },
				"south": { "uv": [ 0, 0.5, 1.5, 2 ], "texture": "#side" },
				"west": { "uv": [ 6.5, 0.5, 7, 2 ], "texture": "#side" }
			}
		},
		{
			"__comment": "Box10",
			"from": [ 1.499173, 14.0005, 8.999668 ],
			"to": [ 3.999173, 15.5005, 9.499668 ],
			"faces": {
				"down": { "uv": [ 9, 0, 9.5, 1.5 ], "texture": "#side", "rotation": 270 },
				"up": { "uv": [ 9, 14.5, 9.5, 16 ], "texture": "#side", "rotation": 90 },
				"north": { "uv": [ 14.5, 0.5, 16, 2 ], "texture": "#side" },
				"south": { "uv": [ 0, 0.5, 1.5, 2 ], "texture": "#side" },
				"west": { "uv": [ 9, 0.5, 9.5, 2 ], "texture": "#side" }
			}
		},
		{
			"__comment": "Box10",
			"from": [ 3.000871, 4.000668, 10.49962 ],
			"to": [ 4.000872, 5.000668, 12.49962 ],
			"faces": {
				"down": { "uv": [ 10.5, 0, 12.5, 1 ], "texture": "#side", "rotation": 270 },
				"up": { "uv": [ 10.5, 15, 12.5, 16 ], "texture": "#side", "rotation": 90 },
				"north": { "uv": [ 15, 11, 16, 12 ], "texture": "#side" },
				"south": { "uv": [ 0, 11, 1, 12 ], "texture": "#side" },
				"west": { "uv": [ 10.5, 11, 12.5, 12 ], "texture": "#side" }
			}
		},
		{
			"__comment": "Box10",
			"from": [ 2.499475, 7.500614, 0.5007686 ],
			"to": [ 3.999475, 8.500614, 2.500769 ],
			"faces": {
				"down": { "uv": [ 13.5, 7.499999, 15.5, 8.999999 ], "texture": "#side", "rotation": 90 },
				"up": { "uv": [ 13.5, 7.000001, 15.5, 8.500001 ], "texture": "#side", "rotation": 270 },
				"north": { "uv": [ 7.499999, 7.5, 8.999999, 8.5 ], "texture": "#side" },
				"south": { "uv": [ 7.000001, 7.5, 8.500001, 8.5 ], "texture": "#side" },
				"west": { "uv": [ 0.500001, 7.5, 2.500001, 8.5 ], "texture": "#side" }
			}
		},
		{
			"__comment": "Box10",
			"from": [ 4.000418, 7.499215, 12.99044 ],
			"to": [ 5.500418, 11.49921, 15.99044 ],
			"rotation": { "origin": [ 5.5, 7.5, 13 ], "axis": "z", "angle": 22.5 },
			"faces": {
				"north": { "uv": [ 13, 4.5, 14.5, 8.5 ], "texture": "#side" },
				"south": { "uv": [ 1.5, 4.5, 3, 8.5 ], "texture": "#side" },
				"west": { "uv": [ 13, 4.5, 16, 8.5 ], "texture": "#side" }
			}
		},
		{
			"__comment": "Box10",
			"from": [ 2.499136, 7.499637, 13.49919 ],
			"to": [ 3.999136, 8.499638, 15.49919 ],
			"faces": {
				"down": { "uv": [ 13.5, 0, 15.5, 1.5 ], "texture": "#side", "rotation": 270 },
				"up": { "uv": [ 13.5, 14.5, 15.5, 16 ], "texture": "#side", "rotation": 90 },
				"north": { "uv": [ 14.5, 7.5, 16, 8.5 ], "texture": "#side" },
				"south": { "uv": [ 0, 7.5, 1.5, 8.5 ], "texture": "#side" },
				"west": { "uv": [ 13.5, 7.5, 15.5, 8.5 ], "texture": "#side" }
			}
		},
		{
			"__comment": "Box10",
			"from": [ 2.999413, 4.000565, 3.499985 ],
			"to": [ 3.999413, 5.000565, 5.499985 ],
			"faces": {
				"down": { "uv": [ 3.5, 0, 5.5, 1 ], "texture": "#side", "rotation": 270 },
				"up": { "uv": [ 3.5, 15, 5.5, 16 ], "texture": "#side", "rotation": 90 },
				"north": { "uv": [ 15, 11, 16, 12 ], "texture": "#side" },
				"south": { "uv": [ 0, 11, 1, 12 ], "texture": "#side" },
				"west": { "uv": [ 3.5, 11, 5.5, 12 ], "texture": "#side" }
			}
		},
		{
			"__comment": "Box10",
			"from": [ 2.499082, 13.50001, -0.000486735 ],
			"to": [ 3.999082, 15.00001, 15.99951 ],
			"faces": {
				"down": { "uv": [ 0, 0, 16, 1.5 ], "texture": "#up", "rotation": 270 },
				"north": { "uv": [ 14.5, 1, 16, 2.5 ], "texture": "#side" },
				"south": { "uv": [ 0, 1, 1.5, 2.5 ], "texture": "#side" },
				"west": { "uv": [ 0, 1, 16, 2.5 ], "texture": "#side" }
			}
		},
		{
			"__comment": "Box10",
			"from": [ 3.999857, 10.01044, 8.999878 ],
			"to": [ 5.999857, 12.99044, 14.49988 ],
			"rotation": { "origin": [ 6, 10, 9.000001 ], "axis": "y", "angle": -22.5 },
			"faces": {
				"down": { "uv": [ 9, 2, 14.5, 4 ], "texture": "#side", "rotation": 270 },
				"up": { "uv": [ 9, 12, 14.5, 14 ], "texture": "#side", "rotation": 90 },
				"west": { "uv": [ 8, 3, 13.5, 6 ], "texture": "#side" }
			}
		},
		{
			"__comment": "Box10",
			"from": [ 1.499528, 13.4902, 7.000453 ],
			"to": [ 3.499528, 15.9852, 9.000454 ],
			"faces": {
				"down": { "uv": [ 7, 14, 9, 16 ], "texture": "#side", "rotation": 90 },
				"up": { "uv": [ 7, 0, 9, 2 ], "texture": "#side", "rotation": 270 },
				"north": { "uv": [ 14, 0.01498127, 16, 2.509981 ], "texture": "#side" },
				"south": { "uv": [ 0, 0.01498127, 2, 2.509981 ], "texture": "#side" },
				"west": { "uv": [ 7, 0.01498127, 9, 2.509981 ], "texture": "#side" }
			}
		},
		{
			"__comment": "Box10",
			"from": [ 1.999056, 9.999931, 12.50089 ],
			"to": [ 3.999056, 12.99993, 16.00089 ],
			"faces": {
				"down": { "uv": [ 12.5, 0, 16, 2 ], "texture": "#side", "rotation": 270 },
				"up": { "uv": [ 12.5, 14, 16, 16 ], "texture": "#side", "rotation": 90 },
				"north": { "uv": [ 14, 3, 16, 6 ], "texture": "#side" },
				"south": { "uv": [ 0, 3, 2, 6 ], "texture": "#side" },
				"west": { "uv": [ 12.5, 3, 16, 6 ], "texture": "#side" }
			}
		},
		{
			"__comment": "Box10",
			"from": [ 1.999338, 10.00081, -0.0009468377 ],
			"to": [ 3.999338, 13.00081, 3.499053 ],
			"faces": {
				"down": { "uv": [ 0, 0, 3.5, 2 ], "texture": "#side", "rotation": 270 },
				"up": { "uv": [ 0, 14, 3.5, 16 ], "texture": "#side", "rotation": 90 },
				"north": { "uv": [ 14, 3, 16, 6 ], "texture": "#side" },
				"south": { "uv": [ 0, 3, 2, 6 ], "texture": "#side" },
				"west": { "uv": [ 0, 3, 3.5, 6 ], "texture": "#side" }
			}
		},
		{
			"__comment": "Box10",
			"from": [ 1.999493, 10.0105, 2.499275 ],
			"to": [ 3.999493, 12.9905, 7.999275 ],
			"rotation": { "origin": [ 4, 10, 2.500004 ], "axis": "y", "angle": 22.5 },
			"faces": {
				"down": { "uv": [ 2.5, 0, 8, 1.5 ], "texture": "#side", "rotation": 270 },
				"up": { "uv": [ 2.5, 14.5, 8, 16 ], "texture": "#side", "rotation": 90 },
				"west": { "uv": [ 2.5, 3, 8, 6 ], "texture": "#side" }
			}
		},
		{
			"__comment": "Box10",
			"from": [ 4.499817, 4.500422, 14.00022 ],
			"to": [ 5.999817, 8.500422, 15.00022 ],
			"rotation": { "origin": [ 6.000001, 4.5, 14 ], "axis": "z", "angle": 22.5 },
			"faces": {
				"north": { "uv": [ 13, 7.5, 14.5, 11.5 ], "texture": "#side" },
				"south": { "uv": [ 1.5, 7.5, 3, 11.5 ], "texture": "#side" },
				"west": { "uv": [ 14, 7.5, 15, 11.5 ], "texture": "#side" }
			}
		},
		{
			"__comment": "Box10",
			"from": [ 4.499012, 0.9997751, 11.00082 ],
			"to": [ 5.999012, 4.999775, 12.00082 ],
			"rotation": { "origin": [ 6, 1, 11 ], "axis": "z", "angle": 22.5 },
			"faces": {
				"north": { "uv": [ 13, 11, 14.5, 15 ], "texture": "#side" },
				"south": { "uv": [ 1.5, 11, 3, 15 ], "texture": "#side" },
				"west": { "uv": [ 11, 11, 12, 15 ], "texture": "#side" }
			}
		},
		{
			"__comment": "Box10",
			"from": [ 3.999295, 7.500027, 0.01010258 ],
			"to": [ 5.499295, 11.50003, 3.010103 ],
			"rotation": { "origin": [ 5.499999, 7.5, 2.384186E-06 ], "axis": "z", "angle": 22.5 },
			"faces": {
				"north": { "uv": [ 13, 4.5, 14.5, 8.5 ], "texture": "#side" },
				"south": { "uv": [ 1.5, 4.5, 3, 8.5 ], "texture": "#side" },
				"west": { "uv": [ 0, 4.5, 3, 8.5 ], "texture": "#side" }
			}
		},
		{
			"__comment": "Box10",
			"from": [ 4.50046, 4.499306, 1.000243 ],
			"to": [ 6.00046, 8.499306, 2.000243 ],
			"rotation": { "origin": [ 6, 4.5, 1 ], "axis": "z", "angle": 22.5 },
			"faces": {
				"north": { "uv": [ 13, 7.5, 14.5, 11.5 ], "texture": "#side" },
				"south": { "uv": [ 1.5, 7.5, 3, 11.5 ], "texture": "#side" },
				"west": { "uv": [ 1, 7.5, 2, 11.5 ], "texture": "#side" }
			}
		},
		{
			"__comment": "Box10",
			"from": [ 4.499084, 4.499329, 7.499406 ],
			"to": [ 5.999084, 8.499329, 8.499406 ],
			"rotation": { "origin": [ 6, 4.5, 7.5 ], "axis": "z", "angle": 22.5 },
			"faces": {
				"north": { "uv": [ 13, 7.5, 14.5, 11.5 ], "texture": "#side" },
				"south": { "uv": [ 1.5, 7.5, 3, 11.5 ], "texture": "#side" },
				"west": { "uv": [ 7.5, 7.5, 8.5, 11.5 ], "texture": "#side" }
			}
		},
		{
			"__comment": "Box2",
			"from": [ 3.499152, -0.0004736985, 0.0002025412 ],
			"to": [ 3.999152, 1.499526, 16.0002 ],
			"faces": {
				"down": { "uv": [ 0, 1.907349E-06, 16, 0.5000019 ], "texture": "#up", "rotation": 270 },
				"up": { "uv": [ 0, 15.5, 16, 16 ], "texture": "#up", "rotation": 90 },
				"north": { "uv": [ 15.5, 14.5, 16, 16 ], "texture": "#side" },
				"south": { "uv": [ 1.907349E-06, 14.5, 0.5000019, 16 ], "texture": "#side" },
				"west": { "uv": [ 0, 14.5, 16, 16 ], "texture": "#side" }
			}
		},
		{
			"__comment": "Box10",
			"from": [ 3.000849, 12.99912, -0.0009361053 ],
			"to": [ 4.000849, 13.49912, 15.99906 ],
			"faces": {
				"down": { "uv": [ 0, 15, 16, 16 ], "texture": "#up", "rotation": 90 },
				"north": { "uv": [ 15, 2.5, 16, 3 ], "texture": "#side" },
				"south": { "uv": [ 0, 2.5, 0.9999993, 3 ], "texture": "#side" },
				"west": { "uv": [ 0, 2.5, 16, 3 ], "texture": "#side" }
			}
		},
		{
			"__comment": "Box10",
			"from": [ 2.500093, 7.499489, 6.999301 ],
			"to": [ 4.000093, 8.499489, 8.999302 ],
			"faces": {
				"down": { "uv": [ 7, 0, 9, 1.5 ], "texture": "#side", "rotation": 270 },
				"up": { "uv": [ 7, 7.5, 9, 9 ], "texture": "#side", "rotation": 90 },
				"north": { "uv": [ 7.5, 7.5, 9, 8.5 ], "texture": "#side" },
				"south": { "uv": [ 7, 7.5, 8.5, 8.5 ], "texture": "#side" },
				"west": { "uv": [ 7, 7.5, 9, 8.5 ], "texture": "#side" }
			}
		},
		{
			"__comment": "Box10",
			"from": [ 13.9995, 14.99979, 12.00023 ],
			"to": [ 15.9995, 15.99979, 14.00023 ],
			"faces": {
				"down": { "uv": [ 14, 12, 16, 14 ], "texture": "#down" },
				"up": { "uv": [ 14, 2.000001, 16, 4.000001 ], "texture": "#down" },
				"south": { "uv": [ 14, 0, 16, 1 ], "texture": "#side" },
				"west": { "uv": [ 2.000001, 0, 4.000001, 1 ], "texture": "#side" },
				"east": { "uv": [ 12, 0, 14, 1 ], "texture": "#side" }
			}
		},
		{
			"__comment": "Box10",
			"from": [ 13.49923, 13.4992, 11.99998 ],
			"to": [ 15.99923, 14.9992, 13.49998 ],
			"faces": {
				"down": { "uv": [ 13.5, 12, 16, 13.5 ], "texture": "#up" },
				"south": { "uv": [ 13.5, 1, 16, 2.5 ], "texture": "#side" },
				"west": { "uv": [ 2.500001, 1, 4.000001, 2.5 ], "texture": "#side" },
				"east": { "uv": [ 12, 1, 13.5, 2.5 ], "texture": "#side" }
			}
		},
		{
			"__comment": "Box10",
			"from": [ 12.99902, 13.00097, 11.99972 ],
			"to": [ 15.99902, 13.50097, 12.99972 ],
			"faces": {
				"down": { "uv": [ 13, 12, 16, 13 ], "texture": "#up" },
				"south": { "uv": [ 13, 2.5, 16, 3 ], "texture": "#side" },
				"west": { "uv": [ 3.000001, 2.5, 4.000001, 3 ], "texture": "#side" },
				"east": { "uv": [ 12, 2.5, 13, 3 ], "texture": "#side" }
			}
		},
		{
			"__comment": "Box10",
			"from": [ 14.00096, 14.99932, 1.999854 ],
			"to": [ 16.00096, 15.99932, 3.999854 ],
			"faces": {
				"down": { "uv": [ 14, 12, 16, 14 ], "texture": "#down" },
				"up": { "uv": [ 14, 2.000001, 16, 4.000001 ], "texture": "#down" },
				"north": { "uv": [ 2.861023E-06, 0, 2.000003, 1 ], "texture": "#side" },
				"west": { "uv": [ 2.000001, 0, 4.000001, 1 ], "texture": "#side" },
				"east": { "uv": [ 12, 0, 14, 1 ], "texture": "#side" }
			}
		},
		{
			"__comment": "Box10",
			"from": [ 13.4991, 13.50065, 2.50057 ],
			"to": [ 15.9991, 15.00065, 4.00057 ],
			"faces": {
				"down": { "uv": [ 13.5, 12, 16, 13.5 ], "texture": "#up" },
				"north": { "uv": [ 1.907349E-06, 1, 2.500002, 2.5 ], "texture": "#side" },
				"west": { "uv": [ 2.500001, 1, 4.000001, 2.5 ], "texture": "#side" },
				"east": { "uv": [ 12, 1, 13.5, 2.5 ], "texture": "#side" }
			}
		},
		{
			"__comment": "Box10",
			"from": [ 12.99903, 13.00033, 3.00047 ],
			"to": [ 15.99903, 13.50033, 4.00047 ],
			"faces": {
				"down": { "uv": [ 13, 12, 16, 13 ], "texture": "#up" },
				"north": { "uv": [ 1.907349E-06, 2.5, 3.000002, 3 ], "texture": "#side" },
				"west": { "uv": [ 3.000001, 2.5, 4.000001, 3 ], "texture": "#side" },
				"east": { "uv": [ 12, 2.5, 13, 3 ], "texture": "#side" }
			}
		},
		{
			"__comment": "Box2",
			"from": [ 12.49911, 0.0009010249, 3.49912 ],
			"to": [ 15.99911, 1.500901, 3.99912 ],
			"faces": {
				"down": { "uv": [ 12.5, 12, 16, 12.5 ], "texture": "#up" },
				"up": { "uv": [ 12.5, 3.500003, 16, 4.000003 ], "texture": "#up" },
				"north": { "uv": [ 3.814697E-06, 14.5, 3.500004, 16 ], "texture": "#side" },
				"west": { "uv": [ 3.500003, 14.5, 4.000003, 16 ], "texture": "#side" },
				"east": { "uv": [ 12, 14.5, 12.5, 16 ], "texture": "#side" }
			}
		},
		{
			"__comment": "Box10",
			"from": [ 11.99983, 14.99983, 11.99998 ],
			"to": [ 13.99983, 15.99983, 15.99998 ],
			"faces": {
				"down": { "uv": [ 12, 9.536743E-07, 14, 4.000001 ], "texture": "#down" },
				"up": { "uv": [ 12, 12, 14, 16 ], "texture": "#down" },
				"north": { "uv": [ 2.000001, 0, 4.000001, 1 ], "texture": "#side" },
				"south": { "uv": [ 12, 0, 14, 1 ], "texture": "#side" },
				"east": { "uv": [ 9.536743E-07, 0, 4.000001, 1 ], "texture": "#side" }
			}
		},
		{
			"__comment": "Box10",
			"from": [ 11.99939, 13.49938, 12.00065 ],
			"to": [ 13.49939, 14.99938, 16.00065 ],
			"faces": {
				"down": { "uv": [ 12, 1.907349E-06, 13.5, 4.000002 ], "texture": "#up" },
				"north": { "uv": [ 2.500001, 1, 4.000001, 2.5 ], "texture": "#side" },
				"south": { "uv": [ 12, 1, 13.5, 2.5 ], "texture": "#side" },
				"east": { "uv": [ 1.907349E-06, 1, 4.000002, 2.5 ], "texture": "#side" }
			}
		},
		{
			"__comment": "Box10",
			"from": [ 12.00063, 13.00031, 12.00009 ],
			"to": [ 13.00063, 13.50031, 16.00009 ],
			"faces": {
				"down": { "uv": [ 12, 0, 13, 4 ], "texture": "#up" },
				"north": { "uv": [ 3.000001, 2.5, 4.000001, 3 ], "texture": "#side" },
				"south": { "uv": [ 12, 2.5, 13, 3 ], "texture": "#side" },
				"east": { "uv": [ 0, 2.5, 4, 3 ], "texture": "#side" }
			}
		}
	]
}