{
	"__comment": "Designed by RomanCapitalist with Cubik Studio - https://cubik.studio",
	"parent": "block/block",
	"textures": {
		"particle": "conquest:blocks/capitalionian_sandstone",
		"texture": "conquest:blocks/capitalionian_sandstone",
		"texture1": "conquest:blocks/sandstone5",
		"texture2": "conquest:blocks/capitalionian_sandstone_spirals"
	},
	"elements": [ 	 
		{
			"__comment": "Box1",
			"from": [ 4, 0, 4 ],
			"to": [ 12, 16, 12 ],
			"faces": {
				"down": { "uv": [ 4, 4, 12, 12 ], "texture": "#texture1" },
				"up": { "uv": [ 4, 4, 12, 12 ], "texture": "#texture1" },
				"north": { "uv": [ 4, 0, 12, 16 ], "texture": "#texture" },
				"south": { "uv": [ 4, 0, 12, 16 ], "texture": "#texture" },
				"west": { "uv": [ 4, 0, 12, 16 ], "texture": "#texture" },
				"east": { "uv": [ 4, 0, 12, 16 ], "texture": "#texture" }
			}
		},
		{
			"__comment": "Box3",
			"from": [ 3.5, 0, 4 ],
			"to": [ 4, 1, 12 ],
			"faces": {
				"down": { "uv": [ 3.5, 4, 4, 12 ], "texture": "#texture" },
				"up": { "uv": [ 3.5, 4, 4, 12 ], "texture": "#texture" },
				"north": { "uv": [ 12, 15, 12.5, 16 ], "texture": "#texture" },
				"south": { "uv": [ 3.5, 15, 4, 16 ], "texture": "#texture" },
				"west": { "uv": [ 4, 15, 12, 16 ], "texture": "#texture" },
				"east": { "uv": [ 4, 15, 12, 16 ], "texture": "#texture" }
			}
		},
		{
			"__comment": "Box3",
			"from": [ 3.5, 6.5, 4 ],
			"to": [ 4, 8, 12 ],
			"faces": {
				"down": { "uv": [ 3.5, 4, 4, 12 ], "texture": "#texture" },
				"up": { "uv": [ 3.5, 4, 4, 12 ], "texture": "#texture" },
				"north": { "uv": [ 12, 8, 12.5, 9.5 ], "texture": "#texture" },
				"south": { "uv": [ 3.5, 8, 4, 9.5 ], "texture": "#texture" },
				"west": { "uv": [ 4, 8, 12, 9.5 ], "texture": "#texture" },
				"east": { "uv": [ 4, 8, 12, 9.5 ], "texture": "#texture" }
			}
		},
		{
			"__comment": "Box3",
			"from": [ 2.5, 8, 4 ],
			"to": [ 4, 9.5, 12 ],
			"faces": {
				"down": { "uv": [ 2.5, 4, 4, 12 ], "texture": "#texture" },
				"up": { "uv": [ 2.5, 4, 4, 12 ], "texture": "#texture" },
				"north": { "uv": [ 12, 6.5, 13.5, 8 ], "texture": "#texture" },
				"south": { "uv": [ 2.5, 6.5, 4, 8 ], "texture": "#texture" },
				"west": { "uv": [ 4, 6.5, 12, 8 ], "texture": "#texture" },
				"east": { "uv": [ 4, 6.5, 12, 8 ], "texture": "#texture" }
			}
		},
		{
			"__comment": "Box3",
			"from": [ 0, 14.5, 4 ],
			"to": [ 4, 16, 12 ],
			"faces": {
				"down": { "uv": [ 0, 4, 4, 12 ], "texture": "#texture1" },
				"up": { "uv": [ 0, 4, 4, 12 ], "texture": "#texture1" },
				"north": { "uv": [ 12, 0, 16, 1.5 ], "texture": "#texture" },
				"south": { "uv": [ 0, 0, 4, 1.5 ], "texture": "#texture" },
				"west": { "uv": [ 4, 0, 12, 1.5 ], "texture": "#texture" },
				"east": { "uv": [ 4, 0, 12, 1.5 ], "texture": "#texture" }
			}
		},
		{
			"__comment": "Box3",
			"from": [ 2, 9.5, 4 ],
			"to": [ 4, 10.5, 12 ],
			"faces": {
				"down": { "uv": [ 2, 3.999999, 4, 12 ], "texture": "#texture" },
				"up": { "uv": [ 2, 4.000001, 4, 12 ], "texture": "#texture" },
				"north": { "uv": [ 12, 5.5, 14, 6.5 ], "texture": "#texture" },
				"south": { "uv": [ 2, 5.5, 4, 6.5 ], "texture": "#texture" },
				"west": { "uv": [ 4.000001, 5.5, 12, 6.5 ], "texture": "#texture" },
				"east": { "uv": [ 3.999999, 5.5, 12, 6.5 ], "texture": "#texture" }
			}
		},
		{
			"__comment": "Box2",
			"from": [ -0.5, 8.5, -0.5 ],
			"to": [ 5, 14.5, 5 ],
			"faces": {
				"down": { "uv": [ 10.5, 10.5, 16, 16 ], "texture": "#texture1" },
				"up": { "uv": [ 10.5, 0, 16, 5.5 ], "texture": "#texture1" },
				"north": { "uv": [ 0, 0, 5.5, 6 ], "texture": "#texture2" },
				"south": { "uv": [ 5.5, 0, 11, 6 ], "texture": "#texture2" },
				"west": { "uv": [ 5.5, 0, 11, 6 ], "texture": "#texture2" },
				"east": { "uv": [ 0, 0, 5.5, 6 ], "texture": "#texture2" }
			}
		},
		{
			"__comment": "Box3",
			"from": [ 0.9006, 10.491, 4.8824 ],
			"to": [ 4.4006, 14.491, 8.882401 ],
			"rotation": { "origin": [ 0.5000005, 10.5, 8.500001 ], "axis": "y", "angle": 22.5 },
			"faces": {
				"down": { "uv": [ 7.5, 9, 16, 12.5 ], "texture": "#texture1", "rotation": 90 },
				"up": { "uv": [ 7.5, 3.5, 16, 7 ], "texture": "#texture1", "rotation": 270 },
				"north": { "uv": [ 9, 1.51, 12.5, 5.51 ], "texture": "#texture" },
				"south": { "uv": [ 3.5, 1.51, 7, 5.51 ], "texture": "#texture" },
				"west": { "uv": [ 0, 1.51, 8.5, 5.51 ], "texture": "#texture" },
				"east": { "uv": [ 7.5, 1.51, 16, 5.51 ], "texture": "#texture" }
			}
		},
		{
			"__comment": "Box3",
			"from": [ 4, 0, 3.5 ],
			"to": [ 12, 1, 4 ],
			"faces": {
				"down": { "uv": [ 4, 12, 12, 12.5 ], "texture": "#texture" },
				"up": { "uv": [ 4, 3.5, 12, 4 ], "texture": "#texture" },
				"north": { "uv": [ 4, 15, 12, 16 ], "texture": "#texture" },
				"south": { "uv": [ 4, 15, 12, 16 ], "texture": "#texture" },
				"west": { "uv": [ 3.5, 15, 4, 16 ], "texture": "#texture" },
				"east": { "uv": [ 12, 15, 12.5, 16 ], "texture": "#texture" }
			}
		},
		{
			"__comment": "Box3",
			"from": [ 4, 6.5, 3.5 ],
			"to": [ 12, 8, 4 ],
			"faces": {
				"down": { "uv": [ 4, 12, 12, 12.5 ], "texture": "#texture" },
				"up": { "uv": [ 4, 3.5, 12, 4 ], "texture": "#texture" },
				"north": { "uv": [ 4, 8, 12, 9.5 ], "texture": "#texture" },
				"south": { "uv": [ 4, 8, 12, 9.5 ], "texture": "#texture" },
				"west": { "uv": [ 3.5, 8, 4, 9.5 ], "texture": "#texture" },
				"east": { "uv": [ 12, 8, 12.5, 9.5 ], "texture": "#texture" }
			}
		},
		{
			"__comment": "Box3",
			"from": [ 4, 8, 2.5 ],
			"to": [ 12, 9.5, 4 ],
			"faces": {
				"down": { "uv": [ 4, 11.5, 12, 13 ], "texture": "#texture" },
				"up": { "uv": [ 4, 3, 12, 4.5 ], "texture": "#texture" },
				"north": { "uv": [ 4, 6.5, 12, 8 ], "texture": "#texture" },
				"south": { "uv": [ 4, 6.5, 12, 8 ], "texture": "#texture" },
				"west": { "uv": [ 3, 6.5, 4.5, 8 ], "texture": "#texture" },
				"east": { "uv": [ 11.5, 6.5, 13, 8 ], "texture": "#texture" }
			}
		},
		{
			"__comment": "Box3",
			"from": [ 4, 14.5, 0 ],
			"to": [ 12, 16, 4 ],
			"faces": {
				"down": { "uv": [ 4, 12, 12, 16 ], "texture": "#texture1" },
				"up": { "uv": [ 4, 0, 12, 4 ], "texture": "#texture1" },
				"north": { "uv": [ 4, 0, 12, 1.5 ], "texture": "#texture" },
				"south": { "uv": [ 4, 0, 12, 1.5 ], "texture": "#texture" },
				"west": { "uv": [ 0, 0, 4, 1.5 ], "texture": "#texture" },
				"east": { "uv": [ 12, 0, 16, 1.5 ], "texture": "#texture" }
			}
		},
		{
			"__comment": "Box3",
			"from": [ -0.5, 10.49, 7 ],
			"to": [ 3, 14.49, 11 ],
			"rotation": { "origin": [ -0.499999, 10.5, 11 ], "axis": "y", "angle": -22.5 },
			"faces": {
				"down": { "uv": [ 0, 11.5, 8.5, 15 ], "texture": "#texture1", "rotation": 90 },
				"up": { "uv": [ 0, 1, 8.5, 4.5 ], "texture": "#texture1", "rotation": 270 },
				"north": { "uv": [ 11.5, 1.5, 15, 5.5 ], "texture": "#texture" },
				"south": { "uv": [ 1, 1.5, 4.5, 5.5 ], "texture": "#texture" },
				"west": { "uv": [ 7.5, 1.5, 16, 5.5 ], "texture": "#texture" },
				"east": { "uv": [ 0, 1.5, 8.5, 5.5 ], "texture": "#texture" }
			}
		},
		{
			"__comment": "Box3",
			"from": [ 12, 0, 4 ],
			"to": [ 12.5, 1, 12 ],
			"faces": {
				"down": { "uv": [ 12, 4, 12.5, 12 ], "texture": "#texture" },
				"up": { "uv": [ 12, 4, 12.5, 12 ], "texture": "#texture" },
				"north": { "uv": [ 3.5, 15, 4, 16 ], "texture": "#texture" },
				"south": { "uv": [ 12, 15, 12.5, 16 ], "texture": "#texture" },
				"west": { "uv": [ 4, 15, 12, 16 ], "texture": "#texture" },
				"east": { "uv": [ 4, 15, 12, 16 ], "texture": "#texture" }
			}
		},
		{
			"__comment": "Box3",
			"from": [ 12, 6.5, 4 ],
			"to": [ 12.5, 8, 12 ],
			"faces": {
				"down": { "uv": [ 12, 4, 12.5, 12 ], "texture": "#texture" },
				"up": { "uv": [ 12, 4, 12.5, 12 ], "texture": "#texture" },
				"north": { "uv": [ 3.5, 8, 4, 9.5 ], "texture": "#texture" },
				"south": { "uv": [ 12, 8, 12.5, 9.5 ], "texture": "#texture" },
				"west": { "uv": [ 4, 8, 12, 9.5 ], "texture": "#texture" },
				"east": { "uv": [ 4, 8, 12, 9.5 ], "texture": "#texture" }
			}
		},
		{
			"__comment": "Box3",
			"from": [ 12, 8, 4 ],
			"to": [ 13.5, 9.5, 12 ],
			"faces": {
				"down": { "uv": [ 12, 4, 13.5, 12 ], "texture": "#texture" },
				"up": { "uv": [ 12, 4, 13.5, 12 ], "texture": "#texture" },
				"north": { "uv": [ 2.5, 6.5, 4, 8 ], "texture": "#texture" },
				"south": { "uv": [ 12, 6.5, 13.5, 8 ], "texture": "#texture" },
				"west": { "uv": [ 4, 6.5, 12, 8 ], "texture": "#texture" },
				"east": { "uv": [ 4, 6.5, 12, 8 ], "texture": "#texture" }
			}
		},
		{
			"__comment": "Box3",
			"from": [ 12, 8, 2.5 ],
			"to": [ 13.5, 8.5, 4 ],
			"faces": {
				"down": { "uv": [ 12, 12, 13.5, 13.5 ], "texture": "#texture1" },
				"up": { "uv": [ 12, 2.5, 13.5, 4 ], "texture": "#texture1" },
				"north": { "uv": [ 2.5, 7.5, 4, 8 ], "texture": "#texture" },
				"south": { "uv": [ 12, 7.5, 13.5, 8 ], "texture": "#texture" },
				"west": { "uv": [ 2.5, 7.5, 4, 8 ], "texture": "#texture" },
				"east": { "uv": [ 12, 7.5, 13.5, 8 ], "texture": "#texture" }
			}
		},
		{
			"__comment": "Box3",
			"from": [ 4, 9.5, 12 ],
			"to": [ 12, 10.5, 14 ],
			"faces": {
				"down": { "uv": [ 4, 2, 12, 4 ], "texture": "#texture" },
				"up": { "uv": [ 4, 12, 12, 14 ], "texture": "#texture" },
				"north": { "uv": [ 4, 5.5, 12, 6.5 ], "texture": "#texture" },
				"south": { "uv": [ 4, 5.5, 12, 6.5 ], "texture": "#texture" },
				"west": { "uv": [ 12, 5.5, 14, 6.5 ], "texture": "#texture" },
				"east": { "uv": [ 2, 5.5, 4, 6.5 ], "texture": "#texture" }
			}
		},
		{
			"__comment": "Box2",
			"from": [ 11, 8.5, 11 ],
			"to": [ 16.5, 14.5, 16.5 ],
			"faces": {
				"down": { "uv": [ 10.5, 10.5, 16, 16 ], "texture": "#texture1", "rotation": 180 },
				"up": { "uv": [ 10.5, 0, 16, 5.5 ], "texture": "#texture1", "rotation": 180 },
				"north": { "uv": [ 5.5, 0, 11, 6 ], "texture": "#texture2" },
				"south": { "uv": [ 0, 0, 5.5, 6 ], "texture": "#texture2" },
				"west": { "uv": [ 0, 0, 5.5, 6 ], "texture": "#texture2" },
				"east": { "uv": [ 5.5, 0, 11, 6 ], "texture": "#texture2" }
			}
		},
		{
			"__comment": "Box3",
			"from": [ 4.0694, 10.491, 11.6221 ],
			"to": [ 8.0694, 14.491, 15.1221 ],
			"rotation": { "origin": [ 8, 10.5, 13.5 ], "axis": "y", "angle": 22.5 },
			"faces": {
				"down": { "uv": [ 7.5, 9, 16, 12.5 ], "texture": "#texture1", "rotation": 180 },
				"up": { "uv": [ 7.5, 3.5, 16, 7 ], "texture": "#texture1", "rotation": 180 },
				"north": { "uv": [ 7.5, 1.51, 16, 5.51 ], "texture": "#texture" },
				"south": { "uv": [ 0, 1.51, 8.5, 5.51 ], "texture": "#texture" },
				"west": { "uv": [ 9, 1.51, 12.5, 5.51 ], "texture": "#texture" },
				"east": { "uv": [ 3.5, 1.51, 7, 5.51 ], "texture": "#texture" }
			}
		},
		{
			"__comment": "Box3",
			"from": [ 4, 0, 12 ],
			"to": [ 12, 1, 12.5 ],
			"faces": {
				"down": { "uv": [ 4, 3.5, 12, 4 ], "texture": "#texture" },
				"up": { "uv": [ 4, 12, 12, 12.5 ], "texture": "#texture" },
				"north": { "uv": [ 4, 15, 12, 16 ], "texture": "#texture" },
				"south": { "uv": [ 4, 15, 12, 16 ], "texture": "#texture" },
				"west": { "uv": [ 12, 15, 12.5, 16 ], "texture": "#texture" },
				"east": { "uv": [ 3.5, 15, 4, 16 ], "texture": "#texture" }
			}
		},
		{
			"__comment": "Box3",
			"from": [ 4, 6.5, 12 ],
			"to": [ 12, 8, 12.5 ],
			"faces": {
				"down": { "uv": [ 4, 3.5, 12, 4 ], "texture": "#texture" },
				"up": { "uv": [ 4, 12, 12, 12.5 ], "texture": "#texture" },
				"north": { "uv": [ 4, 8, 12, 9.5 ], "texture": "#texture" },
				"south": { "uv": [ 4, 8, 12, 9.5 ], "texture": "#texture" },
				"west": { "uv": [ 12, 8, 12.5, 9.5 ], "texture": "#texture" },
				"east": { "uv": [ 3.5, 8, 4, 9.5 ], "texture": "#texture" }
			}
		},
		{
			"__comment": "Box3",
			"from": [ 4, 8, 12 ],
			"to": [ 12, 9.5, 13.5 ],
			"faces": {
				"down": { "uv": [ 4, 2.5, 12, 4 ], "texture": "#texture" },
				"up": { "uv": [ 4, 12, 12, 13.5 ], "texture": "#texture" },
				"north": { "uv": [ 4, 6.5, 12, 8 ], "texture": "#texture" },
				"south": { "uv": [ 4, 6.5, 12, 8 ], "texture": "#texture" },
				"west": { "uv": [ 12, 6.5, 13.5, 8 ], "texture": "#texture" },
				"east": { "uv": [ 2.5, 6.5, 4, 8 ], "texture": "#texture" }
			}
		},
		{
			"__comment": "Box3",
			"from": [ 4, 14.5, 12 ],
			"to": [ 12, 16, 16 ],
			"faces": {
				"down": { "uv": [ 4, 0, 12, 4 ], "texture": "#texture1" },
				"up": { "uv": [ 4, 12, 12, 16 ], "texture": "#texture1" },
				"north": { "uv": [ 4, 0, 12, 1.5 ], "texture": "#texture" },
				"south": { "uv": [ 4, 0, 12, 1.5 ], "texture": "#texture" },
				"west": { "uv": [ 12, 0, 16, 1.5 ], "texture": "#texture" },
				"east": { "uv": [ 0, 0, 4, 1.5 ], "texture": "#texture" }
			}
		},
		{
			"__comment": "Box3",
			"from": [ 6.3142, 10.49, 13.5273 ],
			"to": [ 10.3142, 14.49, 17.0273 ],
			"rotation": { "origin": [ 12, 10.5, 18.5 ], "axis": "y", "angle": -22.5 },
			"faces": {
				"down": { "uv": [ 0, 11.5, 8.5, 15 ], "texture": "#texture1", "rotation": 180 },
				"up": { "uv": [ 0, 1, 8.5, 4.5 ], "texture": "#texture1", "rotation": 180 },
				"north": { "uv": [ 0, 1.5, 8.5, 5.5 ], "texture": "#texture" },
				"south": { "uv": [ 7.5, 1.5, 16, 5.5 ], "texture": "#texture" },
				"west": { "uv": [ 11.5, 1.5, 15, 5.5 ], "texture": "#texture" },
				"east": { "uv": [ 1, 1.5, 4.5, 5.5 ], "texture": "#texture" }
			}
		},
		{
			"__comment": "Box3",
			"from": [ 12, 14.5, 4 ],
			"to": [ 16, 16, 12 ],
			"faces": {
				"down": { "uv": [ 12, 4, 16, 12 ], "texture": "#texture1" },
				"up": { "uv": [ 12, 4, 16, 12 ], "texture": "#texture1" },
				"north": { "uv": [ 0, 0, 4, 1.5 ], "texture": "#texture" },
				"south": { "uv": [ 12, 0, 16, 1.5 ], "texture": "#texture" },
				"west": { "uv": [ 4, 0, 12, 1.5 ], "texture": "#texture" },
				"east": { "uv": [ 4, 0, 12, 1.5 ], "texture": "#texture" }
			}
		},
		{
			"__comment": "Box3",
			"from": [ 12, 14.5, 0 ],
			"to": [ 16, 16, 4 ],
			"faces": {
				"down": { "uv": [ 12, 12, 16, 16 ], "texture": "#texture1" },
				"up": { "uv": [ 12, 0, 16, 4 ], "texture": "#texture1" },
				"north": { "uv": [ 0, 0, 4, 1.5 ], "texture": "#texture" },
				"south": { "uv": [ 12, 0, 16, 1.5 ], "texture": "#texture" },
				"west": { "uv": [ 0, 0, 4, 1.5 ], "texture": "#texture" },
				"east": { "uv": [ 12, 0, 16, 1.5 ], "texture": "#texture" }
			}
		},
		{
			"__comment": "Box3",
			"from": [ 12, 14.5, 12 ],
			"to": [ 16, 16, 16 ],
			"faces": {
				"down": { "uv": [ 12, 0, 16, 4 ], "texture": "#texture1" },
				"up": { "uv": [ 12, 12, 16, 16 ], "texture": "#texture1" },
				"north": { "uv": [ 0, 0, 4, 1.5 ], "texture": "#texture" },
				"south": { "uv": [ 12, 0, 16, 1.5 ], "texture": "#texture" },
				"west": { "uv": [ 12, 0, 16, 1.5 ], "texture": "#texture" },
				"east": { "uv": [ 0, 0, 4, 1.5 ], "texture": "#texture" }
			}
		},
		{
			"__comment": "Box3",
			"from": [ 0, 14.5, 12 ],
			"to": [ 4, 16, 16 ],
			"faces": {
				"down": { "uv": [ 0, 0, 4, 4 ], "texture": "#texture1" },
				"up": { "uv": [ 0, 12, 4, 16 ], "texture": "#texture1" },
				"north": { "uv": [ 12, 0, 16, 1.5 ], "texture": "#texture" },
				"south": { "uv": [ 0, 0, 4, 1.5 ], "texture": "#texture" },
				"west": { "uv": [ 12, 0, 16, 1.5 ], "texture": "#texture" },
				"east": { "uv": [ 0, 0, 4, 1.5 ], "texture": "#texture" }
			}
		},
		{
			"__comment": "Box3",
			"from": [ 0, 14.5, 0 ],
			"to": [ 4, 16, 4 ],
			"faces": {
				"down": { "uv": [ 0, 12, 4, 16 ], "texture": "#texture1" },
				"up": { "uv": [ 0, 0, 4, 4 ], "texture": "#texture1" },
				"north": { "uv": [ 12, 0, 16, 1.5 ], "texture": "#texture" },
				"south": { "uv": [ 0, 0, 4, 1.5 ], "texture": "#texture" },
				"west": { "uv": [ 0, 0, 4, 1.5 ], "texture": "#texture" },
				"east": { "uv": [ 12, 0, 16, 1.5 ], "texture": "#texture" }
			}
		},
		{
			"__comment": "Box3",
			"from": [ 12, 8, 12 ],
			"to": [ 13.5, 8.5, 13.5 ],
			"faces": {
				"down": { "uv": [ 12, 2.5, 13.5, 4 ], "texture": "#texture1" },
				"up": { "uv": [ 12, 12, 13.5, 13.5 ], "texture": "#texture1" },
				"north": { "uv": [ 2.5, 7.5, 4, 8 ], "texture": "#texture" },
				"south": { "uv": [ 12, 7.5, 13.5, 8 ], "texture": "#texture" },
				"west": { "uv": [ 12, 7.5, 13.5, 8 ], "texture": "#texture" },
				"east": { "uv": [ 2.5, 7.5, 4, 8 ], "texture": "#texture" }
			}
		},
		{
			"__comment": "Box3",
			"from": [ 2.5, 8, 12 ],
			"to": [ 4, 8.5, 13.5 ],
			"faces": {
				"down": { "uv": [ 9.536743E-07, 0, 1.500001, 1.5 ], "texture": "#texture1" },
				"up": { "uv": [ 9.536743E-07, 14.5, 1.500001, 16 ], "texture": "#texture1" },
				"north": { "uv": [ 14.5, 7.5, 16, 8 ], "texture": "#texture" },
				"south": { "uv": [ 9.536743E-07, 7.5, 1.500001, 8 ], "texture": "#texture" },
				"west": { "uv": [ 14.5, 7.5, 16, 8 ], "texture": "#texture" },
				"east": { "uv": [ 0, 7.5, 1.5, 8 ], "texture": "#texture" }
			}
		},
		{
			"__comment": "Box3",
			"from": [ 2.5, 8, 2.5 ],
			"to": [ 4, 8.5, 4 ],
			"faces": {
				"down": { "uv": [ 2.5, 11.5, 4, 13 ], "texture": "#texture1" },
				"up": { "uv": [ 2.5, 3, 4, 4.5 ], "texture": "#texture1" },
				"north": { "uv": [ 12, 7.5, 13.5, 8 ], "texture": "#texture" },
				"south": { "uv": [ 2.5, 7.5, 4, 8 ], "texture": "#texture" },
				"west": { "uv": [ 3, 7.5, 4.5, 8 ], "texture": "#texture" },
				"east": { "uv": [ 11.5, 7.5, 13, 8 ], "texture": "#texture" }
			}
		},
		{
			"__comment": "Box2",
			"from": [ 11, 8.5, -0.5 ],
			"to": [ 16.5, 14.5, 5 ],
			"faces": {
				"down": { "uv": [ 10.5, 10.5, 16, 16 ], "texture": "#texture1", "rotation": 270 },
				"up": { "uv": [ 10.5, 0, 16, 5.5 ], "texture": "#texture1", "rotation": 90 },
				"north": { "uv": [ 5.5, 0, 11, 6 ], "texture": "#texture2" },
				"south": { "uv": [ 0, 0, 5.5, 6 ], "texture": "#texture2" },
				"west": { "uv": [ 5.5, 0, 11, 6 ], "texture": "#texture2" },
				"east": { "uv": [ 0, 0, 5.5, 6 ], "texture": "#texture2" }
			}
		},
		{
			"__comment": "Box2",
			"from": [ -0.5, 8.5, 11 ],
			"to": [ 5, 14.5, 16.5 ],
			"faces": {
				"down": { "uv": [ 10.5, 10.5, 16, 16 ], "texture": "#texture1", "rotation": 90 },
				"up": { "uv": [ 10.5, 0, 16, 5.5 ], "texture": "#texture1", "rotation": 270 },
				"north": { "uv": [ 0, 0, 5.5, 6 ], "texture": "#texture2" },
				"south": { "uv": [ 5.5, 0, 11, 6 ], "texture": "#texture2" },
				"west": { "uv": [ 0, 0, 5.5, 6 ], "texture": "#texture2" },
				"east": { "uv": [ 5.5, 0, 11, 6 ], "texture": "#texture2" }
			}
		},
		{
			"__comment": "Box3",
			"from": [ 7.1009, 10.491, 0.9408 ],
			"to": [ 11.1009, 14.491, 4.4408 ],
			"rotation": { "origin": [ 7.5, 10.5, 0.5 ], "axis": "y", "angle": 22.5 },
			"faces": {
				"down": { "uv": [ 7.5, 9, 16, 12.5 ], "texture": "#texture1" },
				"up": { "uv": [ 7.5, 3.5, 16, 7 ], "texture": "#texture1" },
				"north": { "uv": [ 0, 1.51, 8.5, 5.51 ], "texture": "#texture" },
				"south": { "uv": [ 7.5, 1.51, 16, 5.51 ], "texture": "#texture" },
				"west": { "uv": [ 3.5, 1.51, 7, 5.51 ], "texture": "#texture" },
				"east": { "uv": [ 9, 1.51, 12.5, 5.51 ], "texture": "#texture" }
			}
		},
		{
			"__comment": "Box3",
			"from": [ 11.5994, 10.491, 7.1176 ],
			"to": [ 15.0994, 14.491, 11.1176 ],
			"rotation": { "origin": [ 15.5, 10.5, 7.5 ], "axis": "y", "angle": 22.5 },
			"faces": {
				"down": { "uv": [ 7.5, 9, 16, 12.5 ], "texture": "#texture1", "rotation": 270 },
				"up": { "uv": [ 7.5, 3.5, 16, 7 ], "texture": "#texture1", "rotation": 90 },
				"north": { "uv": [ 3.5, 1.51, 7, 5.51 ], "texture": "#texture" },
				"south": { "uv": [ 9, 1.51, 12.5, 5.51 ], "texture": "#texture" },
				"west": { "uv": [ 7.5, 1.51, 16, 5.51 ], "texture": "#texture" },
				"east": { "uv": [ 0, 1.51, 8.5, 5.51 ], "texture": "#texture" }
			}
		},
		{
			"__comment": "Box3",
			"from": [ 5, 10.49, -0.5 ],
			"to": [ 9, 14.49, 3 ],
			"rotation": { "origin": [ 5, 10.5, -0.5 ], "axis": "y", "angle": -22.5 },
			"faces": {
				"down": { "uv": [ 0, 11.5, 8.5, 15 ], "texture": "#texture1" },
				"up": { "uv": [ 0, 1, 8.5, 4.5 ], "texture": "#texture1" },
				"north": { "uv": [ 7.5, 1.5, 16, 5.5 ], "texture": "#texture" },
				"south": { "uv": [ 0, 1.5, 8.5, 5.5 ], "texture": "#texture" },
				"west": { "uv": [ 1, 1.5, 4.5, 5.5 ], "texture": "#texture" },
				"east": { "uv": [ 11.5, 1.5, 15, 5.5 ], "texture": "#texture" }
			}
		},
		{
			"__comment": "Box3",
			"from": [ 13, 10.49, 5 ],
			"to": [ 16.5, 14.49, 9 ],
			"rotation": { "origin": [ 16.5, 10.5, 5 ], "axis": "y", "angle": -22.5 },
			"faces": {
				"down": { "uv": [ 0, 11.5, 8.5, 15 ], "texture": "#texture1", "rotation": 270 },
				"up": { "uv": [ 0, 1, 8.5, 4.5 ], "texture": "#texture1", "rotation": 90 },
				"north": { "uv": [ 1, 1.5, 4.5, 5.5 ], "texture": "#texture" },
				"south": { "uv": [ 11.5, 1.5, 15, 5.5 ], "texture": "#texture" },
				"west": { "uv": [ 0, 1.5, 8.5, 5.5 ], "texture": "#texture" },
				"east": { "uv": [ 7.5, 1.5, 16, 5.5 ], "texture": "#texture" }
			}
		},
		{
			"__comment": "Box3",
			"from": [ 4, 9.5, 2 ],
			"to": [ 12, 10.5, 4 ],
			"faces": {
				"down": { "uv": [ 4, 12, 12, 14 ], "texture": "#texture" },
				"up": { "uv": [ 4, 2, 12, 4 ], "texture": "#texture" },
				"north": { "uv": [ 4, 5.5, 12, 6.5 ], "texture": "#texture" },
				"south": { "uv": [ 4, 5.5, 12, 6.5 ], "texture": "#texture" },
				"west": { "uv": [ 2, 5.5, 4, 6.5 ], "texture": "#texture" },
				"east": { "uv": [ 12, 5.5, 14, 6.5 ], "texture": "#texture" }
			}
		},
		{
			"__comment": "Box3",
			"from": [ 12, 9.5, 4 ],
			"to": [ 14, 10.5, 12 ],
			"faces": {
				"down": { "uv": [ 12, 4, 14, 12 ], "texture": "#texture" },
				"up": { "uv": [ 12, 4, 14, 12 ], "texture": "#texture" },
				"north": { "uv": [ 2, 5.5, 4, 6.5 ], "texture": "#texture" },
				"south": { "uv": [ 12, 5.5, 14, 6.5 ], "texture": "#texture" },
				"west": { "uv": [ 4, 5.5, 12, 6.5 ], "texture": "#texture" },
				"east": { "uv": [ 4, 5.5, 12, 6.5 ], "texture": "#texture" }
			}
		}
	]
}