{
    "parent": "block/parent_capital_doric_fence_post",
    "textures": {
        "side": "conquest:blocks/roman_column_sandstone_capital",
        "down": "conquest:blocks/roman_column_sandstone_top",
        "up": "conquest:blocks/roman_capital_sandstone_top"
    }
}
