{
    "parent": "block/parent_capital_doric_fence_post",
    "textures": {
        "side": "conquest:blocks/roman_column_red_capital_marble",
        "down": "conquest:blocks/roman_column_red_top",
        "up": "conquest:blocks/roman_capital_marble_top"
    }
}
