{
    "parent": "block/parent_capital_doric_wall_nsew",
    "textures": {
        "side": "conquest:blocks/roman_column_gold_capital_sandstone",
        "down": "conquest:blocks/roman_column_gold_top",
        "up": "conquest:blocks/roman_capital_sandstone_top"
    }
}
