{
	"__comment": "Designed by RomanCapitalist with Cubik Studio - https://cubik.studio",
	"parent": "block/block",
	"textures": {
		"particle": "conquest:blocks/roman_corinthian_capital_polychrome",
		"side": "conquest:blocks/roman_corinthian_capital_polychrome",
		"up": "conquest:blocks/roman_capital_sandstone_top",
		"down": "conquest:blocks/roman_capital_sandstone_top"
	},
	"elements": [ 	 
		{
			"from": [ 11.9991, -0.0008838241, 3.999249 ],
			"to": [ 15.9991, 15.99912, 11.99925 ],
			"faces": {
				"down": { "uv": [ 12, 4, 16, 12 ], "texture": "#down" },
				"up": { "uv": [ 12, 4, 16, 12 ], "texture": "#up" },
				"north": { "uv": [ 0, 0, 4, 16 ], "texture": "#side" },
				"south": { "uv": [ 12, 0, 16, 16 ], "texture": "#side" },
				"west": { "uv": [ 4, 0, 12, 16 ], "texture": "#side" },
				"east": { "uv": [ 4, 0, 12, 16 ], "texture": "#side" }
			}
		},
		{
			"__comment": "Box10",
			"from": [ -0.0009273455, 15.00063, 12.00065 ],
			"to": [ 1.999073, 16.00063, 14.00065 ],
			"faces": {
				"down": { "uv": [ 1.370907E-06, 2.000002, 2.000001, 4.000002 ], "texture": "#down" },
				"up": { "uv": [ 1.370907E-06, 12, 2.000001, 14 ], "texture": "#down" },
				"south": { "uv": [ 1.370907E-06, 0, 2.000001, 1 ], "texture": "#side" },
				"west": { "uv": [ 12, 0, 14, 1 ], "texture": "#side" },
				"east": { "uv": [ 2.000002, 0, 4.000002, 1 ], "texture": "#side" }
			}
		},
		{
			"__comment": "Box10",
			"from": [ 12.99011, 7.500917, 10.49926 ],
			"to": [ 15.99011, 11.50092, 11.99926 ],
			"rotation": { "origin": [ 13, 7.5, 10.5 ], "axis": "x", "angle": 22.5 },
			"faces": {
				"south": { "uv": [ 13, 4.5, 16, 8.5 ], "texture": "#side" },
				"west": { "uv": [ 13, 4.5, 14.5, 8.5 ], "texture": "#side" },
				"east": { "uv": [ 1.5, 4.5, 3, 8.5 ], "texture": "#side" }
			}
		},
		{
			"__comment": "Box10",
			"from": [ 13.49992, 7.500444, 12.00014 ],
			"to": [ 15.49992, 8.500444, 13.50014 ],
			"faces": {
				"down": { "uv": [ 13.5, 0, 15.5, 1.5 ], "texture": "#side" },
				"up": { "uv": [ 13.5, 14.5, 15.5, 16 ], "texture": "#side" },
				"south": { "uv": [ 13.5, 7.5, 15.5, 8.5 ], "texture": "#side" },
				"west": { "uv": [ 14.5, 7.5, 16, 8.5 ], "texture": "#side" },
				"east": { "uv": [ 0, 7.5, 1.5, 8.5 ], "texture": "#side" }
			}
		},
		{
			"__comment": "Box10",
			"from": [ 0.5008917, 7.499336, 11.99969 ],
			"to": [ 2.500892, 8.499336, 13.49969 ],
			"faces": {
				"down": { "uv": [ 0.5, 0, 2.5, 1.5 ], "texture": "#side" },
				"up": { "uv": [ 0.5, 14.5, 2.5, 16 ], "texture": "#side" },
				"south": { "uv": [ 0.5, 7.5, 2.5, 8.5 ], "texture": "#side" },
				"west": { "uv": [ 14.5, 7.5, 16, 8.5 ], "texture": "#side" },
				"east": { "uv": [ 0, 7.5, 1.5, 8.5 ], "texture": "#side" }
			}
		},
		{
			"__comment": "Box10",
			"from": [ -0.0003941056, 13.50086, 11.99966 ],
			"to": [ 2.499606, 15.00086, 13.49966 ],
			"faces": {
				"down": { "uv": [ 1.356006E-06, 2.500002, 2.500001, 4.000002 ], "texture": "#up" },
				"south": { "uv": [ 1.356006E-06, 1, 2.500001, 2.5 ], "texture": "#side" },
				"west": { "uv": [ 12, 1, 13.5, 2.5 ], "texture": "#side" },
				"east": { "uv": [ 2.500002, 1, 4.000002, 2.5 ], "texture": "#side" }
			}
		},
		{
			"__comment": "Box10",
			"from": [ -7.63248E-05, 12.99989, 11.9997 ],
			"to": [ 2.999924, 13.49989, 12.9997 ],
			"faces": {
				"down": { "uv": [ 9.536743E-07, 3.000002, 3.000001, 4.000002 ], "texture": "#up" },
				"south": { "uv": [ 9.536743E-07, 2.5, 3.000001, 3 ], "texture": "#side" },
				"west": { "uv": [ 12, 2.5, 13, 3 ], "texture": "#side" },
				"east": { "uv": [ 3.000002, 2.5, 4.000002, 3 ], "texture": "#side" }
			}
		},
		{
			"__comment": "Box10",
			"from": [ 12.49945, 10.00035, 12.00051 ],
			"to": [ 15.99945, 13.00035, 14.00051 ],
			"faces": {
				"down": { "uv": [ 12.5, 0, 16, 2 ], "texture": "#side" },
				"up": { "uv": [ 12.5, 14, 16, 16 ], "texture": "#side" },
				"south": { "uv": [ 12.5, 3, 16, 6 ], "texture": "#side" },
				"west": { "uv": [ 14, 3, 16, 6 ], "texture": "#side" },
				"east": { "uv": [ 0, 3, 2, 6 ], "texture": "#side" }
			}
		},
		{
			"__comment": "Box10",
			"from": [ -0.0004354295, 10.00957, 12.00064 ],
			"to": [ 3.499565, 13.00957, 14.00064 ],
			"faces": {
				"down": { "uv": [ 0, 0, 3.5, 2 ], "texture": "#side" },
				"up": { "uv": [ 0, 14, 3.5, 16 ], "texture": "#side" },
				"south": { "uv": [ 0, 3, 3.5, 6 ], "texture": "#side" },
				"west": { "uv": [ 14, 3, 16, 6 ], "texture": "#side" },
				"east": { "uv": [ 0, 3, 2, 6 ], "texture": "#side" }
			}
		},
		{
			"__comment": "Box10",
			"from": [ 13.99974, 4.500377, 10.00061 ],
			"to": [ 14.99974, 8.500377, 11.50061 ],
			"rotation": { "origin": [ 14, 4.5, 9.999998 ], "axis": "x", "angle": 22.5 },
			"faces": {
				"south": { "uv": [ 14, 7.5, 15, 11.5 ], "texture": "#side" },
				"west": { "uv": [ 13, 7.5, 14.5, 11.5 ], "texture": "#side" },
				"east": { "uv": [ 1.5, 7.5, 3, 11.5 ], "texture": "#side" }
			}
		},
		{
			"__comment": "Box10",
			"from": [ 0.01010581, 7.500279, 10.49927 ],
			"to": [ 3.010106, 11.50028, 11.99927 ],
			"rotation": { "origin": [ 1.430511E-06, 7.5, 10.5 ], "axis": "x", "angle": 22.5 },
			"faces": {
				"south": { "uv": [ 0, 4.5, 3, 8.5 ], "texture": "#side" },
				"west": { "uv": [ 13, 4.5, 14.5, 8.5 ], "texture": "#side" },
				"east": { "uv": [ 1.5, 4.5, 3, 8.5 ], "texture": "#side" }
			}
		},
		{
			"__comment": "Box10",
			"from": [ 0.9991998, 4.500803, 9.999218 ],
			"to": [ 1.9992, 8.500803, 11.49922 ],
			"rotation": { "origin": [ 1.000001, 4.5, 10 ], "axis": "x", "angle": 22.5 },
			"faces": {
				"south": { "uv": [ 1, 7.5, 2, 11.5 ], "texture": "#side" },
				"west": { "uv": [ 13, 7.5, 14.5, 11.5 ], "texture": "#side" },
				"east": { "uv": [ 1.5, 7.5, 3, 11.5 ], "texture": "#side" }
			}
		},
		{
			"__comment": "Box2",
			"from": [ 12.50033, 0.0002512998, 12.00049 ],
			"to": [ 16.00033, 1.500251, 12.50049 ],
			"faces": {
				"down": { "uv": [ 12.5, 3.500004, 16, 4.000004 ], "texture": "#up" },
				"up": { "uv": [ 12.5, 12, 16, 12.5 ], "texture": "#up" },
				"south": { "uv": [ 12.5, 14.5, 16, 16 ], "texture": "#side" },
				"west": { "uv": [ 12, 14.5, 12.5, 16 ], "texture": "#side" },
				"east": { "uv": [ 3.500004, 14.5, 4.000004, 16 ], "texture": "#side" }
			}
		},
		{
			"__comment": "Box10",
			"from": [ -0.0005528763, 14.99909, 2.000098 ],
			"to": [ 1.999447, 15.99909, 4.000098 ],
			"faces": {
				"down": { "uv": [ 0, 12, 1.999997, 14 ], "texture": "#down" },
				"up": { "uv": [ 0, 2.000001, 1.999997, 4.000001 ], "texture": "#down" },
				"north": { "uv": [ 14, 0, 16, 1 ], "texture": "#side" },
				"west": { "uv": [ 2.000001, 0, 4.000001, 1 ], "texture": "#side" },
				"east": { "uv": [ 12, 0, 14, 1 ], "texture": "#side" }
			}
		},
		{
			"__comment": "Box10",
			"from": [ 13.5006, 7.499932, 2.499028 ],
			"to": [ 15.5006, 8.499932, 3.999028 ],
			"faces": {
				"down": { "uv": [ 13.5, 7.499999, 15.5, 8.999999 ], "texture": "#side" },
				"up": { "uv": [ 13.5, 7.000001, 15.5, 8.500001 ], "texture": "#side" },
				"north": { "uv": [ 0.500001, 7.5, 2.500001, 8.5 ], "texture": "#side" },
				"west": { "uv": [ 7.000001, 7.5, 8.500001, 8.5 ], "texture": "#side" },
				"east": { "uv": [ 7.499999, 7.5, 8.999999, 8.5 ], "texture": "#side" }
			}
		},
		{
			"__comment": "Box10",
			"from": [ 0.009987144, 7.500288, 3.999185 ],
			"to": [ 3.009987, 11.50029, 5.499186 ],
			"rotation": { "origin": [ 3, 7.5, 5.500001 ], "axis": "x", "angle": -22.5 },
			"faces": {
				"north": { "uv": [ 13, 4.5, 16, 8.5 ], "texture": "#side" },
				"west": { "uv": [ 1.5, 4.5, 3, 8.5 ], "texture": "#side" },
				"east": { "uv": [ 13, 4.5, 14.5, 8.5 ], "texture": "#side" }
			}
		},
		{
			"__comment": "Box10",
			"from": [ 0.5003263, 7.499998, 2.500588 ],
			"to": [ 2.500326, 8.499998, 4.000587 ],
			"faces": {
				"down": { "uv": [ 13.5, 0, 15.5, 1.5 ], "texture": "#side", "rotation": 180 },
				"up": { "uv": [ 13.5, 14.5, 15.5, 16 ], "texture": "#side", "rotation": 180 },
				"north": { "uv": [ 13.5, 7.5, 15.5, 8.5 ], "texture": "#side" },
				"west": { "uv": [ 0, 7.5, 1.5, 8.5 ], "texture": "#side" },
				"east": { "uv": [ 14.5, 7.5, 16, 8.5 ], "texture": "#side" }
			}
		},
		{
			"__comment": "Box10",
			"from": [ 0.0006710737, 13.50025, 2.500894 ],
			"to": [ 2.500671, 15.00025, 4.000894 ],
			"faces": {
				"down": { "uv": [ 0, 12, 2.499998, 13.5 ], "texture": "#up" },
				"north": { "uv": [ 13.5, 1, 16, 2.5 ], "texture": "#side" },
				"west": { "uv": [ 2.500001, 1, 4.000001, 2.5 ], "texture": "#side" },
				"east": { "uv": [ 12, 1, 13.5, 2.5 ], "texture": "#side" }
			}
		},
		{
			"__comment": "Box10",
			"from": [ -0.0008321109, 9.999785, 2.000617 ],
			"to": [ 3.499168, 12.99979, 4.000617 ],
			"faces": {
				"down": { "uv": [ 12.5, 0, 16, 2 ], "texture": "#side", "rotation": 180 },
				"up": { "uv": [ 12.5, 14, 16, 16 ], "texture": "#side", "rotation": 180 },
				"north": { "uv": [ 12.5, 3, 16, 6 ], "texture": "#side" },
				"west": { "uv": [ 0, 3, 2, 6 ], "texture": "#side" },
				"east": { "uv": [ 14, 3, 16, 6 ], "texture": "#side" }
			}
		},
		{
			"__comment": "Box10",
			"from": [ 12.49997, 10.00912, 1.999503 ],
			"to": [ 15.99997, 13.00912, 3.999503 ],
			"faces": {
				"down": { "uv": [ 0, 0, 3.5, 2 ], "texture": "#side", "rotation": 180 },
				"up": { "uv": [ 0, 14, 3.5, 16 ], "texture": "#side", "rotation": 180 },
				"north": { "uv": [ 0, 3, 3.5, 6 ], "texture": "#side" },
				"west": { "uv": [ 0, 3, 2, 6 ], "texture": "#side" },
				"east": { "uv": [ 14, 3, 16, 6 ], "texture": "#side" }
			}
		},
		{
			"__comment": "Box10",
			"from": [ 0.999337, 4.499942, 4.499291 ],
			"to": [ 1.999337, 8.499943, 5.999291 ],
			"rotation": { "origin": [ 2, 4.5, 6.000001 ], "axis": "x", "angle": -22.5 },
			"faces": {
				"north": { "uv": [ 14, 7.5, 15, 11.5 ], "texture": "#side" },
				"west": { "uv": [ 1.5, 7.5, 3, 11.5 ], "texture": "#side" },
				"east": { "uv": [ 13, 7.5, 14.5, 11.5 ], "texture": "#side" }
			}
		},
		{
			"__comment": "Box10",
			"from": [ 12.99045, 7.500607, 3.999788 ],
			"to": [ 15.99045, 11.50061, 5.499788 ],
			"rotation": { "origin": [ 16, 7.5, 5.499999 ], "axis": "x", "angle": -22.5 },
			"faces": {
				"north": { "uv": [ 0, 4.5, 3, 8.5 ], "texture": "#side" },
				"west": { "uv": [ 1.5, 4.5, 3, 8.5 ], "texture": "#side" },
				"east": { "uv": [ 13, 4.5, 14.5, 8.5 ], "texture": "#side" }
			}
		},
		{
			"__comment": "Box10",
			"from": [ 14.00092, 4.499499, 4.500497 ],
			"to": [ 15.00092, 8.499498, 6.000497 ],
			"rotation": { "origin": [ 15, 4.5, 6 ], "axis": "x", "angle": -22.5 },
			"faces": {
				"north": { "uv": [ 1, 7.5, 2, 11.5 ], "texture": "#side" },
				"west": { "uv": [ 1.5, 7.5, 3, 11.5 ], "texture": "#side" },
				"east": { "uv": [ 13, 7.5, 14.5, 11.5 ], "texture": "#side" }
			}
		},
		{
			"__comment": "Box2",
			"from": [ 0.0004111057, 0.000868924, 3.500205 ],
			"to": [ 3.500411, 1.500869, 4.000205 ],
			"faces": {
				"down": { "uv": [ 0, 12, 3.499996, 12.5 ], "texture": "#up" },
				"up": { "uv": [ 0, 3.500003, 3.499996, 4.000003 ], "texture": "#up" },
				"north": { "uv": [ 12.5, 14.5, 16, 16 ], "texture": "#side" },
				"west": { "uv": [ 3.500003, 14.5, 4.000003, 16 ], "texture": "#side" },
				"east": { "uv": [ 12, 14.5, 12.5, 16 ], "texture": "#side" }
			}
		},
		{
			"__comment": "Box10",
			"from": [ -0.0001615282, 12.99996, 2.999338 ],
			"to": [ 2.999839, 13.49996, 3.999338 ],
			"faces": {
				"down": { "uv": [ 0, 12, 2.999998, 13 ], "texture": "#up" },
				"north": { "uv": [ 13, 2.5, 16, 3 ], "texture": "#side" },
				"west": { "uv": [ 3.000001, 2.5, 4.000001, 3 ], "texture": "#side" },
				"east": { "uv": [ 12, 2.5, 13, 3 ], "texture": "#side" }
			}
		},
		{
			"from": [ 4.000837, 0.0001711332, -0.0002283465 ],
			"to": [ 12.00084, 16.00017, 15.99977 ],
			"faces": {
				"down": { "uv": [ 4, 0, 12, 16 ], "texture": "#down" },
				"up": { "uv": [ 4, 0, 12, 16 ], "texture": "#up" },
				"north": { "uv": [ 4, 0, 12, 16 ], "texture": "#side" },
				"south": { "uv": [ 4, 0, 12, 16 ], "texture": "#side" },
				"west": { "uv": [ 0, 0, 16, 16 ], "texture": "#side" },
				"east": { "uv": [ 0, 0, 16, 16 ], "texture": "#side" }
			}
		},
		{
			"__comment": "Box10",
			"from": [ 12.00045, 14.99943, -0.0009291404 ],
			"to": [ 14.00045, 15.99943, 3.999071 ],
			"faces": {
				"down": { "uv": [ 12, 12, 14, 16 ], "texture": "#down" },
				"up": { "uv": [ 12, 0, 14, 3.999999 ], "texture": "#down" },
				"north": { "uv": [ 2.000001, 0, 4.000001, 1 ], "texture": "#side" },
				"south": { "uv": [ 12, 0, 14, 1 ], "texture": "#side" },
				"east": { "uv": [ 12, 0, 16, 1 ], "texture": "#side" }
			}
		},
		{
			"__comment": "Box10",
			"from": [ 10.49939, 7.500067, 0.009950547 ],
			"to": [ 11.99939, 11.50007, 3.009951 ],
			"rotation": { "origin": [ 10.5, 7.5, 3.000001 ], "axis": "z", "angle": -22.5 },
			"faces": {
				"north": { "uv": [ 1.5, 4.5, 3, 8.5 ], "texture": "#side" },
				"south": { "uv": [ 13, 4.5, 14.5, 8.5 ], "texture": "#side" },
				"east": { "uv": [ 13, 4.5, 16, 8.5 ], "texture": "#side" }
			}
		},
		{
			"__comment": "Box10",
			"from": [ 11.99904, 7.499204, 0.4995412 ],
			"to": [ 13.49904, 8.499205, 2.499541 ],
			"faces": {
				"down": { "uv": [ 13.5, 0, 15.5, 1.5 ], "texture": "#side", "rotation": 90 },
				"up": { "uv": [ 13.5, 14.5, 15.5, 16 ], "texture": "#side", "rotation": 270 },
				"north": { "uv": [ 0, 7.5, 1.5, 8.5 ], "texture": "#side" },
				"south": { "uv": [ 14.5, 7.5, 16, 8.5 ], "texture": "#side" },
				"east": { "uv": [ 13.5, 7.5, 15.5, 8.5 ], "texture": "#side" }
			}
		},
		{
			"__comment": "Box10",
			"from": [ 12.00098, 7.500565, 13.49948 ],
			"to": [ 13.50098, 8.500565, 15.49948 ],
			"faces": {
				"down": { "uv": [ 0.5, 0, 2.5, 1.5 ], "texture": "#side", "rotation": 90 },
				"up": { "uv": [ 0.5, 14.5, 2.5, 16 ], "texture": "#side", "rotation": 270 },
				"north": { "uv": [ 0, 7.5, 1.5, 8.5 ], "texture": "#side" },
				"south": { "uv": [ 14.5, 7.5, 16, 8.5 ], "texture": "#side" },
				"east": { "uv": [ 0.5, 7.5, 2.5, 8.5 ], "texture": "#side" }
			}
		},
		{
			"__comment": "Box10",
			"from": [ 11.99918, 13.49958, 0.0008528035 ],
			"to": [ 13.49918, 14.99958, 4.000853 ],
			"faces": {
				"down": { "uv": [ 12, 12, 13.5, 16 ], "texture": "#up" },
				"north": { "uv": [ 2.500001, 1, 4.000001, 2.5 ], "texture": "#side" },
				"south": { "uv": [ 12, 1, 13.5, 2.5 ], "texture": "#side" },
				"east": { "uv": [ 12, 1, 16, 2.5 ], "texture": "#side" }
			}
		},
		{
			"__comment": "Box10",
			"from": [ 12.00035, 12.99907, -9.025488E-05 ],
			"to": [ 13.00035, 13.49907, 3.99991 ],
			"faces": {
				"down": { "uv": [ 12, 12, 13, 16 ], "texture": "#up" },
				"north": { "uv": [ 3.000001, 2.5, 4.000001, 3 ], "texture": "#side" },
				"south": { "uv": [ 12, 2.5, 13, 3 ], "texture": "#side" },
				"east": { "uv": [ 12, 2.5, 16, 3 ], "texture": "#side" }
			}
		},
		{
			"__comment": "Box10",
			"from": [ 12.00025, 9.999668, 0.0001634165 ],
			"to": [ 14.00025, 12.99967, 3.500163 ],
			"faces": {
				"down": { "uv": [ 12.5, 0, 16, 2 ], "texture": "#side", "rotation": 90 },
				"up": { "uv": [ 12.5, 14, 16, 16 ], "texture": "#side", "rotation": 270 },
				"north": { "uv": [ 0, 3, 2, 6 ], "texture": "#side" },
				"south": { "uv": [ 14, 3, 16, 6 ], "texture": "#side" },
				"east": { "uv": [ 12.5, 3, 16, 6 ], "texture": "#side" }
			}
		},
		{
			"__comment": "Box10",
			"from": [ 12.00032, 10.01021, 12.4997 ],
			"to": [ 14.00032, 13.01021, 15.9997 ],
			"faces": {
				"down": { "uv": [ 0, 0, 3.5, 2 ], "texture": "#side", "rotation": 90 },
				"up": { "uv": [ 0, 14, 3.5, 16 ], "texture": "#side", "rotation": 270 },
				"north": { "uv": [ 0, 3, 2, 6 ], "texture": "#side" },
				"south": { "uv": [ 14, 3, 16, 6 ], "texture": "#side" },
				"east": { "uv": [ 0, 3, 3.5, 6 ], "texture": "#side" }
			}
		},
		{
			"__comment": "Box10",
			"from": [ 10.00018, 4.499826, 0.9998808 ],
			"to": [ 11.50018, 8.499826, 1.999881 ],
			"rotation": { "origin": [ 9.999998, 4.5, 2.000001 ], "axis": "z", "angle": -22.5 },
			"faces": {
				"north": { "uv": [ 1.5, 7.5, 3, 11.5 ], "texture": "#side" },
				"south": { "uv": [ 13, 7.5, 14.5, 11.5 ], "texture": "#side" },
				"east": { "uv": [ 14, 7.5, 15, 11.5 ], "texture": "#side" }
			}
		},
		{
			"__comment": "Box10",
			"from": [ 10.50068, 7.500618, 12.99069 ],
			"to": [ 12.00068, 11.50062, 15.99069 ],
			"rotation": { "origin": [ 10.5, 7.5, 16 ], "axis": "z", "angle": -22.5 },
			"faces": {
				"north": { "uv": [ 1.5, 4.5, 3, 8.5 ], "texture": "#side" },
				"south": { "uv": [ 13, 4.5, 14.5, 8.5 ], "texture": "#side" },
				"east": { "uv": [ 0, 4.5, 3, 8.5 ], "texture": "#side" }
			}
		},
		{
			"__comment": "Box10",
			"from": [ 9.999653, 4.500113, 14.00005 ],
			"to": [ 11.49965, 8.500113, 15.00005 ],
			"rotation": { "origin": [ 10, 4.5, 15 ], "axis": "z", "angle": -22.5 },
			"faces": {
				"north": { "uv": [ 1.5, 7.5, 3, 11.5 ], "texture": "#side" },
				"south": { "uv": [ 13, 7.5, 14.5, 11.5 ], "texture": "#side" },
				"east": { "uv": [ 1, 7.5, 2, 11.5 ], "texture": "#side" }
			}
		},
		{
			"__comment": "Box2",
			"from": [ 12, 0.0001263638, -0.0005784471 ],
			"to": [ 12.5, 1.500126, 3.999422 ],
			"faces": {
				"down": { "uv": [ 12, 12, 12.5, 16 ], "texture": "#up" },
				"up": { "uv": [ 12, 0, 12.5, 3.999998 ], "texture": "#up" },
				"north": { "uv": [ 3.500003, 14.5, 4.000003, 16 ], "texture": "#side" },
				"south": { "uv": [ 12, 14.5, 12.5, 16 ], "texture": "#side" },
				"east": { "uv": [ 12, 14.5, 16, 16 ], "texture": "#side" }
			}
		},
		{
			"__comment": "Box10",
			"from": [ 2.00033, 15.00071, 11.99923 ],
			"to": [ 4.00033, 16.00071, 15.99923 ],
			"faces": {
				"down": { "uv": [ 2.000001, 0, 4.000001, 3.999998 ], "texture": "#down" },
				"up": { "uv": [ 2.000001, 12, 4.000001, 16 ], "texture": "#down" },
				"north": { "uv": [ 12, 0, 14, 1 ], "texture": "#side" },
				"south": { "uv": [ 2.000001, 0, 4.000001, 1 ], "texture": "#side" },
				"west": { "uv": [ 12, 0, 16, 1 ], "texture": "#side" }
			}
		},
		{
			"__comment": "Box10",
			"from": [ 2.500022, 7.499868, 0.4998697 ],
			"to": [ 4.000022, 8.499868, 2.49987 ],
			"faces": {
				"down": { "uv": [ 13.5, 7.499999, 15.5, 8.999999 ], "texture": "#side", "rotation": 90 },
				"up": { "uv": [ 13.5, 7.000001, 15.5, 8.500001 ], "texture": "#side", "rotation": 270 },
				"north": { "uv": [ 7.499999, 7.5, 8.999999, 8.5 ], "texture": "#side" },
				"south": { "uv": [ 7.000001, 7.5, 8.500001, 8.5 ], "texture": "#side" },
				"west": { "uv": [ 0.500001, 7.5, 2.500001, 8.5 ], "texture": "#side" }
			}
		},
		{
			"__comment": "Box10",
			"from": [ 4.000849, 7.499755, 12.99062 ],
			"to": [ 5.500849, 11.49975, 15.99062 ],
			"rotation": { "origin": [ 5.5, 7.5, 13 ], "axis": "z", "angle": 22.5 },
			"faces": {
				"north": { "uv": [ 13, 4.5, 14.5, 8.5 ], "texture": "#side" },
				"south": { "uv": [ 1.5, 4.5, 3, 8.5 ], "texture": "#side" },
				"west": { "uv": [ 13, 4.5, 16, 8.5 ], "texture": "#side" }
			}
		},
		{
			"__comment": "Box10",
			"from": [ 2.500041, 7.499986, 13.49903 ],
			"to": [ 4.000041, 8.499987, 15.49903 ],
			"faces": {
				"down": { "uv": [ 13.5, 0, 15.5, 1.5 ], "texture": "#side", "rotation": 270 },
				"up": { "uv": [ 13.5, 14.5, 15.5, 16 ], "texture": "#side", "rotation": 90 },
				"north": { "uv": [ 14.5, 7.5, 16, 8.5 ], "texture": "#side" },
				"south": { "uv": [ 0, 7.5, 1.5, 8.5 ], "texture": "#side" },
				"west": { "uv": [ 13.5, 7.5, 15.5, 8.5 ], "texture": "#side" }
			}
		},
		{
			"__comment": "Box10",
			"from": [ 2.499987, 13.49971, 12.00003 ],
			"to": [ 3.999987, 14.99971, 16.00003 ],
			"faces": {
				"down": { "uv": [ 2.500001, 0, 4.000001, 3.999998 ], "texture": "#up" },
				"north": { "uv": [ 12, 1, 13.5, 2.5 ], "texture": "#side" },
				"south": { "uv": [ 2.500001, 1, 4.000001, 2.5 ], "texture": "#side" },
				"west": { "uv": [ 12, 1, 16, 2.5 ], "texture": "#side" }
			}
		},
		{
			"__comment": "Box10",
			"from": [ 1.999501, 9.999336, 12.49992 ],
			"to": [ 3.999501, 12.99934, 15.99992 ],
			"faces": {
				"down": { "uv": [ 12.5, 0, 16, 2 ], "texture": "#side", "rotation": 270 },
				"up": { "uv": [ 12.5, 14, 16, 16 ], "texture": "#side", "rotation": 90 },
				"north": { "uv": [ 14, 3, 16, 6 ], "texture": "#side" },
				"south": { "uv": [ 0, 3, 2, 6 ], "texture": "#side" },
				"west": { "uv": [ 12.5, 3, 16, 6 ], "texture": "#side" }
			}
		},
		{
			"__comment": "Box10",
			"from": [ 2.000206, 10.00974, -0.0003820888 ],
			"to": [ 4.000206, 13.00974, 3.499618 ],
			"faces": {
				"down": { "uv": [ 0, 0, 3.5, 2 ], "texture": "#side", "rotation": 270 },
				"up": { "uv": [ 0, 14, 3.5, 16 ], "texture": "#side", "rotation": 90 },
				"north": { "uv": [ 14, 3, 16, 6 ], "texture": "#side" },
				"south": { "uv": [ 0, 3, 2, 6 ], "texture": "#side" },
				"west": { "uv": [ 0, 3, 3.5, 6 ], "texture": "#side" }
			}
		},
		{
			"__comment": "Box10",
			"from": [ 4.500481, 4.500624, 13.99929 ],
			"to": [ 6.000481, 8.500624, 14.99929 ],
			"rotation": { "origin": [ 6.000001, 4.5, 14 ], "axis": "z", "angle": 22.5 },
			"faces": {
				"north": { "uv": [ 13, 7.5, 14.5, 11.5 ], "texture": "#side" },
				"south": { "uv": [ 1.5, 7.5, 3, 11.5 ], "texture": "#side" },
				"west": { "uv": [ 14, 7.5, 15, 11.5 ], "texture": "#side" }
			}
		},
		{
			"__comment": "Box10",
			"from": [ 4.000627, 7.500245, 0.01079205 ],
			"to": [ 5.500627, 11.50024, 3.010792 ],
			"rotation": { "origin": [ 5.499999, 7.5, 2.384186E-06 ], "axis": "z", "angle": 22.5 },
			"faces": {
				"north": { "uv": [ 13, 4.5, 14.5, 8.5 ], "texture": "#side" },
				"south": { "uv": [ 1.5, 4.5, 3, 8.5 ], "texture": "#side" },
				"west": { "uv": [ 0, 4.5, 3, 8.5 ], "texture": "#side" }
			}
		},
		{
			"__comment": "Box10",
			"from": [ 4.500927, 4.50022, 1.000845 ],
			"to": [ 6.000927, 8.500219, 2.000845 ],
			"rotation": { "origin": [ 6, 4.5, 1 ], "axis": "z", "angle": 22.5 },
			"faces": {
				"north": { "uv": [ 13, 7.5, 14.5, 11.5 ], "texture": "#side" },
				"south": { "uv": [ 1.5, 7.5, 3, 11.5 ], "texture": "#side" },
				"west": { "uv": [ 1, 7.5, 2, 11.5 ], "texture": "#side" }
			}
		},
		{
			"__comment": "Box10",
			"from": [ 4.49926, 4.499598, 7.500457 ],
			"to": [ 5.99926, 8.499598, 8.500458 ],
			"rotation": { "origin": [ 6, 4.5, 7.5 ], "axis": "z", "angle": 22.5 },
			"faces": {
				"north": { "uv": [ 13, 7.5, 14.5, 11.5 ], "texture": "#side" },
				"south": { "uv": [ 1.5, 7.5, 3, 11.5 ], "texture": "#side" },
				"west": { "uv": [ 7.5, 7.5, 8.5, 11.5 ], "texture": "#side" }
			}
		},
		{
			"__comment": "Box2",
			"from": [ 3.499911, 0.0009418617, 12.00097 ],
			"to": [ 3.999911, 1.500942, 16.00097 ],
			"faces": {
				"down": { "uv": [ 3.500003, 0, 4.000003, 3.999996 ], "texture": "#up" },
				"up": { "uv": [ 3.500003, 12, 4.000003, 16 ], "texture": "#up" },
				"north": { "uv": [ 12, 14.5, 12.5, 16 ], "texture": "#side" },
				"south": { "uv": [ 3.500003, 14.5, 4.000003, 16 ], "texture": "#side" },
				"west": { "uv": [ 12, 14.5, 16, 16 ], "texture": "#side" }
			}
		},
		{
			"__comment": "Box10",
			"from": [ 2.999613, 12.99998, 12.00017 ],
			"to": [ 3.999613, 13.49998, 16.00017 ],
			"faces": {
				"down": { "uv": [ 3.000001, 0, 4.000001, 3.999998 ], "texture": "#up" },
				"north": { "uv": [ 12, 2.5, 13, 3 ], "texture": "#side" },
				"south": { "uv": [ 3.000001, 2.5, 4.000001, 3 ], "texture": "#side" },
				"west": { "uv": [ 12, 2.5, 16, 3 ], "texture": "#side" }
			}
		},
		{
			"__comment": "Box10",
			"from": [ 2.500542, 7.499205, 7.000464 ],
			"to": [ 4.000542, 8.499205, 9.000464 ],
			"faces": {
				"down": { "uv": [ 7, 0, 9, 1.5 ], "texture": "#side", "rotation": 270 },
				"up": { "uv": [ 7, 7.5, 9, 9 ], "texture": "#side", "rotation": 90 },
				"north": { "uv": [ 7.5, 7.5, 9, 8.5 ], "texture": "#side" },
				"south": { "uv": [ 7, 7.5, 8.5, 8.5 ], "texture": "#side" },
				"west": { "uv": [ 7, 7.5, 9, 8.5 ], "texture": "#side" }
			}
		},
		{
			"from": [ 0.0004870801, -5.980191E-05, 3.999612 ],
			"to": [ 4.000487, 15.99994, 11.99961 ],
			"faces": {
				"down": { "uv": [ 0, 4, 4, 12 ], "texture": "#down" },
				"up": { "uv": [ 0, 4, 4, 12 ], "texture": "#up" },
				"north": { "uv": [ 12, 0, 16, 16 ], "texture": "#side" },
				"south": { "uv": [ 0, 0, 4, 16 ], "texture": "#side" },
				"west": { "uv": [ 4, 0, 12, 16 ], "texture": "#side" },
				"east": { "uv": [ 4, 0, 12, 16 ], "texture": "#side" }
			}
		},
		{
			"__comment": "Box10",
			"from": [ 14.00084, 15.00062, 12.00012 ],
			"to": [ 16.00084, 16.00063, 14.00012 ],
			"faces": {
				"down": { "uv": [ 14, 12, 16, 14 ], "texture": "#down" },
				"up": { "uv": [ 14, 2.000001, 16, 4.000001 ], "texture": "#down" },
				"south": { "uv": [ 14, 0, 16, 1 ], "texture": "#side" },
				"west": { "uv": [ 2.000001, 0, 4.000001, 1 ], "texture": "#side" },
				"east": { "uv": [ 12, 0, 14, 1 ], "texture": "#side" }
			}
		},
		{
			"__comment": "Box10",
			"from": [ 13.50036, 13.49938, 12.00007 ],
			"to": [ 16.00036, 14.99938, 13.50007 ],
			"faces": {
				"down": { "uv": [ 13.5, 12, 16, 13.5 ], "texture": "#up" },
				"south": { "uv": [ 13.5, 1, 16, 2.5 ], "texture": "#side" },
				"west": { "uv": [ 2.500001, 1, 4.000001, 2.5 ], "texture": "#side" },
				"east": { "uv": [ 12, 1, 13.5, 2.5 ], "texture": "#side" }
			}
		},
		{
			"__comment": "Box10",
			"from": [ 12.99907, 12.99931, 11.99978 ],
			"to": [ 15.99907, 13.49931, 12.99978 ],
			"faces": {
				"down": { "uv": [ 13, 12, 16, 13 ], "texture": "#up" },
				"south": { "uv": [ 13, 2.5, 16, 3 ], "texture": "#side" },
				"west": { "uv": [ 3.000001, 2.5, 4.000001, 3 ], "texture": "#side" },
				"east": { "uv": [ 12, 2.5, 13, 3 ], "texture": "#side" }
			}
		},
		{
			"__comment": "Box10",
			"from": [ 14.00012, 14.99944, 2.000035 ],
			"to": [ 16.00012, 15.99944, 4.000035 ],
			"faces": {
				"down": { "uv": [ 14, 12, 16, 14 ], "texture": "#down" },
				"up": { "uv": [ 14, 2.000001, 16, 4.000001 ], "texture": "#down" },
				"north": { "uv": [ 2.861023E-06, 0, 2.000003, 1 ], "texture": "#side" },
				"west": { "uv": [ 2.000001, 0, 4.000001, 1 ], "texture": "#side" },
				"east": { "uv": [ 12, 0, 14, 1 ], "texture": "#side" }
			}
		},
		{
			"__comment": "Box10",
			"from": [ 13.4999, 13.49991, 2.499093 ],
			"to": [ 15.9999, 14.99991, 3.999093 ],
			"faces": {
				"down": { "uv": [ 13.5, 12, 16, 13.5 ], "texture": "#up" },
				"north": { "uv": [ 1.907349E-06, 1, 2.500002, 2.5 ], "texture": "#side" },
				"west": { "uv": [ 2.500001, 1, 4.000001, 2.5 ], "texture": "#side" },
				"east": { "uv": [ 12, 1, 13.5, 2.5 ], "texture": "#side" }
			}
		},
		{
			"__comment": "Box10",
			"from": [ 12.99985, 12.99927, 2.999646 ],
			"to": [ 15.99985, 13.49927, 3.999646 ],
			"faces": {
				"down": { "uv": [ 13, 12, 16, 13 ], "texture": "#up" },
				"north": { "uv": [ 1.907349E-06, 2.5, 3.000002, 3 ], "texture": "#side" },
				"west": { "uv": [ 3.000001, 2.5, 4.000001, 3 ], "texture": "#side" },
				"east": { "uv": [ 12, 2.5, 13, 3 ], "texture": "#side" }
			}
		},
		{
			"__comment": "Box2",
			"from": [ 0.0005839432, -0.0004059345, 11.99983 ],
			"to": [ 3.500584, 1.499594, 12.49983 ],
			"faces": {
				"down": { "uv": [ 1.698732E-06, 3.500004, 3.500002, 4.000004 ], "texture": "#up" },
				"up": { "uv": [ 1.698732E-06, 12, 3.500002, 12.5 ], "texture": "#up" },
				"south": { "uv": [ 1.698732E-06, 14.5, 3.500002, 16 ], "texture": "#side" },
				"west": { "uv": [ 12, 14.5, 12.5, 16 ], "texture": "#side" },
				"east": { "uv": [ 3.500004, 14.5, 4.000004, 16 ], "texture": "#side" }
			}
		},
		{
			"__comment": "Box2",
			"from": [ 12.49985, -0.0006301494, 3.500764 ],
			"to": [ 15.99985, 1.49937, 4.000764 ],
			"faces": {
				"down": { "uv": [ 12.5, 12, 16, 12.5 ], "texture": "#up" },
				"up": { "uv": [ 12.5, 3.500003, 16, 4.000003 ], "texture": "#up" },
				"north": { "uv": [ 3.814697E-06, 14.5, 3.500004, 16 ], "texture": "#side" },
				"west": { "uv": [ 3.500003, 14.5, 4.000003, 16 ], "texture": "#side" },
				"east": { "uv": [ 12, 14.5, 12.5, 16 ], "texture": "#side" }
			}
		},
		{
			"__comment": "Box10",
			"from": [ 12.0004, 15.00008, 11.9992 ],
			"to": [ 14.0004, 16.00008, 15.9992 ],
			"faces": {
				"down": { "uv": [ 12, 9.536743E-07, 14, 4.000001 ], "texture": "#down" },
				"up": { "uv": [ 12, 12, 14, 16 ], "texture": "#down" },
				"north": { "uv": [ 2.000001, 0, 4.000001, 1 ], "texture": "#side" },
				"south": { "uv": [ 12, 0, 14, 1 ], "texture": "#side" },
				"east": { "uv": [ 9.536743E-07, 0, 4.000001, 1 ], "texture": "#side" }
			}
		},
		{
			"__comment": "Box10",
			"from": [ 11.99945, 13.49968, 11.99926 ],
			"to": [ 13.49945, 14.99968, 15.99926 ],
			"faces": {
				"down": { "uv": [ 12, 1.907349E-06, 13.5, 4.000002 ], "texture": "#up" },
				"north": { "uv": [ 2.500001, 1, 4.000001, 2.5 ], "texture": "#side" },
				"south": { "uv": [ 12, 1, 13.5, 2.5 ], "texture": "#side" },
				"east": { "uv": [ 1.907349E-06, 1, 4.000002, 2.5 ], "texture": "#side" }
			}
		},
		{
			"__comment": "Box10",
			"from": [ 11.99987, 12.99996, 12.00022 ],
			"to": [ 12.99987, 13.49996, 16.00022 ],
			"faces": {
				"down": { "uv": [ 12, 0, 13, 4 ], "texture": "#up" },
				"north": { "uv": [ 3.000001, 2.5, 4.000001, 3 ], "texture": "#side" },
				"south": { "uv": [ 12, 2.5, 13, 3 ], "texture": "#side" },
				"east": { "uv": [ 0, 2.5, 4, 3 ], "texture": "#side" }
			}
		},
		{
			"__comment": "Box10",
			"from": [ 1.999567, 15.00051, -0.0009269915 ],
			"to": [ 3.999567, 16.00051, 3.999073 ],
			"faces": {
				"down": { "uv": [ 2.000001, 12, 4.000001, 16 ], "texture": "#down" },
				"up": { "uv": [ 2.000001, 1.907349E-06, 4.000001, 4.000002 ], "texture": "#down" },
				"north": { "uv": [ 12, 0, 14, 1 ], "texture": "#side" },
				"south": { "uv": [ 2.000001, 0, 4.000001, 1 ], "texture": "#side" },
				"west": { "uv": [ 2.264977E-06, 0, 4.000002, 1 ], "texture": "#side" }
			}
		},
		{
			"__comment": "Box10",
			"from": [ 2.500042, 13.50027, -0.0005099459 ],
			"to": [ 4.000042, 15.00027, 3.99949 ],
			"faces": {
				"down": { "uv": [ 2.500001, 12, 4.000001, 16 ], "texture": "#up" },
				"north": { "uv": [ 12, 1, 13.5, 2.5 ], "texture": "#side" },
				"south": { "uv": [ 2.500001, 1, 4.000001, 2.5 ], "texture": "#side" },
				"west": { "uv": [ 2.264977E-06, 1, 4.000002, 2.5 ], "texture": "#side" }
			}
		},
		{
			"__comment": "Box10",
			"from": [ 3.000171, 12.99995, -0.0009858165 ],
			"to": [ 4.000171, 13.49995, 3.999014 ],
			"faces": {
				"down": { "uv": [ 3.000001, 12, 4.000001, 16 ], "texture": "#up" },
				"north": { "uv": [ 12, 2.5, 13, 3 ], "texture": "#side" },
				"south": { "uv": [ 3.000001, 2.5, 4.000001, 3 ], "texture": "#side" },
				"west": { "uv": [ 2.264977E-06, 2.5, 4.000002, 3 ], "texture": "#side" }
			}
		},
		{
			"__comment": "Box2",
			"from": [ 3.500854, -5.030289E-05, 6.572879E-05 ],
			"to": [ 4.000854, 1.49995, 4.000066 ],
			"faces": {
				"down": { "uv": [ 3.500003, 12, 4.000003, 16 ], "texture": "#up" },
				"up": { "uv": [ 3.500003, 3.814697E-06, 4.000003, 4.000004 ], "texture": "#up" },
				"north": { "uv": [ 12, 14.5, 12.5, 16 ], "texture": "#side" },
				"south": { "uv": [ 3.500003, 14.5, 4.000003, 16 ], "texture": "#side" },
				"west": { "uv": [ 3.933907E-06, 14.5, 4.000004, 16 ], "texture": "#side" }
			}
		},
		{
			"__comment": "Box2",
			"from": [ 12.00038, 0.0001314608, 12.00065 ],
			"to": [ 12.50038, 1.500131, 16.00065 ],
			"faces": {
				"down": { "uv": [ 12, 1.907349E-06, 12.5, 4.000002 ], "texture": "#up" },
				"up": { "uv": [ 12, 12, 12.5, 16 ], "texture": "#up" },
				"north": { "uv": [ 3.500003, 14.5, 4.000003, 16 ], "texture": "#side" },
				"south": { "uv": [ 12, 14.5, 12.5, 16 ], "texture": "#side" },
				"east": { "uv": [ 1.907349E-06, 14.5, 4.000002, 16 ], "texture": "#side" }
			}
		}
	]
}