{
    "parent": "block/parent_capital_doric_wall_post",
    "textures": {
        "side": "conquest:blocks/roman_column_marble_capital",
        "down": "conquest:blocks/roman_column_marble_top",
        "up": "conquest:blocks/roman_capital_marble_top"
    }
}
