{
	"__comment": "Designed by RomanCapitalist with Cubik Studio - https://cubik.studio",
	"parent": "block/block",
	"textures": {
		"particle": "conquest:blocks/capitalionian_marble",
		"texture": "conquest:blocks/capitalionian_marble",
		"texture1": "conquest:blocks/roman_capital_marble_top",
		"texture2": "conquest:blocks/capitalionian_marble_spirals"
	},
	"elements": [ 	 
		{
			"__comment": "Box1",
			"from": [ 4, 0, 0 ],
			"to": [ 12, 16, 8 ],
			"faces": {
				"down": { "uv": [ 4, 8, 12, 16 ], "texture": "#texture1" },
				"up": { "uv": [ 4, 0, 12, 8 ], "texture": "#texture1" },
				"north": { "uv": [ 4, 0, 12, 16 ], "texture": "#texture" },
				"south": { "uv": [ 4, 0, 12, 16 ], "texture": "#texture" },
				"west": { "uv": [ 0, 0, 8, 16 ], "texture": "#texture" },
				"east": { "uv": [ 8, 0, 16, 16 ], "texture": "#texture" }
			}
		},
		{
			"__comment": "Box2",
			"from": [ -0.5, 8.5, 0 ],
			"to": [ 4, 14.5, 8 ],
			"faces": {
				"down": { "uv": [ 0, 8, 4, 16 ], "texture": "#texture1" },
				"up": { "uv": [ 0, 0, 4, 8 ], "texture": "#texture1" },
				"north": { "uv": [ 1, 0, 5, 6 ], "texture": "#texture2" },
				"south": { "uv": [ 1, 0, 5, 6 ], "texture": "#texture2" },
				"west": { "uv": [ 0, 6, 8, 12 ], "texture": "#texture2" },
				"east": { "uv": [ 8, 1.5, 16, 7.5 ], "texture": "#texture1" }
			}
		},
		{
			"__comment": "Box3",
			"from": [ 3.5, 0, 0 ],
			"to": [ 4, 1, 8 ],
			"faces": {
				"down": { "uv": [ 3.5, 4, 4, 12 ], "texture": "#texture" },
				"up": { "uv": [ 3.5, 4, 4, 12 ], "texture": "#texture" },
				"north": { "uv": [ 12, 15, 12.5, 16 ], "texture": "#texture" },
				"south": { "uv": [ 3.5, 15, 4, 16 ], "texture": "#texture" },
				"west": { "uv": [ 4, 15, 12, 16 ], "texture": "#texture" },
				"east": { "uv": [ 4, 15, 12, 16 ], "texture": "#texture" }
			}
		},
		{
			"__comment": "Box3",
			"from": [ 3.5, 6.5, 0 ],
			"to": [ 4, 8, 8 ],
			"faces": {
				"down": { "uv": [ 3.5, 4, 4, 12 ], "texture": "#texture" },
				"up": { "uv": [ 3.5, 4, 4, 12 ], "texture": "#texture" },
				"north": { "uv": [ 12, 8, 12.5, 9.5 ], "texture": "#texture" },
				"south": { "uv": [ 3.5, 8, 4, 9.5 ], "texture": "#texture" },
				"west": { "uv": [ 4, 8, 12, 9.5 ], "texture": "#texture" },
				"east": { "uv": [ 4, 8, 12, 9.5 ], "texture": "#texture" }
			}
		},
		{
			"__comment": "Box3",
			"from": [ 2.5, 8, 0 ],
			"to": [ 4, 9.5, 8 ],
			"faces": {
				"down": { "uv": [ 2.5, 4, 4, 12 ], "texture": "#texture" },
				"up": { "uv": [ 2.5, 4, 4, 12 ], "texture": "#texture" },
				"north": { "uv": [ 12, 6.5, 13.5, 8 ], "texture": "#texture" },
				"south": { "uv": [ 2.5, 6.5, 4, 8 ], "texture": "#texture" },
				"west": { "uv": [ 4, 6.5, 12, 8 ], "texture": "#texture" },
				"east": { "uv": [ 4, 6.5, 12, 8 ], "texture": "#texture" }
			}
		},
		{
			"__comment": "Box3",
			"from": [ 0, 14.5, 0 ],
			"to": [ 4, 16, 8 ],
			"faces": {
				"down": { "uv": [ 0, 4, 4, 12 ], "texture": "#texture1" },
				"up": { "uv": [ 0, 4, 4, 12 ], "texture": "#texture1" },
				"north": { "uv": [ 12, 0, 16, 1.5 ], "texture": "#texture" },
				"south": { "uv": [ 0, 0, 4, 1.5 ], "texture": "#texture" },
				"west": { "uv": [ 4, 0, 12, 1.5 ], "texture": "#texture" },
				"east": { "uv": [ 4, 0, 12, 1.5 ], "texture": "#texture" }
			}
		},
		{
			"__comment": "Box2",
			"from": [ 12, 8.5, 0 ],
			"to": [ 16.5, 14.5, 8 ],
			"faces": {
				"down": { "uv": [ 12, 8, 16, 16 ], "texture": "#texture1" },
				"up": { "uv": [ 12, 0, 16, 8 ], "texture": "#texture1" },
				"north": { "uv": [ 6, 0, 10, 6 ], "texture": "#texture2" },
				"south": { "uv": [ 7, 0, 11, 6 ], "texture": "#texture2" },
				"west": { "uv": [ 0, 6, 8, 12 ], "texture": "#texture2" },
				"east": { "uv": [ 8, 6, 16, 12 ], "texture": "#texture2" }
			}
		},
		{
			"__comment": "Box3",
			"from": [ 12, 0, 0 ],
			"to": [ 12.5, 1, 8 ],
			"faces": {
				"down": { "uv": [ 12, 4, 12.5, 12 ], "texture": "#texture" },
				"up": { "uv": [ 12, 4, 12.5, 12 ], "texture": "#texture" },
				"north": { "uv": [ 3.5, 15, 4, 16 ], "texture": "#texture" },
				"south": { "uv": [ 12, 15, 12.5, 16 ], "texture": "#texture" },
				"west": { "uv": [ 4, 15, 12, 16 ], "texture": "#texture" },
				"east": { "uv": [ 4, 15, 12, 16 ], "texture": "#texture" }
			}
		},
		{
			"__comment": "Box3",
			"from": [ 12, 6.5, 0 ],
			"to": [ 12.5, 8, 8 ],
			"faces": {
				"down": { "uv": [ 12, 4, 12.5, 12 ], "texture": "#texture" },
				"up": { "uv": [ 12, 4, 12.5, 12 ], "texture": "#texture" },
				"north": { "uv": [ 3.5, 8, 4, 9.5 ], "texture": "#texture" },
				"south": { "uv": [ 12, 8, 12.5, 9.5 ], "texture": "#texture" },
				"west": { "uv": [ 4, 8, 12, 9.5 ], "texture": "#texture" },
				"east": { "uv": [ 4, 8, 12, 9.5 ], "texture": "#texture" }
			}
		},
		{
			"__comment": "Box3",
			"from": [ 12, 8, 0 ],
			"to": [ 13.5, 8.5, 8 ],
			"faces": {
				"down": { "uv": [ 12, 4, 13.5, 12 ], "texture": "#texture" },
				"up": { "uv": [ 12, 4, 13.5, 12 ], "texture": "#texture" },
				"north": { "uv": [ 2.5, 7.5, 4, 8 ], "texture": "#texture" },
				"south": { "uv": [ 12, 7.5, 13.5, 8 ], "texture": "#texture" },
				"west": { "uv": [ 4, 7.5, 12, 8 ], "texture": "#texture" },
				"east": { "uv": [ 4, 7.5, 12.5, 8 ], "texture": "#texture" }
			}
		},
		{
			"__comment": "Box3",
			"from": [ 4, 9.5, 8 ],
			"to": [ 12, 10.5, 10 ],
			"faces": {
				"down": { "uv": [ 4, 2, 12, 4 ], "texture": "#texture" },
				"up": { "uv": [ 4, 12, 12, 14 ], "texture": "#texture" },
				"north": { "uv": [ 4, 5.5, 12, 6.5 ], "texture": "#texture" },
				"south": { "uv": [ 4, 5.5, 12, 6.5 ], "texture": "#texture" },
				"west": { "uv": [ 12, 5.5, 14, 6.5 ], "texture": "#texture" },
				"east": { "uv": [ 2, 5.5, 4, 6.5 ], "texture": "#texture" }
			}
		},
		{
			"__comment": "Box2",
			"from": [ 11, 8.5, 8 ],
			"to": [ 16.5, 14.5, 12.5 ],
			"faces": {
				"down": { "uv": [ 10.5, 10.5, 16, 16 ], "texture": "#texture1", "rotation": 180 },
				"up": { "uv": [ 10.5, 0, 16, 5.5 ], "texture": "#texture1", "rotation": 180 },
				"north": { "uv": [ 5.5, 0, 11, 6 ], "texture": "#texture2" },
				"south": { "uv": [ 0, 0, 5.5, 6 ], "texture": "#texture2" },
				"west": { "uv": [ 0, 0, 5.5, 6 ], "texture": "#texture2" },
				"east": { "uv": [ 0, 6, 4.5, 12 ], "texture": "#texture2" }
			}
		},
		{
			"__comment": "Box3",
			"from": [ 4.0694, 10.491, 7.6221 ],
			"to": [ 8.0694, 14.491, 11.1221 ],
			"rotation": { "origin": [ 8, 10.5, 9.5 ], "axis": "y", "angle": 22.5 },
			"faces": {
				"down": { "uv": [ 7.5, 9, 16, 12.5 ], "texture": "#texture1", "rotation": 180 },
				"up": { "uv": [ 7.5, 3.5, 16, 7 ], "texture": "#texture1", "rotation": 180 },
				"north": { "uv": [ 7.5, 1.51, 16, 5.51 ], "texture": "#texture" },
				"south": { "uv": [ 0, 1.51, 8.5, 5.51 ], "texture": "#texture" },
				"west": { "uv": [ 9, 1.51, 12.5, 5.51 ], "texture": "#texture" },
				"east": { "uv": [ 3.5, 1.51, 7, 5.51 ], "texture": "#texture" }
			}
		},
		{
			"__comment": "Box3",
			"from": [ 4, 0, 8 ],
			"to": [ 12, 1, 8.5 ],
			"faces": {
				"down": { "uv": [ 4, 3.5, 12, 4 ], "texture": "#texture" },
				"up": { "uv": [ 4, 12, 12, 12.5 ], "texture": "#texture" },
				"north": { "uv": [ 4, 15, 12, 16 ], "texture": "#texture" },
				"south": { "uv": [ 4, 15, 12, 16 ], "texture": "#texture" },
				"west": { "uv": [ 12, 15, 12.5, 16 ], "texture": "#texture" },
				"east": { "uv": [ 3.5, 15, 4, 16 ], "texture": "#texture" }
			}
		},
		{
			"__comment": "Box3",
			"from": [ 4, 6.5, 8 ],
			"to": [ 12, 8, 8.5 ],
			"faces": {
				"down": { "uv": [ 4, 3.5, 12, 4 ], "texture": "#texture" },
				"up": { "uv": [ 4, 12, 12, 12.5 ], "texture": "#texture" },
				"north": { "uv": [ 4, 8, 12, 9.5 ], "texture": "#texture" },
				"south": { "uv": [ 4, 8, 12, 9.5 ], "texture": "#texture" },
				"west": { "uv": [ 12, 8, 12.5, 9.5 ], "texture": "#texture" },
				"east": { "uv": [ 3.5, 8, 4, 9.5 ], "texture": "#texture" }
			}
		},
		{
			"__comment": "Box3",
			"from": [ 4, 8, 8 ],
			"to": [ 12, 9.5, 9.5 ],
			"faces": {
				"down": { "uv": [ 4, 2.5, 12, 4 ], "texture": "#texture" },
				"up": { "uv": [ 4, 12, 12, 13.5 ], "texture": "#texture" },
				"north": { "uv": [ 4, 6.5, 12, 8 ], "texture": "#texture" },
				"south": { "uv": [ 4, 6.5, 12, 8 ], "texture": "#texture" },
				"west": { "uv": [ 12, 6.5, 13.5, 8 ], "texture": "#texture" },
				"east": { "uv": [ 2.5, 6.5, 4, 8 ], "texture": "#texture" }
			}
		},
		{
			"__comment": "Box3",
			"from": [ 4, 14.5, 8 ],
			"to": [ 12, 16, 12 ],
			"faces": {
				"down": { "uv": [ 4, 0, 12, 4 ], "texture": "#texture1" },
				"up": { "uv": [ 4, 12, 12, 16 ], "texture": "#texture1" },
				"north": { "uv": [ 4, 0, 12, 1.5 ], "texture": "#texture" },
				"south": { "uv": [ 4, 0, 12, 1.5 ], "texture": "#texture" },
				"west": { "uv": [ 12, 0, 16, 1.5 ], "texture": "#texture" },
				"east": { "uv": [ 0, 0, 4, 1.5 ], "texture": "#texture" }
			}
		},
		{
			"__comment": "Box3",
			"from": [ 6.3142, 10.49, 9.5273 ],
			"to": [ 10.3142, 14.49, 13.0273 ],
			"rotation": { "origin": [ 12, 10.5, 14.5 ], "axis": "y", "angle": -22.5 },
			"faces": {
				"down": { "uv": [ 0, 11.5, 8.5, 15 ], "texture": "#texture1", "rotation": 180 },
				"up": { "uv": [ 0, 1, 8.5, 4.5 ], "texture": "#texture1", "rotation": 180 },
				"north": { "uv": [ 0, 1.5, 8.5, 5.5 ], "texture": "#texture" },
				"south": { "uv": [ 7.5, 1.5, 16, 5.5 ], "texture": "#texture" },
				"west": { "uv": [ 11.5, 1.5, 15, 5.5 ], "texture": "#texture" },
				"east": { "uv": [ 1, 1.5, 4.5, 5.5 ], "texture": "#texture" }
			}
		},
		{
			"__comment": "Box3",
			"from": [ 12, 14.5, 0 ],
			"to": [ 16, 16, 8 ],
			"faces": {
				"down": { "uv": [ 12, 4, 16, 12 ], "texture": "#texture1" },
				"up": { "uv": [ 12, 4, 16, 12 ], "texture": "#texture1" },
				"north": { "uv": [ 0, 0, 4, 1.5 ], "texture": "#texture" },
				"south": { "uv": [ 12, 0, 16, 1.5 ], "texture": "#texture" },
				"west": { "uv": [ 4, 0, 12, 1.5 ], "texture": "#texture" },
				"east": { "uv": [ 4, 0, 12, 1.5 ], "texture": "#texture" }
			}
		},
		{
			"__comment": "Box3",
			"from": [ 12, 14.5, 8 ],
			"to": [ 16, 16, 12 ],
			"faces": {
				"down": { "uv": [ 12, 0, 16, 4 ], "texture": "#texture1" },
				"up": { "uv": [ 12, 12, 16, 16 ], "texture": "#texture1" },
				"north": { "uv": [ 0, 0, 4, 1.5 ], "texture": "#texture" },
				"south": { "uv": [ 12, 0, 16, 1.5 ], "texture": "#texture" },
				"west": { "uv": [ 12, 0, 16, 1.5 ], "texture": "#texture" },
				"east": { "uv": [ 0, 0, 4, 1.5 ], "texture": "#texture" }
			}
		},
		{
			"__comment": "Box3",
			"from": [ 0, 14.5, 8 ],
			"to": [ 4, 16, 12 ],
			"faces": {
				"down": { "uv": [ 0, 0, 4, 4 ], "texture": "#texture1" },
				"up": { "uv": [ 0, 12, 4, 16 ], "texture": "#texture1" },
				"north": { "uv": [ 12, 0, 16, 1.5 ], "texture": "#texture" },
				"south": { "uv": [ 0, 0, 4, 1.5 ], "texture": "#texture" },
				"west": { "uv": [ 12, 0, 16, 1.5 ], "texture": "#texture" },
				"east": { "uv": [ 0, 0, 4, 1.5 ], "texture": "#texture" }
			}
		},
		{
			"__comment": "Box3",
			"from": [ 12, 8, 8 ],
			"to": [ 13.5, 8.5, 9.5 ],
			"faces": {
				"down": { "uv": [ 12, 2.5, 13.5, 4 ], "texture": "#texture1" },
				"up": { "uv": [ 12, 12, 13.5, 13.5 ], "texture": "#texture1" },
				"north": { "uv": [ 2.5, 7.5, 4, 8 ], "texture": "#texture" },
				"south": { "uv": [ 12, 7.5, 13.5, 8 ], "texture": "#texture" },
				"west": { "uv": [ 12, 7.5, 13.5, 8 ], "texture": "#texture" },
				"east": { "uv": [ 2.5, 7.5, 4, 8 ], "texture": "#texture" }
			}
		},
		{
			"__comment": "Box3",
			"from": [ 2.5, 8, 8 ],
			"to": [ 4, 8.5, 9.5 ],
			"faces": {
				"down": { "uv": [ 9.536743E-07, 0, 1.500001, 1.5 ], "texture": "#texture1" },
				"up": { "uv": [ 9.536743E-07, 14.5, 1.500001, 16 ], "texture": "#texture1" },
				"north": { "uv": [ 14.5, 7.5, 16, 8 ], "texture": "#texture" },
				"south": { "uv": [ 9.536743E-07, 7.5, 1.500001, 8 ], "texture": "#texture" },
				"west": { "uv": [ 14.5, 7.5, 16, 8 ], "texture": "#texture" },
				"east": { "uv": [ 0, 7.5, 1.5, 8 ], "texture": "#texture" }
			}
		},
		{
			"__comment": "Box2",
			"from": [ -0.5, 8.5, 8 ],
			"to": [ 5, 14.5, 12.5 ],
			"faces": {
				"down": { "uv": [ 10.5, 10.5, 16, 16 ], "texture": "#texture1", "rotation": 90 },
				"up": { "uv": [ 10.5, 0, 16, 5.5 ], "texture": "#texture1", "rotation": 270 },
				"north": { "uv": [ 0, 0, 5.5, 6 ], "texture": "#texture2" },
				"south": { "uv": [ 5.5, 0, 11, 6 ], "texture": "#texture2" },
				"west": { "uv": [ 0, 6, 4.5, 12 ], "texture": "#texture2" },
				"east": { "uv": [ 5.5, 0, 11, 6 ], "texture": "#texture2" }
			}
		}
	]
}