{
    "ambientocclusion": false,
    "textures": {
        "particle": "conquest:blocks/cauldronocean_side",
        "top": "conquest:blocks/cauldronocean_top",
        "bottom": "conquest:blocks/barrel_bottom",
        "side": "conquest:blocks/barrel_side",
        "inside": "conquest:blocks/cauldronocean_inner",
        "water": "blocks/water_still"
    },
"elements": [ 
{
    "from": [ 0, 0, 0 ],
    "to": [ 2, 16, 16 ],
    "faces": {
        "down":  { "uv": [ 0, 0, 2, 16 ], "texture": "#bottom", "cullface": "down" },
        "up":    { "uv": [ 0, 0, 2, 16 ], "texture": "#top", "cullface": "up" },
        "north": { "uv": [ 0, 0, 2, 16 ], "texture": "#side", "cullface": "north" },
        "south": { "uv": [ 0, 0, 2, 16 ], "texture": "#side", "cullface": "south" },
        "west":  { "uv": [ 0, 0, 16, 16 ], "texture": "#side", "cullface": "west" },
        "east":  { "uv": [ 0, 0, 16, 16 ], "texture": "#side" }
    }
},
{
    "from": [ 2, 0, 2 ],
    "to": [ 14, 4, 14 ],
    "faces": {
        "down":  { "uv": [ 2, 2, 14, 14 ], "texture": "#bottom", "cullface": "down" },
        "up":    { "uv": [ 2, 2, 14, 14 ], "texture": "#inside", "cullface": "up" }
    }
},
{
    "from": [ 14, 0, 0 ],
    "to": [ 16, 16, 16 ],
    "faces": {
        "down":  { "uv": [ 14, 0, 16, 16 ], "texture": "#bottom", "cullface": "down" },
        "up":    { "uv": [ 14, 0, 16, 16 ], "texture": "#top", "cullface": "up" },
        "north": { "uv": [ 14, 0, 16, 16 ], "texture": "#side", "cullface": "north" },
        "south": { "uv": [ 14, 0, 16, 16 ], "texture": "#side", "cullface": "south" },
        "west":  { "uv": [ 0, 0, 16, 16 ], "texture": "#side" },
        "east":  { "uv": [ 0, 0, 16, 16 ], "texture": "#side", "cullface": "east" }
    }
},
{
    "from": [ 2, 0, 0 ],
    "to": [ 14, 16, 2 ],
    "faces": {
        "down":  { "uv": [ 2, 0, 14, 2 ], "texture": "#bottom", "cullface": "down" },
        "up":    { "uv": [ 2, 0, 14, 2 ], "texture": "#top", "cullface": "up" },
        "north": { "uv": [ 2, 0, 14, 16 ], "texture": "#side", "cullface": "north" },
        "south": { "uv": [ 2, 0, 14, 16 ], "texture": "#side" }
    }
},
{
    "from": [ 2, 0, 14 ],
    "to": [ 14, 16, 16 ],
    "faces": {
        "down":  { "uv": [ 2, 14, 14, 16 ], "texture": "#bottom", "cullface": "down" },
        "up":    { "uv": [ 2, 14, 14, 16 ], "texture": "#top", "cullface": "up" },
        "north": { "uv": [ 2, 0, 14, 16 ], "texture": "#side" },
        "south": { "uv": [ 2, 0, 14, 16 ], "texture": "#side", "cullface": "south" }
    }
},
{   "from": [ 2, 9, 2 ],
    "to": [ 14, 9, 14 ],
    "faces": {
        "up": { "uv": [ 2, 2, 14, 14 ], "texture": "#water" }
    }
}
]
}