{
    "parent": "block/half_slab",
    "textures": {
        "particle": "conquest:blocks/cauldrondesert_bottom",
        "bottom": "conquest:blocks/cauldrondesert_bottom",
        "top": "conquest:blocks/cauldrondesert_bottom",
        "side": "conquest:blocks/chair_wood_side"
    }
}
