{
	"parent": "block/block",
    "textures": {
        "particle": "blocks/rebellion/redstone_torch_on",
        "0": "blocks/rebellion/redstone_torch_on",
        "1": "blocks/rebellion/iron_block",
        "2": "blocks/rebellion/candle_f",
        "3": "blocks/rebellion/wax"
    },
    "elements": [
        {
            "name": "Element",
            "from": [ 11.0499, 12.3333, 7.4499 ], 
            "to": [ 11.0509, 14.8333, 8.9499 ], 
            "rotation": { "origin": [ 11.5, 11.5, 7.0 ], "axis": "y", "angle": 22.5 },
            "faces": {
                "east": { "texture": "#0", "uv": [ 6.5, 2.0, 10.0, 5.5 ] },
                "west": { "texture": "#0", "uv": [ 6.5, 2.0, 10.0, 5.5 ] }
            }
        },
        {
            "name": "Element",
            "from": [ 10.8991, 12.316700005960465, 8.199900004470347 ], 
            "to": [ 10.9001, 14.816700005960465, 10.199900004470347 ], 
            "rotation": { "origin": [ 12.5, 14.0, 9.5 ], "axis": "y", "angle": -45.0 },
            "faces": {
                "east": { "texture": "#0", "uv": [ 6.5, 2.0, 10.0, 5.5 ] },
                "west": { "texture": "#0", "uv": [ 6.5, 2.0, 10.0, 5.5 ] }
            }
        },
        {
            "name": "Element",
            "from": [ 6.5, 0.0, 6.5 ], 
            "to": [ 9.5, 0.5, 9.5 ], 
            "faces": {
                "north": { "texture": "#1", "uv": [ 5.0, 15.0, 8.0, 15.5 ] },
                "east": { "texture": "#1", "uv": [ 9.0, 15.0, 12.0, 15.5 ] },
                "south": { "texture": "#1", "uv": [ 9.0, 15.0, 12.0, 15.5 ] },
                "west": { "texture": "#1", "uv": [ 10.0, 15.0, 13.0, 15.5 ] },
                "up": { "texture": "#1", "uv": [ 8.0, 5.0, 11.0, 8.0 ] },
                "down": { "texture": "#1", "uv": [ 7.0, 8.0, 10.0, 11.0 ] }
            }
        },
        {
            "name": "Element",
            "from": [ 7.2, 0.0, 7.2 ], 
            "to": [ 8.8, 6.5, 8.8 ], 
            "faces": {
                "north": { "texture": "#1", "uv": [ 4.0, 7.0, 5.5, 15.0 ] },
                "east": { "texture": "#1", "uv": [ 9.0, 8.0, 10.5, 16.0 ] },
                "south": { "texture": "#1", "uv": [ 6.0, 8.0, 7.5, 14.5 ] },
                "west": { "texture": "#1", "uv": [ 6.0, 8.0, 7.5, 16.0 ] },
                "up": { "texture": "#1", "uv": [ 6.0, 6.0, 7.5, 7.5 ] },
                "down": { "texture": "#1", "uv": [ 4.0, 7.0, 5.5, 8.5 ] }
            }
        },
        {
            "name": "Element",
            "from": [ 6.0, 5.5, 7.4 ], 
            "to": [ 10.0, 6.5, 8.6 ], 
            "faces": {
                "north": { "texture": "#1", "uv": [ 5.0, 6.0, 9.0, 7.0 ] },
                "east": { "texture": "#1", "uv": [ 6.0, 7.0, 7.2, 8.0 ] },
                "south": { "texture": "#1", "uv": [ 6.0, 6.0, 10.0, 7.0 ] },
                "west": { "texture": "#1", "uv": [ 0.0, 0.0, 1.2, 1.0 ] },
                "up": { "texture": "#1", "uv": [ 5.0, 8.0, 9.0, 9.2 ] },
                "down": { "texture": "#1", "uv": [ 0.0, 0.0, 4.0, 1.2 ] }
            }
        },
        {
            "name": "Element",
            "from": [ 4.5, 6.0, 7.5 ], 
            "to": [ 6.5, 7.0, 8.5 ], 
            "faces": {
                "north": { "texture": "#1", "uv": [ 6.0, 7.0, 8.0, 8.0 ] },
                "east": { "texture": "#1", "uv": [ 10.0, 4.0, 11.0, 5.0 ] },
                "south": { "texture": "#1", "uv": [ 11.0, 8.0, 13.0, 9.0 ] },
                "west": { "texture": "#1", "uv": [ 7.0, 11.0, 8.0, 12.0 ] },
                "up": { "texture": "#1", "uv": [ 6.0, 4.0, 8.0, 5.0 ] },
                "down": { "texture": "#1", "uv": [ 3.0, 4.0, 5.0, 5.0 ] }
            }
        },
        {
            "name": "Element",
            "from": [ 9.5, 6.0, 7.5 ], 
            "to": [ 11.5, 7.0, 8.5 ], 
            "faces": {
                "north": { "texture": "#1", "uv": [ 6.0, 9.0, 8.0, 10.0 ] },
                "east": { "texture": "#1", "uv": [ 13.0, 8.0, 14.0, 9.0 ] },
                "south": { "texture": "#1", "uv": [ 10.0, 8.0, 12.0, 9.0 ] },
                "west": { "texture": "#1", "uv": [ 6.0, 7.0, 7.0, 8.0 ] },
                "up": { "texture": "#1", "uv": [ 3.0, 7.0, 5.0, 8.0 ] },
                "down": { "texture": "#1", "uv": [ 3.0, 3.0, 5.0, 4.0 ] }
            }
        },
        {
            "name": "Element",
            "from": [ 4.0, 6.5, 7.5 ], 
            "to": [ 5.0, 8.0, 8.5 ], 
            "faces": {
                "north": { "texture": "#1", "uv": [ 8.0, 9.0, 9.0, 10.5 ] },
                "east": { "texture": "#1", "uv": [ 5.0, 2.0, 6.0, 3.5 ] },
                "south": { "texture": "#1", "uv": [ 7.0, 8.0, 8.0, 9.5 ] },
                "west": { "texture": "#1", "uv": [ 4.0, 7.0, 5.0, 8.5 ] },
                "up": { "texture": "#1", "uv": [ 5.0, 5.0, 6.0, 6.0 ] },
                "down": { "texture": "#1", "uv": [ 4.0, 3.0, 5.0, 4.0 ] }
            }
        },
        {
            "name": "Element",
            "from": [ 11.0, 6.5, 7.5 ], 
            "to": [ 12.0, 8.0, 8.5 ], 
            "faces": {
                "north": { "texture": "#1", "uv": [ 12.0, 14.0, 13.0, 15.5 ] },
                "east": { "texture": "#1", "uv": [ 8.0, 8.0, 9.0, 9.5 ] },
                "south": { "texture": "#1", "uv": [ 14.0, 10.0, 15.0, 11.5 ] },
                "west": { "texture": "#1", "uv": [ 4.0, 3.0, 5.0, 4.5 ] },
                "up": { "texture": "#1", "uv": [ 5.0, 5.0, 6.0, 6.0 ] },
                "down": { "texture": "#1", "uv": [ 4.0, 2.0, 5.0, 3.0 ] }
            }
        },
        {
            "name": "Element",
            "from": [ 7.5, 6.5, 7.5 ], 
            "to": [ 8.5, 9.0, 8.5 ], 
            "faces": {
                "north": { "texture": "#1", "uv": [ 13.0, 10.0, 14.0, 12.5 ] },
                "east": { "texture": "#1", "uv": [ 8.0, 6.0, 9.0, 8.5 ] },
                "south": { "texture": "#1", "uv": [ 8.0, 6.0, 9.0, 8.5 ] },
                "west": { "texture": "#1", "uv": [ 6.0, 9.0, 7.0, 11.5 ] },
                "up": { "texture": "#1", "uv": [ 3.0, 5.0, 4.0, 6.0 ] },
                "down": { "texture": "#1", "uv": [ 4.0, 4.0, 5.0, 5.0 ] }
            }
        },
        {
            "name": "Element",
            "from": [ 3.6, 8.0, 7.2 ], 
            "to": [ 5.2, 8.5, 8.8 ], 
            "faces": {
                "north": { "texture": "#1", "uv": [ 0.0, 0.0, 1.5, 0.5 ] },
                "east": { "texture": "#1", "uv": [ 0.0, 0.0, 1.6, 0.5 ] },
                "south": { "texture": "#1", "uv": [ 0.0, 0.0, 1.6, 0.5 ] },
                "west": { "texture": "#1", "uv": [ 0.0, 0.0, 1.6, 0.5 ] },
                "up": { "texture": "#2", "uv": [ 9.0, 9.0, 10.6, 10.6 ] },
                "down": { "texture": "#1", "uv": [ 0.0, 0.0, 1.6, 1.6 ] }
            }
        },
        {
            "name": "Element",
            "from": [ 7.2, 8.5, 7.2 ], 
            "to": [ 8.8, 9.1, 8.8 ], 
            "faces": {
                "north": { "texture": "#1", "uv": [ 0.0, 0.0, 1.5, 0.5 ] },
                "east": { "texture": "#1", "uv": [ 0.0, 0.0, 1.6, 0.6000004 ] },
                "south": { "texture": "#1", "uv": [ 0.0, 0.0, 1.6, 0.6000004 ] },
                "west": { "texture": "#1", "uv": [ 0.0, 0.0, 1.6, 0.6000004 ] },
                "up": { "texture": "#2", "uv": [ 11.0, 9.0, 12.6, 10.6 ] },
                "down": { "texture": "#1", "uv": [ 0.0, 0.0, 1.6, 1.6 ] }
            }
        },
        {
            "name": "Element",
            "from": [ 10.7, 8.0, 7.2 ], 
            "to": [ 12.3, 8.5, 8.8 ], 
            "faces": {
                "north": { "texture": "#1", "uv": [ 0.0, 0.0, 1.5, 0.5 ] },
                "east": { "texture": "#1", "uv": [ 0.0, 0.0, 1.6, 0.5 ] },
                "south": { "texture": "#1", "uv": [ 0.0, 0.0, 1.6, 0.5 ] },
                "west": { "texture": "#1", "uv": [ 0.0, 0.0, 1.6, 0.5 ] },
                "up": { "texture": "#2", "uv": [ 8.0, 7.0, 9.6, 8.6 ] },
                "down": { "texture": "#1", "uv": [ 0.0, 0.0, 1.6, 1.6 ] }
            }
        },
        {
            "name": "Element",
            "from": [ 7.4, 6.5, 7.4 ], 
            "to": [ 8.6, 7.5, 8.6 ], 
            "faces": {
                "north": { "texture": "#1", "uv": [ 6.0, 7.0, 7.2, 8.0 ] },
                "east": { "texture": "#1", "uv": [ 11.0, 11.0, 12.2, 12.0 ] },
                "south": { "texture": "#1", "uv": [ 6.0, 8.0, 7.2, 9.0 ] },
                "west": { "texture": "#1", "uv": [ 7.0, 5.0, 8.2, 6.0 ] },
                "up": { "texture": "#1", "uv": [ 2.0, 4.0, 3.2, 5.2 ] },
                "down": { "texture": "#1", "uv": [ 6.0, 3.0, 7.2, 4.2 ] }
            }
        },
        {
            "name": "Element",
            "from": [ 10.7, 7.0, 7.2 ], 
            "to": [ 12.3, 7.3, 8.8 ], 
            "faces": {
                "north": { "texture": "#1", "uv": [ 3.0, 10.0, 4.5, 10.3 ] },
                "east": { "texture": "#1", "uv": [ 4.0, 8.0, 5.5, 8.3 ] },
                "south": { "texture": "#1", "uv": [ 3.0, 2.0, 4.5, 2.2 ] },
                "west": { "texture": "#1", "uv": [ 6.0, 7.0, 7.5, 7.3 ] },
                "up": { "texture": "#1", "uv": [ 3.0, 6.0, 4.5, 7.6 ] },
                "down": { "texture": "#1", "uv": [ 4.0, 4.0, 5.5, 5.6 ] }
            }
        },
        {
            "name": "Element",
            "from": [ 3.7, 7.0, 7.2 ], 
            "to": [ 5.3, 7.3, 8.8 ], 
            "faces": {
                "north": { "texture": "#1", "uv": [ 1.0, 4.0, 2.5, 4.3 ] },
                "east": { "texture": "#1", "uv": [ 5.0, 5.0, 6.5, 5.3 ] },
                "south": { "texture": "#1", "uv": [ 5.0, 9.0, 6.5, 9.2 ] },
                "west": { "texture": "#1", "uv": [ 3.0, 5.0, 4.6, 5.3 ] },
                "up": { "texture": "#1", "uv": [ 4.0, 6.0, 5.5, 7.5 ] },
                "down": { "texture": "#1", "uv": [ 5.0, 4.0, 6.5, 5.5 ] }
            }
        },
        {
            "name": "Element",
            "from": [ 7.2, 6.5, 7.2 ], 
            "to": [ 8.8, 6.9, 8.8 ], 
            "faces": {
                "north": { "texture": "#1", "uv": [ 8.0, 15.0, 9.6, 15.4 ] },
                "east": { "texture": "#1", "uv": [ 8.0, 15.0, 9.6, 15.4 ] },
                "south": { "texture": "#1", "uv": [ 8.0, 15.0, 9.6, 15.4 ] },
                "west": { "texture": "#1", "uv": [ 9.0, 15.0, 10.6, 15.4 ] },
                "up": { "texture": "#1", "uv": [ 5.0, 12.0, 6.6, 13.6 ] },
                "down": { "texture": "#1", "uv": [ 10.0, 7.0, 11.6, 8.6 ] }
            }
        },
        {
            "name": "Element",
            "from": [ 7.5001, 9.0, 7.4999 ], 
            "to": [ 8.500099, 14.0, 8.4999 ], 
            "rotation": { "origin": [ 8.0, 8.0, 8.0 ], "axis": "y", "angle": 45.0 },
            "faces": {
                "north": { "texture": "#3", "uv": [ 7.0, 4.0, 8.0, 9.0 ] },
                "east": { "texture": "#3", "uv": [ 12.0, 7.0, 13.0, 12.0 ] },
                "south": { "texture": "#3", "uv": [ 6.0, 4.0, 7.0, 9.0 ] },
                "west": { "texture": "#3", "uv": [ 5.0, 5.0, 6.0, 10.0 ] },
                "up": { "texture": "#3", "uv": [ 3.0, 5.0, 4.0, 6.0 ] },
                "down": { "texture": "#3", "uv": [ 4.0, 6.0, 5.0, 7.0 ] }
            }
        },
        {
            "name": "Element",
            "from": [ 4.1001, 8.3, 8.7006 ], 
            "to": [ 5.1001, 12.3, 9.7006 ], 
            "rotation": { "origin": [ 8.0, 8.0, 8.0 ], "axis": "y", "angle": -22.5 },
            "faces": {
                "north": { "texture": "#3", "uv": [ 8.0, 6.0, 9.0, 10.0 ] },
                "east": { "texture": "#3", "uv": [ 6.0, 6.0, 7.0, 10.0 ] },
                "south": { "texture": "#3", "uv": [ 5.0, 3.0, 6.0, 7.0 ] },
                "west": { "texture": "#3", "uv": [ 4.0, 2.0, 5.0, 6.0 ] },
                "up": { "texture": "#3", "uv": [ 6.0, 6.0, 7.0, 7.0 ] },
                "down": { "texture": "#3", "uv": [ 0.0, 0.0, 1.0, 1.0 ] }
            }
        },
        {
            "name": "Element",
            "from": [ 10.7999, 8.4, 8.8004 ], 
            "to": [ 11.7999, 12.4, 9.8004 ], 
            "rotation": { "origin": [ 8.0, 8.0, 8.0 ], "axis": "y", "angle": 22.5 },
            "faces": {
                "north": { "texture": "#3", "uv": [ 6.0, 5.0, 7.0, 9.0 ] },
                "east": { "texture": "#3", "uv": [ 8.0, 8.0, 9.0, 12.0 ] },
                "south": { "texture": "#3", "uv": [ 6.0, 6.0, 7.0, 10.0 ] },
                "west": { "texture": "#3", "uv": [ 2.0, 5.0, 3.0, 9.0 ] },
                "up": { "texture": "#3", "uv": [ 5.0, 5.0, 6.0, 6.0 ] },
                "down": { "texture": "#3", "uv": [ 5.0, 6.0, 6.0, 7.0 ] }
            }
        },
        {
            "name": "Element",
            "from": [ 3.5995000029802324, 12.216699997019768, 7.499500001490116 ], 
            "to": [ 3.6005000029802323, 14.716699997019768, 9.499500001490116 ], 
            "rotation": { "origin": [ 5.0, 14.5, 9.0 ], "axis": "y", "angle": -45.0 },
            "faces": {
                "east": { "texture": "#0", "uv": [ 6.5, 2.0, 10.0, 5.5 ] },
                "west": { "texture": "#0", "uv": [ 6.5, 2.0, 10.0, 5.5 ] }
            }
        },
        {
            "name": "Element",
            "from": [ 3.3499999970197676, 12.233299998509883, 6.95 ], 
            "to": [ 3.350999997019768, 14.733299998509883, 8.45 ], 
            "rotation": { "origin": [ 4.0, 11.5, 6.5 ], "axis": "y", "angle": 45.0 },
            "faces": {
                "east": { "texture": "#0", "uv": [ 6.5, 2.0, 10.0, 5.5 ] },
                "west": { "texture": "#0", "uv": [ 6.5, 2.0, 10.0, 5.5 ] }
            }
        },
        {
            "name": "Element",
            "from": [ 6.849999997019768, 13.8333, 7.050000001490116 ], 
            "to": [ 6.850999997019768, 16.3333, 8.550000001490115 ], 
            "rotation": { "origin": [ 7.5, 13.0, 6.5 ], "axis": "y", "angle": 45.0 },
            "faces": {
                "east": { "texture": "#0", "uv": [ 6.5, 2.0, 10.0, 5.5 ] },
                "west": { "texture": "#0", "uv": [ 6.5, 2.0, 10.0, 5.5 ] }
            }
        },
        {
            "name": "Element",
            "from": [ 7.3991, 13.9167, 7.3999 ], 
            "to": [ 7.4001, 16.4167, 9.3999 ], 
            "rotation": { "origin": [ 9.0, 16.0, 9.0 ], "axis": "y", "angle": -22.5 },
            "faces": {
                "east": { "texture": "#0", "uv": [ 6.5, 2.0, 10.0, 5.5 ] },
                "west": { "texture": "#0", "uv": [ 6.5, 2.0, 10.0, 5.5 ] }
            }
        }
    ]
}