{
	"__comment": "Model created by DeChoppy",
	"parent": "block/block",
	"textures": {
		"particle": "blocks/rebellion/redstone_torch_on",
		"top": "blocks/rebellion/redstone_torch_off",
		"bottom": "blocks/rebellion/redstone_torch_off",
		"end": "blocks/rebellion/redstone_torch_off",
		"side": "blocks/rebellion/redstone_torch_off",
		"0": "blocks/rebellion/fences/spruce_vertical",
		"1": "blocks/rebellion/iron_hinges",
		"2": "blocks/rebellion/candle_f",
		"3": "blocks/rebellion/wax"
	},
	"elements": [
		{
			"__comment": "flame",
			"from": [ 14, 10, -1 ],
			"to": [ 14.001, 13.5, 3 ],
			"rotation": { "origin": [ 14, 10, -1 ], "axis": "y", "angle": 45 },
			"faces": {
				"west": { "uv": [ 6.5, 2, 10, 5.5 ], "texture": "#top" },
				"east": { "uv": [ 6.5, 2, 10, 5.5 ], "texture": "#top" }
			}
		},
		{
			"__comment": "flame",
			"from": [ 14.7496, 10, 0.2504 ],
			"to": [ 14.7506, 13.5, 3.7504 ],
			"rotation": { "origin": [ 16.5, 13.5, 2 ], "axis": "y", "angle": -45 },
			"faces": {
				"west": { "uv": [ 6.5, 2, 10, 5.5 ], "texture": "#top" },
				"east": { "uv": [ 6.5, 2, 10, 5.5 ], "texture": "#top" }
			}
		},
		{
			"from": [ -1, 4, 7.5 ],
			"to": [ 7, 5, 8.5 ],
			"faces": {
				"down": { "uv": [ 1, 1, 2, 15 ], "texture": "#0", "rotation": 90 },
				"up": { "uv": [ 14, 3, 15, 14 ], "texture": "#0", "rotation": 90 },
				"north": { "uv": [ 2, 3, 3, 15 ], "texture": "#0", "rotation": 90 },
				"south": { "uv": [ 1, 3, 2, 12 ], "texture": "#0", "rotation": 90 },
				"west": { "uv": [ 1, 5, 2, 6 ], "texture": "#0" },
				"east": { "uv": [ 2, 7, 3, 8 ], "texture": "#0" }
			}
		},
		{
			"from": [ 9, 4, 7.5 ],
			"to": [ 17, 5, 8.5 ],
			"faces": {
				"down": { "uv": [ 6, 11, 7, 4 ], "texture": "#0", "rotation": 90 },
				"up": { "uv": [ 13, 1, 14, 10 ], "texture": "#0", "rotation": 270 },
				"north": { "uv": [ 6, 11, 7, 4 ], "texture": "#0", "rotation": 90 },
				"south": { "uv": [ 1, 9, 2, 2 ], "texture": "#0", "rotation": 270 },
				"west": { "uv": [ 0, 11, 0, 7 ], "texture": "#0", "rotation": 90 },
				"east": { "uv": [ 0, 0, 1, 1 ], "texture": "#0" }
			}
		},
		{
			"from": [ 7.5, 4, -1 ],
			"to": [ 8.5, 5, 7 ],
			"faces": {
				"down": { "uv": [ 2, 3, 3, 11 ], "texture": "#0" },
				"up": { "uv": [ 4, 2, 5, 10 ], "texture": "#0" },
				"north": { "uv": [ 0, 0, 1, 1 ], "texture": "#0" },
				"south": { "uv": [ 0, 0, 1, 1 ], "texture": "#0" },
				"west": { "uv": [ 7, 3, 8, 11 ], "texture": "#0", "rotation": 90 },
				"east": { "uv": [ 1, 2, 2, 9 ], "texture": "#0", "rotation": 90 }
			}
		},
		{
			"from": [ 7.5, 4, 9 ],
			"to": [ 8.5, 5, 17 ],
			"faces": {
				"down": { "uv": [ 1, 1, 2, 9 ], "texture": "#0" },
				"up": { "uv": [ 2, 4, 3, 12 ], "texture": "#0" },
				"north": { "uv": [ 4, 4, 5, 12 ], "texture": "#0", "rotation": 90 },
				"south": { "uv": [ 6, 5, 7, 6 ], "texture": "#0" },
				"west": { "uv": [ 6, 12, 7, 2 ], "texture": "#0", "rotation": 270 },
				"east": { "uv": [ 8, 4, 9, 13 ], "texture": "#0", "rotation": 270 }
			}
		},
		{
			"from": [ 7.4998, 3.9, 8.9999 ],
			"to": [ 8.4998, 4.9, 17.9999 ],
			"rotation": { "origin": [ 8, 8, 8 ], "axis": "y", "angle": 45 },
			"faces": {
				"down": { "uv": [ 2, 0, 3, 9 ], "texture": "#0" },
				"up": { "uv": [ 2, 3, 3, 12 ], "texture": "#0" },
				"north": { "uv": [ 0, 4, 1, 5 ], "texture": "#0", "rotation": 90 },
				"south": { "uv": [ 0, 0, 1, 1 ], "texture": "#0" },
				"west": { "uv": [ 15, 11, 16, 4 ], "texture": "#0", "rotation": 90 },
				"east": { "uv": [ 1, 10, 2, 3 ], "texture": "#0", "rotation": 90 }
			}
		},
		{
			"from": [ 7.5024, 3.9, -2.0001 ],
			"to": [ 8.502399, 4.9, 6.9999 ],
			"rotation": { "origin": [ 8, 8, 8 ], "axis": "y", "angle": 45 },
			"faces": {
				"down": { "uv": [ 1, 1, 2, 10 ], "texture": "#0" },
				"up": { "uv": [ 14, 4, 15, 13 ], "texture": "#0" },
				"north": { "uv": [ 0, 0, 1, 1 ], "texture": "#0", "rotation": 90 },
				"south": { "uv": [ 0, 0, 1, 1 ], "texture": "#0" },
				"west": { "uv": [ 1, 2, 2, 9 ], "texture": "#0", "rotation": 90 },
				"east": { "uv": [ 2, 12, 3, 3 ], "texture": "#0", "rotation": 90 }
			}
		},
		{
			"from": [ 7.4976, 3.9, -1.9999 ],
			"to": [ 8.4976, 4.9, 7.0001 ],
			"rotation": { "origin": [ 8, 8, 8 ], "axis": "y", "angle": -45 },
			"faces": {
				"down": { "uv": [ 1, 2, 2, 11 ], "texture": "#0" },
				"up": { "uv": [ 1, 4, 2, 13 ], "texture": "#0" },
				"north": { "uv": [ 2, 0, 3, 1 ], "texture": "#0" },
				"south": { "uv": [ 0, 0, 1, 1 ], "texture": "#0" },
				"west": { "uv": [ 2, 11, 1, 3 ], "texture": "#0", "rotation": 90 },
				"east": { "uv": [ 1, 8, 2, 1 ], "texture": "#0", "rotation": 270 }
			}
		},
		{
			"from": [ 7.5002, 3.9, 9.0001 ],
			"to": [ 8.5002, 4.9, 18.0001 ],
			"rotation": { "origin": [ 8, 8, 8 ], "axis": "y", "angle": -45 },
			"faces": {
				"down": { "uv": [ 1, 2, 2, 11 ], "texture": "#0" },
				"up": { "uv": [ 2, 5, 3, 14 ], "texture": "#0" },
				"north": { "uv": [ 0, 0, 1, 1 ], "texture": "#0" },
				"south": { "uv": [ 0, 0, 1, 1 ], "texture": "#0" },
				"west": { "uv": [ 1, 1, 2, 12 ], "texture": "#0", "rotation": 90 },
				"east": { "uv": [ 1, 1, 2, 13 ], "texture": "#0", "rotation": 90 }
			}
		},
		{
			"from": [ 5, 3.5, -2 ],
			"to": [ 11, 5.5, -1 ],
			"faces": {
				"down": { "uv": [ 8, 2, 14, 3 ], "texture": "#1" },
				"up": { "uv": [ 2, 5, 1, 11 ], "texture": "#1", "rotation": 270 },
				"north": { "uv": [ 4, 4, 10, 6 ], "texture": "#1" },
				"south": { "uv": [ 5, 4, 11, 6 ], "texture": "#1" },
				"west": { "uv": [ 2, 2, 3, 4 ], "texture": "#1" },
				"east": { "uv": [ 2, 2, 3, 4 ], "texture": "#1" }
			}
		},
		{
			"from": [ 5, 3.5, 17 ],
			"to": [ 11, 5.5, 18 ],
			"faces": {
				"down": { "uv": [ 8, 14, 14, 15 ], "texture": "#1" },
				"up": { "uv": [ 9, 4, 10, 10 ], "texture": "#1", "rotation": 90 },
				"north": { "uv": [ 3, 5, 9, 7 ], "texture": "#1" },
				"south": { "uv": [ 4, 2, 10, 4 ], "texture": "#1" },
				"west": { "uv": [ 3, 1, 4, 3 ], "texture": "#1" },
				"east": { "uv": [ 2, 2, 3, 4 ], "texture": "#1" }
			}
		},
		{
			"from": [ -2, 3.5, 5 ],
			"to": [ -1, 5.5, 11 ],
			"faces": {
				"down": { "uv": [ 1, 4, 2, 10 ], "texture": "#1" },
				"up": { "uv": [ 6, 5, 7, 11 ], "texture": "#1" },
				"north": { "uv": [ 4, 4, 5, 6 ], "texture": "#1" },
				"south": { "uv": [ 3, 2, 4, 4 ], "texture": "#1" },
				"west": { "uv": [ 2, 2, 8, 4 ], "texture": "#1" },
				"east": { "uv": [ 4, 3, 10, 5 ], "texture": "#1" }
			}
		},
		{
			"from": [ 17, 3.5, 5 ],
			"to": [ 18, 5.5, 11 ],
			"faces": {
				"down": { "uv": [ 6, 5, 7, 11 ], "texture": "#1" },
				"up": { "uv": [ 14, 8, 15, 14 ], "texture": "#1" },
				"north": { "uv": [ 15, 0, 16, 2 ], "texture": "#1" },
				"south": { "uv": [ 9, 6, 10, 8 ], "texture": "#1" },
				"west": { "uv": [ 4, 6, 10, 8 ], "texture": "#1" },
				"east": { "uv": [ 6, 5, 12, 7 ], "texture": "#1" }
			}
		},
		{
			"from": [ 3.5, 3.5, -1.5 ],
			"to": [ 5, 5.5, -0.5 ],
			"faces": {
				"down": { "uv": [ 7, 2, 8.5, 3 ], "texture": "#1" },
				"up": { "uv": [ 3, 4, 4.5, 5 ], "texture": "#1" },
				"north": { "uv": [ 9, 4, 10.5, 6 ], "texture": "#1" },
				"south": { "uv": [ 5, 6, 6.5, 8 ], "texture": "#1" },
				"west": { "uv": [ 5, 5, 6, 7 ], "texture": "#1" },
				"east": { "uv": [ 5, 4, 6, 6 ], "texture": "#1" }
			}
		},
		{
			"from": [ 11, 3.5, -1.5 ],
			"to": [ 12.5, 5.5, -0.5 ],
			"faces": {
				"down": { "uv": [ 13, 10, 14.5, 11 ], "texture": "#1" },
				"up": { "uv": [ 0, 4, 1.5, 5 ], "texture": "#1" },
				"north": { "uv": [ 1, 2, 2.5, 4 ], "texture": "#1" },
				"south": { "uv": [ 2, 2, 3.5, 4 ], "texture": "#1" },
				"west": { "uv": [ 1, 2, 2, 4 ], "texture": "#1" },
				"east": { "uv": [ 2, 2, 3, 4 ], "texture": "#1" }
			}
		},
		{
			"from": [ 11, 3.5, 16.5 ],
			"to": [ 12.5, 5.5, 17.5 ],
			"faces": {
				"down": { "uv": [ 12, 10, 13.5, 11 ], "texture": "#1" },
				"up": { "uv": [ 5, 6, 6.5, 7 ], "texture": "#1" },
				"north": { "uv": [ 4, 5, 5.5, 7 ], "texture": "#1" },
				"south": { "uv": [ 9, 3, 10.5, 5 ], "texture": "#1" },
				"west": { "uv": [ 2, 2, 3, 4 ], "texture": "#1" },
				"east": { "uv": [ 8, 2, 9, 4 ], "texture": "#1" }
			}
		},
		{
			"from": [ 3.5, 3.5, 16.5 ],
			"to": [ 5, 5.5, 17.5 ],
			"faces": {
				"down": { "uv": [ 2, 2, 3.5, 3 ], "texture": "#1" },
				"up": { "uv": [ 6, 9, 7.5, 10 ], "texture": "#1" },
				"north": { "uv": [ 5, 6, 6.5, 8 ], "texture": "#1" },
				"south": { "uv": [ 6, 2, 7.5, 4 ], "texture": "#1" },
				"west": { "uv": [ 14, 7, 15, 9 ], "texture": "#1" },
				"east": { "uv": [ 3, 4, 4, 6 ], "texture": "#1" }
			}
		},
		{
			"from": [ -1.5, 3.5, 3.5 ],
			"to": [ -0.5, 5.5, 5 ],
			"faces": {
				"down": { "uv": [ 12, 4, 13, 5.5 ], "texture": "#1" },
				"up": { "uv": [ 4, 4, 5, 5.5 ], "texture": "#1" },
				"north": { "uv": [ 6, 6, 7, 8 ], "texture": "#1" },
				"south": { "uv": [ 6, 7, 7, 9 ], "texture": "#1" },
				"west": { "uv": [ 6, 4, 7.5, 6 ], "texture": "#1" },
				"east": { "uv": [ 7, 5, 8.5, 7 ], "texture": "#1" }
			}
		},
		{
			"from": [ -1.5, 3.5, 11 ],
			"to": [ -0.5, 5.5, 12.5 ],
			"faces": {
				"down": { "uv": [ 13, 9, 14, 10.5 ], "texture": "#1" },
				"up": { "uv": [ 6, 9, 7, 10.5 ], "texture": "#1" },
				"north": { "uv": [ 4, 7, 5, 9 ], "texture": "#1" },
				"south": { "uv": [ 3, 2, 4, 4 ], "texture": "#1" },
				"west": { "uv": [ 3, 2, 4.5, 4 ], "texture": "#1" },
				"east": { "uv": [ 3, 4, 4.5, 6 ], "texture": "#1" }
			}
		},
		{
			"from": [ 16.5, 3.5, 11 ],
			"to": [ 17.5, 5.5, 12.5 ],
			"faces": {
				"down": { "uv": [ 12, 10, 13, 11.5 ], "texture": "#1" },
				"up": { "uv": [ 14, 7, 15, 8.5 ], "texture": "#1" },
				"north": { "uv": [ 9, 6, 10, 7 ], "texture": "#1", "rotation": 90 },
				"south": { "uv": [ 6, 6, 7, 8 ], "texture": "#1" },
				"west": { "uv": [ 4, 3, 5.5, 5 ], "texture": "#1" },
				"east": { "uv": [ 6, 5, 7.5, 7 ], "texture": "#1" }
			}
		},
		{
			"from": [ 16.5, 3.5, 3.5 ],
			"to": [ 17.5, 5.5, 5 ],
			"faces": {
				"down": { "uv": [ 13, 10, 14, 11.5 ], "texture": "#1" },
				"up": { "uv": [ 11, 7, 12, 8.5 ], "texture": "#1" },
				"north": { "uv": [ 2, 2, 3, 4 ], "texture": "#1" },
				"south": { "uv": [ 4, 2, 5, 4 ], "texture": "#1" },
				"west": { "uv": [ 4, 2, 5.5, 4 ], "texture": "#1" },
				"east": { "uv": [ 7, 2, 8.5, 4 ], "texture": "#1" }
			}
		},
		{
			"from": [ 2.5, 3.5, -1 ],
			"to": [ 3.5, 5.5, 0 ],
			"faces": {
				"down": { "uv": [ 8, 2, 9, 3 ], "texture": "#1" },
				"up": { "uv": [ 4, 5, 5, 6 ], "texture": "#1" },
				"north": { "uv": [ 4, 5, 5, 7 ], "texture": "#1" },
				"south": { "uv": [ 5, 4, 6, 6 ], "texture": "#1" },
				"west": { "uv": [ 3, 5, 4, 7 ], "texture": "#1" },
				"east": { "uv": [ 4, 4, 5, 6 ], "texture": "#1" }
			}
		},
		{
			"from": [ 12.5, 3.5, -1 ],
			"to": [ 13.5, 5.5, 0 ],
			"faces": {
				"down": { "uv": [ 6, 7, 7, 8 ], "texture": "#1" },
				"up": { "uv": [ 2, 9, 3, 10 ], "texture": "#1" },
				"north": { "uv": [ 1, 2, 2, 4 ], "texture": "#1" },
				"south": { "uv": [ 2, 2, 3, 4 ], "texture": "#1" },
				"west": { "uv": [ 4, 2, 5, 4 ], "texture": "#1" },
				"east": { "uv": [ 1, 2, 2, 4 ], "texture": "#1" }
			}
		},
		{
			"from": [ 16, 3.5, 2.5 ],
			"to": [ 17, 5.5, 3.5 ],
			"faces": {
				"down": { "uv": [ 14, 11, 15, 12 ], "texture": "#1" },
				"up": { "uv": [ 11, 5, 12, 6 ], "texture": "#1" },
				"north": { "uv": [ 3, 2, 4, 4 ], "texture": "#1" },
				"south": { "uv": [ 4, 3, 5, 5 ], "texture": "#1" },
				"west": { "uv": [ 1, 3, 2, 5 ], "texture": "#1" },
				"east": { "uv": [ 6, 5, 7, 7 ], "texture": "#1" }
			}
		},
		{
			"from": [ 16, 3.5, 12.5 ],
			"to": [ 17, 5.5, 13.5 ],
			"faces": {
				"down": { "uv": [ 12, 10, 13, 11 ], "texture": "#1" },
				"up": { "uv": [ 5, 8, 6, 9 ], "texture": "#1" },
				"north": { "uv": [ 4, 3, 5, 5 ], "texture": "#1" },
				"south": { "uv": [ 8, 2, 9, 4 ], "texture": "#1" },
				"west": { "uv": [ 2, 3, 3, 5 ], "texture": "#1" },
				"east": { "uv": [ 2, 2, 3, 4 ], "texture": "#1" }
			}
		},
		{
			"from": [ 12.5, 3.5, 16 ],
			"to": [ 13.5, 5.5, 17 ],
			"faces": {
				"down": { "uv": [ 13, 10, 14, 11 ], "texture": "#1" },
				"up": { "uv": [ 4, 4, 5, 5 ], "texture": "#1" },
				"north": { "uv": [ 7, 5, 8, 7 ], "texture": "#1" },
				"south": { "uv": [ 7, 2, 8, 4 ], "texture": "#1" },
				"west": { "uv": [ 3, 1, 4, 3 ], "texture": "#1" },
				"east": { "uv": [ 10, 2, 11, 4 ], "texture": "#1" }
			}
		},
		{
			"from": [ 2.5, 3.5, 16 ],
			"to": [ 3.5, 5.5, 17 ],
			"faces": {
				"down": { "uv": [ 13, 11, 14, 12 ], "texture": "#1" },
				"up": { "uv": [ 7, 9, 8, 10 ], "texture": "#1" },
				"north": { "uv": [ 7, 9, 8, 11 ], "texture": "#1" },
				"south": { "uv": [ 6, 2, 7, 4 ], "texture": "#1" },
				"west": { "uv": [ 2, 2, 3, 4 ], "texture": "#1" },
				"east": { "uv": [ 4, 4, 5, 6 ], "texture": "#1" }
			}
		},
		{
			"from": [ -1, 3.5, 12.5 ],
			"to": [ 0, 5.5, 13.5 ],
			"faces": {
				"down": { "uv": [ 13, 10, 14, 11 ], "texture": "#1" },
				"up": { "uv": [ 11, 6, 12, 7 ], "texture": "#1" },
				"north": { "uv": [ 3, 5, 4, 7 ], "texture": "#1" },
				"south": { "uv": [ 6, 2, 7, 4 ], "texture": "#1" },
				"west": { "uv": [ 9, 2, 10, 4 ], "texture": "#1" },
				"east": { "uv": [ 4, 3, 5, 5 ], "texture": "#1" }
			}
		},
		{
			"from": [ -1, 3.5, 2.5 ],
			"to": [ 0, 5.5, 3.5 ],
			"faces": {
				"down": { "uv": [ 9, 3, 10, 4 ], "texture": "#1" },
				"up": { "uv": [ 4, 4, 5, 5 ], "texture": "#1" },
				"north": { "uv": [ 7, 10, 8, 12 ], "texture": "#1" },
				"south": { "uv": [ 6, 7, 7, 9 ], "texture": "#1" },
				"west": { "uv": [ 2, 4, 3, 6 ], "texture": "#1" },
				"east": { "uv": [ 7, 3, 8, 5 ], "texture": "#1" }
			}
		},
		{
			"from": [ 1.5, 3.5, 15.5 ],
			"to": [ 2.5, 5.5, 16.5 ],
			"faces": {
				"down": { "uv": [ 14, 13, 15, 14 ], "texture": "#1" },
				"up": { "uv": [ 5, 6, 6, 7 ], "texture": "#1" },
				"north": { "uv": [ 4, 4, 5, 6 ], "texture": "#1" },
				"south": { "uv": [ 9, 3, 10, 5 ], "texture": "#1" },
				"west": { "uv": [ 1, 3, 2, 5 ], "texture": "#1" },
				"east": { "uv": [ 2, 2, 3, 4 ], "texture": "#1" }
			}
		},
		{
			"from": [ -0.5, 3.5, 13.5 ],
			"to": [ 0.5, 5.5, 14.5 ],
			"faces": {
				"down": { "uv": [ 13, 10, 14, 11 ], "texture": "#1" },
				"up": { "uv": [ 6, 8, 7, 9 ], "texture": "#1" },
				"north": { "uv": [ 3, 4, 4, 6 ], "texture": "#1" },
				"south": { "uv": [ 6, 5, 7, 7 ], "texture": "#1" },
				"west": { "uv": [ 4, 5, 5, 7 ], "texture": "#1" },
				"east": { "uv": [ 4, 4, 5, 6 ], "texture": "#1" }
			}
		},
		{
			"from": [ 1, 3.5, 15 ],
			"to": [ 2, 5.5, 16 ],
			"faces": {
				"down": { "uv": [ 12, 7, 13, 8 ], "texture": "#1" },
				"up": { "uv": [ 2, 8, 3, 9 ], "texture": "#1" },
				"north": { "uv": [ 3, 5, 4, 7 ], "texture": "#1" },
				"south": { "uv": [ 14, 10, 15, 12 ], "texture": "#1" },
				"west": { "uv": [ 2, 3, 3, 5 ], "texture": "#1" },
				"east": { "uv": [ 3, 2, 4, 4 ], "texture": "#1" }
			}
		},
		{
			"from": [ 0, 3.5, 14 ],
			"to": [ 1, 5.5, 15 ],
			"faces": {
				"down": { "uv": [ 13, 10, 14, 11 ], "texture": "#1" },
				"up": { "uv": [ 8, 7, 9, 8 ], "texture": "#1" },
				"north": { "uv": [ 10, 8, 11, 10 ], "texture": "#1" },
				"south": { "uv": [ 12, 6, 13, 8 ], "texture": "#1" },
				"west": { "uv": [ 10, 5, 11, 7 ], "texture": "#1" },
				"east": { "uv": [ 10, 8, 11, 10 ], "texture": "#1" }
			}
		},
		{
			"from": [ 0.5, 3.5, 14.5 ],
			"to": [ 1.5, 5.5, 15.5 ],
			"faces": {
				"down": { "uv": [ 14, 10, 15, 11 ], "texture": "#1" },
				"up": { "uv": [ 12, 9, 13, 10 ], "texture": "#1" },
				"north": { "uv": [ 5, 5, 6, 7 ], "texture": "#1" },
				"south": { "uv": [ 13, 9, 14, 11 ], "texture": "#1" },
				"west": { "uv": [ 7, 5, 8, 7 ], "texture": "#1" },
				"east": { "uv": [ 3, 4, 4, 6 ], "texture": "#1" }
			}
		},
		{
			"from": [ 1.5, 3.5, -0.5 ],
			"to": [ 2.5, 5.5, 0.5 ],
			"faces": {
				"down": { "uv": [ 13, 2, 14, 3 ], "texture": "#1" },
				"up": { "uv": [ 4, 4, 5, 5 ], "texture": "#1" },
				"north": { "uv": [ 4, 7, 5, 9 ], "texture": "#1" },
				"south": { "uv": [ 7, 4, 8, 6 ], "texture": "#1" },
				"west": { "uv": [ 5, 5, 6, 7 ], "texture": "#1" },
				"east": { "uv": [ 6, 11, 7, 13 ], "texture": "#1" }
			}
		},
		{
			"from": [ -0.5, 3.5, 1.5 ],
			"to": [ 0.5, 5.5, 2.5 ],
			"faces": {
				"down": { "uv": [ 8, 6, 9, 7 ], "texture": "#1" },
				"up": { "uv": [ 4, 5, 5, 6 ], "texture": "#1" },
				"north": { "uv": [ 5, 9, 6, 11 ], "texture": "#1" },
				"south": { "uv": [ 4, 5, 5, 7 ], "texture": "#1" },
				"west": { "uv": [ 6, 7, 7, 9 ], "texture": "#1" },
				"east": { "uv": [ 8, 11, 9, 13 ], "texture": "#1" }
			}
		},
		{
			"from": [ 1, 3.5, 0 ],
			"to": [ 2, 5.5, 1 ],
			"faces": {
				"down": { "uv": [ 2, 1, 3, 2 ], "texture": "#1" },
				"up": { "uv": [ 6, 5, 7, 6 ], "texture": "#1" },
				"north": { "uv": [ 3, 4, 4, 6 ], "texture": "#1" },
				"south": { "uv": [ 4, 4, 5, 6 ], "texture": "#1" },
				"west": { "uv": [ 6, 8, 7, 10 ], "texture": "#1" },
				"east": { "uv": [ 5, 9, 6, 11 ], "texture": "#1" }
			}
		},
		{
			"from": [ 0, 3.5, 1 ],
			"to": [ 1, 5.5, 2 ],
			"faces": {
				"down": { "uv": [ 8, 2, 9, 3 ], "texture": "#1" },
				"up": { "uv": [ 3, 4, 4, 5 ], "texture": "#1" },
				"north": { "uv": [ 2, 6, 3, 8 ], "texture": "#1" },
				"south": { "uv": [ 5, 3, 6, 5 ], "texture": "#1" },
				"west": { "uv": [ 5, 6, 6, 8 ], "texture": "#1" },
				"east": { "uv": [ 9, 13, 10, 15 ], "texture": "#1" }
			}
		},
		{
			"from": [ 0.5, 3.5, 0.5 ],
			"to": [ 1.5, 5.5, 1.5 ],
			"faces": {
				"down": { "uv": [ 13, 10, 14, 11 ], "texture": "#1" },
				"up": { "uv": [ 4, 4, 5, 5 ], "texture": "#1" },
				"north": { "uv": [ 3, 7, 4, 9 ], "texture": "#1" },
				"south": { "uv": [ 5, 6, 6, 8 ], "texture": "#1" },
				"west": { "uv": [ 5, 6, 6, 8 ], "texture": "#1" },
				"east": { "uv": [ 14, 14, 15, 16 ], "texture": "#1" }
			}
		},
		{
			"from": [ 15.5, 3.5, 1.5 ],
			"to": [ 16.5, 5.5, 2.5 ],
			"faces": {
				"down": { "uv": [ 14, 14, 15, 15 ], "texture": "#1" },
				"up": { "uv": [ 11, 5, 12, 6 ], "texture": "#1" },
				"north": { "uv": [ 5, 2, 6, 4 ], "texture": "#1" },
				"south": { "uv": [ 7, 6, 8, 8 ], "texture": "#1" },
				"west": { "uv": [ 11, 7, 12, 9 ], "texture": "#1" },
				"east": { "uv": [ 9, 4, 10, 6 ], "texture": "#1" }
			}
		},
		{
			"from": [ 13.5, 3.5, -0.5 ],
			"to": [ 14.5, 5.5, 0.5 ],
			"faces": {
				"down": { "uv": [ 14, 13, 15, 14 ], "texture": "#1" },
				"up": { "uv": [ 2, 5, 3, 6 ], "texture": "#1" },
				"north": { "uv": [ 2, 2, 3, 4 ], "texture": "#1" },
				"south": { "uv": [ 2, 2, 3, 4 ], "texture": "#1" },
				"west": { "uv": [ 2, 2, 3, 4 ], "texture": "#1" },
				"east": { "uv": [ 3, 1, 4, 3 ], "texture": "#1" }
			}
		},
		{
			"from": [ 15, 3.5, 1 ],
			"to": [ 16, 5.5, 2 ],
			"faces": {
				"down": { "uv": [ 6, 7, 7, 8 ], "texture": "#1" },
				"up": { "uv": [ 5, 9, 6, 10 ], "texture": "#1" },
				"north": { "uv": [ 13, 12, 14, 14 ], "texture": "#1" },
				"south": { "uv": [ 3, 5, 4, 7 ], "texture": "#1" },
				"west": { "uv": [ 3, 2, 4, 4 ], "texture": "#1" },
				"east": { "uv": [ 12, 10, 13, 12 ], "texture": "#1" }
			}
		},
		{
			"from": [ 14, 3.5, 0 ],
			"to": [ 15, 5.5, 1 ],
			"faces": {
				"down": { "uv": [ 5, 3, 6, 4 ], "texture": "#1" },
				"up": { "uv": [ 6, 4, 7, 5 ], "texture": "#1" },
				"north": { "uv": [ 2, 2, 3, 4 ], "texture": "#1" },
				"south": { "uv": [ 6, 4, 7, 6 ], "texture": "#1" },
				"west": { "uv": [ 3, 4, 4, 6 ], "texture": "#1" },
				"east": { "uv": [ 5, 4, 6, 6 ], "texture": "#1" }
			}
		},
		{
			"from": [ 14.5, 3.5, 0.5 ],
			"to": [ 15.5, 5.5, 1.5 ],
			"faces": {
				"down": { "uv": [ 13, 10, 14, 11 ], "texture": "#1" },
				"up": { "uv": [ 0, 2, 1, 3 ], "texture": "#1" },
				"north": { "uv": [ 4, 2, 5, 4 ], "texture": "#1" },
				"south": { "uv": [ 1, 2, 2, 4 ], "texture": "#1" },
				"west": { "uv": [ 4, 5, 5, 7 ], "texture": "#1" },
				"east": { "uv": [ 1, 2, 2, 4 ], "texture": "#1" }
			}
		},
		{
			"from": [ 15.5, 3.5, 13.5 ],
			"to": [ 16.5, 5.5, 14.5 ],
			"faces": {
				"down": { "uv": [ 13, 10, 14, 11 ], "texture": "#1" },
				"up": { "uv": [ 6, 7, 7, 8 ], "texture": "#1" },
				"north": { "uv": [ 5, 5, 6, 7 ], "texture": "#1" },
				"south": { "uv": [ 4, 2, 5, 4 ], "texture": "#1" },
				"west": { "uv": [ 4, 3, 5, 5 ], "texture": "#1" },
				"east": { "uv": [ 2, 2, 3, 4 ], "texture": "#1" }
			}
		},
		{
			"from": [ 13.5, 3.5, 15.5 ],
			"to": [ 14.5, 5.5, 16.5 ],
			"faces": {
				"down": { "uv": [ 13, 11, 14, 12 ], "texture": "#1" },
				"up": { "uv": [ 11, 8, 12, 9 ], "texture": "#1" },
				"north": { "uv": [ 4, 4, 5, 6 ], "texture": "#1" },
				"south": { "uv": [ 10, 2, 11, 4 ], "texture": "#1" },
				"west": { "uv": [ 2, 3, 3, 5 ], "texture": "#1" },
				"east": { "uv": [ 5, 2, 6, 4 ], "texture": "#1" }
			}
		},
		{
			"from": [ 15, 3.5, 14 ],
			"to": [ 16, 5.5, 15 ],
			"faces": {
				"down": { "uv": [ 4, 2, 5, 3 ], "texture": "#1" },
				"up": { "uv": [ 11, 6, 12, 7 ], "texture": "#1" },
				"north": { "uv": [ 4, 3, 5, 5 ], "texture": "#1" },
				"south": { "uv": [ 6, 2, 7, 4 ], "texture": "#1" },
				"west": { "uv": [ 5, 3, 6, 5 ], "texture": "#1" },
				"east": { "uv": [ 5, 2, 6, 4 ], "texture": "#1" }
			}
		},
		{
			"from": [ 14, 3.5, 15 ],
			"to": [ 15, 5.5, 16 ],
			"faces": {
				"down": { "uv": [ 13, 13, 14, 14 ], "texture": "#1" },
				"up": { "uv": [ 9, 4, 10, 5 ], "texture": "#1" },
				"north": { "uv": [ 2, 1, 3, 3 ], "texture": "#1" },
				"south": { "uv": [ 2, 2, 3, 4 ], "texture": "#1" },
				"west": { "uv": [ 6, 3, 7, 5 ], "texture": "#1" },
				"east": { "uv": [ 2, 2, 3, 4 ], "texture": "#1" }
			}
		},
		{
			"from": [ 14.5, 3.5, 14.5 ],
			"to": [ 15.5, 5.5, 15.5 ],
			"faces": {
				"down": { "uv": [ 13, 10, 14, 11 ], "texture": "#1" },
				"up": { "uv": [ 9, 9, 10, 10 ], "texture": "#1" },
				"north": { "uv": [ 6, 5, 7, 7 ], "texture": "#1" },
				"south": { "uv": [ 5, 2, 6, 4 ], "texture": "#1" },
				"west": { "uv": [ 5, 3, 6, 5 ], "texture": "#1" },
				"east": { "uv": [ 5, 2, 6, 4 ], "texture": "#1" }
			}
		},
		{
			"from": [ 7, 3, 7 ],
			"to": [ 9, 7, 9 ],
			"faces": {
				"down": { "uv": [ 9, 7, 11, 9 ], "texture": "#1" },
				"up": { "uv": [ 10, 8, 12, 10 ], "texture": "#1" },
				"north": { "uv": [ 11, 6, 13, 10 ], "texture": "#1" },
				"south": { "uv": [ 10, 8, 12, 12 ], "texture": "#1" },
				"west": { "uv": [ 12, 8, 14, 12 ], "texture": "#1" },
				"east": { "uv": [ 10, 10, 12, 14 ], "texture": "#1" }
			}
		},
		{
			"from": [ 7.5, 3, 6.7 ],
			"to": [ 8.5, 4, 9.3 ],
			"faces": {
				"down": { "uv": [ 14, 12, 15, 14.6 ], "texture": "#1" },
				"up": { "uv": [ 4, 3, 5, 5.6 ], "texture": "#1" },
				"north": { "uv": [ 14, 12, 15, 13 ], "texture": "#1" },
				"south": { "uv": [ 10, 9, 11, 10 ], "texture": "#1" },
				"west": { "uv": [ 9, 14, 11.5, 15 ], "texture": "#1" },
				"east": { "uv": [ 10, 12, 12.5, 13 ], "texture": "#1" }
			}
		},
		{
			"from": [ 6.7, 3, 7.5 ],
			"to": [ 9.3, 4, 8.5 ],
			"faces": {
				"down": { "uv": [ 12, 11, 14.5, 12 ], "texture": "#1" },
				"up": { "uv": [ 7, 6, 9.5, 7 ], "texture": "#1" },
				"north": { "uv": [ 10, 15, 12.5, 16 ], "texture": "#1" },
				"south": { "uv": [ 12, 9, 14.5, 10 ], "texture": "#1" },
				"west": { "uv": [ 9, 8, 10, 9 ], "texture": "#1" },
				"east": { "uv": [ 14, 10, 15, 11 ], "texture": "#1" }
			}
		},
		{
			"from": [ -2.9008, 5.5, 2.5017 ],
			"to": [ 0.09920001, 6, 5.5017 ],
			"rotation": { "origin": [ 8, 8, 8 ], "axis": "y", "angle": -22.5 },
			"faces": {
				"down": { "uv": [ 5, 5, 8, 8 ], "texture": "#1" },
				"up": { "uv": [ 11, 10, 14, 13 ], "texture": "#2", "rotation": 180 },
				"north": { "uv": [ 8, 15, 11, 15.5 ], "texture": "#2" },
				"south": { "uv": [ 12, 15, 15, 15.5 ], "texture": "#2" },
				"west": { "uv": [ 12, 15, 15, 15.5 ], "texture": "#2" },
				"east": { "uv": [ 10, 15, 13, 15.5 ], "texture": "#2" }
			}
		},
		{
			"from": [ -2.4008, 6, 3.0016 ],
			"to": [ -0.3007998, 6.5, 5.1016 ],
			"rotation": { "origin": [ 8, 8, 8 ], "axis": "y", "angle": -22.5 },
			"faces": {
				"down": { "uv": [ 5, 5, 7.1, 7.1 ], "texture": "#2" },
				"up": { "uv": [ 11, 6, 13, 8 ], "texture": "#2" },
				"north": { "uv": [ 8, 15, 10.1, 15.5 ], "texture": "#2" },
				"south": { "uv": [ 12, 15, 14.1, 15.5 ], "texture": "#2" },
				"west": { "uv": [ 12, 15, 14.1, 15.5 ], "texture": "#2" },
				"east": { "uv": [ 10, 15, 12.1, 15.5 ], "texture": "#2" }
			}
		},
		{
			"from": [ 0.09999999, 6, 0 ],
			"to": [ 1.6, 10.5, 1.5 ],
			"faces": {
				"down": { "uv": [ 0, 0, 1.5, 1.5 ], "texture": "#3" },
				"up": { "uv": [ 0, 0, 1.5, 1.5 ], "texture": "#3" },
				"north": { "uv": [ 0, 0, 1.5, 5.6 ], "texture": "#3" },
				"south": { "uv": [ 0, 0, 1.5, 5.6 ], "texture": "#3" },
				"west": { "uv": [ 0, 0, 1.5, 5.6 ], "texture": "#3" },
				"east": { "uv": [ 0, 0, 1.5, 5.6 ], "texture": "#3" }
			}
		},
		{
			"from": [ -3.6996, 5.5, 6.3972 ],
			"to": [ -0.6996, 6, 9.3972 ],
			"rotation": { "origin": [ 8, 8, 8 ], "axis": "y", "angle": 45 },
			"faces": {
				"down": { "uv": [ 5, 5, 8, 8 ], "texture": "#1" },
				"up": { "uv": [ 11, 10, 14, 13 ], "texture": "#2" },
				"north": { "uv": [ 8, 15, 11, 15.5 ], "texture": "#2" },
				"south": { "uv": [ 12, 15, 15, 15.5 ], "texture": "#2" },
				"west": { "uv": [ 12, 15, 15, 15.5 ], "texture": "#2" },
				"east": { "uv": [ 10, 15, 13, 15.5 ], "texture": "#2" }
			}
		},
		{
			"from": [ -3.2997, 6, 6.7973 ],
			"to": [ -1.0997, 6.5, 8.897299 ],
			"rotation": { "origin": [ 8, 8, 8 ], "axis": "y", "angle": 45 },
			"faces": {
				"down": { "uv": [ 5, 5, 7.2, 7.1 ], "texture": "#2" },
				"up": { "uv": [ 11, 8, 13, 10 ], "texture": "#2" },
				"north": { "uv": [ 8, 15, 10.2, 15.5 ], "texture": "#2" },
				"south": { "uv": [ 12, 15, 14.2, 15.5 ], "texture": "#2" },
				"west": { "uv": [ 12, 15, 14.1, 15.5 ], "texture": "#2" },
				"east": { "uv": [ 10, 15, 12.1, 15.5 ], "texture": "#2" }
			}
		},
		{
			"from": [ -2.1005, 6, 10.9984 ],
			"to": [ -0.6005, 11.3, 12.4984 ],
			"rotation": { "origin": [ 8, 8, 8 ], "axis": "y", "angle": 22.5 },
			"faces": {
				"down": { "uv": [ 6, 6, 7.5, 7.5 ], "texture": "#3" },
				"up": { "uv": [ 3, 4, 4.5, 5.5 ], "texture": "#3" },
				"north": { "uv": [ 8, 10, 9.5, 15.3 ], "texture": "#3" },
				"south": { "uv": [ 9, 8, 10.5, 13.3 ], "texture": "#3" },
				"west": { "uv": [ 9, 10, 10.5, 15.3 ], "texture": "#3" },
				"east": { "uv": [ 9, 11, 10.5, 16.3 ], "texture": "#3" }
			}
		},
		{
			"from": [ -3.2, 5.5, 6.4 ],
			"to": [ -0.1999998, 6, 9.4 ],
			"faces": {
				"down": { "uv": [ 5, 5, 8, 8 ], "texture": "#1" },
				"up": { "uv": [ 11, 10, 14, 13 ], "texture": "#2" },
				"north": { "uv": [ 8, 15, 11, 15.5 ], "texture": "#2" },
				"south": { "uv": [ 12, 15, 15, 15.5 ], "texture": "#2" },
				"west": { "uv": [ 12, 15, 15, 15.5 ], "texture": "#2" },
				"east": { "uv": [ 10, 15, 13, 15.5 ], "texture": "#2" }
			}
		},
		{
			"from": [ -2.1992, 6, 2.9984 ],
			"to": [ 0.0008001328, 6.5, 5.1984 ],
			"rotation": { "origin": [ 8, 8, 8 ], "axis": "y", "angle": 22.5 },
			"faces": {
				"down": { "uv": [ 5, 5, 7.2, 7.2 ], "texture": "#2" },
				"up": { "uv": [ 10, 6, 12, 8 ], "texture": "#2" },
				"north": { "uv": [ 8, 15, 10.2, 15.5 ], "texture": "#2" },
				"south": { "uv": [ 12, 15, 14.2, 15.5 ], "texture": "#2" },
				"west": { "uv": [ 12, 15, 14.2, 15.5 ], "texture": "#2" },
				"east": { "uv": [ 10, 15, 12.2, 15.5 ], "texture": "#2" }
			}
		},
		{
			"from": [ -1.8996, 6.4615, 10.9015 ],
			"to": [ -0.3995999, 10.4615, 12.4015 ],
			"rotation": { "origin": [ 8, 8, 8 ], "axis": "y", "angle": -22.5 },
			"faces": {
				"down": { "uv": [ 6, 6, 7.5, 7.5 ], "texture": "#3" },
				"up": { "uv": [ 3, 4, 4.5, 5.5 ], "texture": "#3" },
				"north": { "uv": [ 8, 10, 9.5, 15.2 ], "texture": "#3" },
				"south": { "uv": [ 9, 8, 10.5, 13.2 ], "texture": "#3" },
				"west": { "uv": [ 9, 10, 10.5, 15.2 ], "texture": "#3" },
				"east": { "uv": [ 9, 11, 10.5, 16.2 ], "texture": "#3" }
			}
		},
		{
			"from": [ 15.6992, 5.5, 2.6988 ],
			"to": [ 18.6992, 6, 5.6988 ],
			"rotation": { "origin": [ 8, 8, 8 ], "axis": "y", "angle": -22.5 },
			"faces": {
				"down": { "uv": [ 5, 5, 8, 8 ], "texture": "#1" },
				"up": { "uv": [ 11, 10, 14, 13 ], "texture": "#2" },
				"north": { "uv": [ 8, 15, 11, 15.5 ], "texture": "#2" },
				"south": { "uv": [ 12, 15, 15, 15.5 ], "texture": "#2" },
				"west": { "uv": [ 12, 15, 15, 15.5 ], "texture": "#2" },
				"east": { "uv": [ 10, 15, 13, 15.5 ], "texture": "#2" }
			}
		},
		{
			"from": [ 17.1, 6, 6.9 ],
			"to": [ 19.2, 6.5, 9 ],
			"faces": {
				"down": { "uv": [ 5, 5, 7, 7 ], "texture": "#2" },
				"up": { "uv": [ 12, 8, 14, 10 ], "texture": "#2" },
				"north": { "uv": [ 8, 15, 10, 15.5 ], "texture": "#2" },
				"south": { "uv": [ 12, 15, 14, 15.5 ], "texture": "#2" },
				"west": { "uv": [ 12, 15, 14, 15.5 ], "texture": "#2" },
				"east": { "uv": [ 10, 15, 12, 15.5 ], "texture": "#2" }
			}
		},
		{
			"from": [ 17.4, 6, 7.2 ],
			"to": [ 18.9, 10.8, 8.7 ],
			"faces": {
				"down": { "uv": [ 0, 0, 1.5, 1.5 ], "texture": "#3" },
				"up": { "uv": [ 0, 0, 1.5, 1.5 ], "texture": "#3" },
				"north": { "uv": [ 0, 0, 1.5, 4.8 ], "texture": "#3" },
				"south": { "uv": [ 0, 0, 1.5, 4.8 ], "texture": "#3" },
				"west": { "uv": [ 0, 0, 1.5, 4.8 ], "texture": "#3" },
				"east": { "uv": [ 0, 0, 1.5, 4.8 ], "texture": "#3" }
			}
		},
		{
			"from": [ 17.1004, 5.5, 6.4022 ],
			"to": [ 20.1004, 6, 9.402199 ],
			"rotation": { "origin": [ 8, 8, 8 ], "axis": "y", "angle": 45 },
			"faces": {
				"down": { "uv": [ 5, 5, 8, 8 ], "texture": "#1" },
				"up": { "uv": [ 11, 10, 14, 13 ], "texture": "#2" },
				"north": { "uv": [ 8, 15, 11, 15.5 ], "texture": "#2" },
				"south": { "uv": [ 12, 15, 15, 15.5 ], "texture": "#2" },
				"west": { "uv": [ 12, 15, 15, 15.5 ], "texture": "#2" },
				"east": { "uv": [ 10, 15, 13, 15.5 ], "texture": "#2" }
			}
		},
		{
			"from": [ 16.6008, 6, 2.8013 ],
			"to": [ 18.8008, 6.5, 5.0013 ],
			"rotation": { "origin": [ 8, 8, 8 ], "axis": "y", "angle": 22.5 },
			"faces": {
				"down": { "uv": [ 5, 5, 7.2, 7.2 ], "texture": "#2" },
				"up": { "uv": [ 11, 6, 13, 8 ], "texture": "#2" },
				"north": { "uv": [ 8, 15, 10.2, 15.5 ], "texture": "#2" },
				"south": { "uv": [ 12, 15, 14.2, 15.5 ], "texture": "#2" },
				"west": { "uv": [ 12, 15, 14.2, 15.5 ], "texture": "#2" },
				"east": { "uv": [ 10, 15, 12.2, 15.5 ], "texture": "#2" }
			}
		},
		{
			"from": [ 17.7002, 6.4906, 7.1023 ],
			"to": [ 19.2002, 10.4906, 8.6023 ],
			"rotation": { "origin": [ 8, 8, 8 ], "axis": "y", "angle": 45 },
			"faces": {
				"down": { "uv": [ 6, 6, 7.5, 7.5 ], "texture": "#3" },
				"up": { "uv": [ 3, 4, 4.5, 5.5 ], "texture": "#3" },
				"north": { "uv": [ 8, 10, 9.5, 15.3 ], "texture": "#3" },
				"south": { "uv": [ 9, 8, 10.5, 13.3 ], "texture": "#3" },
				"west": { "uv": [ 9, 10, 10.5, 15.3 ], "texture": "#3" },
				"east": { "uv": [ 9, 11, 10.5, 16.3 ], "texture": "#3" }
			}
		},
		{
			"from": [ 10.1016, 5.5, -2.4997 ],
			"to": [ 13.1016, 6, 0.5003002 ],
			"rotation": { "origin": [ 8, 8, 8 ], "axis": "y", "angle": 22.5 },
			"faces": {
				"down": { "uv": [ 5, 5, 8, 8 ], "texture": "#1" },
				"up": { "uv": [ 11, 10, 14, 13 ], "texture": "#2" },
				"north": { "uv": [ 8, 15, 11, 15.5 ], "texture": "#2" },
				"south": { "uv": [ 12, 15, 15, 15.5 ], "texture": "#2" },
				"west": { "uv": [ 12, 15, 15, 15.5 ], "texture": "#2" },
				"east": { "uv": [ 10, 15, 13, 15.5 ], "texture": "#2" }
			}
		},
		{
			"from": [ 6.7, 6, 16.8 ],
			"to": [ 8.9, 6.5, 18.9 ],
			"faces": {
				"down": { "uv": [ 5, 5, 7.2, 7.1 ], "texture": "#2" },
				"up": { "uv": [ 11, 8, 13, 10 ], "texture": "#2" },
				"north": { "uv": [ 8, 15, 10.2, 15.5 ], "texture": "#2" },
				"south": { "uv": [ 12, 15, 14.2, 15.5 ], "texture": "#2" },
				"west": { "uv": [ 12, 15, 14.1, 15.5 ], "texture": "#2" },
				"east": { "uv": [ 10, 15, 12.1, 15.5 ], "texture": "#2" }
			}
		},
		{
			"from": [ 10.9013, 6.5106, 16.3996 ],
			"to": [ 12.4013, 10.0106, 17.8996 ],
			"rotation": { "origin": [ 8, 8, 8 ], "axis": "y", "angle": -22.5 },
			"faces": {
				"down": { "uv": [ 6, 6, 7.5, 7.5 ], "texture": "#3" },
				"up": { "uv": [ 3, 4, 4.5, 5.5 ], "texture": "#3" },
				"north": { "uv": [ 9, 10, 10.5, 14.7 ], "texture": "#3" },
				"south": { "uv": [ 11, 8, 12.5, 12.7 ], "texture": "#3" },
				"west": { "uv": [ 12, 10, 13.5, 14.7 ], "texture": "#3" },
				"east": { "uv": [ 11, 11, 12.5, 15.7 ], "texture": "#3" }
			}
		},
		{
			"from": [ 16.2004, 5.5, 10.5987 ],
			"to": [ 19.2004, 6, 13.5987 ],
			"rotation": { "origin": [ 8, 8, 8 ], "axis": "y", "angle": -22.5 },
			"faces": {
				"down": { "uv": [ 5, 5, 8, 8 ], "texture": "#1" },
				"up": { "uv": [ 11, 10, 14, 13 ], "texture": "#2" },
				"north": { "uv": [ 8, 15, 11, 15.5 ], "texture": "#2" },
				"south": { "uv": [ 12, 15, 15, 15.5 ], "texture": "#2" },
				"west": { "uv": [ 12, 15, 15, 15.5 ], "texture": "#2" },
				"east": { "uv": [ 10, 15, 13, 15.5 ], "texture": "#2" }
			}
		},
		{
			"from": [ 16.5004, 6, 10.8987 ],
			"to": [ 18.7004, 6.5, 13.0987 ],
			"rotation": { "origin": [ 8, 8, 8 ], "axis": "y", "angle": -22.5 },
			"faces": {
				"down": { "uv": [ 5, 5, 7.2, 7.2 ], "texture": "#2" },
				"up": { "uv": [ 11, 8, 13, 10 ], "texture": "#2" },
				"north": { "uv": [ 8, 15, 10.2, 15.5 ], "texture": "#2" },
				"south": { "uv": [ 12, 15, 14.2, 15.5 ], "texture": "#2" },
				"west": { "uv": [ 12, 15, 14.2, 15.5 ], "texture": "#2" },
				"east": { "uv": [ 10, 15, 12.2, 15.5 ], "texture": "#2" }
			}
		},
		{
			"from": [ 11.1986, 6.4906, 16.9005 ],
			"to": [ 12.6986, 10.4906, 18.4005 ],
			"rotation": { "origin": [ 8, 8, 8 ], "axis": "y", "angle": 22.5 },
			"faces": {
				"down": { "uv": [ 6, 6, 7.5, 7.5 ], "texture": "#3" },
				"up": { "uv": [ 3, 4, 4.5, 5.5 ], "texture": "#3" },
				"north": { "uv": [ 8, 10, 9.5, 15.3 ], "texture": "#3" },
				"south": { "uv": [ 9, 8, 10.5, 13.3 ], "texture": "#3" },
				"west": { "uv": [ 9, 10, 10.5, 15.3 ], "texture": "#3" },
				"east": { "uv": [ 9, 11, 10.5, 16.3 ], "texture": "#3" }
			}
		},
		{
			"from": [ 10.1012, 5.5, 15.6997 ],
			"to": [ 13.1012, 6, 18.6997 ],
			"rotation": { "origin": [ 8, 8, 8 ], "axis": "y", "angle": -22.5 },
			"faces": {
				"down": { "uv": [ 5, 5, 8, 8 ], "texture": "#1" },
				"up": { "uv": [ 11, 10, 14, 13 ], "texture": "#2" },
				"north": { "uv": [ 8, 15, 11, 15.5 ], "texture": "#2" },
				"south": { "uv": [ 12, 15, 15, 15.5 ], "texture": "#2" },
				"west": { "uv": [ 12, 15, 15, 15.5 ], "texture": "#2" },
				"east": { "uv": [ 10, 15, 13, 15.5 ], "texture": "#2" }
			}
		},
		{
			"from": [ 10.5015, 6, -1.9996 ],
			"to": [ 12.7015, 6.5, 0.2004001 ],
			"rotation": { "origin": [ 8, 8, 8 ], "axis": "y", "angle": 22.5 },
			"faces": {
				"down": { "uv": [ 5, 5, 7.2, 7.2 ], "texture": "#2" },
				"up": { "uv": [ 6, 2, 8, 4 ], "texture": "#2" },
				"north": { "uv": [ 8, 15, 10.2, 15.5 ], "texture": "#2" },
				"south": { "uv": [ 12, 15, 14.2, 15.5 ], "texture": "#2" },
				"west": { "uv": [ 12, 15, 14.2, 15.5 ], "texture": "#2" },
				"east": { "uv": [ 10, 15, 12.2, 15.5 ], "texture": "#2" }
			}
		},
		{
			"from": [ 3.4985, 6, -1.5993 ],
			"to": [ 4.9985, 11.2, -0.09929991 ],
			"rotation": { "origin": [ 8, 8, 8 ], "axis": "y", "angle": -22.5 },
			"faces": {
				"down": { "uv": [ 6, 6, 7.5, 7.5 ], "texture": "#3" },
				"up": { "uv": [ 3, 4, 4.5, 5.5 ], "texture": "#3" },
				"north": { "uv": [ 8, 10, 9.5, 15.2 ], "texture": "#3" },
				"south": { "uv": [ 9, 8, 10.5, 13.2 ], "texture": "#3" },
				"west": { "uv": [ 9, 10, 10.5, 15.2 ], "texture": "#3" },
				"east": { "uv": [ 9, 11, 10.5, 16.2 ], "texture": "#3" }
			}
		},
		{
			"from": [ 0.8, 11.5, 0.6 ],
			"to": [ 0.8999999, 12, 0.6999999 ],
			"faces": {
				"down": { "uv": [ 0, 0, 0.1, 0.1000004 ], "texture": "#2" },
				"up": { "uv": [ 0, 0, 0.1, 0.1000004 ], "texture": "#2" },
				"north": { "uv": [ 0, 0, 0.1, 0.5 ], "texture": "#2" },
				"south": { "uv": [ 0, 0, 0.1, 0.5 ], "texture": "#2" },
				"west": { "uv": [ 0, 0, 0.1, 0.5 ], "texture": "#2" },
				"east": { "uv": [ 0, 0, 0.1, 0.5 ], "texture": "#2" }
			}
		},
		{
			"from": [ 15.1, 11.2, 0.6 ],
			"to": [ 15.2, 11.9, 0.6999999 ],
			"faces": {
				"down": { "uv": [ 0, 0, 0.1, 0.1000004 ], "texture": "#2" },
				"up": { "uv": [ 0, 0, 0.1, 0.1000004 ], "texture": "#2" },
				"north": { "uv": [ 0, 0, 0.1, 0.6999998 ], "texture": "#2" },
				"south": { "uv": [ 0, 0, 0.1, 0.6999998 ], "texture": "#2" },
				"west": { "uv": [ 0, 0, 0.1, 0.6999998 ], "texture": "#2" },
				"east": { "uv": [ 0, 0, 0.1, 0.6999998 ], "texture": "#2" }
			}
		},
		{
			"from": [ 7.9, 11, -1.4 ],
			"to": [ 8, 11.7, -1.3 ],
			"faces": {
				"down": { "uv": [ 0, 0, 0.1, 0.1000004 ], "texture": "#2" },
				"up": { "uv": [ 0, 0, 0.1, 0.1000004 ], "texture": "#2" },
				"north": { "uv": [ 0, 0, 0.1, 0.6999998 ], "texture": "#2" },
				"south": { "uv": [ 0, 0, 0.1, 0.6999998 ], "texture": "#2" },
				"west": { "uv": [ 0, 0, 0.1, 0.6999998 ], "texture": "#2" },
				"east": { "uv": [ 0, 0, 0.1, 0.6999998 ], "texture": "#2" }
			}
		},
		{
			"from": [ 7.9, 10.6, 17.7 ],
			"to": [ 8, 11.3, 17.8 ],
			"faces": {
				"down": { "uv": [ 0, 0, 0.1, 0.1000004 ], "texture": "#2" },
				"up": { "uv": [ 0, 0, 0.1, 0.1000004 ], "texture": "#2" },
				"north": { "uv": [ 0, 0, 0.1, 0.6999998 ], "texture": "#2" },
				"south": { "uv": [ 0, 0, 0.1, 0.6999998 ], "texture": "#2" },
				"west": { "uv": [ 0, 0, 0.1, 0.6999998 ], "texture": "#2" },
				"east": { "uv": [ 0, 0, 0.1, 0.6999998 ], "texture": "#2" }
			}
		},
		{
			"from": [ 15, 11, 15.3 ],
			"to": [ 15.1, 11.7, 15.4 ],
			"faces": {
				"down": { "uv": [ 0, 0, 0.1, 0.1000004 ], "texture": "#2" },
				"up": { "uv": [ 0, 0, 0.1, 0.1000004 ], "texture": "#2" },
				"north": { "uv": [ 0, 0, 0.1, 0.6999998 ], "texture": "#2" },
				"south": { "uv": [ 0, 0, 0.1, 0.6999998 ], "texture": "#2" },
				"west": { "uv": [ 0, 0, 0.1, 0.6999998 ], "texture": "#2" },
				"east": { "uv": [ 0, 0, 0.1, 0.6999998 ], "texture": "#2" }
			}
		},
		{
			"from": [ 18.2, 10.8, 8 ],
			"to": [ 18.3, 11.5, 8.1 ],
			"faces": {
				"down": { "uv": [ 0, 0, 0.1, 0.1000004 ], "texture": "#2" },
				"up": { "uv": [ 0, 0, 0.1, 0.1000004 ], "texture": "#2" },
				"north": { "uv": [ 0, 0, 0.1, 0.6999998 ], "texture": "#2" },
				"south": { "uv": [ 0, 0, 0.1, 0.6999998 ], "texture": "#2" },
				"west": { "uv": [ 0, 0, 0.1, 0.6999998 ], "texture": "#2" },
				"east": { "uv": [ 0, 0, 0.1, 0.6999998 ], "texture": "#2" }
			}
		},
		{
			"from": [ -1.9, 11.1, 7.7 ],
			"to": [ -1.8, 11.8, 7.8 ],
			"faces": {
				"down": { "uv": [ 0, 0, 0.1, 0.1000004 ], "texture": "#2" },
				"up": { "uv": [ 0, 0, 0.1, 0.1000004 ], "texture": "#2" },
				"north": { "uv": [ 0, 0, 0.1, 0.6999998 ], "texture": "#2" },
				"south": { "uv": [ 0, 0, 0.1, 0.6999998 ], "texture": "#2" },
				"west": { "uv": [ 0, 0, 0.1, 0.6999998 ], "texture": "#2" },
				"east": { "uv": [ 0, 0, 0.1, 0.6999998 ], "texture": "#2" }
			}
		},
		{
			"from": [ 0.8, 11.1, 15 ],
			"to": [ 0.8999999, 11.8, 15.1 ],
			"faces": {
				"down": { "uv": [ 0, 0, 0.1, 0.1000004 ], "texture": "#2" },
				"up": { "uv": [ 0, 0, 0.1, 0.1000004 ], "texture": "#2" },
				"north": { "uv": [ 0, 0, 0.1, 0.6999998 ], "texture": "#2" },
				"south": { "uv": [ 0, 0, 0.1, 0.6999998 ], "texture": "#2" },
				"west": { "uv": [ 0, 0, 0.1, 0.6999998 ], "texture": "#2" },
				"east": { "uv": [ 0, 0, 0.1, 0.6999998 ], "texture": "#2" }
			}
		},
		{
			"from": [ 7.5, 7.5, 7 ],
			"to": [ 8.5, 8.5, 7.5 ],
			"faces": {
				"down": { "uv": [ 10, 7, 11, 7.5 ], "texture": "#1" },
				"up": { "uv": [ 9, 5, 10, 5.5 ], "texture": "#1" },
				"north": { "uv": [ 13, 12, 14, 13 ], "texture": "#1" },
				"south": { "uv": [ 7, 8, 8, 9 ], "texture": "#1" },
				"west": { "uv": [ 5, 5, 5.5, 6 ], "texture": "#1" },
				"east": { "uv": [ 6, 6, 6.5, 7 ], "texture": "#1" }
			}
		},
		{
			"from": [ 7.5, 7.5, 8.5 ],
			"to": [ 8.5, 8.5, 9 ],
			"faces": {
				"down": { "uv": [ 7, 8, 8, 8.5 ], "texture": "#1" },
				"up": { "uv": [ 13, 15, 14, 15.5 ], "texture": "#1" },
				"north": { "uv": [ 8, 8, 9, 9 ], "texture": "#1" },
				"south": { "uv": [ 14, 12, 15, 13 ], "texture": "#1" },
				"west": { "uv": [ 6, 6, 6.5, 7 ], "texture": "#1" },
				"east": { "uv": [ 15, 7, 15.5, 8 ], "texture": "#1" }
			}
		},
		{
			"from": [ 7.5, 7, 7.5 ],
			"to": [ 8.5, 7.5, 8.5 ],
			"faces": {
				"down": { "uv": [ 8, 8, 9, 9 ], "texture": "#1" },
				"up": { "uv": [ 1, 14, 2, 15 ], "texture": "#1" },
				"north": { "uv": [ 8, 8, 9, 8.5 ], "texture": "#1" },
				"south": { "uv": [ 8, 8, 9, 8.5 ], "texture": "#1" },
				"west": { "uv": [ 9, 9, 10, 9.5 ], "texture": "#1" },
				"east": { "uv": [ 8, 15, 9, 15.5 ], "texture": "#1" }
			}
		},
		{
			"from": [ 7.5, 8.5, 7.5 ],
			"to": [ 8.5, 9, 8.5 ],
			"faces": {
				"down": { "uv": [ 5, 5, 6, 6 ], "texture": "#1" },
				"up": { "uv": [ 9, 6, 10, 7 ], "texture": "#1" },
				"north": { "uv": [ 10, 15, 11, 15.5 ], "texture": "#1" },
				"south": { "uv": [ 14, 14, 15, 14.5 ], "texture": "#1" },
				"west": { "uv": [ 11, 14, 12, 14.5 ], "texture": "#1" },
				"east": { "uv": [ 11, 15, 12, 15.5 ], "texture": "#1" }
			}
		},
		{
			"from": [ 7.3, 8.099999, 7.7 ],
			"to": [ 8.699999, 8.599999, 8.2 ],
			"faces": {
				"down": { "uv": [ 4, 4, 5.4, 4.6 ], "texture": "#1" },
				"up": { "uv": [ 9, 8, 10.4, 8.6 ], "texture": "#1" },
				"north": { "uv": [ 6, 6, 7.4, 6.5 ], "texture": "#1" },
				"south": { "uv": [ 14, 13, 15.4, 13.5 ], "texture": "#1" },
				"west": { "uv": [ 9, 7, 9.6, 7.5 ], "texture": "#1" },
				"east": { "uv": [ 7, 9, 7.6, 9.5 ], "texture": "#1" }
			}
		},
		{
			"from": [ 7.1, 8.5, 7.7 ],
			"to": [ 7.6, 10, 8.2 ],
			"faces": {
				"down": { "uv": [ 0, 0, 0.5, 0.5 ], "texture": "#1" },
				"up": { "uv": [ 11, 10, 11.5, 10.5 ], "texture": "#1" },
				"north": { "uv": [ 5, 4, 5.5, 5.5 ], "texture": "#1" },
				"south": { "uv": [ 7, 5, 7.5, 6.5 ], "texture": "#1" },
				"west": { "uv": [ 5, 5, 5.5, 6.5 ], "texture": "#1" },
				"east": { "uv": [ 5, 8, 5.5, 9.5 ], "texture": "#1" }
			}
		},
		{
			"from": [ 8.3, 8.5, 7.7 ],
			"to": [ 8.8, 10, 8.2 ],
			"faces": {
				"down": { "uv": [ 3, 3, 3.5, 3.5 ], "texture": "#1" },
				"up": { "uv": [ 5, 5, 5.5, 5.5 ], "texture": "#1" },
				"north": { "uv": [ 3, 2, 3.5, 3.5 ], "texture": "#1" },
				"south": { "uv": [ 6, 5, 6.5, 6.5 ], "texture": "#1" },
				"west": { "uv": [ 10, 8, 10.5, 9.5 ], "texture": "#1" },
				"east": { "uv": [ 5, 3, 5.5, 4.5 ], "texture": "#1" }
			}
		},
		{
			"from": [ 7.2, 9.8, 7.7 ],
			"to": [ 8.7, 10.3, 8.2 ],
			"faces": {
				"down": { "uv": [ 3, 4, 4.5, 4.5 ], "texture": "#1" },
				"up": { "uv": [ 8, 5, 9.5, 5.5 ], "texture": "#1" },
				"north": { "uv": [ 4, 4, 5.5, 4.5 ], "texture": "#1" },
				"south": { "uv": [ 5, 6, 6.5, 6.5 ], "texture": "#1" },
				"west": { "uv": [ 8, 6, 8.5, 6.5 ], "texture": "#1" },
				"east": { "uv": [ 4, 7, 4.5, 7.5 ], "texture": "#1" }
			}
		},
		{
			"from": [ 7.7, 9.3, 8.3 ],
			"to": [ 8.2, 10.8, 8.8 ],
			"faces": {
				"down": { "uv": [ 4, 5, 4.5, 5.5 ], "texture": "#1" },
				"up": { "uv": [ 12, 8, 12.5, 8.5 ], "texture": "#1" },
				"north": { "uv": [ 5, 5, 5.5, 6.5 ], "texture": "#1" },
				"south": { "uv": [ 13, 10, 13.5, 11.5 ], "texture": "#1" },
				"west": { "uv": [ 10, 5, 10.5, 6.5 ], "texture": "#1" },
				"east": { "uv": [ 3, 4, 3.5, 5.5 ], "texture": "#1" }
			}
		},
		{
			"from": [ 7.7, 9.3, 7.1 ],
			"to": [ 8.2, 10.8, 7.6 ],
			"faces": {
				"down": { "uv": [ 5, 3, 5.5, 3.5 ], "texture": "#1" },
				"up": { "uv": [ 8, 4, 8.5, 4.5 ], "texture": "#1" },
				"north": { "uv": [ 3, 3, 3.5, 4.5 ], "texture": "#1" },
				"south": { "uv": [ 5, 4, 5.5, 5.5 ], "texture": "#1" },
				"west": { "uv": [ 8, 9, 8.5, 10.5 ], "texture": "#1" },
				"east": { "uv": [ 7, 6, 7.5, 7.5 ], "texture": "#1" }
			}
		},
		{
			"from": [ 7.7, 10.8, 7.2 ],
			"to": [ 8.2, 11.3, 8.7 ],
			"faces": {
				"down": { "uv": [ 4, 3, 4.5, 4.5 ], "texture": "#1" },
				"up": { "uv": [ 12, 11, 12.5, 12.5 ], "texture": "#1" },
				"north": { "uv": [ 3, 5, 3.5, 5.5 ], "texture": "#1" },
				"south": { "uv": [ 5, 5, 5.5, 5.5 ], "texture": "#1" },
				"west": { "uv": [ 5, 5, 6.5, 5.5 ], "texture": "#1" },
				"east": { "uv": [ 6, 5, 7.5, 5.5 ], "texture": "#1" }
			}
		},
		{
			"from": [ 7.7, 8.9, 7.3 ],
			"to": [ 8.2, 9.4, 8.699999 ],
			"faces": {
				"down": { "uv": [ 5, 2, 5.5, 3.4 ], "texture": "#1" },
				"up": { "uv": [ 7, 5, 7.5, 6.4 ], "texture": "#1" },
				"north": { "uv": [ 7, 6, 7.5, 6.5 ], "texture": "#1" },
				"south": { "uv": [ 6, 6, 6.5, 6.5 ], "texture": "#1" },
				"west": { "uv": [ 5, 6, 6.4, 6.5 ], "texture": "#1" },
				"east": { "uv": [ 4, 4, 5.4, 4.5 ], "texture": "#1" }
			}
		},
		{
			"from": [ 7.3, 10.7, 7.7 ],
			"to": [ 8.699999, 11.2, 8.2 ],
			"faces": {
				"down": { "uv": [ 7, 1, 8.4, 1.5 ], "texture": "#1" },
				"up": { "uv": [ 5, 3, 6.4, 3.5 ], "texture": "#1" },
				"north": { "uv": [ 5, 7, 6.4, 7.5 ], "texture": "#1" },
				"south": { "uv": [ 5, 5, 6.4, 5.5 ], "texture": "#1" },
				"west": { "uv": [ 5, 5, 5.5, 5.5 ], "texture": "#1" },
				"east": { "uv": [ 4, 7, 4.5, 7.5 ], "texture": "#1" }
			}
		},
		{
			"from": [ 7.1, 11.1, 7.7 ],
			"to": [ 7.6, 12.6, 8.2 ],
			"faces": {
				"down": { "uv": [ 7, 2, 7.5, 2.5 ], "texture": "#1" },
				"up": { "uv": [ 9, 8, 9.5, 8.5 ], "texture": "#1" },
				"north": { "uv": [ 5, 7, 5.5, 8.5 ], "texture": "#1" },
				"south": { "uv": [ 6, 5, 6.5, 6.5 ], "texture": "#1" },
				"west": { "uv": [ 12, 1, 12.5, 2.5 ], "texture": "#1" },
				"east": { "uv": [ 6, 6, 6.5, 7.5 ], "texture": "#1" }
			}
		},
		{
			"from": [ 8.3, 11.1, 7.7 ],
			"to": [ 8.8, 12.6, 8.2 ],
			"faces": {
				"down": { "uv": [ 0, 0, 0.5, 0.5 ], "texture": "#1" },
				"up": { "uv": [ 3, 4, 3.5, 4.5 ], "texture": "#1" },
				"north": { "uv": [ 1, 1, 1.5, 2.5 ], "texture": "#1" },
				"south": { "uv": [ 5, 8, 5.5, 9.5 ], "texture": "#1" },
				"west": { "uv": [ 6, 5, 6.5, 6.5 ], "texture": "#1" },
				"east": { "uv": [ 12, 14, 12.5, 15.5 ], "texture": "#1" }
			}
		},
		{
			"from": [ 7.2, 12.4, 7.7 ],
			"to": [ 8.7, 12.9, 8.2 ],
			"faces": {
				"down": { "uv": [ 0, 0, 1.5, 0.5 ], "texture": "#1" },
				"up": { "uv": [ 4, 4, 5.5, 4.5 ], "texture": "#1" },
				"north": { "uv": [ 7, 7, 8.5, 7.5 ], "texture": "#1" },
				"south": { "uv": [ 9, 8, 10.5, 8.5 ], "texture": "#1" },
				"west": { "uv": [ 8, 7, 8.5, 7.5 ], "texture": "#1" },
				"east": { "uv": [ 6, 7, 6.5, 7.5 ], "texture": "#1" }
			}
		},
		{
			"from": [ 7.7, 11.8, 7.3 ],
			"to": [ 8.2, 12.3, 8.699999 ],
			"faces": {
				"down": { "uv": [ 7, 4, 7.5, 5.4 ], "texture": "#1" },
				"up": { "uv": [ 5, 6, 5.5, 7.4 ], "texture": "#1" },
				"north": { "uv": [ 5, 5, 5.5, 5.5 ], "texture": "#1" },
				"south": { "uv": [ 5, 5, 5.5, 5.5 ], "texture": "#1" },
				"west": { "uv": [ 6, 7, 7.4, 7.5 ], "texture": "#1" },
				"east": { "uv": [ 7, 7, 8.4, 7.5 ], "texture": "#1" }
			}
		},
		{
			"from": [ 7.7, 12.2, 7.1 ],
			"to": [ 8.2, 13.7, 7.6 ],
			"faces": {
				"down": { "uv": [ 5, 7, 5.5, 7.5 ], "texture": "#1" },
				"up": { "uv": [ 7, 5, 7.5, 5.5 ], "texture": "#1" },
				"north": { "uv": [ 4, 6, 4.5, 7.5 ], "texture": "#1" },
				"south": { "uv": [ 3, 6, 3.5, 7.5 ], "texture": "#1" },
				"west": { "uv": [ 4, 7, 4.5, 8.5 ], "texture": "#1" },
				"east": { "uv": [ 7, 6, 7.5, 7.5 ], "texture": "#1" }
			}
		},
		{
			"from": [ 7.7, 12.2, 8.3 ],
			"to": [ 8.2, 13.7, 8.8 ],
			"faces": {
				"down": { "uv": [ 2, 3, 2.5, 3.5 ], "texture": "#1" },
				"up": { "uv": [ 3, 5, 3.5, 5.5 ], "texture": "#1" },
				"north": { "uv": [ 4, 4, 4.5, 5.5 ], "texture": "#1" },
				"south": { "uv": [ 6, 6, 6.5, 7.5 ], "texture": "#1" },
				"west": { "uv": [ 6, 6, 6.5, 7.5 ], "texture": "#1" },
				"east": { "uv": [ 5, 8, 5.5, 9.5 ], "texture": "#1" }
			}
		},
		{
			"from": [ 7.7, 13.7, 7.2 ],
			"to": [ 8.2, 14.2, 8.7 ],
			"faces": {
				"down": { "uv": [ 0, 0, 0.5, 1.5 ], "texture": "#1" },
				"up": { "uv": [ 9, 7, 9.5, 8.5 ], "texture": "#1" },
				"north": { "uv": [ 5, 6, 5.5, 6.5 ], "texture": "#1" },
				"south": { "uv": [ 5, 3, 5.5, 3.5 ], "texture": "#1" },
				"west": { "uv": [ 5, 5, 6.5, 5.5 ], "texture": "#1" },
				"east": { "uv": [ 5, 7, 6.5, 7.5 ], "texture": "#1" }
			}
		},
		{
			"from": [ 7.3, 13.2, 7.7 ],
			"to": [ 8.699999, 13.7, 8.2 ],
			"faces": {
				"down": { "uv": [ 8, 12, 9.4, 12.5 ], "texture": "#1" },
				"up": { "uv": [ 11, 15, 12.4, 15.5 ], "texture": "#1" },
				"north": { "uv": [ 6, 5, 7.4, 5.5 ], "texture": "#1" },
				"south": { "uv": [ 6, 7, 7.4, 7.5 ], "texture": "#1" },
				"west": { "uv": [ 8, 5, 8.5, 5.5 ], "texture": "#1" },
				"east": { "uv": [ 6, 8, 6.5, 8.5 ], "texture": "#1" }
			}
		},
		{
			"from": [ 7.1, 13.6, 7.7 ],
			"to": [ 7.6, 15.1, 8.2 ],
			"faces": {
				"down": { "uv": [ 0, 0, 0.5, 0.5 ], "texture": "#1" },
				"up": { "uv": [ 12, 5, 12.5, 5.5 ], "texture": "#1" },
				"north": { "uv": [ 10, 11, 10.5, 12.5 ], "texture": "#1" },
				"south": { "uv": [ 10, 11, 10.5, 12.5 ], "texture": "#1" },
				"west": { "uv": [ 11, 10, 11.5, 11.5 ], "texture": "#1" },
				"east": { "uv": [ 10, 10, 10.5, 11.5 ], "texture": "#1" }
			}
		},
		{
			"from": [ 8.3, 13.6, 7.7 ],
			"to": [ 8.8, 15.1, 8.2 ],
			"faces": {
				"down": { "uv": [ 0, 0, 0.5, 0.5 ], "texture": "#1" },
				"up": { "uv": [ 5, 4, 5.5, 4.5 ], "texture": "#1" },
				"north": { "uv": [ 3, 5, 3.5, 6.5 ], "texture": "#1" },
				"south": { "uv": [ 4, 9, 4.5, 10.5 ], "texture": "#1" },
				"west": { "uv": [ 5, 6, 5.5, 7.5 ], "texture": "#1" },
				"east": { "uv": [ 5, 6, 5.5, 7.5 ], "texture": "#1" }
			}
		},
		{
			"from": [ 7.2, 15.1, 7.7 ],
			"to": [ 8.7, 15.6, 8.2 ],
			"faces": {
				"down": { "uv": [ 0, 0, 1.5, 0.5 ], "texture": "#1" },
				"up": { "uv": [ 5, 7, 6.5, 7.5 ], "texture": "#1" },
				"north": { "uv": [ 5, 8, 6.5, 8.5 ], "texture": "#1" },
				"south": { "uv": [ 13, 13, 14.5, 13.5 ], "texture": "#1" },
				"west": { "uv": [ 6, 9, 6.5, 9.5 ], "texture": "#1" },
				"east": { "uv": [ 6, 8, 6.5, 8.5 ], "texture": "#1" }
			}
		},
		{
			"from": [ 7.7, 14.6, 7.3 ],
			"to": [ 8.2, 15.1, 8.699999 ],
			"faces": {
				"down": { "uv": [ 0, 0, 0.5, 1.4 ], "texture": "#1" },
				"up": { "uv": [ 0, 0, 0.5, 1.4 ], "texture": "#1" },
				"north": { "uv": [ 5, 6, 5.5, 6.5 ], "texture": "#1" },
				"south": { "uv": [ 6, 10, 6.5, 10.5 ], "texture": "#1" },
				"west": { "uv": [ 14, 7, 15.4, 7.5 ], "texture": "#1" },
				"east": { "uv": [ 13, 13, 14.4, 13.5 ], "texture": "#1" }
			}
		},
		{
			"from": [ 7.7, 14.9, 8.3 ],
			"to": [ 8.2, 16.3, 8.8 ],
			"faces": {
				"down": { "uv": [ 0, 0, 0.5, 0.5 ], "texture": "#1" },
				"up": { "uv": [ 5, 4, 5.5, 4.5 ], "texture": "#1" },
				"north": { "uv": [ 5, 3, 5.5, 4.4 ], "texture": "#1" },
				"south": { "uv": [ 9, 2, 9.5, 3.4 ], "texture": "#1" },
				"west": { "uv": [ 5, 3, 5.5, 4.4 ], "texture": "#1" },
				"east": { "uv": [ 7, 6, 7.5, 7.4 ], "texture": "#1" }
			}
		},
		{
			"from": [ 7.7, 16.2, 7.2 ],
			"to": [ 8.2, 16.7, 8.7 ],
			"faces": {
				"down": { "uv": [ 3, 2, 3.5, 3.5 ], "texture": "#1" },
				"up": { "uv": [ 5, 5, 5.5, 6.5 ], "texture": "#1" },
				"north": { "uv": [ 5, 4, 5.5, 4.5 ], "texture": "#1" },
				"south": { "uv": [ 10, 5, 10.5, 5.5 ], "texture": "#1" },
				"west": { "uv": [ 5, 3, 6.5, 3.5 ], "texture": "#1" },
				"east": { "uv": [ 5, 4, 6.5, 4.5 ], "texture": "#1" }
			}
		},
		{
			"from": [ 7.7, 14.9, 7.1 ],
			"to": [ 8.2, 16.3, 7.6 ],
			"faces": {
				"down": { "uv": [ 4, 3, 4.5, 3.5 ], "texture": "#1" },
				"up": { "uv": [ 8, 6, 8.5, 6.5 ], "texture": "#1" },
				"north": { "uv": [ 5, 5, 5.5, 6.4 ], "texture": "#1" },
				"south": { "uv": [ 7, 6, 7.5, 7.4 ], "texture": "#1" },
				"west": { "uv": [ 7, 7, 7.5, 8.4 ], "texture": "#1" },
				"east": { "uv": [ 3, 4, 3.5, 5.4 ], "texture": "#1" }
			}
		},
		{
			"from": [ 7.6, -0.0011, 3.3019 ],
			"to": [ 8.1, 11.9989, 3.8019 ],
			"rotation": { "origin": [ 8, 8, 8 ], "axis": "x", "angle": 45 },
			"faces": {
				"down": { "uv": [ 9, 8, 9.5, 8.5 ], "texture": "#1" },
				"up": { "uv": [ 10, 6, 10.5, 6.5 ], "texture": "#1" },
				"north": { "uv": [ 9, 2, 9.5, 14 ], "texture": "#1" },
				"south": { "uv": [ 7, 1, 7.5, 13 ], "texture": "#1" },
				"west": { "uv": [ 12, 0, 12.5, 12 ], "texture": "#1" },
				"east": { "uv": [ 10, 0, 10.5, 12 ], "texture": "#1" }
			}
		},
		{
			"from": [ 7.6, -0.0009999999, 12.2981 ],
			"to": [ 8.1, 11.999, 12.7981 ],
			"rotation": { "origin": [ 8, 8, 8 ], "axis": "x", "angle": -45 },
			"faces": {
				"down": { "uv": [ 11, 4, 11.5, 4.5 ], "texture": "#1" },
				"up": { "uv": [ 10, 4, 10.5, 4.5 ], "texture": "#1" },
				"north": { "uv": [ 8, 0, 8.5, 12 ], "texture": "#1" },
				"south": { "uv": [ 11, 1, 11.5, 13 ], "texture": "#1" },
				"west": { "uv": [ 7, 2, 7.5, 14 ], "texture": "#1" },
				"east": { "uv": [ 13, 0, 13.5, 12 ], "texture": "#1" }
			}
		},
		{
			"from": [ 3.0019, -0.0012, 7.7 ],
			"to": [ 3.5019, 11.9988, 8.2 ],
			"rotation": { "origin": [ 8, 8, 8 ], "axis": "z", "angle": -45 },
			"faces": {
				"down": { "uv": [ 11, 4, 11.5, 4.5 ], "texture": "#1" },
				"up": { "uv": [ 10, 4, 10.5, 4.5 ], "texture": "#1" },
				"north": { "uv": [ 8, 0, 8.5, 12 ], "texture": "#1" },
				"south": { "uv": [ 11, 1, 11.5, 13 ], "texture": "#1" },
				"west": { "uv": [ 7, 2, 7.5, 14 ], "texture": "#1" },
				"east": { "uv": [ 13, 0, 13.5, 12 ], "texture": "#1" }
			}
		},
		{
			"from": [ 12.4981, -0.0011, 7.7 ],
			"to": [ 12.9981, 11.9989, 8.2 ],
			"rotation": { "origin": [ 8, 8, 8 ], "axis": "z", "angle": 45 },
			"faces": {
				"down": { "uv": [ 11, 4, 11.5, 4.5 ], "texture": "#1" },
				"up": { "uv": [ 10, 4, 10.5, 4.5 ], "texture": "#1" },
				"north": { "uv": [ 8, 0, 8.5, 12 ], "texture": "#1" },
				"south": { "uv": [ 11, 1, 11.5, 13 ], "texture": "#1" },
				"west": { "uv": [ 7, 2, 7.5, 14 ], "texture": "#1" },
				"east": { "uv": [ 13, 0, 13.5, 12 ], "texture": "#1" }
			}
		},
		{
			"__comment": "flame",
			"from": [ -0.5, 10, 6.5 ],
			"to": [ -0.499, 13.5, 10.5 ],
			"rotation": { "origin": [ -0.5, 10, 6.5 ], "axis": "y", "angle": -45 },
			"faces": {
				"west": { "uv": [ 6.5, 2, 10, 5.5 ], "texture": "#top" },
				"east": { "uv": [ 6.5, 2, 10, 5.5 ], "texture": "#top" }
			}
		},
		{
			"__comment": "flame",
			"from": [ -1, 10, 7.5 ],
			"to": [ -0.999, 13.5, 11.5 ],
			"rotation": { "origin": [ -3, 13.5, 9.5 ], "axis": "y", "angle": 45 },
			"faces": {
				"west": { "uv": [ 6.5, 2, 10, 5.5 ], "texture": "#top" },
				"east": { "uv": [ 6.5, 2, 10, 5.5 ], "texture": "#top" }
			}
		},
		{
			"__comment": "flame",
			"from": [ 17.75, 11, 7.25 ],
			"to": [ 17.751, 14.5, 10.75 ],
			"rotation": { "origin": [ 19.5, 14.5, 9 ], "axis": "y", "angle": -45 },
			"faces": {
				"west": { "uv": [ 6.5, 2, 10, 5.5 ], "texture": "#top" },
				"east": { "uv": [ 6.5, 2, 10, 5.5 ], "texture": "#top" }
			}
		},
		{
			"__comment": "flame",
			"from": [ 17, 11, 6.5 ],
			"to": [ 17.001, 14.5, 10.5 ],
			"rotation": { "origin": [ 17, 11, 6.5 ], "axis": "y", "angle": 45 },
			"faces": {
				"west": { "uv": [ 6.5, 2, 10, 5.5 ], "texture": "#top" },
				"east": { "uv": [ 6.5, 2, 10, 5.5 ], "texture": "#top" }
			}
		},
		{
			"__comment": "flame",
			"from": [ 14, 10, 14 ],
			"to": [ 14.001, 13.5, 18 ],
			"rotation": { "origin": [ 14, 10, 14 ], "axis": "y", "angle": 45 },
			"faces": {
				"west": { "uv": [ 6.5, 2, 10, 5.5 ], "texture": "#top" },
				"east": { "uv": [ 6.5, 2, 10, 5.5 ], "texture": "#top" }
			}
		},
		{
			"__comment": "flame",
			"from": [ 15.25, 10, 15.25 ],
			"to": [ 15.251, 13.5, 18.75 ],
			"rotation": { "origin": [ 17, 13.5, 17 ], "axis": "y", "angle": -45 },
			"faces": {
				"west": { "uv": [ 6.5, 2, 10, 5.5 ], "texture": "#top" },
				"east": { "uv": [ 6.5, 2, 10, 5.5 ], "texture": "#top" }
			}
		},
		{
			"__comment": "flame",
			"from": [ 9, 9.5, 15.5 ],
			"to": [ 9.001, 13, 19.5 ],
			"rotation": { "origin": [ 9, 13, 19.5 ], "axis": "y", "angle": 45 },
			"faces": {
				"west": { "uv": [ 6.5, 2, 10, 5.5 ], "texture": "#top" },
				"east": { "uv": [ 6.5, 2, 10, 5.5 ], "texture": "#top" }
			}
		},
		{
			"__comment": "flame",
			"from": [ 9.5, 10, 16.5 ],
			"to": [ 9.501, 13.5, 20.5 ],
			"rotation": { "origin": [ 9.5, 10, 16.5 ], "axis": "y", "angle": -45 },
			"faces": {
				"west": { "uv": [ 6.5, 2, 10, 5.5 ], "texture": "#top" },
				"east": { "uv": [ 6.5, 2, 10, 5.5 ], "texture": "#top" }
			}
		},
		{
			"__comment": "flame",
			"from": [ 2, 11, 13.5 ],
			"to": [ 2.001, 14.5, 17 ],
			"rotation": { "origin": [ 2, 11, 13.5 ], "axis": "y", "angle": -45 },
			"faces": {
				"west": { "uv": [ 6.5, 2, 10, 5.5 ], "texture": "#top" },
				"east": { "uv": [ 6.5, 2, 10, 5.5 ], "texture": "#top" }
			}
		},
		{
			"__comment": "flame",
			"from": [ 1.5, 11.5, 14.5 ],
			"to": [ 1.501, 15, 18.5 ],
			"rotation": { "origin": [ -0.5, 15, 16.5 ], "axis": "y", "angle": 45 },
			"faces": {
				"west": { "uv": [ 6.5, 2, 10, 5.5 ], "texture": "#top" },
				"east": { "uv": [ 6.5, 2, 10, 5.5 ], "texture": "#top" }
			}
		},
		{
			"__comment": "flame",
			"from": [ 8.5, 11, -2 ],
			"to": [ 8.501, 14.5, 1 ],
			"rotation": { "origin": [ 7, 14.5, -0.5 ], "axis": "y", "angle": 45 },
			"faces": {
				"west": { "uv": [ 6.5, 2, 10, 5.5 ], "texture": "#top" },
				"east": { "uv": [ 6.5, 2, 10, 5.5 ], "texture": "#top" }
			}
		},
		{
			"__comment": "flame",
			"from": [ 9.5, 11, -3 ],
			"to": [ 9.501, 14.5, 1 ],
			"rotation": { "origin": [ 9.5, 11, -3 ], "axis": "y", "angle": -45 },
			"faces": {
				"west": { "uv": [ 6.5, 2, 10, 5.5 ], "texture": "#top" },
				"east": { "uv": [ 6.5, 2, 10, 5.5 ], "texture": "#top" }
			}
		},
		{
			"__comment": "flame",
			"from": [ 2, 10.5, -2 ],
			"to": [ 2.001, 14, 2 ],
			"rotation": { "origin": [ 2, 14, 2 ], "axis": "y", "angle": 45 },
			"faces": {
				"west": { "uv": [ 6.5, 2, 10, 5.5 ], "texture": "#top" },
				"east": { "uv": [ 6.5, 2, 10, 5.5 ], "texture": "#top" }
			}
		},
		{
			"__comment": "flame",
			"from": [ 2, 10.5, -1 ],
			"to": [ 2.001, 14, 2.5 ],
			"rotation": { "origin": [ 2, 10.5, -1 ], "axis": "y", "angle": -45 },
			"faces": {
				"west": { "uv": [ 6.5, 2, 10, 5.5 ], "texture": "#top" },
				"east": { "uv": [ 6.5, 2, 10, 5.5 ], "texture": "#top" }
			}
		}
	]
}