{   "parent": "block/thin_block",
    "textures": {
        "particle": "conquest:blocks/ironbar14",
        "wool": "conquest:blocks/ironbar14"
    },
    "elements": [
        {   "from": [ 0, 0, 0 ],
            "to": [ 16, 0.5, 16 ],
            "faces": {
                "down":  { "uv": [ 0,  0, 16, 16 ], "texture": "#wool", "cullface": "down" },
                "up":    { "uv": [ 0,  0, 16, 16 ], "texture": "#wool", "cullface": "up" }
            }
        }
    ]
}
