{
"parent": "block/parent_arch_corner",
"textures": {
    "texture": "conquest:blocks/oldcobble",
    "edge": "conquest:blocks/oldcobble",
    "side": "conquest:blocks/oldcobble",
    "side_alt": "conquest:blocks/oldcobble"
}
}