{
"parent": "block/parent_windowslit",
"textures": {
    "texture": "conquest:blocks/mossystone4_sides",
    "top": "conquest:blocks/mossystone4_sides",
	"bottom": "conquest:blocks/mossystone4_sides"
	}
}