{
"parent": "block/parent_verticalslab",
"textures": {
    "texture": "conquest:blocks/cobblestone_drystone",
	"top": "conquest:blocks/cobblestone_drystone",
	"bottom": "conquest:blocks/cobblestone_drystone"
	}
}	