{
    "parent": "block/inner_stairs",
    "textures": {
        "bottom": "conquest:blocks/mossystone5_sides",
        "top": "conquest:blocks/mossystone5_sides",
        "side": "conquest:blocks/mossystone5_sides"
    }
}
