{
    "parent": "conquest:block/anvil_base",
    "textures": {
        "particle": "conquest:blocks/oldcobble",
        "body": "conquest:blocks/oldcobble",
        "top": "conquest:blocks/oldcobble"
    }
}