
{
    "parent": "block/cube_bottom_top",
    "textures": {
        "bottom": "conquest:blocks/cobble8",
        "top": "conquest:blocks/cobble8",
        "side": "conquest:blocks/cobble8_sides"
    }
}