{
    "parent": "block/anvil",
    "textures": {
        "particle": "conquest:blocks/cobblestone_dirtysandstone",
        "body": "conquest:blocks/cobblestone_dirtysandstone",
        "top": "conquest:blocks/cobblestone_dirtysandstone"
    }
}
