{
"parent": "block/parent_verticalslab",
"textures": {
    "texture": "conquest:blocks/mossystone5_sides",
	"top": "conquest:blocks/mossystone5_sides",
	"bottom": "conquest:blocks/mossystone5_sides"
	}
}	