{
    "parent": "block/stairs",
    "textures": {
        "bottom": "conquest:blocks/cobblestone_dirtysandstone",
        "top": "conquest:blocks/cobblestone_dirtysandstone",
        "side": "conquest:blocks/cobblestone_dirtysandstone"
    }
}
