{
    "parent": "block/anvil",
    "textures": {
        "particle": "conquest:blocks/cobblestone_drystone",
        "body": "conquest:blocks/cobblestone_drystone",
        "top": "conquest:blocks/cobblestone_drystone"
    }
}
