{
"parent": "block/parent_arch",
"textures": {
    "texture": "conquest:blocks/mossystone3",
    "edge": "conquest:blocks/mossystone3",
    "side": "conquest:blocks/mossystone3",
    "side_alt": "conquest:blocks/mossystone3"
}
}