{
    "parent": "block/anvil_body",
    "textures": {
        "particle": "conquest:blocks/mossystone4_sides",
        "body": "conquest:blocks/mossystone4_sides",
        "top": "conquest:blocks/mossystone4_sides"
    }
}