{
"parent": "block/parent_arch_corner",
"textures": {
    "texture": "conquest:blocks/mossystone5_sides",
    "edge": "conquest:blocks/mossystone5_sides",
    "side": "conquest:blocks/mossystone5_sides",
    "side_alt": "conquest:blocks/mossystone5_sides"
}
}