{
"parent": "block/parent_corner",
"textures": {
    "texture": "conquest:blocks/cobblestone_drystone",
	"top": "conquest:blocks/cobblestone_drystone",
	"bottom": "conquest:blocks/cobblestone_drystone"
}
}