{
"parent": "block/parent_arch_corner",
"textures": {
    "texture": "conquest:blocks/cobblestone_dark",
    "edge": "conquest:blocks/cobblestone_dark",
    "side": "conquest:blocks/cobblestone_dark",
    "side_alt": "conquest:blocks/cobblestone_dark"
}
}