{
"parent": "block/parent_verticalslab",
"textures": {
    "texture": "conquest:blocks/roman_column_gold",
	"top": "conquest:blocks/roman_column_gold_top",
	"bottom": "conquest:blocks/roman_column_gold_top"
	}
}	