{
    "parent": "block/wall_ns_above_topbottom",
    "textures": {
        "wall": "conquest:blocks/roman_column_red",
        "top": "conquest:blocks/roman_column_red_top",
        "bottom": "conquest:blocks/roman_column_red_top"
    }
}
