{
    "parent": "block/wall_inventory_topbottom",
    "textures": {
        "wall": "conquest:blocks/roman_column_gold",
        "top": "conquest:blocks/roman_column_gold_top",
        "bottom": "conquest:blocks/roman_column_gold_top"
    }
}
