{
    "parent": "block/parent_column_wall_ns",
    "textures": {
        "wall": "conquest:blocks/roman_column_red",
        "top": "conquest:blocks/roman_column_red_top",
        "bottom": "conquest:blocks/roman_column_red_top"
    }
}
