{
    "parent": "block/parent_column_wall_nsew",
    "textures": {
        "wall": "conquest:blocks/roman_column_marble",
        "top": "conquest:blocks/roman_column_marble_top",
        "bottom": "conquest:blocks/roman_column_marble_top"
    }
}
