{
"parent": "block/parent_verticalslab",
"textures": {
    "texture": "conquest:blocks/roman_column_sandstone",
	"top": "conquest:blocks/roman_column_sandstone_top",
	"bottom": "conquest:blocks/roman_column_sandstone_top"
	}
}	