{
    "parent": "block/parent_column_wall_ns",
    "textures": {
        "wall": "conquest:blocks/roman_column_sandstone",
        "top": "conquest:blocks/roman_column_sandstone_top",
        "bottom": "conquest:blocks/roman_column_sandstone_top"
    }
}
