{
    "__comment": "Designed by RomanCapitalist with Cubik Studio - https://cubik.studio",
    "parent": "block/cube_column",
    "textures": {
        "end": "conquest:blocks/roman_capital_marble_top",
        "side": "conquest:blocks/roman_cornice"
    },
    "elements": [
        {
            "__comment": "Cube1",
            "from": [ 0, 0, 13 ],
            "to": [ 16, 16, 16 ],
            "faces": {
                "down": { "uv": [ 0, 9.536743E-07, 16, 3.000001 ], "texture": "#end" },
                "up": { "uv": [ 0, 13, 16, 16 ], "texture": "#end" },
                "north": { "uv": [ 0, 0, 16, 16 ], "texture": "#side" },
                "south": { "uv": [ 0, 0, 16, 16 ], "texture": "#side" },
                "west": { "uv": [ 13, 0, 16, 16 ], "texture": "#side" },
                "east": { "uv": [ 9.536743E-07, 0, 3.000001, 16 ], "texture": "#side" }
            }
        },
        {
            "__comment": "Cube44",
            "from": [ 0, 0, 12 ],
            "to": [ 16, 1.501, 13 ],
            "faces": {
                "down": { "uv": [ 15, 0, 16, 16 ], "texture": "#end", "rotation": 270 },
                "up": { "uv": [ 15, 0, 16, 16 ], "texture": "#end", "rotation": 90 },
                "north": { "uv": [ 0, 14.499, 16, 16 ], "texture": "#side" }
            }
        },
        {
            "__comment": "Cube44",
            "from": [ 0, 11, 11 ],
            "to": [ 16, 16, 13 ],
            "faces": {
                "down": { "uv": [ 14, 0, 16, 16 ], "texture": "#end", "rotation": 270 },
                "up": { "uv": [ 14, 0, 16, 16 ], "texture": "#end", "rotation": 90 },
                "north": { "uv": [ 0, 0, 16, 5 ], "texture": "#side" }
            }
        },
        {
            "__comment": "Cube46",
            "from": [ 0, 7, 12 ],
            "to": [ 16, 11, 13 ],
            "faces": {
                "down": { "uv": [ 15, 0, 16, 16 ], "texture": "#end", "rotation": 270 },
                "up": { "uv": [ 15, 0, 16, 16 ], "texture": "#end", "rotation": 90 },
                "north": { "uv": [ 0, 5, 16, 9 ], "texture": "#side" }
            }
        },
        {
            "__comment": "Cube44",
            "from": [ 16, 0, 13 ],
            "to": [ 17, 1.5, 16 ],
            "faces": {
                "down": { "uv": [ 15, 8, 16, 16 ], "texture": "#end", "cullface": "west", "rotation": 180 },
                "up": { "uv": [ 15, 0, 16, 8 ], "texture": "#end", "cullface": "west", "rotation": 180 },
                "east": { "uv": [ 0, 14.5, 8, 16 ], "texture": "#side", "cullface": "west" }
            }
        },
        {
            "__comment": "Cube44",
            "from": [ 16, 11, 13 ],
            "to": [ 18, 16, 16 ],
            "faces": {
                "down": { "uv": [ 0, 9.536743E-07, 2, 3.000001 ], "texture": "#end", "cullface": "west" },
                "up": { "uv": [ 0, 13, 2, 16 ], "texture": "#end", "cullface": "west" },
                "east": { "uv": [ 9.536743E-07, 0, 3.000001, 5 ], "texture": "#side", "cullface": "west" }
            }
        },
        {
            "__comment": "Cube46",
            "from": [ 16, 7, 13 ],
            "to": [ 17, 11, 16 ],
            "faces": {
                "down": { "uv": [ 0, 0, 1, 3 ], "texture": "#end", "cullface": "west" },
                "east": { "uv": [ 0, 5, 3, 9 ], "texture": "#side", "cullface": "west" }
            }
        },
        {
            "__comment": "Cube44",
            "from": [ 0, 0, 16 ],
            "to": [ 16, 1.501, 17 ],
            "faces": {
                "down": { "uv": [ 15, 0, 16, 16 ], "texture": "#end", "cullface": "north", "rotation": 90 },
                "up": { "uv": [ 15, 0, 16, 16 ], "texture": "#end", "cullface": "north", "rotation": 270 },
                "south": { "uv": [ 0, 14.499, 16, 16 ], "texture": "#side", "cullface": "north" }
            }
        },
        {
            "__comment": "Cube44",
            "from": [ 0, 11, 16 ],
            "to": [ 16, 16, 18 ],
            "faces": {
                "down": { "uv": [ 14, 0, 16, 16 ], "texture": "#end", "cullface": "north", "rotation": 90 },
                "up": { "uv": [ 14, 0, 16, 16 ], "texture": "#end", "cullface": "north", "rotation": 270 },
                "south": { "uv": [ 0, 0, 16, 5 ], "texture": "#side", "cullface": "north" }
            }
        },
        {
            "__comment": "Cube46",
            "from": [ 0, 7, 16 ],
            "to": [ 16, 11, 17 ],
            "faces": {
                "down": { "uv": [ 15, 0, 16, 16 ], "texture": "#end", "cullface": "north", "rotation": 90 },
                "up": { "uv": [ 15, 0, 16, 16 ], "texture": "#end", "cullface": "north", "rotation": 270 },
                "south": { "uv": [ 0, 5, 16, 9 ], "texture": "#side", "cullface": "north" }
            }
        },
        {
            "__comment": "Cube44",
            "from": [ -1, 0, 13 ],
            "to": [ 0, 1.5, 16 ],
            "faces": {
                "down": { "uv": [ 0, 8, 1, 16 ], "texture": "#end", "cullface": "east", "rotation": 180 },
                "up": { "uv": [ 0, 0, 1, 8 ], "texture": "#end", "cullface": "east", "rotation": 180 },
                "west": { "uv": [ 8, 14.5, 16, 16 ], "texture": "#side", "cullface": "east" }
            }
        },
        {
            "__comment": "Cube44",
            "from": [ -2, 11, 13 ],
            "to": [ 0, 16, 16 ],
            "faces": {
                "down": { "uv": [ 14, 13, 16, 16 ], "texture": "#end" },
                "up": { "uv": [ 14, 13, 16, 16 ], "texture": "#end", "cullface": "east" },
                "west": { "uv": [ 13, 0, 16, 5 ], "texture": "#side", "cullface": "east" }
            }
        },
        {
            "__comment": "Cube46",
            "from": [ -1, 7, 13 ],
            "to": [ 0, 11, 16 ],
            "faces": {
                "down": { "uv": [ 0, 0, 1, 3 ], "texture": "#end", "cullface": "east" },
                "up": { "uv": [ 0, 0, 1, 3 ], "texture": "#end", "cullface": "east" },
                "west": { "uv": [ 13, 5, 16, 9 ], "texture": "#side", "cullface": "east" }
            }
        },
        {
            "__comment": "Cube14",
            "from": [ -2, 11, 11 ],
            "to": [ 0, 16, 13 ],
            "faces": {
                "down": { "uv": [ 14, 14, 16, 16 ], "texture": "#end", "rotation": 270 },
                "up": { "uv": [ 14, 0, 16, 2 ], "texture": "#end", "rotation": 90 },
                "north": { "uv": [ 0, 0, 2, 5 ], "texture": "#side" },
                "west": { "uv": [ 14, 0, 16, 5 ], "texture": "#side" }
            }
        },
        {
            "__comment": "Cube15",
            "from": [ -1, 7, 12 ],
            "to": [ 0, 11, 13 ],
            "faces": {
                "down": { "uv": [ 15, 15, 16, 16 ], "texture": "#end", "cullface": "south", "rotation": 270 },
                "north": { "uv": [ 0, 5, 1, 9 ], "texture": "#side", "cullface": "east" },
                "west": { "uv": [ 15, 5, 16, 9 ], "texture": "#side", "cullface": "south" }
            }
        },
        {
            "__comment": "Cube16",
            "from": [ -1, 0, 12 ],
            "to": [ 0, 1.5, 13 ],
            "faces": {
                "down": { "uv": [ 15, 15, 16, 16 ], "texture": "#end", "cullface": "south", "rotation": 270 },
                "up": { "uv": [ 15, 0, 16, 1 ], "texture": "#end", "cullface": "south", "rotation": 90 },
                "north": { "uv": [ 0, 14.5, 1, 16 ], "texture": "#side", "cullface": "east" },
                "west": { "uv": [ 15, 14.5, 16, 16 ], "texture": "#side", "cullface": "south" }
            }
        },
        {
            "__comment": "Cube16",
            "from": [ 16, 0, 12 ],
            "to": [ 17, 1.5, 13 ],
            "faces": {
                "down": { "uv": [ 15, 7, 16, 8 ], "texture": "#end", "cullface": "south", "rotation": 180 },
                "up": { "uv": [ 15, 8, 16, 9 ], "texture": "#end", "cullface": "south", "rotation": 180 },
                "north": { "uv": [ 15, 14.5, 16, 16 ], "texture": "#side", "cullface": "west" },
                "east": { "uv": [ 8, 14.5, 9, 16 ], "texture": "#side", "cullface": "south" }
            }
        },
        {
            "__comment": "Cube14",
            "from": [ 16, 11, 11 ],
            "to": [ 18, 16, 13 ],
            "faces": {
                "down": { "uv": [ 14, 6, 16, 8 ], "texture": "#end", "cullface": "south", "rotation": 180 },
                "up": { "uv": [ 14, 8, 16, 10 ], "texture": "#end", "cullface": "south", "rotation": 180 },
                "north": { "uv": [ 14, 0, 16, 5 ], "texture": "#side", "cullface": "west" },
                "east": { "uv": [ 8, 0, 10, 5 ], "texture": "#side", "cullface": "south" }
            }
        },
        {
            "__comment": "Cube15",
            "from": [ 16, 7, 12 ],
            "to": [ 17, 11, 13 ],
            "faces": {
                "down": { "uv": [ 15, 7, 16, 8 ], "texture": "#end", "cullface": "south", "rotation": 180 },
                "north": { "uv": [ 15, 5, 16, 9 ], "texture": "#side", "cullface": "west" },
                "east": { "uv": [ 8, 5, 9, 9 ], "texture": "#side", "cullface": "south" }
            }
        },
        {
            "__comment": "Cube16",
            "from": [ 16, 0, 16 ],
            "to": [ 17, 1.5, 17 ],
            "faces": {
                "down": { "uv": [ 15, 15, 16, 16 ], "texture": "#end", "cullface": "west", "rotation": 90 },
                "up": { "uv": [ 15, 0, 16, 1 ], "texture": "#end", "cullface": "west", "rotation": 270 },
                "south": { "uv": [ 0, 14.5, 1, 16 ], "texture": "#side", "cullface": "west" },
                "east": { "uv": [ 15, 14.5, 16, 16 ], "texture": "#side", "cullface": "north" }
            }
        },
        {
            "__comment": "Cube14",
            "from": [ 16, 11, 16 ],
            "to": [ 18, 16, 18 ],
            "faces": {
                "down": { "uv": [ 14, 14, 16, 16 ], "texture": "#end", "cullface": "west", "rotation": 90 },
                "up": { "uv": [ 14, 0, 16, 2 ], "texture": "#end", "cullface": "west", "rotation": 270 },
                "south": { "uv": [ 0, 0, 2, 5 ], "texture": "#side", "cullface": "west" },
                "east": { "uv": [ 14, 0, 16, 5 ], "texture": "#side", "cullface": "north" }
            }
        },
        {
            "__comment": "Cube15",
            "from": [ 16, 7, 16 ],
            "to": [ 17, 11, 17 ],
            "faces": {
                "down": { "uv": [ 15, 15, 16, 16 ], "texture": "#end", "cullface": "west", "rotation": 90 },
                "south": { "uv": [ 0, 5, 1, 9 ], "texture": "#side", "cullface": "west" },
                "east": { "uv": [ 15, 5, 16, 9 ], "texture": "#side", "cullface": "north" }
            }
        },
        {
            "__comment": "Cube16",
            "from": [ -1, 0, 16 ],
            "to": [ 0, 1.5, 17 ],
            "faces": {
                "down": { "uv": [ 15, 15, 16, 16 ], "texture": "#end", "cullface": "north" },
                "up": { "uv": [ 15, 0, 16, 1 ], "texture": "#end", "cullface": "north" },
                "south": { "uv": [ 15, 14.5, 16, 16 ], "texture": "#side", "cullface": "east" },
                "west": { "uv": [ 0, 14.5, 1, 16 ], "texture": "#side", "cullface": "north" }
            }
        },
        {
            "__comment": "Cube14",
            "from": [ -2, 11, 16 ],
            "to": [ 0, 16, 18 ],
            "faces": {
                "down": { "uv": [ 14, 14, 16, 16 ], "texture": "#end", "cullface": "north" },
                "up": { "uv": [ 14, 0, 16, 2 ], "texture": "#end", "cullface": "north" },
                "south": { "uv": [ 14, 0, 16, 5 ], "texture": "#side", "cullface": "east" },
                "west": { "uv": [ 0, 0, 2, 5 ], "texture": "#side", "cullface": "north" }
            }
        },
        {
            "__comment": "Cube15",
            "from": [ -1, 7, 16 ],
            "to": [ 0, 11, 17 ],
            "faces": {
                "down": { "uv": [ 15, 15, 16, 16 ], "texture": "#end", "cullface": "north" },
                "south": { "uv": [ 15, 5, 16, 9 ], "texture": "#side", "cullface": "east" },
                "west": { "uv": [ 0, 5, 1, 9 ], "texture": "#side", "cullface": "north" }
            }
        }
    ]
}