{
	"__comment": "Designed by RomanCapitalist with Cubik Studio - https://cubik.studio",
	"parent": "block/cube_column",
	"textures": {
		"end": "conquest:blocks/roman_capital_marble_top",
		"side": "conquest:blocks/roman_cornice"
	},
	"elements": [ 	 
		{
			"__comment": "Cube1",
			"from": [ 12, 0, 4 ],
			"to": [ 16, 16, 12 ],
			"faces": {
				"down": { "uv": [ 12, 4, 16, 12 ], "texture": "#end" },
				"up": { "uv": [ 12, 4, 16, 12 ], "texture": "#end" },
				"north": { "uv": [ 0, 0, 4, 16 ], "texture": "#side" },
				"south": { "uv": [ 12, 0, 16, 16 ], "texture": "#side" },
				"west": { "uv": [ 4, 0, 12, 16 ], "texture": "#side" },
				"east": { "uv": [ 4, 0, 12, 16 ], "texture": "#side" }
			}
		},
		{
			"__comment": "Cube44",
			"from": [ 12, 0, 0 ],
			"to": [ 13, 1.5, 3 ],
			"faces": {
				"down": { "uv": [ 13, 3.000004, 16, 4.000004 ], "texture": "#end", "rotation": 90 },
				"up": { "uv": [ 13, 12, 16, 13 ], "texture": "#end", "rotation": 270 },
				"north": { "uv": [ 3, 14.5, 4, 16 ], "texture": "#side" },
				"east": { "uv": [ 13, 14.5, 16, 16 ], "texture": "#side" }
			}
		},
		{
			"__comment": "Cube44",
			"from": [ 12, 11, 0 ],
			"to": [ 14, 16, 2 ],
			"faces": {
				"down": { "uv": [ 14, 2.000003, 16, 4.000003 ], "texture": "#end", "rotation": 90 },
				"up": { "uv": [ 14, 12, 16, 14 ], "texture": "#end", "rotation": 270 },
				"north": { "uv": [ 2, 0, 4, 5 ], "texture": "#side" },
				"east": { "uv": [ 14, 0, 16, 5 ], "texture": "#side" }
			}
		},
		{
			"__comment": "Cube46",
			"from": [ 12, 7, 0 ],
			"to": [ 13, 11, 3 ],
			"faces": {
				"down": { "uv": [ 13, 3.000004, 16, 4.000004 ], "texture": "#end", "rotation": 90 },
				"up": { "uv": [ 13, 12, 16, 13 ], "texture": "#end", "rotation": 270 },
				"north": { "uv": [ 3, 5, 4, 9 ], "texture": "#side" },
				"east": { "uv": [ 13, 5, 16, 9 ], "texture": "#side" }
			}
		},
		{
			"__comment": "Cube1",
			"from": [ 4, 0, 4 ],
			"to": [ 12, 16, 16 ],
			"faces": {
				"down": { "uv": [ 3.999999, 0, 12, 12 ], "texture": "#end" },
				"up": { "uv": [ 3.999999, 4, 12, 16 ], "texture": "#end" },
				"north": { "uv": [ 4.000001, 0, 12, 16 ], "texture": "#side" },
				"south": { "uv": [ 3.999999, 0, 12, 16 ], "texture": "#side" },
				"west": { "uv": [ 4, 0, 16, 16 ], "texture": "#side" },
				"east": { "uv": [ 0, 0, 12, 16 ], "texture": "#side" }
			}
		},
		{
			"__comment": "Cube44",
			"from": [ 3, 0, 0 ],
			"to": [ 4, 1.5, 16 ],
			"faces": {
				"down": { "uv": [ 3.000001, 0, 4.000001, 16 ], "texture": "#end" },
				"up": { "uv": [ 3.000001, 1.907349E-06, 4.000001, 16 ], "texture": "#end" },
				"north": { "uv": [ 12, 14.5, 13, 16 ], "texture": "#side" },
				"south": { "uv": [ 3, 14.5, 4, 16 ], "texture": "#side" },
				"west": { "uv": [ 1.907348E-06, 14.5, 16, 16 ], "texture": "#side" }
			}
		},
		{
			"__comment": "Cube44",
			"from": [ 2, 11, 0 ],
			"to": [ 4, 16, 16 ],
			"faces": {
				"down": { "uv": [ 2.000001, 0, 4.000001, 16 ], "texture": "#end" },
				"up": { "uv": [ 2.000001, 1.907349E-06, 4.000001, 16 ], "texture": "#end" },
				"north": { "uv": [ 12, 0, 14, 5 ], "texture": "#side" },
				"south": { "uv": [ 2, 0, 4, 5 ], "texture": "#side" },
				"west": { "uv": [ 1.907348E-06, 0, 16, 5 ], "texture": "#side" }
			}
		},
		{
			"__comment": "Cube46",
			"from": [ 3, 7, 0 ],
			"to": [ 4, 11, 16 ],
			"faces": {
				"down": { "uv": [ 3.000001, 0, 4.000001, 16 ], "texture": "#end" },
				"up": { "uv": [ 3.000001, 1.907349E-06, 4.000001, 16 ], "texture": "#end" },
				"north": { "uv": [ 12, 5, 13, 9 ], "texture": "#side" },
				"south": { "uv": [ 3, 5, 4, 9 ], "texture": "#side" },
				"west": { "uv": [ 1.907348E-06, 5, 16, 9 ], "texture": "#side" }
			}
		},
		{
			"__comment": "Cube44",
			"from": [ 12, 0, 3 ],
			"to": [ 16, 1.5, 4 ],
			"faces": {
				"down": { "uv": [ 12, 0, 13, 4 ], "texture": "#end", "rotation": 90 },
				"up": { "uv": [ 12, 12, 13, 16 ], "texture": "#end", "rotation": 270 },
				"north": { "uv": [ 0, 14.5, 4, 16 ], "texture": "#side", "cullface": "north" },
				"east": { "uv": [ 12, 14.5, 13, 16 ], "texture": "#side" }
			}
		},
		{
			"__comment": "Cube44",
			"from": [ 12, 11, 2 ],
			"to": [ 16, 16, 4 ],
			"faces": {
				"down": { "uv": [ 12, 0, 14, 3.999994 ], "texture": "#end", "rotation": 90 },
				"up": { "uv": [ 12, 12.00001, 14, 16 ], "texture": "#end", "rotation": 270 },
				"north": { "uv": [ 0, 0, 3.999994, 5 ], "texture": "#side" },
				"east": { "uv": [ 12, 0, 14, 5 ], "texture": "#side" }
			}
		},
		{
			"__comment": "Cube46",
			"from": [ 12, 7, 3 ],
			"to": [ 16, 11, 4 ],
			"faces": {
				"down": { "uv": [ 12, 0, 13, 4 ], "texture": "#end", "rotation": 90 },
				"up": { "uv": [ 12, 12, 13, 16 ], "texture": "#end", "rotation": 270 },
				"north": { "uv": [ 0, 5, 4, 9 ], "texture": "#side" },
				"east": { "uv": [ 12, 5, 13, 9 ], "texture": "#side" }
			}
		},
		{
			"__comment": "Cube1",
			"from": [ 4, 0, 0 ],
			"to": [ 12, 16, 4 ],
			"faces": {
				"down": { "uv": [ 12, 4, 16, 12 ], "texture": "#end", "rotation": 90 },
				"up": { "uv": [ 12, 4, 16, 12 ], "texture": "#end", "rotation": 270 },
				"north": { "uv": [ 4, 0, 12, 16 ], "texture": "#side" },
				"south": { "uv": [ 4, 0, 12, 16 ], "texture": "#side" },
				"west": { "uv": [ 0, 0, 4, 16 ], "texture": "#side" },
				"east": { "uv": [ 12, 0, 16, 16 ], "texture": "#side" }
			}
		},
		{
			"__comment": "Cube44",
			"from": [ 14, 11, 12 ],
			"to": [ 16, 16, 14 ],
			"faces": {
				"down": { "uv": [ 14, 2.000003, 16, 4.000003 ], "texture": "#end" },
				"up": { "uv": [ 14, 12, 16, 14 ], "texture": "#end" },
				"south": { "uv": [ 14, 0, 16, 5 ], "texture": "#side" },
				"east": { "uv": [ 2, 0, 4, 5 ], "texture": "#side" }
			}
		},
		{
			"__comment": "Cube44",
			"from": [ 12, 11, 12 ],
			"to": [ 14, 16, 16 ],
			"faces": {
				"down": { "uv": [ 12, 0, 14, 3.999994 ], "texture": "#end" },
				"up": { "uv": [ 12, 12.00001, 14, 16 ], "texture": "#end" },
				"south": { "uv": [ 12, 0, 14, 5 ], "texture": "#side" },
				"east": { "uv": [ 0, 0, 3.999994, 5 ], "texture": "#side" }
			}
		},
		{
			"__comment": "Cube46",
			"from": [ 12, 7, 12 ],
			"to": [ 13, 11, 16 ],
			"faces": {
				"down": { "uv": [ 12, 0, 13, 4 ], "texture": "#end" },
				"up": { "uv": [ 12, 12, 13, 16 ], "texture": "#end" },
				"south": { "uv": [ 12, 5, 13, 9 ], "texture": "#side" },
				"east": { "uv": [ 0, 5, 4, 9 ], "texture": "#side" }
			}
		},
		{
			"__comment": "Cube46",
			"from": [ 13, 7, 12 ],
			"to": [ 16, 11, 13 ],
			"faces": {
				"down": { "uv": [ 13, 3.000004, 16, 4.000004 ], "texture": "#end" },
				"up": { "uv": [ 13, 12, 16, 13 ], "texture": "#end" },
				"south": { "uv": [ 13, 5, 16, 9 ], "texture": "#side" },
				"east": { "uv": [ 3, 5, 4, 9 ], "texture": "#side" }
			}
		},
		{
			"__comment": "Cube44",
			"from": [ 12, 0, 12 ],
			"to": [ 13, 1.5, 16 ],
			"faces": {
				"down": { "uv": [ 12, 0, 13, 4 ], "texture": "#end" },
				"up": { "uv": [ 12, 12, 13, 16 ], "texture": "#end" },
				"south": { "uv": [ 12, 14.5, 13, 16 ], "texture": "#side" },
				"east": { "uv": [ 0, 14.5, 4, 16 ], "texture": "#side", "cullface": "north" }
			}
		},
		{
			"__comment": "Cube44",
			"from": [ 13, 0, 12 ],
			"to": [ 16, 1.5, 13 ],
			"faces": {
				"down": { "uv": [ 13, 3.000004, 16, 4.000004 ], "texture": "#end" },
				"up": { "uv": [ 13, 12, 16, 13 ], "texture": "#end" },
				"south": { "uv": [ 13, 14.5, 16, 16 ], "texture": "#side" },
				"east": { "uv": [ 3, 14.5, 4, 16 ], "texture": "#side" }
			}
		}
	]
}