{
    "__comment": "Designed by RomanCapitalist with Cubik Studio - https://cubik.studio",
    "parent": "block/block",
    "ambientocclusion": false,
    "textures": {
        "particle": "conquest:blocks/roman_cornice_sandstone",
        "side": "conquest:blocks/roman_cornice_sandstone",
        "inside": "conquest:blocks/roman_capital_sandstone_top"
    },
    "elements": [
        {
            "from": [ 4, 4, 4 ],
            "to": [ 12, 11, 12 ],
            "faces": {
                "down": { "uv": [ 4, 4, 12, 12 ], "texture": "#inside" },
                "north": { "uv": [ 4, 5, 12, 12 ], "texture": "#side" },
                "south": { "uv": [ 4, 5, 12, 12 ], "texture": "#side" },
                "west": { "uv": [ 4, 5, 12, 12 ], "texture": "#side" },
                "east": { "uv": [ 4, 5, 12, 12 ], "texture": "#side" }
            }
        },
        {
            "from": [ 6, 0, 6 ],
            "to": [ 10, 4, 10 ],
            "faces": {
                "down": { "uv": [ 6, 6, 10, 10 ], "texture": "#inside" },
                "north": { "uv": [ 6, 12, 10, 16 ], "texture": "#side" },
                "south": { "uv": [ 6, 12, 10, 16 ], "texture": "#side" },
                "west": { "uv": [ 6, 12, 10, 16 ], "texture": "#side" },
                "east": { "uv": [ 6, 12, 10, 16 ], "texture": "#side" }
            }
        },
        {
            "__comment": "Cube10",
            "from": [ 0, 11, 0 ],
            "to": [ 16, 16, 16 ],
            "faces": {
                "down": { "uv": [ 0, 0, 16, 16 ], "texture": "#inside" },
                "up": { "uv": [ 0, 0, 16, 16 ], "texture": "#inside" },
                "north": { "uv": [ 0, 0, 16, 5 ], "texture": "#side" },
                "south": { "uv": [ 0, 0, 16, 5 ], "texture": "#side" },
                "west": { "uv": [ 0, 0, 16, 5 ], "texture": "#side" },
                "east": { "uv": [ 0, 0, 16, 5 ], "texture": "#side" }
            }
        }
    ]
}