{
    "parent": "block/wall_ns_above_topbottom",
    "textures": {
        "wall": "conquest:blocks/roman_cornice_sandstone",
        "top": "conquest:blocks/roman_capital_sandstone_top",
        "bottom": "conquest:blocks/roman_capital_sandstone_top"
    }
}
