
{
    "parent": "block/cube_bottom_top",
    "textures": {
        "bottom": "conquest:blocks/craftingtable1_bottom",
        "top": "conquest:blocks/craftingtable1",
        "side": "conquest:blocks/craftingtable4"
    }
}