{
"parent": "block/parent_beamhorizontal_nsew",
"textures": {
    "particle": "conquest:blocks/beam_dark_oak",
    "texture_0": "conquest:blocks/beam_dark_oak",
    "texture_1": "conquest:blocks/beam_dark_oak_1"
}
}