{
    "parent": "block/orientable",
    "textures": {
        "top": "conquest:blocks/furnaceriver_top",
        "front": "conquest:blocks/furnaceriver_front",
        "side": "conquest:blocks/furnaceriver_side"
    }
}
