{
	"parent": "block/block",
	"textures": {
		"particle": "blocks/rebellion/goblet_iron",
		"0": "blocks/rebellion/goblet_iron"
	},
	"elements": [
		{
			"from": [ 6.7, -0.09999999, 1.8 ],
			"to": [ 10.2, 0.4, 5.3 ],
			"rotation": { "origin": [ 8, 8, 8 ], "axis": "y", "angle": -45 },
			"faces": {
				"down": { "uv": [ 8, 1, 11.5, 4.5 ], "texture": "#0", "rotation": 270 },
				"up": { "uv": [ 1, 1, 4.5, 4.5 ], "texture": "#0", "rotation": 90 },
				"north": { "uv": [ 1, 4, 4.5, 4.5 ], "texture": "#0" },
				"south": { "uv": [ 1, 2, 4.5, 2.5 ], "texture": "#0" },
				"west": { "uv": [ 1, 3, 4.5, 3.5 ], "texture": "#0" },
				"east": { "uv": [ 0, 2, 3.5, 2.5 ], "texture": "#0" }
			}
		},
		{
			"from": [ 7.5, 0.5, 2.5 ],
			"to": [ 9.5, 1, 4.5 ],
			"rotation": { "origin": [ 8, 8, 8 ], "axis": "y", "angle": -45 },
			"faces": {
				"down": { "uv": [ 2, 2, 4, 4 ], "texture": "#0", "rotation": 270 },
				"up": { "uv": [ 1, 1, 3, 3 ], "texture": "#0", "rotation": 90 },
				"north": { "uv": [ 2, 2, 4, 2.5 ], "texture": "#0" },
				"south": { "uv": [ 2, 2, 4, 2.5 ], "texture": "#0" },
				"west": { "uv": [ 1, 2, 3, 2.5 ], "texture": "#0" },
				"east": { "uv": [ 1, 2, 3, 2.5 ], "texture": "#0" }
			}
		},
		{
			"from": [ 8, 0.7, 3 ],
			"to": [ 9, 3.2, 4 ],
			"rotation": { "origin": [ 8, 8, 8 ], "axis": "y", "angle": -45 },
			"faces": {
				"down": { "uv": [ 14, 7, 15, 8 ], "texture": "#0", "rotation": 270 },
				"up": { "uv": [ 14, 5, 15, 6 ], "texture": "#0", "rotation": 90 },
				"north": { "uv": [ 14, 4, 15, 6.5 ], "texture": "#0" },
				"south": { "uv": [ 14, 8, 15, 10.5 ], "texture": "#0" },
				"west": { "uv": [ 14, 5, 15, 7.5 ], "texture": "#0" },
				"east": { "uv": [ 14, 13, 15, 15.5 ], "texture": "#0" }
			}
		},
		{
			"from": [ 7.5, 3, 2.5 ],
			"to": [ 9.5, 3.5, 4.5 ],
			"rotation": { "origin": [ 8, 8, 8 ], "axis": "y", "angle": -45 },
			"faces": {
				"down": { "uv": [ 1, 1, 3, 3 ], "texture": "#0", "rotation": 270 },
				"up": { "uv": [ 8, 1, 10, 3 ], "texture": "#0", "rotation": 90 },
				"north": { "uv": [ 7, 4, 9, 4.5 ], "texture": "#0" },
				"south": { "uv": [ 9, 1, 11, 1.5 ], "texture": "#0" },
				"west": { "uv": [ 8, 1, 10, 1.5 ], "texture": "#0" },
				"east": { "uv": [ 8, 1, 10, 1.5 ], "texture": "#0" }
			}
		},
		{
			"from": [ 9.5, 3.9, 2 ],
			"to": [ 10, 6.9, 2.5 ],
			"rotation": { "origin": [ 8, 8, 8 ], "axis": "y", "angle": -45 },
			"faces": {
				"down": { "uv": [ 8, 11, 8.5, 11.5 ], "texture": "#0", "rotation": 270 },
				"up": { "uv": [ 8, 10, 8.5, 10.5 ], "texture": "#0", "rotation": 90 },
				"north": { "uv": [ 8, 8, 8.5, 11 ], "texture": "#0" },
				"south": { "uv": [ 7, 8, 7.5, 11 ], "texture": "#0" },
				"west": { "uv": [ 7, 8, 7.5, 11 ], "texture": "#0" },
				"east": { "uv": [ 7, 8, 7.5, 11 ], "texture": "#0" }
			}
		},
		{
			"from": [ 9.5, 3.9, 4.5 ],
			"to": [ 10, 6.9, 5 ],
			"rotation": { "origin": [ 8, 8, 8 ], "axis": "y", "angle": -45 },
			"faces": {
				"down": { "uv": [ 3, 1, 3.5, 1.5 ], "texture": "#0", "rotation": 270 },
				"up": { "uv": [ 8, 8, 8.5, 8.5 ], "texture": "#0", "rotation": 90 },
				"north": { "uv": [ 8, 8, 8.5, 11 ], "texture": "#0" },
				"south": { "uv": [ 9, 8, 9.5, 11 ], "texture": "#0" },
				"west": { "uv": [ 8, 8, 8.5, 11 ], "texture": "#0" },
				"east": { "uv": [ 8, 8, 8.5, 11 ], "texture": "#0" }
			}
		},
		{
			"from": [ 7, 3.9, 4.5 ],
			"to": [ 7.5, 6.9, 5 ],
			"rotation": { "origin": [ 8, 8, 8 ], "axis": "y", "angle": -45 },
			"faces": {
				"down": { "uv": [ 1, 1, 1.5, 1.5 ], "texture": "#0", "rotation": 270 },
				"up": { "uv": [ 8, 8, 8.5, 8.5 ], "texture": "#0", "rotation": 90 },
				"north": { "uv": [ 8, 8, 8.5, 11 ], "texture": "#0" },
				"south": { "uv": [ 7, 8, 7.5, 11 ], "texture": "#0" },
				"west": { "uv": [ 8, 8, 8.5, 11 ], "texture": "#0" },
				"east": { "uv": [ 8, 8, 8.5, 11 ], "texture": "#0" }
			}
		},
		{
			"from": [ 7, 3.9, 2 ],
			"to": [ 7.5, 6.9, 2.5 ],
			"rotation": { "origin": [ 8, 8, 8 ], "axis": "y", "angle": -45 },
			"faces": {
				"down": { "uv": [ 7, 9, 7.5, 9.5 ], "texture": "#0", "rotation": 270 },
				"up": { "uv": [ 8, 10, 8.5, 10.5 ], "texture": "#0", "rotation": 90 },
				"north": { "uv": [ 8, 8, 8.5, 11 ], "texture": "#0" },
				"south": { "uv": [ 7, 8, 7.5, 11 ], "texture": "#0" },
				"west": { "uv": [ 7, 8, 7.5, 11 ], "texture": "#0" },
				"east": { "uv": [ 8, 8, 8.5, 11 ], "texture": "#0" }
			}
		},
		{
			"from": [ 7.5, 3.9, 1.5 ],
			"to": [ 9.5, 6.9, 2 ],
			"rotation": { "origin": [ 8, 8, 8 ], "axis": "y", "angle": -45 },
			"faces": {
				"down": { "uv": [ 8, 1, 8.5, 3 ], "texture": "#0", "rotation": 270 },
				"up": { "uv": [ 8, 1, 8.5, 3 ], "texture": "#0", "rotation": 90 },
				"north": { "uv": [ 7, 8, 9, 11 ], "texture": "#0" },
				"south": { "uv": [ 7, 8, 9, 11 ], "texture": "#0" },
				"west": { "uv": [ 8, 8, 8.5, 11 ], "texture": "#0" },
				"east": { "uv": [ 7, 8, 7.5, 11 ], "texture": "#0" }
			}
		},
		{
			"from": [ 7.5, 3.9, 5 ],
			"to": [ 9.5, 6.9, 5.5 ],
			"rotation": { "origin": [ 8, 8, 8 ], "axis": "y", "angle": -45 },
			"faces": {
				"down": { "uv": [ 3, 1, 3.5, 3 ], "texture": "#0", "rotation": 270 },
				"up": { "uv": [ 8, 8, 8.5, 10 ], "texture": "#0", "rotation": 90 },
				"north": { "uv": [ 7, 8, 9, 11 ], "texture": "#0" },
				"south": { "uv": [ 7, 8, 9, 11 ], "texture": "#0" },
				"west": { "uv": [ 8, 8, 8.5, 11 ], "texture": "#0" },
				"east": { "uv": [ 8, 8, 8.5, 11 ], "texture": "#0" }
			}
		},
		{
			"from": [ 6.5, 3.9, 2.5 ],
			"to": [ 7, 6.9, 4.5 ],
			"rotation": { "origin": [ 8, 8, 8 ], "axis": "y", "angle": -45 },
			"faces": {
				"down": { "uv": [ 0, 1, 2, 1.5 ], "texture": "#0", "rotation": 270 },
				"up": { "uv": [ 7, 8, 9, 8.5 ], "texture": "#0", "rotation": 90 },
				"north": { "uv": [ 8, 8, 8.5, 11 ], "texture": "#0" },
				"south": { "uv": [ 8, 8, 8.5, 11 ], "texture": "#0" },
				"west": { "uv": [ 7, 8, 9, 11 ], "texture": "#0" },
				"east": { "uv": [ 7, 8, 9, 11 ], "texture": "#0" }
			}
		},
		{
			"from": [ 10, 3.9, 2.5 ],
			"to": [ 10.5, 6.9, 4.5 ],
			"rotation": { "origin": [ 8, 8, 8 ], "axis": "y", "angle": -45 },
			"faces": {
				"down": { "uv": [ 7, 10, 9, 10.5 ], "texture": "#0", "rotation": 270 },
				"up": { "uv": [ 6, 8, 8, 8.5 ], "texture": "#0", "rotation": 90 },
				"north": { "uv": [ 8, 8, 8.5, 11 ], "texture": "#0" },
				"south": { "uv": [ 8, 8, 8.5, 11 ], "texture": "#0" },
				"west": { "uv": [ 7, 8, 9, 11 ], "texture": "#0" },
				"east": { "uv": [ 7, 8, 9, 11 ], "texture": "#0" }
			}
		},
		{
			"from": [ 7.5, 3.4, 2 ],
			"to": [ 9.5, 3.9, 2.5 ],
			"rotation": { "origin": [ 8, 8, 8 ], "axis": "y", "angle": -45 },
			"faces": {
				"down": { "uv": [ 4, 1, 4.5, 3 ], "texture": "#0", "rotation": 270 },
				"up": { "uv": [ 3, 1, 3.5, 3 ], "texture": "#0", "rotation": 90 },
				"north": { "uv": [ 7, 12, 9, 12.5 ], "texture": "#0" },
				"south": { "uv": [ 7, 12, 9, 12.5 ], "texture": "#0" },
				"west": { "uv": [ 8, 12, 8.5, 12.5 ], "texture": "#0" },
				"east": { "uv": [ 8, 12, 8.5, 12.5 ], "texture": "#0" }
			}
		},
		{
			"from": [ 7.5, 3.4, 4.5 ],
			"to": [ 9.5, 3.9, 5 ],
			"rotation": { "origin": [ 8, 8, 8 ], "axis": "y", "angle": -45 },
			"faces": {
				"down": { "uv": [ 8, 13, 8.5, 15 ], "texture": "#0", "rotation": 270 },
				"up": { "uv": [ 7, 10, 7.5, 12 ], "texture": "#0", "rotation": 90 },
				"north": { "uv": [ 7, 12, 9, 12.5 ], "texture": "#0" },
				"south": { "uv": [ 7, 12, 9, 12.5 ], "texture": "#0" },
				"west": { "uv": [ 8, 12, 8.5, 12.5 ], "texture": "#0" },
				"east": { "uv": [ 7, 12, 7.5, 12.5 ], "texture": "#0" }
			}
		},
		{
			"from": [ 7, 3.4, 2.5 ],
			"to": [ 7.5, 3.9, 4.5 ],
			"rotation": { "origin": [ 8, 8, 8 ], "axis": "y", "angle": -45 },
			"faces": {
				"down": { "uv": [ 2, 4, 4, 4.5 ], "texture": "#0", "rotation": 270 },
				"up": { "uv": [ 7, 12, 9, 12.5 ], "texture": "#0", "rotation": 90 },
				"north": { "uv": [ 8, 12, 8.5, 12.5 ], "texture": "#0" },
				"south": { "uv": [ 8, 12, 8.5, 12.5 ], "texture": "#0" },
				"west": { "uv": [ 7, 12, 9, 12.5 ], "texture": "#0" },
				"east": { "uv": [ 7, 12, 9, 12.5 ], "texture": "#0" }
			}
		},
		{
			"from": [ 9.5, 3.4, 2.5 ],
			"to": [ 10, 3.9, 4.5 ],
			"rotation": { "origin": [ 8, 8, 8 ], "axis": "y", "angle": -45 },
			"faces": {
				"down": { "uv": [ 7, 12, 9, 12.5 ], "texture": "#0", "rotation": 270 },
				"up": { "uv": [ 7, 12, 9, 12.5 ], "texture": "#0", "rotation": 90 },
				"north": { "uv": [ 7, 12, 7.5, 12.5 ], "texture": "#0" },
				"south": { "uv": [ 8, 12, 8.5, 12.5 ], "texture": "#0" },
				"west": { "uv": [ 7, 12, 9, 12.5 ], "texture": "#0" },
				"east": { "uv": [ 7, 12, 9, 12.5 ], "texture": "#0" }
			}
		},
		{
			"from": [ 7.5, 5.8, 2 ],
			"to": [ 9.5, 6.3, 5 ],
			"rotation": { "origin": [ 8, 8, 8 ], "axis": "y", "angle": -45 },
			"faces": {
				"down": { "uv": [ 0, 13, 3, 15 ], "texture": "#0", "rotation": 270 },
				"up": { "uv": [ 0, 14, 3, 16 ], "texture": "#0", "rotation": 90 },
				"north": { "uv": [ 0, 14, 2, 14.5 ], "texture": "#0" },
				"south": { "uv": [ 1, 13, 3, 13.5 ], "texture": "#0" },
				"west": { "uv": [ 0, 12, 3, 12.5 ], "texture": "#0" },
				"east": { "uv": [ 0, 13, 3, 13.5 ], "texture": "#0" }
			}
		},
		{
			"from": [ 7, 5.8, 2.5 ],
			"to": [ 7.5, 6.3, 4.5 ],
			"rotation": { "origin": [ 8, 8, 8 ], "axis": "y", "angle": -45 },
			"faces": {
				"down": { "uv": [ 1, 14, 3, 14.5 ], "texture": "#0", "rotation": 270 },
				"up": { "uv": [ 1, 14, 3, 14.5 ], "texture": "#0", "rotation": 90 },
				"north": { "uv": [ 1, 14, 1.5, 14.5 ], "texture": "#0" },
				"south": { "uv": [ 1, 14, 1.5, 14.5 ], "texture": "#0" },
				"west": { "uv": [ 1, 14, 3, 14.5 ], "texture": "#0" },
				"east": { "uv": [ 1, 14, 3, 14.5 ], "texture": "#0" }
			}
		},
		{
			"from": [ 9.5, 5.8, 2.5 ],
			"to": [ 10, 6.3, 4.5 ],
			"rotation": { "origin": [ 8, 8, 8 ], "axis": "y", "angle": -45 },
			"faces": {
				"down": { "uv": [ 1, 13, 3, 13.5 ], "texture": "#0", "rotation": 270 },
				"up": { "uv": [ 0, 14, 2, 14.5 ], "texture": "#0", "rotation": 90 },
				"north": { "uv": [ 1, 13, 1.5, 13.5 ], "texture": "#0" },
				"south": { "uv": [ 1, 13, 1.5, 13.5 ], "texture": "#0" },
				"west": { "uv": [ 1, 13, 3, 13.5 ], "texture": "#0" },
				"east": { "uv": [ 1, 13, 3, 13.5 ], "texture": "#0" }
			}
		},
		{
			"from": [ 6.7, -0.09999999, 1.8 ],
			"to": [ 10.2, 0.4, 5.3 ],
			"rotation": { "origin": [ 8, 8, 8 ], "axis": "y", "angle": -45 },
			"faces": {
				"down": { "uv": [ 8, 1, 11.5, 4.5 ], "texture": "#0", "rotation": 270 },
				"up": { "uv": [ 1, 1, 4.5, 4.5 ], "texture": "#0", "rotation": 90 },
				"north": { "uv": [ 1, 4, 4.5, 4.5 ], "texture": "#0" },
				"south": { "uv": [ 1, 2, 4.5, 2.5 ], "texture": "#0" },
				"west": { "uv": [ 1, 3, 4.5, 3.5 ], "texture": "#0" },
				"east": { "uv": [ 0, 2, 3.5, 2.5 ], "texture": "#0" }
			}
		},
		{
			"from": [ 7.5, 0.5, 2.5 ],
			"to": [ 9.5, 1, 4.5 ],
			"rotation": { "origin": [ 8, 8, 8 ], "axis": "y", "angle": -45 },
			"faces": {
				"down": { "uv": [ 2, 2, 4, 4 ], "texture": "#0", "rotation": 270 },
				"up": { "uv": [ 1, 1, 3, 3 ], "texture": "#0", "rotation": 90 },
				"north": { "uv": [ 2, 2, 4, 2.5 ], "texture": "#0" },
				"south": { "uv": [ 2, 2, 4, 2.5 ], "texture": "#0" },
				"west": { "uv": [ 1, 2, 3, 2.5 ], "texture": "#0" },
				"east": { "uv": [ 1, 2, 3, 2.5 ], "texture": "#0" }
			}
		},
		{
			"from": [ 8, 0.7, 3 ],
			"to": [ 9, 3.2, 4 ],
			"rotation": { "origin": [ 8, 8, 8 ], "axis": "y", "angle": -45 },
			"faces": {
				"down": { "uv": [ 14, 7, 15, 8 ], "texture": "#0", "rotation": 270 },
				"up": { "uv": [ 14, 5, 15, 6 ], "texture": "#0", "rotation": 90 },
				"north": { "uv": [ 14, 4, 15, 6.5 ], "texture": "#0" },
				"south": { "uv": [ 14, 8, 15, 10.5 ], "texture": "#0" },
				"west": { "uv": [ 14, 5, 15, 7.5 ], "texture": "#0" },
				"east": { "uv": [ 14, 13, 15, 15.5 ], "texture": "#0" }
			}
		},
		{
			"from": [ 7.5, 3, 2.5 ],
			"to": [ 9.5, 3.5, 4.5 ],
			"rotation": { "origin": [ 8, 8, 8 ], "axis": "y", "angle": -45 },
			"faces": {
				"down": { "uv": [ 1, 1, 3, 3 ], "texture": "#0", "rotation": 270 },
				"up": { "uv": [ 8, 1, 10, 3 ], "texture": "#0", "rotation": 90 },
				"north": { "uv": [ 7, 4, 9, 4.5 ], "texture": "#0" },
				"south": { "uv": [ 9, 1, 11, 1.5 ], "texture": "#0" },
				"west": { "uv": [ 8, 1, 10, 1.5 ], "texture": "#0" },
				"east": { "uv": [ 8, 1, 10, 1.5 ], "texture": "#0" }
			}
		},
		{
			"from": [ 9.5, 3.9, 2 ],
			"to": [ 10, 6.9, 2.5 ],
			"rotation": { "origin": [ 8, 8, 8 ], "axis": "y", "angle": -45 },
			"faces": {
				"down": { "uv": [ 8, 11, 8.5, 11.5 ], "texture": "#0", "rotation": 270 },
				"up": { "uv": [ 8, 10, 8.5, 10.5 ], "texture": "#0", "rotation": 90 },
				"north": { "uv": [ 8, 8, 8.5, 11 ], "texture": "#0" },
				"south": { "uv": [ 7, 8, 7.5, 11 ], "texture": "#0" },
				"west": { "uv": [ 7, 8, 7.5, 11 ], "texture": "#0" },
				"east": { "uv": [ 7, 8, 7.5, 11 ], "texture": "#0" }
			}
		},
		{
			"from": [ 9.5, 3.9, 4.5 ],
			"to": [ 10, 6.9, 5 ],
			"rotation": { "origin": [ 8, 8, 8 ], "axis": "y", "angle": -45 },
			"faces": {
				"down": { "uv": [ 3, 1, 3.5, 1.5 ], "texture": "#0", "rotation": 270 },
				"up": { "uv": [ 8, 8, 8.5, 8.5 ], "texture": "#0", "rotation": 90 },
				"north": { "uv": [ 8, 8, 8.5, 11 ], "texture": "#0" },
				"south": { "uv": [ 9, 8, 9.5, 11 ], "texture": "#0" },
				"west": { "uv": [ 8, 8, 8.5, 11 ], "texture": "#0" },
				"east": { "uv": [ 8, 8, 8.5, 11 ], "texture": "#0" }
			}
		},
		{
			"from": [ 7, 3.9, 4.5 ],
			"to": [ 7.5, 6.9, 5 ],
			"rotation": { "origin": [ 8, 8, 8 ], "axis": "y", "angle": -45 },
			"faces": {
				"down": { "uv": [ 1, 1, 1.5, 1.5 ], "texture": "#0", "rotation": 270 },
				"up": { "uv": [ 8, 8, 8.5, 8.5 ], "texture": "#0", "rotation": 90 },
				"north": { "uv": [ 8, 8, 8.5, 11 ], "texture": "#0" },
				"south": { "uv": [ 7, 8, 7.5, 11 ], "texture": "#0" },
				"west": { "uv": [ 8, 8, 8.5, 11 ], "texture": "#0" },
				"east": { "uv": [ 8, 8, 8.5, 11 ], "texture": "#0" }
			}
		},
		{
			"from": [ 7, 3.9, 2 ],
			"to": [ 7.5, 6.9, 2.5 ],
			"rotation": { "origin": [ 8, 8, 8 ], "axis": "y", "angle": -45 },
			"faces": {
				"down": { "uv": [ 7, 9, 7.5, 9.5 ], "texture": "#0", "rotation": 270 },
				"up": { "uv": [ 8, 10, 8.5, 10.5 ], "texture": "#0", "rotation": 90 },
				"north": { "uv": [ 8, 8, 8.5, 11 ], "texture": "#0" },
				"south": { "uv": [ 7, 8, 7.5, 11 ], "texture": "#0" },
				"west": { "uv": [ 7, 8, 7.5, 11 ], "texture": "#0" },
				"east": { "uv": [ 8, 8, 8.5, 11 ], "texture": "#0" }
			}
		},
		{
			"from": [ 7.5, 3.9, 1.5 ],
			"to": [ 9.5, 6.9, 2 ],
			"rotation": { "origin": [ 8, 8, 8 ], "axis": "y", "angle": -45 },
			"faces": {
				"down": { "uv": [ 8, 1, 8.5, 3 ], "texture": "#0", "rotation": 270 },
				"up": { "uv": [ 8, 1, 8.5, 3 ], "texture": "#0", "rotation": 90 },
				"north": { "uv": [ 7, 8, 9, 11 ], "texture": "#0" },
				"south": { "uv": [ 7, 8, 9, 11 ], "texture": "#0" },
				"west": { "uv": [ 8, 8, 8.5, 11 ], "texture": "#0" },
				"east": { "uv": [ 7, 8, 7.5, 11 ], "texture": "#0" }
			}
		},
		{
			"from": [ 7.5, 3.9, 5 ],
			"to": [ 9.5, 6.9, 5.5 ],
			"rotation": { "origin": [ 8, 8, 8 ], "axis": "y", "angle": -45 },
			"faces": {
				"down": { "uv": [ 3, 1, 3.5, 3 ], "texture": "#0", "rotation": 270 },
				"up": { "uv": [ 8, 8, 8.5, 10 ], "texture": "#0", "rotation": 90 },
				"north": { "uv": [ 7, 8, 9, 11 ], "texture": "#0" },
				"south": { "uv": [ 7, 8, 9, 11 ], "texture": "#0" },
				"west": { "uv": [ 8, 8, 8.5, 11 ], "texture": "#0" },
				"east": { "uv": [ 8, 8, 8.5, 11 ], "texture": "#0" }
			}
		},
		{
			"from": [ 6.5, 3.9, 2.5 ],
			"to": [ 7, 6.9, 4.5 ],
			"rotation": { "origin": [ 8, 8, 8 ], "axis": "y", "angle": -45 },
			"faces": {
				"down": { "uv": [ 0, 1, 2, 1.5 ], "texture": "#0", "rotation": 270 },
				"up": { "uv": [ 7, 8, 9, 8.5 ], "texture": "#0", "rotation": 90 },
				"north": { "uv": [ 8, 8, 8.5, 11 ], "texture": "#0" },
				"south": { "uv": [ 8, 8, 8.5, 11 ], "texture": "#0" },
				"west": { "uv": [ 7, 8, 9, 11 ], "texture": "#0" },
				"east": { "uv": [ 7, 8, 9, 11 ], "texture": "#0" }
			}
		},
		{
			"from": [ 10, 3.9, 2.5 ],
			"to": [ 10.5, 6.9, 4.5 ],
			"rotation": { "origin": [ 8, 8, 8 ], "axis": "y", "angle": -45 },
			"faces": {
				"down": { "uv": [ 7, 10, 9, 10.5 ], "texture": "#0", "rotation": 270 },
				"up": { "uv": [ 6, 8, 8, 8.5 ], "texture": "#0", "rotation": 90 },
				"north": { "uv": [ 8, 8, 8.5, 11 ], "texture": "#0" },
				"south": { "uv": [ 8, 8, 8.5, 11 ], "texture": "#0" },
				"west": { "uv": [ 7, 8, 9, 11 ], "texture": "#0" },
				"east": { "uv": [ 7, 8, 9, 11 ], "texture": "#0" }
			}
		},
		{
			"from": [ 7.5, 3.4, 2 ],
			"to": [ 9.5, 3.9, 2.5 ],
			"rotation": { "origin": [ 8, 8, 8 ], "axis": "y", "angle": -45 },
			"faces": {
				"down": { "uv": [ 4, 1, 4.5, 3 ], "texture": "#0", "rotation": 270 },
				"up": { "uv": [ 3, 1, 3.5, 3 ], "texture": "#0", "rotation": 90 },
				"north": { "uv": [ 7, 12, 9, 12.5 ], "texture": "#0" },
				"south": { "uv": [ 7, 12, 9, 12.5 ], "texture": "#0" },
				"west": { "uv": [ 8, 12, 8.5, 12.5 ], "texture": "#0" },
				"east": { "uv": [ 8, 12, 8.5, 12.5 ], "texture": "#0" }
			}
		},
		{
			"from": [ 7.5, 3.4, 4.5 ],
			"to": [ 9.5, 3.9, 5 ],
			"rotation": { "origin": [ 8, 8, 8 ], "axis": "y", "angle": -45 },
			"faces": {
				"down": { "uv": [ 8, 13, 8.5, 15 ], "texture": "#0", "rotation": 270 },
				"up": { "uv": [ 7, 10, 7.5, 12 ], "texture": "#0", "rotation": 90 },
				"north": { "uv": [ 7, 12, 9, 12.5 ], "texture": "#0" },
				"south": { "uv": [ 7, 12, 9, 12.5 ], "texture": "#0" },
				"west": { "uv": [ 8, 12, 8.5, 12.5 ], "texture": "#0" },
				"east": { "uv": [ 7, 12, 7.5, 12.5 ], "texture": "#0" }
			}
		},
		{
			"from": [ 7, 3.4, 2.5 ],
			"to": [ 7.5, 3.9, 4.5 ],
			"rotation": { "origin": [ 8, 8, 8 ], "axis": "y", "angle": -45 },
			"faces": {
				"down": { "uv": [ 2, 4, 4, 4.5 ], "texture": "#0", "rotation": 270 },
				"up": { "uv": [ 7, 12, 9, 12.5 ], "texture": "#0", "rotation": 90 },
				"north": { "uv": [ 8, 12, 8.5, 12.5 ], "texture": "#0" },
				"south": { "uv": [ 8, 12, 8.5, 12.5 ], "texture": "#0" },
				"west": { "uv": [ 7, 12, 9, 12.5 ], "texture": "#0" },
				"east": { "uv": [ 7, 12, 9, 12.5 ], "texture": "#0" }
			}
		},
		{
			"from": [ 9.5, 3.4, 2.5 ],
			"to": [ 10, 3.9, 4.5 ],
			"rotation": { "origin": [ 8, 8, 8 ], "axis": "y", "angle": -45 },
			"faces": {
				"down": { "uv": [ 7, 12, 9, 12.5 ], "texture": "#0", "rotation": 270 },
				"up": { "uv": [ 7, 12, 9, 12.5 ], "texture": "#0", "rotation": 90 },
				"north": { "uv": [ 7, 12, 7.5, 12.5 ], "texture": "#0" },
				"south": { "uv": [ 8, 12, 8.5, 12.5 ], "texture": "#0" },
				"west": { "uv": [ 7, 12, 9, 12.5 ], "texture": "#0" },
				"east": { "uv": [ 7, 12, 9, 12.5 ], "texture": "#0" }
			}
		},
		{
			"from": [ 7.5, 5.8, 2 ],
			"to": [ 9.5, 6.3, 5 ],
			"rotation": { "origin": [ 8, 8, 8 ], "axis": "y", "angle": -45 },
			"faces": {
				"down": { "uv": [ 0, 13, 3, 15 ], "texture": "#0", "rotation": 270 },
				"up": { "uv": [ 0, 14, 3, 16 ], "texture": "#0", "rotation": 90 },
				"north": { "uv": [ 0, 14, 2, 14.5 ], "texture": "#0" },
				"south": { "uv": [ 1, 13, 3, 13.5 ], "texture": "#0" },
				"west": { "uv": [ 0, 12, 3, 12.5 ], "texture": "#0" },
				"east": { "uv": [ 0, 13, 3, 13.5 ], "texture": "#0" }
			}
		},
		{
			"from": [ 7, 5.8, 2.5 ],
			"to": [ 7.5, 6.3, 4.5 ],
			"rotation": { "origin": [ 8, 8, 8 ], "axis": "y", "angle": -45 },
			"faces": {
				"down": { "uv": [ 1, 14, 3, 14.5 ], "texture": "#0", "rotation": 270 },
				"up": { "uv": [ 1, 14, 3, 14.5 ], "texture": "#0", "rotation": 90 },
				"north": { "uv": [ 1, 14, 1.5, 14.5 ], "texture": "#0" },
				"south": { "uv": [ 1, 14, 1.5, 14.5 ], "texture": "#0" },
				"west": { "uv": [ 1, 14, 3, 14.5 ], "texture": "#0" },
				"east": { "uv": [ 1, 14, 3, 14.5 ], "texture": "#0" }
			}
		},
		{
			"from": [ 9.5, 5.8, 2.5 ],
			"to": [ 10, 6.3, 4.5 ],
			"rotation": { "origin": [ 8, 8, 8 ], "axis": "y", "angle": -45 },
			"faces": {
				"down": { "uv": [ 1, 13, 3, 13.5 ], "texture": "#0", "rotation": 270 },
				"up": { "uv": [ 0, 14, 2, 14.5 ], "texture": "#0", "rotation": 90 },
				"north": { "uv": [ 1, 13, 1.5, 13.5 ], "texture": "#0" },
				"south": { "uv": [ 1, 13, 1.5, 13.5 ], "texture": "#0" },
				"west": { "uv": [ 1, 13, 3, 13.5 ], "texture": "#0" },
				"east": { "uv": [ 1, 13, 3, 13.5 ], "texture": "#0" }
			}
		}
	],
	"display": {
		"thirdperson_righthand": {
			"rotation":  [ 47, 8, 5 ],
			"translation":  [ -3.477, 0.6956, 7.6521 ]
		},
		"thirdperson_lefthand": {
			"rotation":  [ 47, 8, 5 ],
			"translation":  [ 4.8708, 0.6956, 7.6521 ]
		},
		"firstperson_righthand": {
			"translation":  [ 0, 2.0869, 0 ]
		},
		"firstperson_lefthand": {
			"translation":  [ 0, 2.0869, 0 ]
		},
		"gui": {
			"rotation":  [ 20, 1, 0 ],
			"translation":  [ 0.1015, 0.6956, 20.869 ],
			"scale":  [ 0.625, 0.625, 0.625 ]
		},
		"head": {
			"rotation":  [ 49, 89, -47 ],
			"translation":  [ 3.4775, 14.606, 4.8705 ],
			"scale":  [ 0.9304, 1, 1 ]
		},
		"ground": {
			"rotation":  [ 25, 0, -88 ],
			"translation":  [ -5.565, 0, 0 ]
		},
		"fixed": {
			"rotation":  [ 0, 121, 0 ]
		}
	}
}