
{
    "parent": "block/cube_bottom_top",
    "textures": {
        "bottom": "conquest:blocks/barrel_bottom",
        "top": "conquest:blocks/goldore1_top",
        "side": "conquest:blocks/barrel_side"
    }
}