{
    "parent": "block/anvil_base",
    "textures": {
        "particle": "blocks/stone_granite_smooth",
        "body": "blocks/stone_granite_smooth",
        "top": "blocks/stone_granite_smooth"
    }
}