{
    "parent": "block/parent_hopper_side_topbottom",
    "textures": {
        "side": "conquest:blocks/stonebrick5",
        "top": "conquest:blocks/stonebrick5_top",
        "bottom": "conquest:blocks/stonebrick5_top"
    }
}
