{
    "parent": "block/half_slab",
    "textures": {
        "bottom": "conquest:blocks/plaster_peach",
        "top": "conquest:blocks/plaster_peach",
        "side": "conquest:blocks/plaster_peach"
    }
}