{
    "parent": "block/half_slab",
    "textures": {
        "bottom": "conquest:blocks/thatch_brown",
        "top": "conquest:blocks/thatch_brown",
        "side": "conquest:blocks/thatch_brown"
    }
}