{
    "parent": "block/half_slab",
    "textures": {
        "bottom": "conquest:blocks/dirt_lorein",
        "top": "conquest:blocks/dirt_lorein",
        "side": "conquest:blocks/dirt_lorein"
    }
}