{
    "parent": "block/half_slab",
    "textures": {
        "bottom": "conquest:blocks/acacialog2coldbeach",
        "top": "conquest:blocks/acacialog2coldbeach",
        "side": "conquest:blocks/acacialog2coldbeach"
    }
}