{
    "parent": "block/half_slab",
    "textures": {
        "bottom": "conquest:blocks/rooftile_reddishbrownmossy",
        "top": "conquest:blocks/rooftile_reddishbrownmossy",
        "side": "conquest:blocks/rooftile_reddishbrownmossy"
    }
}