{
    "parent": "block/half_slab",
    "textures": {
        "bottom": "conquest:blocks/sandstone_roughnatural",
        "top": "conquest:blocks/sandstone_roughnatural",
        "side": "conquest:blocks/sandstone_roughnatural"
    }
}