{
    "parent": "block/half_slab",
    "textures": {
        "bottom": "conquest:blocks/lapisblock7",
        "top": "conquest:blocks/lapisblock7",
        "side": "conquest:blocks/lapisblock7"
    }
}