{
    "parent": "block/half_slab",
    "textures": {
        "bottom": "conquest:blocks/bone_block_top",
        "top": "conquest:blocks/bone_block_top",
        "side": "conquest:blocks/bone_block_side"
    }
}