{
    "parent": "block/half_slab",
    "textures": {
        "bottom": "conquest:blocks/stone_calcite",
        "top": "conquest:blocks/stone_calcite",
        "side": "conquest:blocks/stone_calcite"
    }
}