{
    "parent": "block/half_slab",
    "textures": {
        "bottom": "conquest:blocks/stone_limestonecut",
        "top": "conquest:blocks/stone_limestonecut",
        "side": "conquest:blocks/stone_limestonecut"
    }
}