{
    "parent": "block/half_slab",
    "textures": {
        "bottom": "conquest:blocks/tiles_arnor",
        "top": "conquest:blocks/tiles_arnor",
        "side": "conquest:blocks/tiles_arnor"
    }
}