{
    "parent": "block/half_slab",
    "textures": {
        "bottom": "conquest:blocks/roman_sandstone_block_inscribed1",
        "top": "conquest:blocks/roman_sandstone_block_inscribed1",
        "side": "conquest:blocks/roman_sandstone_block_inscribed1"
    }
}