{
    "parent": "block/half_slab",
    "textures": {
        "bottom": "conquest:blocks/pillar_dwarvenschist1",
        "top": "conquest:blocks/pillar_dwarvenschist1",
        "side": "conquest:blocks/pillar_dwarvenschist1"
    }
}