{
    "parent": "block/half_slab",
    "textures": {
        "bottom": "conquest:blocks/rooftile_slatelightgreen",
        "top": "conquest:blocks/rooftile_slatelightgreen",
        "side": "conquest:blocks/rooftile_slatelightgreen"
    }
}