{
	"__comment": "Designed by RomanCapitalist with Cubik Studio - https://cubik.studio",
	"parent": "block/block",
	"textures": {
        "particle": "conquest:blocks/roman_base_sandstone",
        "end": "conquest:blocks/sandstone5",
		"side": "conquest:blocks/roman_base_sandstone"
	},
	"elements": [ 	 
		{
			"__comment": "Long Side",
			"from": [ 0, 0, 0 ],
			"to": [ 16, 8, 16 ],
			"faces": {
				"down": { "uv": [ 0, 0, 16, 16 ], "texture": "#end" },
				"up": { "uv": [ 0, 0, 16, 16 ], "texture": "#end" },
				"north": { "uv": [ 0, 8, 16, 16 ], "texture": "#side" },
				"south": { "uv": [ 0, 8, 16, 16 ], "texture": "#side" },
				"west": { "uv": [ 0, 8, 16, 16 ], "texture": "#side" },
				"east": { "uv": [ 0, 8, 16, 16 ], "texture": "#side" }
			}
		},
		{
			"__comment": "Long Side7",
			"from": [ 0, 0, -0.5 ],
			"to": [ 16, 1, 0 ],
			"faces": {
				"down": { "uv": [ 0, 0, 16, 0.5 ], "texture": "#end", "cullface": "north" },
				"up": { "uv": [ 0, 15.5, 16, 16 ], "texture": "#end", "cullface": "north" },
				"north": { "uv": [ 0, 15, 16, 16 ], "texture": "#side", "cullface": "north" }
			}
		},
		{
			"__comment": "Long Side9",
			"from": [ 0, 7, -1 ],
			"to": [ 16, 8, 0 ],
			"faces": {
				"down": { "uv": [ 0, 0, 16, 1 ], "texture": "#end", "cullface": "north" },
				"up": { "uv": [ 0, 15, 16, 16 ], "texture": "#end", "cullface": "north" },
				"north": { "uv": [ 0, 8, 16, 9 ], "texture": "#side", "cullface": "north" }
			}
		},
		{
			"__comment": "Long Side22",
			"from": [ 16, 0, -0.5 ],
			"to": [ 16.5, 1, 0 ],
			"faces": {
				"down": { "uv": [ 16, 0, 15.5, 1 ], "texture": "#end", "cullface": "north" },
				"up": { "uv": [ 0, 16, 0.5, 15.5 ], "texture": "#end", "cullface": "north" },
				"north": { "uv": [ 0, 15, 0.5, 16 ], "texture": "#side", "cullface": "east" },
				"east": { "uv": [ 0, 15, 0.5, 16 ], "texture": "#side", "cullface": "north" }
			}
		},
		{
			"__comment": "Long Side24",
			"from": [ 16, 7, -1 ],
			"to": [ 17, 8, 0 ],
			"faces": {
				"down": { "uv": [ 16, 0, 15, 1 ], "texture": "#end", "cullface": "north" },
				"up": { "uv": [ 16, 0, 15, 1 ], "texture": "#end" },
				"north": { "uv": [ 15, 8, 16, 9 ], "texture": "#side", "cullface": "east" },
				"east": { "uv": [ 15, 8, 16, 9 ], "texture": "#side", "cullface": "north" }
			}
		},
		{
			"__comment": "Long Side7",
			"from": [ -0.5, 0, 0 ],
			"to": [ 0, 1, 16 ],
			"faces": {
				"down": { "uv": [ 0, 0, 16, 0.5 ], "texture": "#end", "cullface": "west", "rotation": 90 },
				"up": { "uv": [ 0, 15.5, 16, 16 ], "texture": "#end", "cullface": "west", "rotation": 270 },
				"west": { "uv": [ 0, 15, 16, 16 ], "texture": "#side", "cullface": "west" }
			}
		},
		{
			"__comment": "Long Side9",
			"from": [ -1, 7, 0 ],
			"to": [ 0, 8, 16 ],
			"faces": {
				"down": { "uv": [ 0, 0, 16, 1 ], "texture": "#end", "cullface": "west", "rotation": 90 },
				"up": { "uv": [ 0, 15, 16, 16 ], "texture": "#end", "cullface": "north", "rotation": 270 },
				"west": { "uv": [ 0, 8, 16, 9 ], "texture": "#side", "cullface": "west" }
			}
		},
		{
			"__comment": "Long Side22",
			"from": [ -0.5, 0, -0.5 ],
			"to": [ 0, 1, 0 ],
			"faces": {
				"down": { "uv": [ 16, 0, 15.5, 1 ], "texture": "#end", "cullface": "north", "rotation": 90 },
				"up": { "uv": [ 0, 16, 0.5, 15.5 ], "texture": "#end", "cullface": "north", "rotation": 270 },
				"north": { "uv": [ 0, 15, 0.5, 16 ], "texture": "#side", "cullface": "west" },
				"west": { "uv": [ 0, 15, 0.5, 16 ], "texture": "#side", "cullface": "north" }
			}
		},
		{
			"__comment": "Long Side24",
			"from": [ -1, 7, -1 ],
			"to": [ 0, 8, 0 ],
			"faces": {
				"down": { "uv": [ 16, 0, 15, 1 ], "texture": "#end", "cullface": "north", "rotation": 90 },
				"up": { "uv": [ 16, 0, 15, 1 ], "texture": "#end", "rotation": 90 },
				"north": { "uv": [ 0, 8, 1, 9 ], "texture": "#side", "cullface": "west" },
				"west": { "uv": [ 15, 8, 16, 9 ], "texture": "#side", "cullface": "north" }
			}
		},
		{
			"__comment": "Long Side7",
			"from": [ 16, 0, 0 ],
			"to": [ 16.5, 1, 16 ],
			"faces": {
				"down": { "uv": [ 0, 0, 16, 0.5 ], "texture": "#end", "cullface": "east", "rotation": 270 },
				"up": { "uv": [ 0, 15.5, 16, 16 ], "texture": "#end", "cullface": "east", "rotation": 90 },
				"east": { "uv": [ 0, 15, 16, 16 ], "texture": "#side", "cullface": "east" }
			}
		},
		{
			"__comment": "Long Side9",
			"from": [ 16, 7, 0 ],
			"to": [ 17, 8, 16 ],
			"faces": {
				"down": { "uv": [ 0, 0, 16, 1 ], "texture": "#end", "cullface": "east", "rotation": 270 },
				"up": { "uv": [ 0, 15, 16, 16 ], "texture": "#end", "cullface": "north", "rotation": 90 },
				"east": { "uv": [ 0, 8, 16, 9 ], "texture": "#side", "cullface": "east" }
			}
		},
		{
			"__comment": "Long Side22",
			"from": [ 16, 0, 16 ],
			"to": [ 16.5, 1, 16.5 ],
			"faces": {
				"down": { "uv": [ 16, 0, 15.5, 1 ], "texture": "#end", "cullface": "east", "rotation": 270 },
				"up": { "uv": [ 0, 16, 0.5, 15.5 ], "texture": "#end", "cullface": "east", "rotation": 90 },
				"south": { "uv": [ 0, 15, 0.5, 16 ], "texture": "#side", "cullface": "north" },
				"east": { "uv": [ 0, 15, 0.5, 16 ], "texture": "#side", "cullface": "east" }
			}
		},
		{
			"__comment": "Long Side24",
			"from": [ 16, 7, 16 ],
			"to": [ 17, 8, 17 ],
			"faces": {
				"down": { "uv": [ 16, 0, 15, 1 ], "texture": "#end", "cullface": "east", "rotation": 270 },
				"up": { "uv": [ 16, 0, 15, 1 ], "texture": "#end", "rotation": 270 },
				"south": { "uv": [ 0, 8, 1, 9 ], "texture": "#side", "cullface": "east" },
				"east": { "uv": [ 15, 8, 16, 9 ], "texture": "#side", "cullface": "south" }
			}
		},
		{
			"__comment": "Long Side7",
			"from": [ 0, 0, 16 ],
			"to": [ 16, 1, 16.5 ],
			"faces": {
				"down": { "uv": [ 0, 0, 16, 0.5 ], "texture": "#end", "cullface": "south", "rotation": 180 },
				"up": { "uv": [ 0, 15.5, 16, 16 ], "texture": "#end", "cullface": "south", "rotation": 180 },
				"south": { "uv": [ 0, 15, 16, 16 ], "texture": "#side", "cullface": "south" }
			}
		},
		{
			"__comment": "Long Side9",
			"from": [ 0, 7, 16 ],
			"to": [ 16, 8, 17 ],
			"faces": {
				"down": { "uv": [ 0, 0, 16, 1 ], "texture": "#end", "cullface": "south", "rotation": 180 },
				"up": { "uv": [ 0, 15, 16, 16 ], "texture": "#end", "cullface": "north", "rotation": 180 },
				"south": { "uv": [ 0, 8, 16, 9 ], "texture": "#side", "cullface": "south" }
			}
		},
		{
			"__comment": "Long Side22",
			"from": [ -0.5, 0, 16 ],
			"to": [ 0, 1, 16.5 ],
			"faces": {
				"down": { "uv": [ 16, 0, 15.5, 1 ], "texture": "#end", "cullface": "south", "rotation": 180 },
				"up": { "uv": [ 0, 16, 0.5, 15.5 ], "texture": "#end", "cullface": "south", "rotation": 180 },
				"south": { "uv": [ 0, 15, 0.5, 16 ], "texture": "#side", "cullface": "west" },
				"west": { "uv": [ 0, 15, 0.5, 16 ], "texture": "#side", "cullface": "south" }
			}
		},
		{
			"__comment": "Long Side24",
			"from": [ -1, 7, 16 ],
			"to": [ 0, 8, 17 ],
			"faces": {
				"down": { "uv": [ 16, 0, 15, 1 ], "texture": "#end", "cullface": "south", "rotation": 180 },
				"up": { "uv": [ 16, 0, 15, 1 ], "texture": "#end", "rotation": 180 },
				"south": { "uv": [ 15, 8, 16, 9 ], "texture": "#side", "cullface": "west" },
				"west": { "uv": [ 0, 8, 1, 9 ], "texture": "#side", "cullface": "south" }
			}
		}
	]
}