{
    "parent": "block/half_slab",
    "textures": {
        "bottom": "conquest:blocks/planks_spruceironbound",
        "top": "conquest:blocks/planks_spruceironbound",
        "side": "conquest:blocks/planks_spruceironbound"
    }
}