{
    "parent": "block/half_slab",
    "textures": {
        "bottom": "conquest:blocks/rooftile_wavylightgray",
        "top": "conquest:blocks/rooftile_wavylightgray",
        "side": "conquest:blocks/rooftile_wavylightgray"
    }
}