{
    "parent": "block/half_slab",
    "textures": {
        "bottom": "conquest:blocks/bigslab_limestone",
        "top": "conquest:blocks/bigslab_limestone",
        "side": "conquest:blocks/bigslab_limestone"
    }
}