{
    "parent": "block/half_slab",
    "textures": {
        "bottom": "conquest:blocks/stoneslab2coldbeach_top",
        "top": "conquest:blocks/stoneslab2coldbeach_top",
        "side": "conquest:blocks/ice2"
    }
}
