{
    "parent": "block/half_slab",
    "textures": {
        "bottom": "conquest:blocks/roman_brick_dark_stacked",
        "top": "conquest:blocks/roman_brick_dark_stacked",
        "side": "conquest:blocks/roman_brick_dark_stacked"
    }
}