{
    "parent": "block/block",
    "textures": {
        "particle": "blocks/rebellion/colored_iron",
		"0": "blocks/rebellion/iron_hinges",
        "1": "blocks/rebellion/candle_f",
        "2": "blocks/rebellion/colored_iron",
        "3": "blocks/rebellion/wax"
    },
    "elements": [
        {
            "name": "Cube",
            "from": [ 6.000000014901161, 0.0, 6.0 ], 
            "to": [ 10.0, 0.4999999925494194, 9.999999985098839 ], 
            "faces": {
                "north": { "texture": "#0", "uv": [ 7.0, 15.0, 11.499999994039536, 15.49999999254942 ] },
                "east": { "texture": "#0", "uv": [ 7.0, 15.0, 11.499999994039536, 15.49999999254942 ] },
                "south": { "texture": "#0", "uv": [ 7.0, 15.0, 11.499999994039536, 15.49999999254942 ] },
                "west": { "texture": "#0", "uv": [ 6.0, 15.0, 10.499999994039536, 15.49999999254942 ] },
                "up": { "texture": "#1", "uv": [ 9.0, 2.0, 13.499999994039536, 6.499999992549419 ] },
                "down": { "texture": "#0", "uv": [ 9.0, 11.0, 13.499999994039536, 15.499999994039536 ] }
            }
        },
        {
            "name": "Cube",
            "from": [ 6.000000029802322, 0.5000000223517418, 5.500000007450581 ], 
            "to": [ 10.000000014901161, 1.0000000149011612, 6.0 ], 
            "faces": {
                "north": { "texture": "#2", "uv": [ 5.0, 10.0, 8.999999985098839, 10.49999999254942 ] },
                "east": { "texture": "#2", "uv": [ 3.0, 11.0, 3.4999999925494194, 11.49999999254942 ] },
                "south": { "texture": "#2", "uv": [ 4.0, 9.0, 7.999999985098839, 9.49999999254942 ] },
                "west": { "texture": "#2", "uv": [ 4.0, 10.0, 4.499999992549419, 10.49999999254942 ] },
                "up": { "texture": "#2", "uv": [ 5.0, 10.0, 8.999999985098839, 10.49999999254942 ] },
                "down": { "texture": "#2", "uv": [ 5.0, 12.0, 8.999999985098839, 12.49999999254942 ] }
            }
        },
        {
            "name": "Cube",
            "from": [ 6.000000029802322, 0.5000000074505806, 9.999999985098839 ], 
            "to": [ 10.000000029802322, 1.0, 10.499999977648258 ], 
            "faces": {
                "north": { "texture": "#2", "uv": [ 9.0, 11.0, 13.0, 11.49999999254942 ] },
                "east": { "texture": "#2", "uv": [ 6.0, 11.0, 6.499999992549419, 11.49999999254942 ] },
                "south": { "texture": "#2", "uv": [ 6.0, 11.0, 10.0, 11.49999999254942 ] },
                "west": { "texture": "#2", "uv": [ 2.0, 10.0, 2.4999999925494194, 10.49999999254942 ] },
                "up": { "texture": "#2", "uv": [ 7.0, 10.0, 11.0, 10.49999999254942 ] },
                "down": { "texture": "#2", "uv": [ 7.0, 12.0, 11.0, 12.49999999254942 ] }
            }
        },
        {
            "name": "Cube",
            "from": [ 5.500000022351742, 0.5000000223517418, 6.000000014901161 ], 
            "to": [ 6.0, 1.0000000149011612, 10.0 ], 
            "faces": {
                "north": { "texture": "#2", "uv": [ 5.0, 10.0, 5.499999977648258, 10.49999999254942 ], "rotation": 180 },
                "east": { "texture": "#2", "uv": [ 6.0, 11.000000000000004, 9.999999985098839, 11.499999992549423 ] },
                "south": { "texture": "#2", "uv": [ 6.0, 10.0, 6.499999977648258, 10.49999999254942 ] },
                "west": { "texture": "#2", "uv": [ 4.0, 10.0, 7.999999985098839, 10.49999999254942 ] },
                "up": { "texture": "#2", "uv": [ 4.0, 10.0, 0.4999999776482582, 10.49999998509884 ], "rotation": 90 },
                "down": { "texture": "#2", "uv": [ 15.0, 7.0, 15.499999977648258, 10.999999985098839 ] }
            }
        },
        {
            "name": "Cube",
            "from": [ 10.000000014901161, 0.5000000223517418, 6.000000014901161 ], 
            "to": [ 10.49999999254942, 1.0000000149011612, 10.0 ], 
            "faces": {
                "north": { "texture": "#2", "uv": [ 5.0, 10.0, 5.499999977648258, 10.49999999254942 ] },
                "east": { "texture": "#2", "uv": [ 6.0, 11.000000000000004, 9.999999985098839, 11.499999992549423 ] },
                "south": { "texture": "#2", "uv": [ 6.0, 10.0, 6.499999977648258, 10.49999999254942 ] },
                "west": { "texture": "#2", "uv": [ 4.0, 10.0, 7.999999985098839, 10.49999999254942 ] },
                "up": { "texture": "#2", "uv": [ 4.0, 10.0, 7.499999977648258, 10.499999985098837 ], "rotation": 90 },
                "down": { "texture": "#2", "uv": [ 15.0, 6.0, 15.499999977648258, 9.999999985098839 ] }
            }
        },
        {
            "name": "Cube",
            "from": [ 7.0, 0.0, 7.0 ], 
            "to": [ 9.0, 4.500000007450581, 9.0 ], 
            "faces": {
                "north": { "texture": "#2", "uv": [ 5.0, 11.0, 7.0, 15.50000000745058 ], "cullface": "north" },
                "east": { "texture": "#2", "uv": [ 4.0, 11.0, 6.0, 15.50000000745058 ] },
                "south": { "texture": "#2", "uv": [ 4.0, 11.0, 6.0, 15.50000000745058 ] },
                "west": { "texture": "#2", "uv": [ 4.0, 11.0, 6.0, 15.50000000745058 ] },
                "up": { "texture": "#2", "uv": [ 4.0, 9.0, 6.0, 11.0 ] },
                "down": { "texture": "#2", "uv": [ 5.0, 3.0, 7.0, 5.0 ] }
            }
        },
        {
            "name": "Cube",
            "from": [ 7.300000004470348, 4.0, 7.300000004470348 ], 
            "to": [ 8.700000010430813, 8.0, 8.700000010430813 ], 
            "rotation": { "origin": [ 8.0, 8.0, 8.0 ], "axis": "y", "angle": 22.5 },
            "faces": {
                "north": { "texture": "#3", "uv": [ 3.0, 7.0, 4.4000000059604645, 11.0 ] },
                "east": { "texture": "#3", "uv": [ 4.0, 5.0, 5.4000000059604645, 9.0 ] },
                "south": { "texture": "#3", "uv": [ 13.0, 4.0, 14.400000005960464, 8.0 ] },
                "west": { "texture": "#3", "uv": [ 3.0, 7.0, 4.4000000059604645, 11.0 ] },
                "up": { "texture": "#3", "uv": [ 5.0, 11.0, 6.4000000059604645, 12.400000005960464 ] },
                "down": { "texture": "#3", "uv": [ 3.0, 5.0, 4.4000000059604645, 6.4000000059604645 ] }
            }
        },
        {
            "name": "Cube",
            "from": [ 8.000000014901161, 7.5999999940395355, 8.000000014901161 ], 
            "to": [ 8.100000016391277, 8.599999994039536, 8.100000016391277 ], 
            "faces": {
                "north": { "texture": "#0", "uv": [ 15.0, 9.0, 15.100000001490116, 10.0 ] },
                "east": { "texture": "#0", "uv": [ 15.0, 13.0, 15.100000001490116, 14.0 ] },
                "south": { "texture": "#0", "uv": [ 15.0, 10.0, 15.100000001490116, 11.0 ] },
                "west": { "texture": "#0", "uv": [ 15.0, 9.0, 15.100000001490116, 10.0 ] },
                "up": { "texture": "#0", "uv": [ 15.0, 8.0, 15.100000001490116, 8.100000001490116 ] },
                "down": { "texture": "#0", "uv": [ 15.0, 13.0, 15.100000001490116, 13.100000001490116 ] }
            }
        },
        {
            "name": "Cube",
            "from": [ 8.999999985098839, 3.0, 7.700000010430813 ], 
            "to": [ 9.499999962747097, 3.4999999925494194, 8.300000004470348 ], 
            "faces": {
                "north": { "texture": "#0", "uv": [ 9.0, 15.0, 9.499999977648258, 15.49999999254942 ] },
                "east": { "texture": "#0", "uv": [ 12.0, 15.0, 12.499999994039536, 15.49999999254942 ] },
                "south": { "texture": "#0", "uv": [ 11.0, 15.0, 11.499999977648258, 15.49999999254942 ] },
                "west": { "texture": "#0", "uv": [ 0.0, 3.0, 0.49999999403953554, 3.4999999925494194 ] },
                "up": { "texture": "#0", "uv": [ 8.0, 10.0, 8.499999977648258, 10.499999994039536 ] },
                "down": { "texture": "#0", "uv": [ 0.0, 0.0, 2.0, 0.49999999403953554 ] }
            }
        },
        {
            "name": "Cube",
            "from": [ 9.999999985098839, 1.0, 7.700000010430813 ], 
            "to": [ 10.999999985098839, 1.4999999925494194, 8.300000004470348 ], 
            "faces": {
                "north": { "texture": "#0", "uv": [ 9.0, 15.0, 10.0, 15.49999999254942 ] },
                "east": { "texture": "#0", "uv": [ 12.0, 15.0, 12.499999994039536, 15.49999999254942 ] },
                "south": { "texture": "#0", "uv": [ 11.0, 15.0, 12.0, 15.49999999254942 ] },
                "west": { "texture": "#0", "uv": [ 0.0, 3.0, 0.49999999403953554, 3.4999999925494194 ] },
                "up": { "texture": "#0", "uv": [ 8.0, 10.0, 9.0, 10.499999994039536 ] },
                "down": { "texture": "#0", "uv": [ 0.0, 0.0, 2.0, 0.49999999403953554 ] }
            }
        },
        {
            "name": "Cube",
            "from": [ 10.999999985098839, 1.4999999925494194, 7.700000010430813 ], 
            "to": [ 11.499999977648258, 3.4999999925494194, 8.300000004470348 ], 
            "faces": {
                "north": { "texture": "#0", "uv": [ 15.0, 10.0, 15.49999999254942, 12.0 ] },
                "east": { "texture": "#0", "uv": [ 15.0, 10.0, 15.499999994039536, 12.0 ] },
                "south": { "texture": "#0", "uv": [ 15.0, 11.0, 15.49999999254942, 13.0 ] },
                "west": { "texture": "#0", "uv": [ 15.0, 12.0, 15.499999994039536, 14.0 ] },
                "up": { "texture": "#0", "uv": [ 7.0, 6.0, 7.499999992549419, 6.499999994039536 ] },
                "down": { "texture": "#0", "uv": [ 15.0, 12.0, 15.49999999254942, 12.499999994039536 ] }
            }
        },
        {
            "name": "Cube",
            "from": [ 9.49999999254942, 2.999999985098839, 7.700000010430813 ], 
            "to": [ 9.999999985098839, 3.9999999701976776, 8.300000004470348 ], 
            "faces": {
                "north": { "texture": "#0", "uv": [ 15.0, 10.0, 15.49999999254942, 10.999999985098839 ] },
                "east": { "texture": "#0", "uv": [ 15.0, 10.0, 15.499999994039536, 12.0 ] },
                "south": { "texture": "#0", "uv": [ 15.0, 11.0, 15.49999999254942, 11.999999985098839 ] },
                "west": { "texture": "#0", "uv": [ 15.0, 12.0, 15.499999994039536, 14.0 ] },
                "up": { "texture": "#0", "uv": [ 9.0, 8.0, 9.49999999254942, 8.499999994039536 ] },
                "down": { "texture": "#0", "uv": [ 15.0, 12.0, 15.49999999254942, 12.499999994039536 ] }
            }
        },
        {
            "name": "Cube",
            "from": [ 10.0, 3.499999977648258, 7.700000010430813 ], 
            "to": [ 10.999999985098839, 3.9999999701976776, 8.300000004470348 ], 
            "faces": {
                "north": { "texture": "#0", "uv": [ 9.0, 15.0, 9.999999985098839, 15.49999999254942 ] },
                "east": { "texture": "#0", "uv": [ 11.0, 14.0, 11.499999994039536, 14.49999999254942 ] },
                "south": { "texture": "#0", "uv": [ 11.0, 15.0, 11.999999985098839, 15.49999999254942 ] },
                "west": { "texture": "#0", "uv": [ 0.0, 0.0, 0.4999999940395359, 0.4999999925494194 ] },
                "up": { "texture": "#0", "uv": [ 13.0, 9.0, 13.999999985098839, 9.499999994039536 ] },
                "down": { "texture": "#0", "uv": [ 0.0, 0.0, 2.0, 0.49999999403953554 ] }
            }
        }
    ]
}