{
	"__comment": "Designed by DeChoppy with cubik - All rights reserved",
	"parent": "block/block",
	"textures": {
		"particle": "conquest:blocks/clothes/whiterobe",
		"0": "conquest:blocks/clothes/coathook",
		"1": "conquest:blocks/chest_planks",
		"wrobe": "conquest:blocks/clothes/whiterobe",
		"rag": "conquest:blocks/clothes/cloak3",
		"greencoat": "conquest:blocks/clothes/greencoat",
		"keys": "conquest:blocks/clothes/keys"
	},
	"elements": [ 	 
		{
			"from": [ 0, 8, 0 ],
			"to": [ 16, 16, 1 ],
			"faces": {
				"down": { "uv": [ 0, 0, 16, 1 ], "texture": "#0" },
				"up": { "uv": [ 0, 16, 16, 15 ], "texture": "#0" },
				"north": { "uv": [ 0, 8, 16, 16 ], "texture": "#0" },
				"south": { "uv": [ 0, 8, 16, 16 ], "texture": "#0" },
				"west": { "uv": [ 0, 0, 1, 8 ], "texture": "#0" },
				"east": { "uv": [ 1, 0, 0, 8 ], "texture": "#0" }
			}
		},
		{
			"from": [ 0, 15, 1 ],
			"to": [ 16, 16, 8 ],
			"faces": {
				"down": { "uv": [ 0, 7.5, 16, 14.5 ], "texture": "#1" },
				"up": { "uv": [ 0, 9, 16, 16 ], "texture": "#1" },
				"north": { "uv": [ 0, 0, 16, 1 ], "texture": "#1" },
				"south": { "uv": [ 0, 0, 16, 1 ], "texture": "#1" },
				"west": { "uv": [ 1, 0, 8, 1 ], "texture": "#0" },
				"east": { "uv": [ 0.5, 0, 7.5, 1 ], "texture": "#0" }
			}
		},
		{
			"from": [ 0, 9, 1 ],
			"to": [ 0.001, 15, 7 ],
			"faces": {
				"down": { "uv": [ 0, 0, 0, 6 ], "texture": "#0" },
				"up": { "uv": [ 0, 0, 0, 6 ], "texture": "#0" },
				"north": { "uv": [ 0, 0, 0, 6 ], "texture": "#0" },
				"south": { "uv": [ 0, 0, 0, 6 ], "texture": "#0" },
				"west": { "uv": [ 1, 1, 7, 7 ], "texture": "#0" },
				"east": { "uv": [ 7, 1, 1, 7 ], "texture": "#0" }
			}
		},
		{
			"from": [ 16, 9, 1 ],
			"to": [ 16.001, 15, 7 ],
			"faces": {
				"down": { "uv": [ 0, 0, 0, 6 ], "texture": "#0" },
				"up": { "uv": [ 0, 0, 0, 6 ], "texture": "#0" },
				"north": { "uv": [ 0, 0, 0, 6 ], "texture": "#0" },
				"south": { "uv": [ 0, 0, 0, 6 ], "texture": "#0" },
				"west": { "uv": [ 1, 1, 7, 7 ], "texture": "#0" },
				"east": { "uv": [ 7, 1.5, 1, 7.5 ], "texture": "#0" }
			}
		},
		{
			"from": [ 2, 12, 1 ],
			"to": [ 3, 13, 2 ],
			"faces": {
				"down": { "uv": [ 0, 0, 1, 1 ], "texture": "#0" },
				"up": { "uv": [ 0, 0, 1, 1 ], "texture": "#0" },
				"north": { "uv": [ 0, 0, 1, 1 ], "texture": "#0" },
				"south": { "uv": [ 0, 0, 1, 1 ], "texture": "#0" },
				"west": { "uv": [ 0, 0, 1, 1 ], "texture": "#0" },
				"east": { "uv": [ 0, 0, 1, 1 ], "texture": "#0" }
			}
		},
		{
			"from": [ 13, 12, 1 ],
			"to": [ 14, 13, 2 ],
			"faces": {
				"down": { "uv": [ 0, 0, 1, 1 ], "texture": "#0" },
				"up": { "uv": [ 0, 0, 1, 1 ], "texture": "#0" },
				"north": { "uv": [ 0, 0, 1, 1 ], "texture": "#0" },
				"south": { "uv": [ 0, 0, 1, 1 ], "texture": "#0" },
				"west": { "uv": [ 0, 0, 1, 1 ], "texture": "#0" },
				"east": { "uv": [ 0, 0, 1, 1 ], "texture": "#0" }
			}
		},
		{
			"from": [ 7.5, 12, 1 ],
			"to": [ 8.5, 13, 2 ],
			"faces": {
				"down": { "uv": [ 0, 0, 1, 1 ], "texture": "#0" },
				"up": { "uv": [ 0, 0, 1, 1 ], "texture": "#0" },
				"north": { "uv": [ 0, 0, 1, 1 ], "texture": "#0" },
				"south": { "uv": [ 0, 0, 1, 1 ], "texture": "#0" },
				"west": { "uv": [ 0, 0, 1, 1 ], "texture": "#0" },
				"east": { "uv": [ 0, 0, 1, 1 ], "texture": "#0" }
			}
		}
	]
}