{
"parent": "block/parent_verticalslab",
"textures": {
    "texture": "blocks/hardened_clay_stained_red",
	"top": "blocks/hardened_clay_stained_red",
	"bottom": "blocks/hardened_clay_stained_red"
	}
}	