{
"parent": "block/parent_verticalslab",
"textures": {
    "texture": "blocks/hardened_clay_stained_gray",
	"top": "blocks/hardened_clay_stained_gray",
	"bottom": "blocks/hardened_clay_stained_gray"
	}
}	