{
"textures": {
    "particle": "blocks/iron_bars",
    "bars": "conquest:blocks/ironbar13birchforest",
    "bars1": "conquest:blocks/ironbar13birchforest_top"
},
"elements": [ 
{
    "from": [ 15.0475, 16, 0 ],
    "to": [ 16, 32, 16 ],
    "faces": {
        "west":  { "uv": [ 0, 0, 16, 16 ], "texture": "#bars1" },
        "east":  { "uv": [ 16, 0, 0, 16 ], "texture": "#bars1" }
    }
},
{
    "from": [ 15.0475, 0, 0 ],
    "to": [ 16, 16, 16 ],
    "faces": {
        "west":  { "uv": [ 0, 0, 16, 16 ], "texture": "#bars" },
        "east":  { "uv": [ 16, 0, 0, 16 ], "texture": "#bars" }
    }
}
]
}