{
    "__comment": "Designed by RomanCapitalist with Cubik Studio - https://cubik.studio",
    "textures": {
        "particle": "conquest:blocks/ironbar10frozenocean",
        "texture": "conquest:blocks/ironbar10frozenocean"
    },
    "elements": [
        {
            "__comment": "PlaneY1",
            "from": [ 7.9996, 0, 0.0004 ],
            "to": [ 8.0006, 16, 11.3154 ],
            "rotation": { "origin": [ 8, 0, 0 ], "axis": "y", "angle": 45 },
            "faces": {
                "west": { "uv": [ 0, 16, 16, 0 ], "texture": "#texture", "rotation": 180 },
                "east": { "uv": [ 16, 16, 0, 0 ], "texture": "#texture", "rotation": 180 }
            }
        }
    ]
}