{
"textures": {
    "particle": "blocks/iron_bars",
    "bars": "conquest:blocks/web12coldtaiga2",
    "edge": "blocks/iron_bars"
},
"elements": [ 
{
    "from": [ 8, 0, 0 ],
    "to": [ 8.0625, 16, 8 ],
    "faces": {
        "west":  { "uv": [ 8, 0, 16, 16 ], "texture": "#bars" },
        "east":  { "uv": [ 8, 0, 16, 16 ], "texture": "#bars" }
    }
}
]
}