{
    "ambientocclusion": false,
    "textures": {
        "particle": "conquest:blocks/ironbar12plains",
        "vine": "conquest:blocks/ironbar12plains"
    },
    "elements": [
        {   "from": [ 0, 15.2, 0 ],
            "to": [ 16, 15.2, 16 ],
            "shade": false,
            "faces": {
                "down":  { "uv": [ 0, 0, 16, 16 ], "texture": "#vine", "tintindex": 0 },
                "up":    { "uv": [ 0, 0, 16, 16 ], "texture": "#vine", "tintindex": 0 }
            }
        }
    ]
}
