{
	"__comment": "Designed by Jugbot with BDcraft Cubik PRO 0.96 Beta - http://bdcraft.net",
	"textures": {
		"particle": "conquest:blocks/ironblock5_straight",
		"cap": "conquest:blocks/iron_grate",
		"side": "conquest:blocks/ironblock5_straight"
	},
	"elements": [
		{
			"__comment": "iron_stairs",
			"from": [ 15, 6.125, 10.125 ],
			"to": [ 16, 10.125, 21.4387 ],
			"rotation": { "origin": [ 15, 10.125, 10.125 ], "axis": "x", "angle": 45 },
			"shade": false,
			"faces": {
				"down": { "uv": [ 3, 5, 4, 16 ], "texture": "#side" },
				"up": { "uv": [ 7.5, 5, 8.5, 16 ], "texture": "#side" },
				"north": { "uv": [ 1.5, 6.5, 2.5, 10.5 ], "texture": "#side" },
				"south": { "uv": [ 1.5, 6.5, 2.5, 10.5 ], "texture": "#side" },
				"west": { "uv": [ 8.5, 0, 12.5, 11 ], "texture": "#side", "rotation": 90 },
				"east": { "uv": [ 3.5, 0, 7.5, 11 ], "texture": "#side", "rotation": 270 }
			}
		},
		{
			"__comment": "iron_stairs",
			"from": [ 15, 14.125, 2.125 ],
			"to": [ 16, 18.125, 13.4387 ],
			"rotation": { "origin": [ 15, 18.125, 2.125 ], "axis": "x", "angle": 45 },
			"shade": false,
			"faces": {
				"down": { "uv": [ 3, 5, 4, 16 ], "texture": "#side" },
				"up": { "uv": [ 7.5, 5, 8.5, 16 ], "texture": "#side" },
				"north": { "uv": [ 1.5, 6.5, 2.5, 10.5 ], "texture": "#side" },
				"south": { "uv": [ 1.5, 6.5, 2.5, 10.5 ], "texture": "#side" },
				"west": { "uv": [ 8.5, 0, 12.5, 11 ], "texture": "#side", "rotation": 90 },
				"east": { "uv": [ 3.5, 0, 7.5, 11 ], "texture": "#side", "rotation": 270 }
			}
		},
		{
			"__comment": "iron_stairs",
			"from": [ 0, 6.125, 10.125 ],
			"to": [ 1, 10.125, 21.4387 ],
			"rotation": { "origin": [ 0, 10.125, 10.125 ], "axis": "x", "angle": 45 },
			"shade": false,
			"faces": {
				"down": { "uv": [ 3, 5, 4, 16 ], "texture": "#side" },
				"up": { "uv": [ 7.5, 5, 8.5, 16 ], "texture": "#side" },
				"north": { "uv": [ 1.5, 6.5, 2.5, 10.5 ], "texture": "#side" },
				"south": { "uv": [ 1.5, 6.5, 2.5, 10.5 ], "texture": "#side" },
				"west": { "uv": [ 8.5, 0, 12.5, 11 ], "texture": "#side", "rotation": 90 },
				"east": { "uv": [ 3.5, 0, 7.5, 11 ], "texture": "#side", "rotation": 270 }
			}
		},
		{
			"__comment": "iron_stairs",
			"from": [ 0, 14.125, 2.125 ],
			"to": [ 1, 18.125, 13.4387 ],
			"rotation": { "origin": [ 0, 18.125, 2.125 ], "axis": "x", "angle": 45 },
			"shade": false,
			"faces": {
				"down": { "uv": [ 3, 5, 4, 16 ], "texture": "#side" },
				"up": { "uv": [ 7.5, 5, 8.5, 16 ], "texture": "#side" },
				"north": { "uv": [ 1.5, 6.5, 2.5, 10.5 ], "texture": "#side" },
				"south": { "uv": [ 1.5, 6.5, 2.5, 10.5 ], "texture": "#side" },
				"west": { "uv": [ 8.5, 0, 12.5, 11 ], "texture": "#side", "rotation": 90 },
				"east": { "uv": [ 3.5, 0, 7.5, 11 ], "texture": "#side", "rotation": 270 }
			}
		},
		{
			"__comment": "iron_stairs (step)",
			"from": [ 8.5, 3, 16 ],
			"to": [ 14.5, 4, 16.5 ],
			"faces": {
				"down": { "uv": [ 1.5, 12, 7.5, 12.5 ], "texture": "#cap" },
				"up": { "uv": [ 1.5, 4, 7.5, 4.5 ], "texture": "#cap" },
				"north": { "uv": [ 0, 0, 1, 6 ], "texture": "#side", "rotation": 90 },
				"south": { "uv": [ 0, 0, 1, 6 ], "texture": "#side", "rotation": 90 },
				"west": { "uv": [ 0, 4.5, 1, 5 ], "texture": "#side", "rotation": 90 },
				"east": { "uv": [ 15, 3, 16, 3.5 ], "texture": "#side", "rotation": 90 }
			}
		},
		{
			"__comment": "iron_stairs (step)1",
			"from": [ 14.5, 3, 12 ],
			"to": [ 15, 4, 16.5 ],
			"faces": {
				"down": { "uv": [ 0, 0, 0.5, 4.5 ], "texture": "#cap", "rotation": 180 },
				"up": { "uv": [ 0, 0, 0.5, 4.5 ], "texture": "#cap", "rotation": 180 },
				"north": { "uv": [ 15, 4, 16, 4.5 ], "texture": "#side", "rotation": 90 },
				"south": { "uv": [ 0, 4, 1, 4.5 ], "texture": "#side", "rotation": 90 },
				"west": { "uv": [ 0, 0, 1, 4.5 ], "texture": "#side", "rotation": 90 },
				"east": { "uv": [ 0, 0, 1, 4.5 ], "texture": "#side", "rotation": 90 }
			}
		},
		{
			"__comment": "iron_stairs (step)2",
			"from": [ 1.5, 3, 12.5 ],
			"to": [ 7.5, 3.001, 16 ],
			"faces": {
				"down": { "uv": [ 1.5, 10.5, 7.5, 14 ], "texture": "#cap" },
				"up": { "uv": [ 8.5, 9.5, 14.5, 13 ], "texture": "#cap" }
			}
		},
		{
			"__comment": "iron_stairs (step)3",
			"from": [ 8.5, 3, 12.5 ],
			"to": [ 14.5, 3.001, 16 ],
			"faces": {
				"down": { "uv": [ 1.5, 9.5, 7.5, 13 ], "texture": "#cap" },
				"up": { "uv": [ 8.5, 4.5, 14.5, 8 ], "texture": "#cap" }
			}
		},
		{
			"__comment": "iron_stairs (step)4",
			"from": [ 7.5, 3, 12 ],
			"to": [ 8.5, 4, 16.5 ],
			"faces": {
				"down": { "uv": [ 7.5, 7, 8.5, 11.5 ], "texture": "#cap" },
				"up": { "uv": [ 7.5, 4, 8.5, 8.5 ], "texture": "#cap" },
				"north": { "uv": [ 0, 2, 1, 3 ], "texture": "#side", "rotation": 90 },
				"south": { "uv": [ 0, 10.5, 1, 11.5 ], "texture": "#side", "rotation": 90 },
				"west": { "uv": [ 0, 0, 1, 4.5 ], "texture": "#side", "rotation": 90 },
				"east": { "uv": [ 0, 0, 1, 4.5 ], "texture": "#side", "rotation": 90 }
			}
		},
		{
			"__comment": "iron_stairs (step)5",
			"from": [ 1, 3, 12 ],
			"to": [ 1.5, 4, 16.5 ],
			"faces": {
				"down": { "uv": [ 0, 0, 0.5, 4.5 ], "texture": "#cap", "rotation": 180 },
				"up": { "uv": [ 0, 0, 0.5, 4.5 ], "texture": "#cap", "rotation": 180 },
				"north": { "uv": [ 15, 4, 16, 4.5 ], "texture": "#side", "rotation": 90 },
				"south": { "uv": [ 0, 4, 1, 4.5 ], "texture": "#side", "rotation": 90 },
				"west": { "uv": [ 0, 0, 1, 4.5 ], "texture": "#side", "rotation": 90 },
				"east": { "uv": [ 0, 0, 1, 4.5 ], "texture": "#side", "rotation": 90 }
			}
		},
		{
			"__comment": "iron_stairs (step)6",
			"from": [ 1.5, 3, 16 ],
			"to": [ 7.5, 4, 16.5 ],
			"faces": {
				"down": { "uv": [ 1.5, 12, 7.5, 12.5 ], "texture": "#cap" },
				"up": { "uv": [ 1.5, 4, 7.5, 4.5 ], "texture": "#cap" },
				"north": { "uv": [ 0, 0, 1, 6 ], "texture": "#side", "rotation": 90 },
				"south": { "uv": [ 0, 0, 1, 6 ], "texture": "#side", "rotation": 90 },
				"west": { "uv": [ 0, 4.5, 1, 5 ], "texture": "#side", "rotation": 90 },
				"east": { "uv": [ 15, 3, 16, 3.5 ], "texture": "#side", "rotation": 90 }
			}
		},
		{
			"__comment": "iron_stairs (step)7",
			"from": [ 8.5, 3, 12 ],
			"to": [ 14.5, 4, 12.5 ],
			"faces": {
				"down": { "uv": [ 1.5, 12, 7.5, 12.5 ], "texture": "#cap" },
				"up": { "uv": [ 1.5, 4, 7.5, 4.5 ], "texture": "#cap" },
				"north": { "uv": [ 0, 0, 1, 6 ], "texture": "#side", "rotation": 90 },
				"south": { "uv": [ 0, 0, 1, 6 ], "texture": "#side", "rotation": 90 },
				"west": { "uv": [ 0, 4.5, 1, 5 ], "texture": "#side", "rotation": 90 },
				"east": { "uv": [ 15, 3, 16, 3.5 ], "texture": "#side", "rotation": 90 }
			}
		},
		{
			"__comment": "iron_stairs (step)8",
			"from": [ 1.5, 3, 12 ],
			"to": [ 7.5, 4, 12.5 ],
			"faces": {
				"down": { "uv": [ 1.5, 12, 7.5, 12.5 ], "texture": "#cap" },
				"up": { "uv": [ 1.5, 4, 7.5, 4.5 ], "texture": "#cap" },
				"north": { "uv": [ 0, 0, 1, 6 ], "texture": "#side", "rotation": 90 },
				"south": { "uv": [ 0, 0, 1, 6 ], "texture": "#side", "rotation": 90 },
				"west": { "uv": [ 0, 4.5, 1, 5 ], "texture": "#side", "rotation": 90 },
				"east": { "uv": [ 15, 3, 16, 3.5 ], "texture": "#side", "rotation": 90 }
			}
		},
		{
			"__comment": "iron_stairs (step)9",
			"from": [ 8.5, 4, 12.5 ],
			"to": [ 14.5, 4.001, 16 ],
			"faces": {
				"down": { "uv": [ 8.5, 7.5, 14.5, 11 ], "texture": "#cap" },
				"up": { "uv": [ 1.5, 4.5, 7.5, 8 ], "texture": "#cap" }
			}
		},
		{
			"__comment": "iron_stairs (step)10",
			"from": [ 1.5, 4, 12.5 ],
			"to": [ 7.5, 4.001, 16 ],
			"faces": {
				"down": { "uv": [ 8.5, 10.5, 14.5, 14 ], "texture": "#cap" },
				"up": { "uv": [ 1.5, 4.5, 7.5, 8 ], "texture": "#cap" }
			}
		},
		{
			"__comment": "iron_stairs (step)",
			"from": [ 8.5, 11, 8 ],
			"to": [ 14.5, 12, 8.5 ],
			"faces": {
				"down": { "uv": [ 1.5, 12, 7.5, 12.5 ], "texture": "#cap" },
				"up": { "uv": [ 1.5, 4, 7.5, 4.5 ], "texture": "#cap" },
				"north": { "uv": [ 0, 0, 1, 6 ], "texture": "#side", "rotation": 90 },
				"south": { "uv": [ 0, 0, 1, 6 ], "texture": "#side", "rotation": 90 },
				"west": { "uv": [ 0, 4.5, 1, 5 ], "texture": "#side", "rotation": 90 },
				"east": { "uv": [ 15, 3, 16, 3.5 ], "texture": "#side", "rotation": 90 }
			}
		},
		{
			"__comment": "iron_stairs (step)1",
			"from": [ 14.5, 11, 4 ],
			"to": [ 15, 12, 8.5 ],
			"faces": {
				"down": { "uv": [ 0, 0, 0.5, 4.5 ], "texture": "#cap", "rotation": 180 },
				"up": { "uv": [ 0, 0, 0.5, 4.5 ], "texture": "#cap", "rotation": 180 },
				"north": { "uv": [ 15, 4, 16, 4.5 ], "texture": "#side", "rotation": 90 },
				"south": { "uv": [ 0, 4, 1, 4.5 ], "texture": "#side", "rotation": 90 },
				"west": { "uv": [ 0, 0, 1, 4.5 ], "texture": "#side", "rotation": 90 },
				"east": { "uv": [ 0, 0, 1, 4.5 ], "texture": "#side", "rotation": 90 }
			}
		},
		{
			"__comment": "iron_stairs (step)2",
			"from": [ 1.5, 11, 4.5 ],
			"to": [ 7.5, 11.001, 8 ],
			"faces": {
				"down": { "uv": [ 1.5, 10.5, 7.5, 14 ], "texture": "#cap" },
				"up": { "uv": [ 8.5, 9.5, 14.5, 13 ], "texture": "#cap" }
			}
		},
		{
			"__comment": "iron_stairs (step)3",
			"from": [ 8.5, 11, 4.5 ],
			"to": [ 14.5, 11.001, 8 ],
			"faces": {
				"down": { "uv": [ 1.5, 9.5, 7.5, 13 ], "texture": "#cap" },
				"up": { "uv": [ 8.5, 4.5, 14.5, 8 ], "texture": "#cap" }
			}
		},
		{
			"__comment": "iron_stairs (step)4",
			"from": [ 7.5, 11, 4 ],
			"to": [ 8.5, 12, 8.5 ],
			"faces": {
				"down": { "uv": [ 7.5, 7, 8.5, 11.5 ], "texture": "#cap" },
				"up": { "uv": [ 7.5, 4, 8.5, 8.5 ], "texture": "#cap" },
				"north": { "uv": [ 0, 2, 1, 3 ], "texture": "#side", "rotation": 90 },
				"south": { "uv": [ 0, 10.5, 1, 11.5 ], "texture": "#side", "rotation": 90 },
				"west": { "uv": [ 0, 0, 1, 4.5 ], "texture": "#side", "rotation": 90 },
				"east": { "uv": [ 0, 0, 1, 4.5 ], "texture": "#side", "rotation": 90 }
			}
		},
		{
			"__comment": "iron_stairs (step)5",
			"from": [ 1, 11, 4 ],
			"to": [ 1.5, 12, 8.5 ],
			"faces": {
				"down": { "uv": [ 0, 0, 0.5, 4.5 ], "texture": "#cap", "rotation": 180 },
				"up": { "uv": [ 0, 0, 0.5, 4.5 ], "texture": "#cap", "rotation": 180 },
				"north": { "uv": [ 15, 4, 16, 4.5 ], "texture": "#side", "rotation": 90 },
				"south": { "uv": [ 0, 4, 1, 4.5 ], "texture": "#side", "rotation": 90 },
				"west": { "uv": [ 0, 0, 1, 4.5 ], "texture": "#side", "rotation": 90 },
				"east": { "uv": [ 0, 0, 1, 4.5 ], "texture": "#side", "rotation": 90 }
			}
		},
		{
			"__comment": "iron_stairs (step)6",
			"from": [ 1.5, 11, 8 ],
			"to": [ 7.5, 12, 8.5 ],
			"faces": {
				"down": { "uv": [ 1.5, 12, 7.5, 12.5 ], "texture": "#cap" },
				"up": { "uv": [ 1.5, 4, 7.5, 4.5 ], "texture": "#cap" },
				"north": { "uv": [ 0, 0, 1, 6 ], "texture": "#side", "rotation": 90 },
				"south": { "uv": [ 0, 0, 1, 6 ], "texture": "#side", "rotation": 90 },
				"west": { "uv": [ 0, 4.5, 1, 5 ], "texture": "#side", "rotation": 90 },
				"east": { "uv": [ 15, 3, 16, 3.5 ], "texture": "#side", "rotation": 90 }
			}
		},
		{
			"__comment": "iron_stairs (step)7",
			"from": [ 8.5, 11, 4 ],
			"to": [ 14.5, 12, 4.5 ],
			"faces": {
				"down": { "uv": [ 1.5, 12, 7.5, 12.5 ], "texture": "#cap" },
				"up": { "uv": [ 1.5, 4, 7.5, 4.5 ], "texture": "#cap" },
				"north": { "uv": [ 0, 0, 1, 6 ], "texture": "#side", "rotation": 90 },
				"south": { "uv": [ 0, 0, 1, 6 ], "texture": "#side", "rotation": 90 },
				"west": { "uv": [ 0, 4.5, 1, 5 ], "texture": "#side", "rotation": 90 },
				"east": { "uv": [ 15, 3, 16, 3.5 ], "texture": "#side", "rotation": 90 }
			}
		},
		{
			"__comment": "iron_stairs (step)8",
			"from": [ 1.5, 11, 4 ],
			"to": [ 7.5, 12, 4.5 ],
			"faces": {
				"down": { "uv": [ 1.5, 12, 7.5, 12.5 ], "texture": "#cap" },
				"up": { "uv": [ 1.5, 4, 7.5, 4.5 ], "texture": "#cap" },
				"north": { "uv": [ 0, 0, 1, 6 ], "texture": "#side", "rotation": 90 },
				"south": { "uv": [ 0, 0, 1, 6 ], "texture": "#side", "rotation": 90 },
				"west": { "uv": [ 0, 4.5, 1, 5 ], "texture": "#side", "rotation": 90 },
				"east": { "uv": [ 15, 3, 16, 3.5 ], "texture": "#side", "rotation": 90 }
			}
		},
		{
			"__comment": "iron_stairs (step)9",
			"from": [ 8.5, 12, 4.5 ],
			"to": [ 14.5, 12.001, 8 ],
			"faces": {
				"down": { "uv": [ 8.5, 7.5, 14.5, 11 ], "texture": "#cap" },
				"up": { "uv": [ 1.5, 4.5, 7.5, 8 ], "texture": "#cap" }
			}
		},
		{
			"__comment": "iron_stairs (step)10",
			"from": [ 1.5, 12, 4.5 ],
			"to": [ 7.5, 12.001, 8 ],
			"faces": {
				"down": { "uv": [ 8.5, 10.5, 14.5, 14 ], "texture": "#cap" },
				"up": { "uv": [ 1.5, 4.5, 7.5, 8 ], "texture": "#cap" }
			}
		},
		{
			"__comment": "iron_stairs (step)",
			"from": [ 8.5, 15, 4 ],
			"to": [ 14.5, 16, 4.5 ],
			"faces": {
				"down": { "uv": [ 1.5, 12, 7.5, 12.5 ], "texture": "#cap" },
				"up": { "uv": [ 1.5, 4, 7.5, 4.5 ], "texture": "#cap" },
				"north": { "uv": [ 0, 0, 1, 6 ], "texture": "#side", "rotation": 90 },
				"south": { "uv": [ 0, 0, 1, 6 ], "texture": "#side", "rotation": 90 },
				"west": { "uv": [ 0, 4.5, 1, 5 ], "texture": "#side", "rotation": 90 },
				"east": { "uv": [ 15, 3, 16, 3.5 ], "texture": "#side", "rotation": 90 }
			}
		},
		{
			"__comment": "iron_stairs (step)1",
			"from": [ 14.5, 15, 0 ],
			"to": [ 15, 16, 4.5 ],
			"faces": {
				"down": { "uv": [ 0, 0, 0.5, 4.5 ], "texture": "#cap", "rotation": 180 },
				"up": { "uv": [ 0, 0, 0.5, 4.5 ], "texture": "#cap", "rotation": 180 },
				"north": { "uv": [ 15, 4, 16, 4.5 ], "texture": "#side", "rotation": 90 },
				"south": { "uv": [ 0, 4, 1, 4.5 ], "texture": "#side", "rotation": 90 },
				"west": { "uv": [ 0, 0, 1, 4.5 ], "texture": "#side", "rotation": 90 },
				"east": { "uv": [ 0, 0, 1, 4.5 ], "texture": "#side", "rotation": 90 }
			}
		},
		{
			"__comment": "iron_stairs (step)2",
			"from": [ 1.5, 15, 0.5 ],
			"to": [ 7.5, 15.001, 4 ],
			"faces": {
				"down": { "uv": [ 1.5, 10.5, 7.5, 14 ], "texture": "#cap" },
				"up": { "uv": [ 8.5, 9.5, 14.5, 13 ], "texture": "#cap" }
			}
		},
		{
			"__comment": "iron_stairs (step)3",
			"from": [ 8.5, 15, 0.5 ],
			"to": [ 14.5, 15.001, 4 ],
			"faces": {
				"down": { "uv": [ 1.5, 9.5, 7.5, 13 ], "texture": "#cap" },
				"up": { "uv": [ 8.5, 4.5, 14.5, 8 ], "texture": "#cap" }
			}
		},
		{
			"__comment": "iron_stairs (step)4",
			"from": [ 7.5, 15, 0 ],
			"to": [ 8.5, 16, 4.5 ],
			"faces": {
				"down": { "uv": [ 7.5, 7, 8.5, 11.5 ], "texture": "#cap" },
				"up": { "uv": [ 7.5, 4, 8.5, 8.5 ], "texture": "#cap" },
				"north": { "uv": [ 0, 2, 1, 3 ], "texture": "#side", "rotation": 90 },
				"south": { "uv": [ 0, 10.5, 1, 11.5 ], "texture": "#side", "rotation": 90 },
				"west": { "uv": [ 0, 0, 1, 4.5 ], "texture": "#side", "rotation": 90 },
				"east": { "uv": [ 0, 0, 1, 4.5 ], "texture": "#side", "rotation": 90 }
			}
		},
		{
			"__comment": "iron_stairs (step)5",
			"from": [ 1, 15, 0 ],
			"to": [ 1.5, 16, 4.5 ],
			"faces": {
				"down": { "uv": [ 0, 0, 0.5, 4.5 ], "texture": "#cap", "rotation": 180 },
				"up": { "uv": [ 0, 0, 0.5, 4.5 ], "texture": "#cap", "rotation": 180 },
				"north": { "uv": [ 15, 4, 16, 4.5 ], "texture": "#side", "rotation": 90 },
				"south": { "uv": [ 0, 4, 1, 4.5 ], "texture": "#side", "rotation": 90 },
				"west": { "uv": [ 0, 0, 1, 4.5 ], "texture": "#side", "rotation": 90 },
				"east": { "uv": [ 0, 0, 1, 4.5 ], "texture": "#side", "rotation": 90 }
			}
		},
		{
			"__comment": "iron_stairs (step)6",
			"from": [ 1.5, 15, 4 ],
			"to": [ 7.5, 16, 4.5 ],
			"faces": {
				"down": { "uv": [ 1.5, 12, 7.5, 12.5 ], "texture": "#cap" },
				"up": { "uv": [ 1.5, 4, 7.5, 4.5 ], "texture": "#cap" },
				"north": { "uv": [ 0, 0, 1, 6 ], "texture": "#side", "rotation": 90 },
				"south": { "uv": [ 0, 0, 1, 6 ], "texture": "#side", "rotation": 90 },
				"west": { "uv": [ 0, 4.5, 1, 5 ], "texture": "#side", "rotation": 90 },
				"east": { "uv": [ 15, 3, 16, 3.5 ], "texture": "#side", "rotation": 90 }
			}
		},
		{
			"__comment": "iron_stairs (step)7",
			"from": [ 8.5, 15, 0 ],
			"to": [ 14.5, 16, 0.5 ],
			"faces": {
				"down": { "uv": [ 1.5, 12, 7.5, 12.5 ], "texture": "#cap" },
				"up": { "uv": [ 1.5, 4, 7.5, 4.5 ], "texture": "#cap" },
				"north": { "uv": [ 0, 0, 1, 6 ], "texture": "#side", "rotation": 90 },
				"south": { "uv": [ 0, 0, 1, 6 ], "texture": "#side", "rotation": 90 },
				"west": { "uv": [ 0, 4.5, 1, 5 ], "texture": "#side", "rotation": 90 },
				"east": { "uv": [ 15, 3, 16, 3.5 ], "texture": "#side", "rotation": 90 }
			}
		},
		{
			"__comment": "iron_stairs (step)8",
			"from": [ 1.5, 15, 0 ],
			"to": [ 7.5, 16, 0.5 ],
			"faces": {
				"down": { "uv": [ 1.5, 12, 7.5, 12.5 ], "texture": "#cap" },
				"up": { "uv": [ 1.5, 4, 7.5, 4.5 ], "texture": "#cap" },
				"north": { "uv": [ 0, 0, 1, 6 ], "texture": "#side", "rotation": 90 },
				"south": { "uv": [ 0, 0, 1, 6 ], "texture": "#side", "rotation": 90 },
				"west": { "uv": [ 0, 4.5, 1, 5 ], "texture": "#side", "rotation": 90 },
				"east": { "uv": [ 15, 3, 16, 3.5 ], "texture": "#side", "rotation": 90 }
			}
		},
		{
			"__comment": "iron_stairs (step)9",
			"from": [ 8.5, 16, 0.5 ],
			"to": [ 14.5, 16.001, 4 ],
			"faces": {
				"down": { "uv": [ 8.5, 7.5, 14.5, 11 ], "texture": "#cap" },
				"up": { "uv": [ 1.5, 4.5, 7.5, 8 ], "texture": "#cap" }
			}
		},
		{
			"__comment": "iron_stairs (step)10",
			"from": [ 1.5, 16, 0.5 ],
			"to": [ 7.5, 16.001, 4 ],
			"faces": {
				"down": { "uv": [ 8.5, 10.5, 14.5, 14 ], "texture": "#cap" },
				"up": { "uv": [ 1.5, 4.5, 7.5, 8 ], "texture": "#cap" }
			}
		},
		{
			"__comment": "iron_stairs (step)",
			"from": [ 8.5, 7, 12 ],
			"to": [ 14.5, 8, 12.5 ],
			"faces": {
				"down": { "uv": [ 1.5, 12, 7.5, 12.5 ], "texture": "#cap" },
				"up": { "uv": [ 1.5, 4, 7.5, 4.5 ], "texture": "#cap" },
				"north": { "uv": [ 0, 0, 1, 6 ], "texture": "#side", "rotation": 90 },
				"south": { "uv": [ 0, 0, 1, 6 ], "texture": "#side", "rotation": 90 },
				"west": { "uv": [ 0, 4.5, 1, 5 ], "texture": "#side", "rotation": 90 },
				"east": { "uv": [ 15, 3, 16, 3.5 ], "texture": "#side", "rotation": 90 }
			}
		},
		{
			"__comment": "iron_stairs (step)1",
			"from": [ 14.5, 7, 8 ],
			"to": [ 15, 8, 12.5 ],
			"faces": {
				"down": { "uv": [ 0, 0, 0.5, 4.5 ], "texture": "#cap", "rotation": 180 },
				"up": { "uv": [ 0, 0, 0.5, 4.5 ], "texture": "#cap", "rotation": 180 },
				"north": { "uv": [ 15, 4, 16, 4.5 ], "texture": "#side", "rotation": 90 },
				"south": { "uv": [ 0, 4, 1, 4.5 ], "texture": "#side", "rotation": 90 },
				"west": { "uv": [ 0, 0, 1, 4.5 ], "texture": "#side", "rotation": 90 },
				"east": { "uv": [ 0, 0, 1, 4.5 ], "texture": "#side", "rotation": 90 }
			}
		},
		{
			"__comment": "iron_stairs (step)2",
			"from": [ 1.5, 7, 8.5 ],
			"to": [ 7.5, 7.001, 12 ],
			"faces": {
				"down": { "uv": [ 1.5, 10.5, 7.5, 14 ], "texture": "#cap" },
				"up": { "uv": [ 8.5, 9.5, 14.5, 13 ], "texture": "#cap" }
			}
		},
		{
			"__comment": "iron_stairs (step)3",
			"from": [ 8.5, 7, 8.5 ],
			"to": [ 14.5, 7.001, 12 ],
			"faces": {
				"down": { "uv": [ 1.5, 9.5, 7.5, 13 ], "texture": "#cap" },
				"up": { "uv": [ 8.5, 4.5, 14.5, 8 ], "texture": "#cap" }
			}
		},
		{
			"__comment": "iron_stairs (step)4",
			"from": [ 7.5, 7, 8 ],
			"to": [ 8.5, 8, 12.5 ],
			"faces": {
				"down": { "uv": [ 7.5, 7, 8.5, 11.5 ], "texture": "#cap" },
				"up": { "uv": [ 7.5, 4, 8.5, 8.5 ], "texture": "#cap" },
				"north": { "uv": [ 0, 2, 1, 3 ], "texture": "#side", "rotation": 90 },
				"south": { "uv": [ 0, 10.5, 1, 11.5 ], "texture": "#side", "rotation": 90 },
				"west": { "uv": [ 0, 0, 1, 4.5 ], "texture": "#side", "rotation": 90 },
				"east": { "uv": [ 0, 0, 1, 4.5 ], "texture": "#side", "rotation": 90 }
			}
		},
		{
			"__comment": "iron_stairs (step)5",
			"from": [ 1, 7, 8 ],
			"to": [ 1.5, 8, 12.5 ],
			"faces": {
				"down": { "uv": [ 0, 0, 0.5, 4.5 ], "texture": "#cap", "rotation": 180 },
				"up": { "uv": [ 0, 0, 0.5, 4.5 ], "texture": "#cap", "rotation": 180 },
				"north": { "uv": [ 15, 4, 16, 4.5 ], "texture": "#side", "rotation": 90 },
				"south": { "uv": [ 0, 4, 1, 4.5 ], "texture": "#side", "rotation": 90 },
				"west": { "uv": [ 0, 0, 1, 4.5 ], "texture": "#side", "rotation": 90 },
				"east": { "uv": [ 0, 0, 1, 4.5 ], "texture": "#side", "rotation": 90 }
			}
		},
		{
			"__comment": "iron_stairs (step)6",
			"from": [ 1.5, 7, 12 ],
			"to": [ 7.5, 8, 12.5 ],
			"faces": {
				"down": { "uv": [ 1.5, 12, 7.5, 12.5 ], "texture": "#cap" },
				"up": { "uv": [ 1.5, 4, 7.5, 4.5 ], "texture": "#cap" },
				"north": { "uv": [ 0, 0, 1, 6 ], "texture": "#side", "rotation": 90 },
				"south": { "uv": [ 0, 0, 1, 6 ], "texture": "#side", "rotation": 90 },
				"west": { "uv": [ 0, 4.5, 1, 5 ], "texture": "#side", "rotation": 90 },
				"east": { "uv": [ 15, 3, 16, 3.5 ], "texture": "#side", "rotation": 90 }
			}
		},
		{
			"__comment": "iron_stairs (step)7",
			"from": [ 8.5, 7, 8 ],
			"to": [ 14.5, 8, 8.5 ],
			"faces": {
				"down": { "uv": [ 1.5, 12, 7.5, 12.5 ], "texture": "#cap" },
				"up": { "uv": [ 1.5, 4, 7.5, 4.5 ], "texture": "#cap" },
				"north": { "uv": [ 0, 0, 1, 6 ], "texture": "#side", "rotation": 90 },
				"south": { "uv": [ 0, 0, 1, 6 ], "texture": "#side", "rotation": 90 },
				"west": { "uv": [ 0, 4.5, 1, 5 ], "texture": "#side", "rotation": 90 },
				"east": { "uv": [ 15, 3, 16, 3.5 ], "texture": "#side", "rotation": 90 }
			}
		},
		{
			"__comment": "iron_stairs (step)8",
			"from": [ 1.5, 7, 8 ],
			"to": [ 7.5, 8, 8.5 ],
			"faces": {
				"down": { "uv": [ 1.5, 12, 7.5, 12.5 ], "texture": "#cap" },
				"up": { "uv": [ 1.5, 4, 7.5, 4.5 ], "texture": "#cap" },
				"north": { "uv": [ 0, 0, 1, 6 ], "texture": "#side", "rotation": 90 },
				"south": { "uv": [ 0, 0, 1, 6 ], "texture": "#side", "rotation": 90 },
				"west": { "uv": [ 0, 4.5, 1, 5 ], "texture": "#side", "rotation": 90 },
				"east": { "uv": [ 15, 3, 16, 3.5 ], "texture": "#side", "rotation": 90 }
			}
		},
		{
			"__comment": "iron_stairs (step)9",
			"from": [ 8.5, 8, 8.5 ],
			"to": [ 14.5, 8.001, 12 ],
			"faces": {
				"down": { "uv": [ 8.5, 7.5, 14.5, 11 ], "texture": "#cap" },
				"up": { "uv": [ 1.5, 4.5, 7.5, 8 ], "texture": "#cap" }
			}
		},
		{
			"__comment": "iron_stairs (step)10",
			"from": [ 1.5, 8, 8.5 ],
			"to": [ 7.5, 8.001, 12 ],
			"faces": {
				"down": { "uv": [ 8.5, 10.5, 14.5, 14 ], "texture": "#cap" },
				"up": { "uv": [ 1.5, 4.5, 7.5, 8 ], "texture": "#cap" }
			}
		}
	]
}