{
"__comment": "Designed by Jugbot with BDcraft Cubik PRO 0.96 Beta - http://bdcraft.net",
"parent": "block/block",
"textures": {
    "particle": "conquest:blocks/ironblock5_straight",
    "cap": "conquest:blocks/iron_grate",
    "side": "conquest:blocks/ironblock5_straight"
},
"elements": [ 
{
    "__comment": "iron_railing_ur",
    "from": [ 15.0625, -11.5, 11.5 ],
    "to": [ 16.0625, 3.5, 12.5 ],
    "shade": false,
    "faces": {
        "down":  { "uv": [ -0.0625, 3.5, 0.9375, 4.5 ], "texture": "#side" },
        "up":    { "uv": [ 0, 3.5, 1, 4.5 ], "texture": "#side" },
        "north": { "uv": [ 0, 0, 1, 15 ], "texture": "#side" },
        "south": { "uv": [ 0, 0, 1, 15 ], "texture": "#side" },
        "west":  { "uv": [ 0, 0, 1, 15 ], "texture": "#side" },
        "east":  { "uv": [ 0, 0, 1, 15 ], "texture": "#side" }
    }
},
{
    "__comment": "iron_railing_ur",
    "from": [ 15.0625, -3.5, 3.5 ],
    "to": [ 16.0625, 11.5, 4.5 ],
    "shade": false,
    "faces": {
        "down":  { "uv": [ -0.0625, 3.5, 0.9375, 4.5 ], "texture": "#side" },
        "up":    { "uv": [ 0, 3.5, 1, 4.5 ], "texture": "#side" },
        "north": { "uv": [ 0, 0, 1, 15 ], "texture": "#side" },
        "south": { "uv": [ 0, 0, 1, 15 ], "texture": "#side" },
        "west":  { "uv": [ 0, 0, 1, 15 ], "texture": "#side" },
        "east":  { "uv": [ 0, 0, 1, 15 ], "texture": "#side" }
    }
},
{
    "__comment": "iron_railing_ur",
    "from": [ 15.125, 7, 0 ],
    "to": [ 16.125, 8, 11.3137 ],
    "shade": false,
    "rotation": { "origin": [ 15.125, 8, 0 ], "axis": "x", "angle": 45 },
    "faces": {
        "down":  { "uv": [ 0.5, 0, 1.5, 11 ], "texture": "#side" },
        "up":    { "uv": [ 7, 0, 8, 11 ], "texture": "#side" },
        "north": { "uv": [ 0, 0, 1, 1 ], "texture": "#side" },
        "south": { "uv": [ 0, 0, 1, 1 ], "texture": "#side" },
        "west":  { "uv": [ 0, 0, 1, 11 ], "rotation": 90, "texture": "#side" },
        "east":  { "uv": [ 0, 0, 1, 11 ], "rotation": 90, "texture": "#side" }
    }
},
{
    "__comment": "iron_railing_ur",
    "from": [ 15.125, -1, 8 ],
    "to": [ 16.125, 0, 19.3137 ],
    "shade": false,
    "rotation": { "origin": [ 15.125, 0, 8 ], "axis": "x", "angle": 45 },
    "faces": {
        "down":  { "uv": [ 0.5, 0, 1.5, 11 ], "texture": "#side" },
        "up":    { "uv": [ 7, 0, 8, 11 ], "texture": "#side" },
        "north": { "uv": [ 0, 0, 1, 1 ], "texture": "#side" },
        "south": { "uv": [ 0, 0, 1, 1 ], "texture": "#side" },
        "west":  { "uv": [ 0, 0, 1, 11 ], "rotation": 90, "texture": "#side" },
        "east":  { "uv": [ 0, 0, 1, 11 ], "rotation": 90, "texture": "#side" }
    }
},
{
    "__comment": "iron_railing_ur",
    "from": [ 15.125, 11, 0 ],
    "to": [ 16.125, 12, 11.3137 ],
    "shade": false,
    "rotation": { "origin": [ 15.125, 12, 0 ], "axis": "x", "angle": 45 },
    "faces": {
        "down":  { "uv": [ 0.5, 0, 1.5, 11 ], "texture": "#side" },
        "up":    { "uv": [ 7, 0, 8, 11 ], "texture": "#side" },
        "north": { "uv": [ 0, 0, 1, 1 ], "texture": "#side" },
        "south": { "uv": [ 0, 0, 1, 1 ], "texture": "#side" },
        "west":  { "uv": [ 0, 0, 1, 11 ], "rotation": 90, "texture": "#side" },
        "east":  { "uv": [ 0, 0, 1, 11 ], "rotation": 90, "texture": "#side" }
    }
},
{
    "__comment": "iron_railing_ur",
    "from": [ 15.125, 3, 8 ],
    "to": [ 16.125, 4, 19.3137 ],
    "shade": false,
    "rotation": { "origin": [ 15.125, 4, 8 ], "axis": "x", "angle": 45 },
    "faces": {
        "down":  { "uv": [ 0.5, 0, 1.5, 11 ], "texture": "#side" },
        "up":    { "uv": [ 7, 0, 8, 11 ], "texture": "#side" },
        "north": { "uv": [ 0, 0, 1, 1 ], "texture": "#side" },
        "south": { "uv": [ 0, 0, 1, 1 ], "texture": "#side" },
        "west":  { "uv": [ 0, 0, 1, 11 ], "rotation": 90, "texture": "#side" },
        "east":  { "uv": [ 0, 0, 1, 11 ], "rotation": 90, "texture": "#side" }
    }
},
{
    "__comment": "iron_railing_ur",
    "from": [ 15.125, 14.5, 0 ],
    "to": [ 16.125, 16, 11.3137 ],
    "shade": false,
    "rotation": { "origin": [ 15.125, 16, 0 ], "axis": "x", "angle": 45 },
    "faces": {
        "down":  { "uv": [ 0.5, 0, 1.5, 11 ], "texture": "#side" },
        "up":    { "uv": [ 7, 0, 8, 11 ], "texture": "#side" },
        "north": { "uv": [ 1, 0, 2, 1.5 ], "texture": "#side" },
        "south": { "uv": [ 1, 0, 2, 1.5 ], "texture": "#side" },
        "west":  { "uv": [ 0, 0, 1.5, 11 ], "rotation": 90, "texture": "#side" },
        "east":  { "uv": [ 0, 0, 1.5, 11 ], "rotation": 90, "texture": "#side" }
    }
},
{
    "__comment": "iron_railing_ur",
    "from": [ 15.125, 6.5, 8 ],
    "to": [ 16.125, 8, 19.3137 ],
    "shade": false,
    "rotation": { "origin": [ 15.125, 8, 8 ], "axis": "x", "angle": 45 },
    "faces": {
        "down":  { "uv": [ 0.5, 0, 1.5, 11 ], "texture": "#side" },
        "up":    { "uv": [ 7, 0, 8, 11 ], "texture": "#side" },
        "north": { "uv": [ 1, 0, 2, 1.5 ], "texture": "#side" },
        "south": { "uv": [ 1, 0, 2, 1.5 ], "texture": "#side" },
        "west":  { "uv": [ 0, 0, 1.5, 11 ], "rotation": 90, "texture": "#side" },
        "east":  { "uv": [ 0, 0, 1.5, 11 ], "rotation": 90, "texture": "#side" }
    }
}
]
}