{
"__comment": "Designed by Jugbot with BDcraft Cubik PRO 0.96 Beta - http://bdcraft.net",
"parent": "block/block",
"textures": {
    "particle": "conquest:blocks/planks_jungle",
    "texture": "conquest:blocks/planks_jungle"
},
"elements": [ 
{
    "__comment": "Railing_flat",
    "from": [ 0, 15, 0 ],
    "to": [ 1.5, 16, 16 ],
    "faces": {
        "down":  { "uv": [ 15, 16, 13.5, 0 ], "texture": "#texture" },
        "up":    { "uv": [ 2, 0, 3.5, 16 ], "texture": "#texture" },
        "north": { "uv": [ 14.5, 0, 16, 1 ], "texture": "#texture" },
        "south": { "uv": [ 0, 0, 1.5, 1 ], "texture": "#texture" },
        "west":  { "uv": [ 2.5, 0, 3.5, 16 ], "rotation": 90, "texture": "#texture" },
        "east":  { "uv": [ 5, 0, 6, 16 ], "rotation": 90, "texture": "#texture" }
    }
},
{
    "__comment": "Railing_flat",
    "from": [ 0, 0, 1.5 ],
    "to": [ 1, 15, 2.5 ],
    "faces": {
        "down":  { "uv": [ 16, 2.5, 15, 1.5 ], "texture": "#texture" },
        "up":    { "uv": [ 0, 1.5, 1, 2.5 ], "texture": "#texture" },
        "north": { "uv": [ 14, 1, 15, 16 ], "texture": "#texture" },
        "south": { "uv": [ 2, 1, 3, 16 ], "texture": "#texture" },
        "west":  { "uv": [ 1.5, 1, 2.5, 16 ], "texture": "#texture" },
        "east":  { "uv": [ 13.5, 1, 14.5, 16 ], "texture": "#texture" }
    }
},
{
    "__comment": "Railing_flat",
    "from": [ 0, 0, 5.5 ],
    "to": [ 1, 15, 6.5 ],
    "faces": {
        "down":  { "uv": [ 16, 6.5, 15, 5.5 ], "texture": "#texture" },
        "up":    { "uv": [ 0, 5.5, 1, 6.5 ], "texture": "#texture" },
        "north": { "uv": [ 14, 1, 15, 16 ], "texture": "#texture" },
        "south": { "uv": [ 0.5, 1, 1.5, 16 ], "texture": "#texture" },
        "west":  { "uv": [ 4.5, 1, 5.5, 16 ], "texture": "#texture" },
        "east":  { "uv": [ 10.5, 1, 11.5, 16 ], "texture": "#texture" }
    }
},
{
    "__comment": "Railing_flat",
    "from": [ 0, 0, 9.5 ],
    "to": [ 1, 15, 10.5 ],
    "faces": {
        "down":  { "uv": [ 16, 10.5, 15, 9.5 ], "texture": "#texture" },
        "up":    { "uv": [ 0, 9.5, 1, 10.5 ], "texture": "#texture" },
        "north": { "uv": [ 5.5, 1, 6.5, 16 ], "texture": "#texture" },
        "south": { "uv": [ 13, 1, 14, 16 ], "texture": "#texture" },
        "west":  { "uv": [ 9.5, 1, 10.5, 16 ], "texture": "#texture" },
        "east":  { "uv": [ 5.5, 1, 6.5, 16 ], "texture": "#texture" }
    }
},
{
    "__comment": "Railing_flat",
    "from": [ 0, 0, 13.5 ],
    "to": [ 1, 15, 14.5 ],
    "faces": {
        "down":  { "uv": [ 16, 14.5, 15, 13.5 ], "texture": "#texture" },
        "up":    { "uv": [ 0, 13.5, 1, 14.5 ], "texture": "#texture" },
        "north": { "uv": [ 13, 1, 14, 16 ], "texture": "#texture" },
        "south": { "uv": [ 5, 1, 6, 16 ], "texture": "#texture" },
        "west":  { "uv": [ 13.5, 1, 14.5, 16 ], "texture": "#texture" },
        "east":  { "uv": [ 1.5, 1, 2.5, 16 ], "texture": "#texture" }
    }
}
],
"display": {
    "gui": {
        "rotation": [ 30, -135, 0 ],
        "translation": [ -3.2, 0, 0 ],
        "scale": [ 0.62, 0.62, 0.62 ]
    }
}
}