{
"parent": "block/parent_verticalslab",
"textures": {
    "texture": "conquest:blocks/acacialog2jungle",
	"top": "conquest:blocks/acacialog2jungle",
	"bottom": "conquest:blocks/acacialog2jungle"
	}
}	