{
    "parent": "block/orientable",
    "textures": {
        "top": "conquest:blocks/furnacedesert_top",
        "front": "conquest:blocks/litfurnacedesert_front",
        "side": "conquest:blocks/furnacedesert_side"
    }
}
