{
    "parent": "block/outer_stairs",
    "textures": {
        "bottom": "conquest:blocks/log_beechmossy",
        "top": "conquest:blocks/log_beechmossy",
        "side": "conquest:blocks/log_beechmossy"
    }
}
