{
    "parent": "block/stairs",
    "textures": {
        "bottom": "conquest:blocks/log_goatsallow",
        "top": "conquest:blocks/log_goatsallow",
        "side": "conquest:blocks/log_goatsallow"
    }
}
