{
    "parent": "block/outer_stairs",
    "textures": {
        "bottom": "conquest:blocks/log_oakivy",
        "top": "conquest:blocks/log_oakivy",
        "side": "conquest:blocks/log_oakivy"
    }
}
