{
"parent": "block/parent_corner",
"textures": {
    "texture": "conquest:blocks/acacialog2coldbeach",
	"top": "conquest:blocks/acacialog2coldbeach",
	"bottom": "conquest:blocks/acacialog2coldbeach"
}
}