{
    "parent": "block/anvil",
    "textures": {
        "particle": "conquest:blocks/stonebrick6",
        "body": "conquest:blocks/stonebrick6",
        "top": "conquest:blocks/stonebrick6"
    }
}
