{
"parent": "block/parent_arch_corner",
"textures": {
    "texture": "conquest:blocks/roman_marble_black",
    "edge": "conquest:blocks/roman_marble_black",
    "side": "conquest:blocks/roman_marble_black",
    "side_alt": "conquest:blocks/roman_marble_black"
}
}