{
    "parent": "block/anvil",
    "textures": {
        "particle": "conquest:blocks/roman_marble_pink",
        "body": "conquest:blocks/roman_marble_pink",
        "top": "conquest:blocks/roman_marble_pink"
    }
}
