{
"parent": "block/parent_windowslit",
"textures": {
    "texture": "conquest:blocks/roman_marble_white",
    "top": "conquest:blocks/roman_marble_white",
	"bottom": "conquest:blocks/roman_marble_white"
	}
}