{
"parent": "block/parent_windowslit",
"textures": {
    "texture": "conquest:blocks/roman_marble_gray",
    "top": "conquest:blocks/roman_marble_gray",
	"bottom": "conquest:blocks/roman_marble_gray"
	}
}