{
"parent": "block/parent_arch",
"textures": {
    "texture": "conquest:blocks/roman_marble_pink",
    "edge": "conquest:blocks/roman_marble_pink",
    "side": "conquest:blocks/roman_marble_pink",
    "side_alt": "conquest:blocks/roman_marble_pink"
}
}