{
"parent": "block/parent_slit",
"textures": {
        "bottom": "conquest:blocks/roman_marble_white",
        "side": "conquest:blocks/roman_marble_white",
		"top": "conquest:blocks/roman_marble_white"
    }
}