{
"parent": "block/parent_arch_corner",
"textures": {
    "texture": "conquest:blocks/mosaic_romani",
    "edge": "conquest:blocks/mosaic_romani",
    "side": "conquest:blocks/mosaic_romani",
    "side_alt": "conquest:blocks/mosaic_romani"
}
}