
{
    "parent": "block/inner_stairs",
    "textures": {
        "bottom": "conquest:blocks/ironblock5",
        "top": "conquest:blocks/ironblock5",
        "side": "conquest:blocks/ironblock5"
    }
}