{
"parent": "block/parent_arch_corner",
"textures": {
    "texture": "blocks/nether_brick",
    "edge": "blocks/nether_brick",
    "side": "blocks/nether_brick",
    "side_alt": "blocks/nether_brick"
}
}