{
"parent": "block/parent_arch",
"textures": {
    "texture": "blocks/red_nether_brick",
    "edge": "blocks/red_nether_brick",
    "side": "blocks/red_nether_brick",
    "side_alt": "blocks/red_nether_brick"
}
}