{
    "parent": "block/inner_stairs",
    "textures": {
        "bottom": "conquest:blocks/acacialog2roofedforest",
        "top": "conquest:blocks/acacialog2roofedforest",
        "side": "conquest:blocks/acacialog2roofedforest"
    }
}
