{
	"parent": "block/block",
	"__comment": "Designed by Snoku bot with Cubik Studio - https://cubik.studio",
	"textures": {
		"particle": "blocks/rebellion/book_covers",
		"texture": "blocks/rebellion/book_covers",
		"texture1": "blocks/rebellion/feather"
	},
	"elements": [
		{
			"__comment": "Cube1",
			"from": [ 6, 0.5, 6.5 ],
			"to": [ 10, 0.501, 12 ],
			"rotation": { "origin": [ 6, 0.5, 6.5 ], "axis": "z", "angle": 22.5 },
			"faces": {
				"down": { "uv": [ 7.5, 0, 10, 4 ], "texture": "#texture", "rotation": 180 },
				"up": { "uv": [ 7.5, 0, 10, 4 ], "texture": "#texture", "rotation": 180 },
				"north": { "uv": [ 7.5, 0, 10, 0.5 ], "texture": "#texture" },
				"south": { "uv": [ 7.5, 0, 10, 0 ], "texture": "#texture" },
				"west": { "uv": [ 7.5, 0, 11, 0 ], "texture": "#texture" },
				"east": { "uv": [ 7.5, 0, 10, 0 ], "texture": "#texture" }
			}
		},
		{
			"__comment": "Cube1",
			"from": [ 6, 0, 6.5 ],
			"to": [ 10.5, 0.5, 12 ],
			"faces": {
				"down": { "uv": [ 5, 0, 2.5, 4 ], "texture": "#texture" },
				"up": { "uv": [ 7.5, 0, 10, 4 ], "texture": "#texture" },
				"north": { "uv": [ 5, 7.5, 7.5, 8 ], "texture": "#texture", "rotation": 180 },
				"south": { "uv": [ 7.5, 7.5, 5, 8 ], "texture": "#texture", "rotation": 180 },
				"west": { "uv": [ 5, 7.5, 7.5, 8 ], "texture": "#texture" },
				"east": { "uv": [ 5.5, 8.5, 7.5, 9 ], "texture": "#texture" }
			}
		},
		{
			"__comment": "Cube1",
			"from": [ 1.5, 0, 6.5 ],
			"to": [ 6, 0.5, 12 ],
			"faces": {
				"down": { "uv": [ 2.5, 0, 5, 4 ], "texture": "#texture" },
				"up": { "uv": [ 7.5, 0, 10, 4 ], "texture": "#texture" },
				"north": { "uv": [ 7.5, 7.5, 5, 8 ], "texture": "#texture", "rotation": 180 },
				"south": { "uv": [ 5, 7.5, 7.5, 8 ], "texture": "#texture", "rotation": 180 },
				"west": { "uv": [ 5.5, 8.5, 7.5, 9 ], "texture": "#texture" },
				"east": { "uv": [ 4, 15.5, 9.5, 16 ], "texture": "#texture" }
			}
		},
		{
			"__comment": "Cube5",
			"from": [ 1, 1.375, 2.5 ],
			"to": [ 2.5, 1.875, 4 ],
			"faces": {
				"down": { "uv": [ 3.5, 10, 4.5, 11 ], "texture": "#texture" },
				"up": { "uv": [ 9.999999, 14.5, 11.5, 16 ], "texture": "#texture" },
				"north": { "uv": [ 3, 9.5, 4, 10.5 ], "texture": "#texture" },
				"south": { "uv": [ 3, 9.5, 4, 10.5 ], "texture": "#texture" },
				"west": { "uv": [ 3, 9.5, 4, 10.5 ], "texture": "#texture" },
				"east": { "uv": [ 3, 9.5, 4, 10.5 ], "texture": "#texture" }
			}
		},
		{
			"__comment": "Cube5",
			"from": [ 0.75, 0, 2.25 ],
			"to": [ 2.75, 1, 4.25 ],
			"faces": {
				"down": { "uv": [ 3, 14, 5, 16 ], "texture": "#texture" },
				"up": { "uv": [ 2.5, 14, 4.5, 16 ], "texture": "#texture" },
				"north": { "uv": [ 3, 14, 4.5, 15.5 ], "texture": "#texture" },
				"south": { "uv": [ 3.5, 14, 5, 15.5 ], "texture": "#texture" },
				"west": { "uv": [ 2.5, 14, 4, 15.5 ], "texture": "#texture" },
				"east": { "uv": [ 2.5, 14, 4, 15.5 ], "texture": "#texture" }
			}
		},
		{
			"__comment": "Cube5",
			"from": [ 0, 1.5, 3.5 ],
			"to": [ 1.5, 3.5, 3.501 ],
			"faces": {
				"down": { "uv": [ 0, 0, 16, 16 ], "texture": "#texture1" },
				"up": { "uv": [ 0, 0, 16, 16 ], "texture": "#texture1" },
				"north": { "uv": [ 0, 16, 16, 0 ], "texture": "#texture1", "rotation": 180 },
				"south": { "uv": [ 0, 0, 16, 16 ], "texture": "#texture1" },
				"west": { "uv": [ 0, 0, 16, 16 ], "texture": "#texture1" },
				"east": { "uv": [ 0, 0, 16, 16 ], "texture": "#texture1" }
			}
		},
		{
			"__comment": "Cube5",
			"from": [ 1.25, 1, 2.75 ],
			"to": [ 2.25, 1.5, 3.75 ],
			"faces": {
				"down": { "uv": [ 0, 14, 1, 15 ], "texture": "#texture" },
				"up": { "uv": [ 0, 14, 1, 15 ], "texture": "#texture" },
				"north": { "uv": [ 3, 7.5, 4, 8.5 ], "texture": "#texture", "rotation": 180 },
				"south": { "uv": [ 3, 7.5, 4, 8.5 ], "texture": "#texture", "rotation": 180 },
				"west": { "uv": [ 3, 7.5, 4, 8.5 ], "texture": "#texture", "rotation": 180 },
				"east": { "uv": [ 3, 7.5, 4, 8.5 ], "texture": "#texture", "rotation": 180 }
			}
		}
	]
}