{
	"parent": "block/parent_capital_doric_corner",
	"textures": {
		"side": "conquest:blocks/pillar_marblesmooth_capital",
		"down": "conquest:blocks/roman_marble_white",
		"up": "blocks/quartz_block_top"
	}
}
