{
"parent": "block/parent_verticalslab",
"textures": {
    "texture": "conquest:blocks/pillar_dwarvenschist1",
	"top": "conquest:blocks/pillar_dwarvenschist1",
	"bottom": "conquest:blocks/pillar_dwarvenschist1"
	}
}	