{
  "parent": "block/parent_base_doric_wall_post",
  "textures": {
    "side": "conquest:blocks/pillar_marblesmooth_base",
    "down": "blocks/quartz_block_top",
    "up": "conquest:blocks/roman_marble_white"
  }
}
