{
"parent": "block/parent_corner",
"textures": {
    "texture": "conquest:blocks/pillar_dwarvenschist",
	"top": "conquest:blocks/pillar_dwarvenschist",
	"bottom": "conquest:blocks/pillar_dwarvenschist"
}
}