{
    "parent": "block/parent_capital_doric_wall_nsew",
    "textures": {
        "side": "conquest:blocks/pillar_marblesmooth_capital",
        "down": "conquest:blocks/roman_marble_white",
        "up": "blocks/quartz_block_top"
    }
}
