{
    "__comment": "Designed by DeChoppy with cubik - All rights reserved",
	"parent": "block/block",
    "textures": {
        "particle": "conquest:blocks/ironblock5_straight",
        "0": "conquest:blocks/ironblock5_straight",
        "1": "conquest:blocks/tools/planks"
    },
    "elements": [
        {
            "name": "Cube",
            "from": [ 9.100000016391277, -1.0, 7.699999995529652 ], 
            "to": [ 9.50000000745058, 6.4000000059604645, 8.099999986588955 ], 
            "faces": {
                "north": { "texture": "#0", "uv": [ 8.0, 4.0, 8.399999991059303, 11.400000005960464 ] },
                "east": { "texture": "#0", "uv": [ 7.0, 4.0, 7.399999991059303, 11.400000005960464 ] },
                "south": { "texture": "#0", "uv": [ 6.0, 5.0, 6.399999991059303, 12.400000005960464 ] },
                "west": { "texture": "#0", "uv": [ 10.0, 6.0, 10.399999991059303, 13.400000005960464 ] },
                "up": { "texture": "#0", "uv": [ 7.0, 5.0, 7.399999991059303, 5.399999991059303 ] },
                "down": { "texture": "#0", "uv": [ 7.0, 5.0, 7.399999991059303, 5.399999991059303 ] }
            }
        },
        {
            "name": "Cube",
            "from": [ 11.50000000745058, -1.0, 7.699999995529652 ], 
            "to": [ 11.899999998509884, 5.199999988079071, 8.099999986588955 ], 
            "faces": {
                "north": { "texture": "#0", "uv": [ 10.0, 3.0, 10.399999991059303, 9.199999988079071 ] },
                "east": { "texture": "#0", "uv": [ 9.0, 4.0, 9.399999991059303, 10.199999988079071 ] },
                "south": { "texture": "#0", "uv": [ 9.0, 4.0, 9.399999991059303, 10.199999988079071 ] },
                "west": { "texture": "#0", "uv": [ 5.0, 5.0, 5.399999991059303, 11.199999988079071 ] },
                "up": { "texture": "#0", "uv": [ 10.0, 7.0, 10.399999991059303, 7.399999991059303 ] },
                "down": { "texture": "#0", "uv": [ 6.0, 4.0, 6.399999991059303, 4.399999991059303 ] }
            }
        },
        {
            "name": "Cube",
            "from": [ 4.100000001490116, -0.9999999850988388, 7.699999995529652 ], 
            "to": [ 4.499999992549419, 5.200000017881393, 8.099999986588955 ], 
            "faces": {
                "north": { "texture": "#0", "uv": [ 0.0, 0.0, 0.3999999910593033, 6.200000002980232 ] },
                "east": { "texture": "#0", "uv": [ 0.0, 0.0, 0.3999999910593033, 6.200000002980232 ] },
                "south": { "texture": "#0", "uv": [ 0.0, 0.0, 0.3999999910593033, 6.200000002980232 ] },
                "west": { "texture": "#0", "uv": [ 0.0, 0.0, 0.3999999910593033, 6.200000002980232 ] },
                "up": { "texture": "#0", "uv": [ 0.0, 0.0, 0.3999999910593033, 0.3999999910593033 ] },
                "down": { "texture": "#0", "uv": [ 0.0, 0.0, 0.3999999910593033, 0.3999999910593033 ] }
            }
        },
        {
            "name": "Cube",
            "from": [ 4.399999991059303, 6.899999998509884, 7.699999995529652 ], 
            "to": [ 7.199999988079071, 7.4000000059604645, 8.099999986588955 ], 
            "rotation": { "origin": [ 8.0, 8.0, 8.0 ], "axis": "z", "angle": 22.5 },
            "faces": {
                "north": { "texture": "#0", "uv": [ 0.0, 0.0, 2.7999999970197678, 0.5000000074505806 ] },
                "east": { "texture": "#0", "uv": [ 0.0, 0.0, 0.3999999910593033, 0.5000000074505806 ] },
                "south": { "texture": "#0", "uv": [ 0.0, 0.0, 2.7999999970197678, 0.5000000074505806 ] },
                "west": { "texture": "#0", "uv": [ 0.0, 0.0, 0.3999999910593033, 0.5000000074505806 ] },
                "up": { "texture": "#0", "uv": [ 0.0, 0.0, 2.7999999970197678, 0.3999999910593033 ] },
                "down": { "texture": "#0", "uv": [ 0.0, 0.0, 2.7999999970197678, 0.3999999910593033 ] }
            }
        },
        {
            "name": "Cube",
            "from": [ 7.500000007450581, 8.799999997019768, 6.899999998509884 ], 
            "to": [ 8.50000000745058, 13.799999997019768, 8.0 ], 
            "faces": {
                "north": { "texture": "#1", "uv": [ 14.0, 7.0, 15.0, 12.0 ] },
                "east": { "texture": "#1", "uv": [ 14.0, 6.0, 15.100000001490116, 11.0 ] },
                "south": { "texture": "#1", "uv": [ 14.0, 9.0, 15.0, 14.0 ] },
                "west": { "texture": "#1", "uv": [ 14.0, 2.0, 15.100000001490116, 7.0 ] },
                "up": { "texture": "#1", "uv": [ 15.0, 8.0, 16.0, 9.100000001490116 ] },
                "down": { "texture": "#1", "uv": [ 15.0, 3.0, 16.0, 4.100000001490116 ] }
            }
        },
        {
            "name": "Cube",
            "from": [ 7.500000007450581, 23.799999997019768, 6.299999974668026 ], 
            "to": [ 8.50000000745058, 28.799999997019768, 7.399999976158142 ], 
            "faces": {
                "north": { "texture": "#1", "uv": [ 6.0, 6.0, 7.0, 11.0 ] },
                "east": { "texture": "#1", "uv": [ 10.0, 6.0, 11.100000001490116, 11.0 ] },
                "south": { "texture": "#1", "uv": [ 7.0, 7.0, 8.0, 12.0 ] },
                "west": { "texture": "#1", "uv": [ 5.0, 7.0, 6.100000001490116, 12.0 ] },
                "up": { "texture": "#1", "uv": [ 5.0, 6.0, 6.0, 7.100000001490116 ] },
                "down": { "texture": "#1", "uv": [ 6.0, 7.0, 7.0, 8.100000001490116 ] }
            }
        },
        {
            "name": "Cube",
            "from": [ 6.500000007450581, 21.30000000447035, -7.900000013411045 ], 
            "to": [ 9.50000000745058, 22.30000000447035, -6.900000013411045 ], 
            "rotation": { "origin": [ 8.0, 8.0, 8.0 ], "axis": "x", "angle": 45.0 },
            "faces": {
                "north": { "texture": "#1", "uv": [ 9.0, 10.0, 12.0, 11.0 ] },
                "east": { "texture": "#1", "uv": [ 10.0, 4.0, 11.0, 5.0 ] },
                "south": { "texture": "#1", "uv": [ 5.0, 8.0, 8.0, 9.400000005960464 ] },
                "west": { "texture": "#1", "uv": [ 6.0, 2.0, 7.0, 3.0 ] },
                "up": { "texture": "#1", "uv": [ 9.0, 13.0, 12.0, 14.0 ] },
                "down": { "texture": "#1", "uv": [ 5.0, 8.0, 8.0, 9.300000004470348 ] }
            }
        },
        {
            "name": "Cube",
            "from": [ 8.699999995529652, 6.899999998509884, 7.699999995529652 ], 
            "to": [ 11.49999999254942, 7.4000000059604645, 8.099999986588955 ], 
            "rotation": { "origin": [ 8.0, 8.0, 8.0 ], "axis": "z", "angle": -22.5 },
            "faces": {
                "north": { "texture": "#0", "uv": [ 0.0, 0.0, 2.7999999970197678, 0.5000000074505806 ] },
                "east": { "texture": "#0", "uv": [ 0.0, 0.0, 0.3999999910593033, 0.5000000074505806 ] },
                "south": { "texture": "#0", "uv": [ 0.0, 0.0, 2.7999999970197678, 0.5000000074505806 ] },
                "west": { "texture": "#0", "uv": [ 0.0, 0.0, 0.3999999910593033, 0.5000000074505806 ] },
                "up": { "texture": "#0", "uv": [ 0.0, 0.0, 2.7999999970197678, 0.3999999910593033 ] },
                "down": { "texture": "#0", "uv": [ 0.0, 0.0, 2.7999999970197678, 0.3999999910593033 ] }
            }
        },
        {
            "name": "Cube",
            "from": [ 11.49999999254942, 8.300000004470348, 7.699999995529652 ], 
            "to": [ 12.699999995529652, 8.800000011920929, 8.099999986588955 ], 
            "rotation": { "origin": [ 8.0, 8.0, 8.0 ], "axis": "z", "angle": -45.0 },
            "faces": {
                "north": { "texture": "#0", "uv": [ 10.0, 6.0, 11.200000002980232, 6.500000007450581 ] },
                "east": { "texture": "#0", "uv": [ 12.0, 10.0, 12.399999991059303, 10.50000000745058 ] },
                "south": { "texture": "#0", "uv": [ 6.0, 7.0, 7.200000002980232, 7.500000007450581 ] },
                "west": { "texture": "#0", "uv": [ 7.0, 8.0, 7.399999991059303, 8.50000000745058 ] },
                "up": { "texture": "#0", "uv": [ 7.0, 7.0, 8.200000002980232, 7.399999991059303 ] },
                "down": { "texture": "#0", "uv": [ 7.0, 5.0, 8.200000002980232, 5.399999991059303 ] }
            }
        },
        {
            "name": "Cube",
            "from": [ 3.3000000044703484, 8.300000004470348, 7.699999995529652 ], 
            "to": [ 4.500000007450581, 8.800000011920929, 8.099999986588955 ], 
            "rotation": { "origin": [ 8.0, 8.0, 8.0 ], "axis": "z", "angle": 45.0 },
            "faces": {
                "north": { "texture": "#0", "uv": [ 8.0, 4.0, 9.200000002980232, 4.500000007450581 ] },
                "east": { "texture": "#0", "uv": [ 7.0, 5.0, 7.399999991059303, 5.500000007450581 ] },
                "south": { "texture": "#0", "uv": [ 10.0, 7.0, 11.200000002980232, 7.500000007450581 ] },
                "west": { "texture": "#0", "uv": [ 7.0, 6.0, 7.399999991059303, 6.500000007450581 ] },
                "up": { "texture": "#0", "uv": [ 10.0, 6.0, 11.200000002980232, 6.399999991059303 ] },
                "down": { "texture": "#0", "uv": [ 5.0, 6.0, 6.200000002980232, 6.399999991059303 ] }
            }
        },
        {
            "name": "Cube",
            "from": [ 6.500000022351742, -1.0, 7.699999995529652 ], 
            "to": [ 6.900000013411045, 6.4000000059604645, 8.099999986588955 ], 
            "faces": {
                "north": { "texture": "#0", "uv": [ 11.0, 4.0, 11.399999991059303, 11.400000005960464 ] },
                "east": { "texture": "#0", "uv": [ 9.0, 5.0, 9.399999991059303, 12.400000005960464 ] },
                "south": { "texture": "#0", "uv": [ 9.0, 3.0, 9.399999991059303, 10.400000005960464 ] },
                "west": { "texture": "#0", "uv": [ 9.0, 6.0, 9.399999991059303, 13.400000005960464 ] },
                "up": { "texture": "#0", "uv": [ 7.0, 4.0, 7.399999991059303, 4.399999991059303 ] },
                "down": { "texture": "#0", "uv": [ 9.0, 8.0, 9.399999991059303, 8.399999991059303 ] }
            }
        },
        {
            "name": "Cube",
            "from": [ 7.500000007450581, 15.799999997019768, 6.399999991059303 ], 
            "to": [ 8.50000000745058, 23.799999997019768, 7.499999992549419 ], 
            "faces": {
                "north": { "texture": "#1", "uv": [ 6.0, 7.0, 7.0, 15.0 ] },
                "east": { "texture": "#1", "uv": [ 6.0, 8.0, 7.100000001490116, 16.0 ] },
                "south": { "texture": "#1", "uv": [ 10.0, 2.0, 11.0, 10.0 ] },
                "west": { "texture": "#1", "uv": [ 6.0, 2.0, 7.100000001490116, 10.0 ] },
                "up": { "texture": "#1", "uv": [ 6.0, 4.0, 7.0, 5.100000001490116 ] },
                "down": { "texture": "#1", "uv": [ 5.0, 11.0, 6.0, 12.100000001490116 ] }
            }
        },
        {
            "name": "Cube",
            "from": [ 7.500000007450581, 6.499999992549419, 7.199999988079071 ], 
            "to": [ 8.50000000745058, 9.0, 8.200000002980232 ], 
            "faces": {
                "north": { "texture": "#0", "uv": [ 6.0, 5.0, 7.0, 7.500000007450581 ] },
                "east": { "texture": "#0", "uv": [ 10.0, 5.0, 11.000000014901161, 7.500000007450581 ] },
                "south": { "texture": "#0", "uv": [ 5.0, 6.0, 6.0, 8.50000000745058 ] },
                "west": { "texture": "#0", "uv": [ 12.0, 8.0, 13.000000014901161, 10.50000000745058 ] },
                "up": { "texture": "#0", "uv": [ 4.0, 8.0, 5.0, 9.000000014901161 ] },
                "down": { "texture": "#0", "uv": [ 8.0, 6.0, 9.0, 7.000000014901161 ] }
            }
        },
        {
            "name": "Cube",
            "from": [ 7.500000007450581, 13.799999997019768, 6.699999995529652 ], 
            "to": [ 8.50000000745058, 15.799999997019768, 7.799999997019768 ], 
            "faces": {
                "north": { "texture": "#1", "uv": [ 2.0, 8.0, 3.0, 10.0 ] },
                "east": { "texture": "#1", "uv": [ 14.0, 8.0, 15.100000001490116, 10.0 ] },
                "south": { "texture": "#1", "uv": [ 15.0, 5.0, 16.0, 7.0 ] },
                "west": { "texture": "#1", "uv": [ 14.0, 6.0, 15.100000001490116, 8.0 ] },
                "up": { "texture": "#1", "uv": [ 2.0, 5.0, 3.0, 6.100000001490116 ] },
                "down": { "texture": "#1", "uv": [ 2.0, 6.0, 3.0, 7.100000001490116 ] }
            }
        }
    ]
}