{
    "parent": "block/anvil",
    "textures": {
        "particle": "conquest:blocks/planks_oaklog",
        "body": "conquest:blocks/planks_oaklog",
        "top": "conquest:blocks/planks_oaklog"
    }
}
