{
    "textures": {
        "particle": "conquest:blocks/plank15forest",   
        "bottom": "conquest:blocks/plank15forest",
        "top": "conquest:blocks/plank15forest"
    },
    "elements": [ 
{
    "from": [ 0, 0, 0 ],
    "to": [ 3, 16, 16 ],
    "faces": {
        "down":  { "uv": [ 0, 0, 3, 16 ], "texture": "#bottom", "cullface": "down" },
        "north": { "uv": [ 16, 0, 13, 16 ], "texture": "#bottom", "cullface": "north" },
        "south": { "uv": [ 0, 0, 3, 16 ], "texture": "#bottom", "cullface": "south" },
        "west":  { "uv": [ 0, 0, 16, 16 ], "texture": "#bottom", "cullface": "west" },
        "east":  { "uv": [ 16, 0, 0, 16 ], "texture": "#bottom" }
    }
}
]
}
