{
    "parent": "conquest:block/anvil_base",
    "textures": {
        "particle": "conquest:blocks/planks_sprucelog",
        "body": "conquest:blocks/planks_sprucelog",
        "top": "conquest:blocks/planks_sprucelog"
    }
}