{
    "parent": "block/outer_stairs",
    "textures": {
        "bottom": "conquest:blocks/planks_stave",
        "top": "conquest:blocks/planks_stave",
        "side": "conquest:blocks/planks_stave"
    }
}
