
{
    "parent": "block/cube_bottom_top",
    "textures": {
        "bottom": "conquest:blocks/plank14",
        "top": "conquest:blocks/plank14",
        "side": "conquest:blocks/plank14_sides"
    }
}