{
"parent": "block/parent_corner",
"textures": {
    "texture": "conquest:blocks/painted_planks_purple",
	"top": "conquest:blocks/painted_planks_purple",
	"bottom": "conquest:blocks/painted_planks_purple"
}
}