{
    "parent": "block/inner_stairs",
    "textures": {
        "bottom": "conquest:blocks/painted_planks_brown",
        "top": "conquest:blocks/painted_planks_brown",
        "side": "conquest:blocks/painted_planks_brown"
    }
}
