{
    "parent": "block/anvil",
    "textures": {
        "particle": "conquest:blocks/acaciaplankbirchforest",
        "body": "conquest:blocks/acaciaplankbirchforest",
        "top": "conquest:blocks/acaciaplankbirchforest"
    }
}
