{
    "parent": "conquest:block/anvil_base",
    "textures": {
        "particle": "conquest:blocks/plank8_sides",
        "body": "conquest:blocks/plank8",
        "top": "conquest:blocks/plank8"
    }
}