{
    "parent": "block/stairs",
    "textures": {
        "bottom": "conquest:blocks/planks_lightplainbirch",
        "top": "conquest:blocks/planks_lightplainbirch",
        "side": "conquest:blocks/planks_lightplainbirch"
    }
}
