{
    "parent": "block/inner_stairs",
    "textures": {
        "bottom": "conquest:blocks/painted_planks_green",
        "top": "conquest:blocks/painted_planks_green",
        "side": "conquest:blocks/painted_planks_green"
    }
}
