{
"parent": "block/parent_corner",
"textures": {
    "texture": "conquest:blocks/planks_grayhorizontal",
	"top": "conquest:blocks/planks_grayhorizontal",
	"bottom": "conquest:blocks/planks_grayhorizontal"
}
}