{
    "parent": "block/inner_stairs",
    "textures": {
        "bottom": "conquest:blocks/planks_pinesmooth",
        "top": "conquest:blocks/planks_pinesmooth",
        "side": "conquest:blocks/planks_pinesmooth"
    }
}
