{
"parent": "block/parent_windowslit",
"textures": {
    "texture": "conquest:blocks/planks_oakvertical",
    "top": "conquest:blocks/planks_oakvertical",
	"bottom": "conquest:blocks/planks_oakvertical"
	}
}