{
"parent": "block/parent_verticalslab",
"textures": {
    "texture": "conquest:blocks/painted_planks_light_red_old",
	"top": "conquest:blocks/painted_planks_light_red_old",
	"bottom": "conquest:blocks/painted_planks_light_red_old"
	}
}	