{
    "parent": "block/inner_stairs",
    "textures": {
        "bottom": "conquest:blocks/planks_oaklog",
        "top": "conquest:blocks/planks_oaklog",
        "side": "conquest:blocks/planks_oaklog"
    }
}
