
{
    "parent": "block/cube_bottom_top",
    "textures": {
        "bottom": "conquest:blocks/plank10",
        "top": "conquest:blocks/plank10",
        "side": "conquest:blocks/plank10_sides"
    }
}