{
"parent": "block/parent_verticalslab",
"textures": {
    "texture": "conquest:blocks/painted_planks_red",
	"top": "conquest:blocks/painted_planks_red",
	"bottom": "conquest:blocks/painted_planks_red"
	}
}	