{
    "parent": "block/anvil",
    "textures": {
        "particle": "conquest:blocks/planks_oaknails",
        "body": "conquest:blocks/planks_oaknails",
        "top": "conquest:blocks/planks_oaknails"
    }
}
