{
"parent": "block/parent_windowslit",
"textures": {
    "texture": "conquest:blocks/painted_planks_yellow",
    "top": "conquest:blocks/painted_planks_yellow",
	"bottom": "conquest:blocks/painted_planks_yellow"
	}
}