{
"parent": "block/parent_slit",
"textures": {
        "bottom": "conquest:blocks/painted_planks_white",
        "side": "conquest:blocks/painted_planks_white",
		"top": "conquest:blocks/painted_planks_white"
    }
}