{
    "ambientocclusion": false,
    "textures": {
        "particle": "conquest:blocks/plants_tallbracken_top",
        "top": "conquest:blocks/plants_tallbracken_top",
        "bottom": "conquest:blocks/plants_tallbracken_bottom"
    },
    "elements": [
        {
            "from": [ 16, 0, 0 ],
            "to": [ 16.0625, 16, 23 ],
            "rotation": { "origin": [ 16, 0, 0 ], "axis": "y", "angle": -45 },
            "faces": {
                "west":  { "uv": [ 0, 0, 16, 16 ], "texture": "#bottom" },
                "east":  { "uv": [ 0, 0, 16, 16 ], "texture": "#bottom" }
            }
        },
        {
            "from": [ 0, 0, 0 ],
            "to": [ 23, 16, 0.0625 ],
            "rotation": { "origin": [ 0, 0, 0 ], "axis": "y", "angle": -45 },
            "faces": {
                "north": { "uv": [ 0, 0, 16, 16 ], "texture": "#bottom" },
                "south": { "uv": [ 0, 0, 16, 16 ], "texture": "#bottom" }
            }
        },
        {
            "from": [ 16, 16, 0 ],
            "to": [ 16.0625, 32, 23 ],
            "rotation": { "origin": [ 16, 0, 0 ], "axis": "y", "angle": -45 },
            "faces": {
                "west":  { "uv": [ 0, 0, 16, 16 ], "texture": "#top" },
                "east":  { "uv": [ 0, 0, 16, 16 ], "texture": "#top" }
            }
        },
        {
            "from": [ 0, 16, 0 ],
            "to": [ 23, 32, 0.0625 ],
            "rotation": { "origin": [ 0, 0, 0 ], "axis": "y", "angle": -45 },
            "faces": {
                "north": { "uv": [ 0, 0, 16, 16 ], "texture": "#top" },
                "south": { "uv": [ 0, 0, 16, 16 ], "texture": "#top" }
            }
        }
    ]
}