{
    "parent": "block/inner_stairs",
    "textures": {
        "bottom": "conquest:blocks/planks_reinforcedoak",
        "top": "conquest:blocks/planks_reinforcedoak",
        "side": "conquest:blocks/planks_reinforcedoak"
    }
}
