{
    "parent": "block/outer_stairs",
    "textures": {
        "bottom": "conquest:blocks/planks_grayhorizontal",
        "top": "conquest:blocks/planks_grayhorizontal",
        "side": "conquest:blocks/planks_grayhorizontal"
    }
}
