{
"parent": "block/parent_windowslit",
"textures": {
    "texture": "conquest:blocks/planks_reinforcedoak",
    "top": "conquest:blocks/planks_reinforcedoak",
	"bottom": "conquest:blocks/planks_reinforcedoak"
	}
}