{
"parent": "block/parent_corner",
"textures": {
    "texture": "conquest:blocks/painted_planks_orange",
	"top": "conquest:blocks/painted_planks_orange",
	"bottom": "conquest:blocks/painted_planks_orange"
}
}