{
    "parent": "block/stairs",
    "textures": {
        "bottom": "conquest:blocks/planks_oaknails",
        "top": "conquest:blocks/planks_oaknails",
        "side": "conquest:blocks/planks_oaknails"
    }
}
