{
"parent": "block/parent_corner",
"textures": {
    "texture": "conquest:blocks/painted_planks_brown_old",
	"top": "conquest:blocks/painted_planks_brown_old",
	"bottom": "conquest:blocks/painted_planks_brown_old"
}
}