{
    "parent": "block/anvil",
    "textures": {
        "particle": "conquest:blocks/planks_ashcolored",
        "body": "conquest:blocks/planks_ashcolored",
        "top": "conquest:blocks/planks_ashcolored"
    }
}
