{
	"__comment": "Designed by RomanCapitalist with Cubik Studio - https://cubik.studio",
	"ambientocclusion": false,
	"textures": {
		"particle": "conquest:blocks/plants_lichen",
		"base": "conquest:blocks/plants_lichen_base",
		"cross": "conquest:blocks/plants_lichen"
	},
	"elements": [ 	 
		{
			"from": [ 16, 0, 0 ],
			"to": [ 16.0625, 16, 23 ],
			"rotation": { "origin": [ 16, 0, 0 ], "axis": "y", "angle": -45 },
			"shade": false,
			"faces": {
				"west": { "uv": [ 0, 0, 16, 16 ], "texture": "#cross" },
				"east": { "uv": [ 0, 0, 16, 16 ], "texture": "#cross" }
			}
		},
		{
			"from": [ 0, 0, 0 ],
			"to": [ 23, 16, 0.0625 ],
			"rotation": { "origin": [ 0, 0, 0 ], "axis": "y", "angle": -45 },
			"shade": false,
			"faces": {
				"north": { "uv": [ 0, 0, 16, 16 ], "texture": "#cross" },
				"south": { "uv": [ 0, 0, 16, 16 ], "texture": "#cross" }
			}
		},
		{
			"__comment": "PlaneY3",
			"from": [ 0, 0, 0 ],
			"to": [ 0.001, 16, 16 ],
			"shade": false,
			"faces": {
				"east": { "uv": [ 16, 16, 0, 0 ], "texture": "#base" }
			}
		},
		{
			"__comment": "PlaneY3",
			"from": [ 0, 0, 0 ],
			"to": [ 16, 0.001, 16 ],
			"shade": false,
			"faces": {
				"up": { "uv": [ 0, 0, 16, 16 ], "texture": "#base" }
			}
		},
		{
			"__comment": "PlaneY3",
			"from": [ 0, 0, 0 ],
			"to": [ 16, 16, 0.001 ],
			"shade": false,
			"faces": {
				"south": { "uv": [ 16, 16, 0, 0 ], "texture": "#base" }
			}
		},
		{
			"__comment": "PlaneY3",
			"from": [ 15.999, 0, 0 ],
			"to": [ 16, 16, 16 ],
			"shade": false,
			"faces": {
				"west": { "uv": [ 16, 16, 0, 0 ], "texture": "#base" }
			}
		},
		{
			"__comment": "PlaneY3",
			"from": [ 0, 0, 15.999 ],
			"to": [ 16, 16, 16 ],
			"shade": false,
			"faces": {
				"north": { "uv": [ 16, 16, 0, 0 ], "texture": "#base" }
			}
		}
	]
}