{
    "parent": "conquest:block/anvil_base",
    "textures": {
        "particle": "conquest:blocks/planks_oakvertical",
        "body": "conquest:blocks/planks_oakvertical",
        "top": "conquest:blocks/planks_oakvertical"
    }
}