{
"parent": "block/parent_verticalslab",
"textures": {
    "texture": "conquest:blocks/planks_spruceironbound",
	"top": "conquest:blocks/planks_spruceironbound",
	"bottom": "conquest:blocks/planks_spruceironbound"
	}
}	