{
"parent": "block/parent_corner",
"textures": {
    "texture": "conquest:blocks/planks_reinforcedoak",
	"top": "conquest:blocks/planks_reinforcedoak",
	"bottom": "conquest:blocks/planks_reinforcedoak"
}
}