{
    "parent": "conquest:block/anvil_base",
    "textures": {
        "particle": "conquest:blocks/planks_oak1",
        "body": "conquest:blocks/planks_oak1",
        "top": "conquest:blocks/planks_oak1"
    }
}