{
    "parent": "block/inner_stairs",
    "textures": {
        "bottom": "conquest:blocks/painted_planks_red",
        "top": "conquest:blocks/painted_planks_red",
        "side": "conquest:blocks/painted_planks_red"
    }
}
