{
    "parent": "block/anvil",
    "textures": {
        "particle": "conquest:blocks/planks_lightplainbirch",
        "body": "conquest:blocks/planks_lightplainbirch",
        "top": "conquest:blocks/planks_lightplainbirch"
    }
}
