{
    "parent": "block/inner_stairs",
    "textures": {
        "bottom": "conquest:blocks/plaster_yellowcobblestone",
        "top": "conquest:blocks/plaster_yellowcobblestone",
        "side": "conquest:blocks/plaster_yellowcobblestone"
    }
}
