{
"parent": "block/parent_arch_corner",
"textures": {
    "texture": "conquest:blocks/plaster_masonry",
    "edge": "conquest:blocks/plaster_masonry",
    "side": "conquest:blocks/plaster_masonry",
    "side_alt": "conquest:blocks/plaster_masonry"
}
}