{
"parent": "block/parent_arch",
"textures": {
    "texture": "conquest:blocks/plaster_peachworn",
    "edge": "conquest:blocks/plaster_peachworn",
    "side": "conquest:blocks/plaster_peachworn",
    "side_alt": "conquest:blocks/plaster_peachworn"
}
}