{
    "parent": "block/outer_stairs",
    "textures": {
        "bottom": "conquest:blocks/clayorangesavanna",
        "top": "conquest:blocks/clayorangesavanna",
        "side": "conquest:blocks/clayorangesavanna"
    }
}
