{
    "parent": "block/anvil",
    "textures": {
        "particle": "conquest:blocks/plaster_darkbrownworn",
        "body": "conquest:blocks/plaster_darkbrownworn",
        "top": "conquest:blocks/plaster_darkbrownworn"
    }
}
