{
"parent": "block/parent_windowslit",
"textures": {
    "texture": "conquest:blocks/clayorangesavanna",
    "top": "conquest:blocks/clayorangesavanna",
	"bottom": "conquest:blocks/clayorangesavanna"
	}
}