{
"parent": "block/parent_corner",
"textures": {
    "texture": "blocks/hardened_clay_stained_magenta",
	"top": "blocks/hardened_clay_stained_magenta",
	"bottom": "blocks/hardened_clay_stained_magenta"
}
}