{
    "parent": "block/stairs",
    "textures": {
        "bottom": "conquest:blocks/claylightdarkclean",
        "top": "conquest:blocks/claylightdarkclean",
        "side": "conquest:blocks/claylightdarkclean"
    }
}
