{
    "parent": "block/anvil",
    "textures": {
        "particle": "blocks/hardened_clay_stained_purple",
        "body": "blocks/hardened_clay_stained_purple",
        "top": "blocks/hardened_clay_stained_purple"
    }
}
