{
    "parent": "conquest:block/anvil_base",
    "textures": {
        "particle": "conquest:blocks/plaster_peachworn",
        "body": "conquest:blocks/plaster_peachworn",
        "top": "conquest:blocks/plaster_peachworn"
    }
}