{
"parent": "block/parent_arch",
"textures": {
    "texture": "conquest:blocks/plaster_redlines",
    "edge": "conquest:blocks/plaster_redlines",
    "side": "conquest:blocks/plaster_redlines",
    "side_alt": "conquest:blocks/plaster_redlines"
}
}