{
"parent": "block/parent_slit",
"textures": {
        "bottom": "blocks/hardened_clay_stained_silver",
        "side": "blocks/hardened_clay_stained_silver",
		"top": "blocks/hardened_clay_stained_silver"
    }
}