{
    "parent": "block/outer_stairs",
    "textures": {
        "bottom": "conquest:blocks/plaster_wornredlines",
        "top": "conquest:blocks/plaster_wornredlines",
        "side": "conquest:blocks/plaster_wornredlines"
    }
}
