{
    "parent": "block/stairs",
    "textures": {
        "bottom": "conquest:blocks/plaster_darkbrownworn",
        "top": "conquest:blocks/plaster_darkbrownworn",
        "side": "conquest:blocks/plaster_darkbrownworn"
    }
}
