{
"parent": "block/parent_slit",
"textures": {
        "bottom": "conquest:blocks/plaster_masonry",
        "side": "conquest:blocks/plaster_masonry",
		"top": "conquest:blocks/plaster_masonry"
    }
}