{
    "parent": "conquest:block/anvil_base",
    "textures": {
        "particle": "conquest:blocks/clayorangesavanna",
        "body": "conquest:blocks/clayorangesavanna",
        "top": "conquest:blocks/clayorangesavanna"
    }
}