{
"parent": "block/parent_corner",
"textures": {
    "texture": "conquest:blocks/plaster_darkbrownworn",
	"top": "conquest:blocks/plaster_darkbrownworn",
	"bottom": "conquest:blocks/plaster_darkbrownworn"
}
}