{
"parent": "block/parent_windowslit",
"textures": {
    "texture": "blocks/hardened_clay_stained_purple",
    "top": "blocks/hardened_clay_stained_purple",
	"bottom": "blocks/hardened_clay_stained_purple"
	}
}