{
    "parent": "block/outer_stairs",
    "textures": {
        "bottom": "conquest:blocks/claypurpleclean",
        "top": "conquest:blocks/claypurpleclean",
        "side": "conquest:blocks/claypurpleclean"
    }
}
