{
"parent": "block/parent_arch",
"textures": {
    "texture": "conquest:blocks/claywhitemesa",
    "edge": "conquest:blocks/claywhitemesa",
    "side": "conquest:blocks/claywhitemesa",
    "side_alt": "conquest:blocks/claywhitemesa"
}
}