{
	"__comment": "Designed by RomanCapitalist with Cubik Studio - https://cubik.studio",
	"parent": "block/block",
	"textures": {
		"particle": "conquest:blocks/roman_base_sandstone",
		"end": "conquest:blocks/sandstone5",
		"side": "conquest:blocks/roman_base_sandstone"
	},
	"elements": [ 	 
		{
			"__comment": "Long Side",
			"from": [ 6, 0, 6 ],
			"to": [ 10, 16, 10 ],
			"faces": {
				"down": { "uv": [ 6, 6, 10, 10 ], "texture": "#end" },
				"up": { "uv": [ 6, 6, 10, 10 ], "texture": "#end" },
				"north": { "uv": [ 6, 0, 10, 16 ], "texture": "#side" },
				"south": { "uv": [ 6, 0, 10, 16 ], "texture": "#side" },
				"west": { "uv": [ 6, 0, 10, 16 ], "texture": "#side" },
				"east": { "uv": [ 6, 0, 10, 16 ], "texture": "#side" }
			}
		},
		{
			"__comment": "Long Side7",
			"from": [ 6, 0, 5.5 ],
			"to": [ 10, 1, 6 ],
			"faces": {
				"down": { "uv": [ 6, 10, 10, 10.5 ], "texture": "#end", "cullface": "north" },
				"up": { "uv": [ 6, 5.5, 10, 6 ], "texture": "#end", "cullface": "north" },
				"north": { "uv": [ 6, 15, 10, 16 ], "texture": "#side", "cullface": "north" }
			}
		},
		{
			"__comment": "Long Side9",
			"from": [ 6, 7, 5 ],
			"to": [ 10, 8, 6 ],
			"faces": {
				"down": { "uv": [ 6, 10, 10, 11 ], "texture": "#end", "cullface": "north" },
				"north": { "uv": [ 6, 8, 10, 9 ], "texture": "#side", "cullface": "north" }
			}
		},
		{
			"__comment": "Long Side22",
			"from": [ 10, 0, 5.5 ],
			"to": [ 10.5, 1, 6 ],
			"faces": {
				"down": { "uv": [ 16, 0, 15.5, 1 ], "texture": "#end", "cullface": "north" },
				"up": { "uv": [ 0, 16, 0.5, 15.5 ], "texture": "#end", "cullface": "north" },
				"north": { "uv": [ 0, 15, 0.5, 16 ], "texture": "#side", "cullface": "east" },
				"east": { "uv": [ 0, 15, 0.5, 16 ], "texture": "#side", "cullface": "north" }
			}
		},
		{
			"__comment": "Long Side23",
			"from": [ 10, 12, 1.5 ],
			"to": [ 14.5, 16, 6 ],
			"faces": {
				"down": { "uv": [ 0, 11.5, 4.5, 16 ], "texture": "#end", "cullface": "north" },
				"up": { "uv": [ 0, 11.5, 4.5, 16 ], "texture": "#end", "cullface": "north" },
				"north": { "uv": [ 0, 0, 4.5, 4 ], "texture": "#side", "cullface": "east" },
				"east": { "uv": [ 11.5, 0, 16, 4 ], "texture": "#side", "cullface": "north" }
			}
		},
		{
			"__comment": "Long Side24",
			"from": [ 10, 7, 5 ],
			"to": [ 11, 8, 6 ],
			"faces": {
				"down": { "uv": [ 16, 0, 15, 1 ], "texture": "#end", "cullface": "north" },
				"north": { "uv": [ 15, 8, 16, 9 ], "texture": "#side", "cullface": "east" },
				"east": { "uv": [ 15, 8, 16, 9 ], "texture": "#side", "cullface": "north" }
			}
		},
		{
			"__comment": "Long Side9",
			"from": [ 6, 8, 4 ],
			"to": [ 10, 9.5, 6 ],
			"faces": {
				"down": { "uv": [ 5.999998, 10, 9.999998, 12 ], "texture": "#end", "cullface": "north" },
				"north": { "uv": [ 6.000002, 6.5, 10, 8 ], "texture": "#side", "cullface": "north" }
			}
		},
		{
			"__comment": "Long Side9",
			"from": [ 6, 9.5, 3 ],
			"to": [ 10, 12, 6 ],
			"faces": {
				"down": { "uv": [ 5.999998, 10, 9.999998, 13 ], "texture": "#end", "cullface": "north" },
				"north": { "uv": [ 6.000002, 4, 10, 6.5 ], "texture": "#side", "cullface": "north" }
			}
		},
		{
			"__comment": "Long Side9",
			"from": [ 6, 12, 1.5 ],
			"to": [ 10, 16, 6 ],
			"faces": {
				"down": { "uv": [ 5.999998, 10, 9.999998, 14.5 ], "texture": "#end", "cullface": "north" },
				"up": { "uv": [ 5.999998, 1.5, 9.999998, 6 ], "texture": "#end", "cullface": "north" },
				"north": { "uv": [ 6.000002, 0, 10, 4 ], "texture": "#side", "cullface": "north" }
			}
		},
		{
			"__comment": "Long Side24",
			"from": [ 10, 8, 4 ],
			"to": [ 12, 9.5, 6 ],
			"faces": {
				"down": { "uv": [ 10, 10, 12, 12 ], "texture": "#end", "cullface": "north" },
				"north": { "uv": [ 4, 6.5, 6, 8 ], "texture": "#side", "cullface": "east" },
				"east": { "uv": [ 10, 6.5, 12, 8 ], "texture": "#side", "cullface": "north" }
			}
		},
		{
			"__comment": "Long Side24",
			"from": [ 10, 9.5, 3 ],
			"to": [ 13, 12, 6 ],
			"faces": {
				"down": { "uv": [ 10, 10, 13, 13 ], "texture": "#end", "cullface": "north" },
				"north": { "uv": [ 3, 4, 6, 6.5 ], "texture": "#side", "cullface": "east" },
				"east": { "uv": [ 10, 4, 13, 6.5 ], "texture": "#side", "cullface": "north" }
			}
		},
		{
			"__comment": "Long Side24",
			"from": [ 3, 9.5, 3 ],
			"to": [ 6, 12, 6 ],
			"faces": {
				"down": { "uv": [ 0, 0, 3, 3 ], "texture": "#end", "cullface": "north", "rotation": 90 },
				"north": { "uv": [ 0, 4, 3, 6.5 ], "texture": "#side", "cullface": "west" },
				"west": { "uv": [ 13, 4, 16, 6.5 ], "texture": "#side", "cullface": "north" }
			}
		},
		{
			"__comment": "Long Side7",
			"from": [ 5.5, 0, 6 ],
			"to": [ 6, 1, 10 ],
			"faces": {
				"down": { "uv": [ 5.500001, 5.999998, 6.000001, 9.999998 ], "texture": "#end", "cullface": "west" },
				"up": { "uv": [ 5.500001, 6.000002, 6.000001, 10 ], "texture": "#end", "cullface": "west" },
				"west": { "uv": [ 6.000002, 15, 10, 16 ], "texture": "#side", "cullface": "west" }
			}
		},
		{
			"__comment": "Long Side9",
			"from": [ 5, 7, 6 ],
			"to": [ 6, 8, 10 ],
			"faces": {
				"down": { "uv": [ 5.000001, 5.999998, 6.000001, 9.999998 ], "texture": "#end", "cullface": "west" },
				"west": { "uv": [ 6.000002, 8, 10, 9 ], "texture": "#side", "cullface": "west" }
			}
		},
		{
			"__comment": "Long Side22",
			"from": [ 5.5, 0, 5.5 ],
			"to": [ 6, 1, 6 ],
			"faces": {
				"down": { "uv": [ 16, 0, 15.5, 1 ], "texture": "#end", "cullface": "north", "rotation": 90 },
				"up": { "uv": [ 0, 16, 0.5, 15.5 ], "texture": "#end", "cullface": "north", "rotation": 270 },
				"north": { "uv": [ 0, 15, 0.5, 16 ], "texture": "#side", "cullface": "west" },
				"west": { "uv": [ 0, 15, 0.5, 16 ], "texture": "#side", "cullface": "north" }
			}
		},
		{
			"__comment": "Long Side23",
			"from": [ 1.5, 12, 1.5 ],
			"to": [ 6, 16, 6 ],
			"faces": {
				"down": { "uv": [ 0, 11.5, 4.5, 16 ], "texture": "#end", "cullface": "north", "rotation": 90 },
				"up": { "uv": [ 0, 11.5, 4.5, 16 ], "texture": "#end", "cullface": "north", "rotation": 270 },
				"north": { "uv": [ 11.5, 0, 16, 4 ], "texture": "#side", "cullface": "west" },
				"west": { "uv": [ 0, 0, 4.5, 4 ], "texture": "#side", "cullface": "north" }
			}
		},
		{
			"__comment": "Long Side24",
			"from": [ 5, 7, 5 ],
			"to": [ 6, 8, 6 ],
			"faces": {
				"down": { "uv": [ 16, 0, 15, 1 ], "texture": "#end", "cullface": "north", "rotation": 90 },
				"north": { "uv": [ 0, 8, 1, 9 ], "texture": "#side", "cullface": "west" },
				"west": { "uv": [ 15, 8, 16, 9 ], "texture": "#side", "cullface": "north" }
			}
		},
		{
			"__comment": "Long Side9",
			"from": [ 4, 8, 6 ],
			"to": [ 6, 9.5, 10 ],
			"faces": {
				"down": { "uv": [ 4.000001, 5.999998, 6.000001, 9.999998 ], "texture": "#end", "cullface": "west" },
				"west": { "uv": [ 6.000002, 6.5, 10, 8 ], "texture": "#side", "cullface": "west" }
			}
		},
		{
			"__comment": "Long Side9",
			"from": [ 3, 9.5, 6 ],
			"to": [ 6, 12, 10 ],
			"faces": {
				"down": { "uv": [ 3.000001, 5.999998, 6.000001, 9.999998 ], "texture": "#end", "cullface": "west" },
				"west": { "uv": [ 6.000002, 4, 10, 6.5 ], "texture": "#side", "cullface": "west" }
			}
		},
		{
			"__comment": "Long Side9",
			"from": [ 1.5, 12, 6 ],
			"to": [ 6, 16, 10 ],
			"faces": {
				"down": { "uv": [ 1.5, 5.999998, 6, 9.999998 ], "texture": "#end", "cullface": "west" },
				"up": { "uv": [ 1.5, 6.000002, 6, 10 ], "texture": "#end", "cullface": "west" },
				"west": { "uv": [ 6.000002, 0, 10, 4 ], "texture": "#side", "cullface": "west" }
			}
		},
		{
			"__comment": "Long Side24",
			"from": [ 4, 8, 4 ],
			"to": [ 6, 9.5, 6 ],
			"faces": {
				"down": { "uv": [ 0, 0, 2, 2 ], "texture": "#end", "cullface": "north", "rotation": 90 },
				"north": { "uv": [ 0, 6.5, 2, 8 ], "texture": "#side", "cullface": "west" },
				"west": { "uv": [ 14, 6.5, 16, 8 ], "texture": "#side", "cullface": "north" }
			}
		},
		{
			"__comment": "Long Side24",
			"from": [ 10, 9.5, 10 ],
			"to": [ 13, 12, 13 ],
			"faces": {
				"down": { "uv": [ 0, 0, 3, 3 ], "texture": "#end", "cullface": "east", "rotation": 270 },
				"south": { "uv": [ 0, 4, 3, 6.5 ], "texture": "#side", "cullface": "east" },
				"east": { "uv": [ 13, 4, 16, 6.5 ], "texture": "#side", "cullface": "south" }
			}
		},
		{
			"__comment": "Long Side7",
			"from": [ 10, 0, 6 ],
			"to": [ 10.5, 1, 10 ],
			"faces": {
				"down": { "uv": [ 9.999999, 6.000002, 10.5, 10 ], "texture": "#end", "cullface": "east" },
				"up": { "uv": [ 9.999999, 5.999998, 10.5, 9.999998 ], "texture": "#end", "cullface": "east" },
				"east": { "uv": [ 6.000002, 15, 10, 16 ], "texture": "#side", "cullface": "east" }
			}
		},
		{
			"__comment": "Long Side9",
			"from": [ 10, 7, 6 ],
			"to": [ 11, 8, 10 ],
			"faces": {
				"down": { "uv": [ 9.999999, 6, 11, 10 ], "texture": "#end", "cullface": "east" },
				"east": { "uv": [ 6, 8, 10, 9 ], "texture": "#side", "cullface": "east" }
			}
		},
		{
			"__comment": "Long Side22",
			"from": [ 10, 0, 10 ],
			"to": [ 10.5, 1, 10.5 ],
			"faces": {
				"down": { "uv": [ 16, 0, 15.5, 1 ], "texture": "#end", "cullface": "east", "rotation": 270 },
				"up": { "uv": [ 0, 16, 0.5, 15.5 ], "texture": "#end", "cullface": "east", "rotation": 90 },
				"south": { "uv": [ 0, 15, 0.5, 16 ], "texture": "#side", "cullface": "north" },
				"east": { "uv": [ 0, 15, 0.5, 16 ], "texture": "#side", "cullface": "east" }
			}
		},
		{
			"__comment": "Long Side23",
			"from": [ 10, 12, 10 ],
			"to": [ 14.5, 16, 14.5 ],
			"faces": {
				"down": { "uv": [ 0, 11.5, 4.5, 16 ], "texture": "#end", "cullface": "east", "rotation": 270 },
				"up": { "uv": [ 0, 11.5, 4.5, 16 ], "texture": "#end", "cullface": "east", "rotation": 90 },
				"south": { "uv": [ 11.5, 0, 16, 4 ], "texture": "#side", "cullface": "east" },
				"east": { "uv": [ 0, 0, 4.5, 4 ], "texture": "#side", "cullface": "south" }
			}
		},
		{
			"__comment": "Long Side24",
			"from": [ 10, 7, 10 ],
			"to": [ 11, 8, 11 ],
			"faces": {
				"down": { "uv": [ 16, 0, 15, 1 ], "texture": "#end", "cullface": "east", "rotation": 270 },
				"south": { "uv": [ 0, 8, 1, 9 ], "texture": "#side", "cullface": "east" },
				"east": { "uv": [ 15, 8, 16, 9 ], "texture": "#side", "cullface": "south" }
			}
		},
		{
			"__comment": "Long Side9",
			"from": [ 10, 8, 6 ],
			"to": [ 12, 9.5, 10 ],
			"faces": {
				"down": { "uv": [ 9.999999, 6.000002, 12, 10 ], "texture": "#end", "cullface": "east" },
				"east": { "uv": [ 6.000001, 6.5, 10, 8 ], "texture": "#side", "cullface": "east" }
			}
		},
		{
			"__comment": "Long Side9",
			"from": [ 10, 9.5, 6 ],
			"to": [ 13, 12, 10 ],
			"faces": {
				"down": { "uv": [ 9.999999, 6, 13, 10 ], "texture": "#end", "cullface": "east" },
				"east": { "uv": [ 6, 4, 10, 6.5 ], "texture": "#side", "cullface": "east" }
			}
		},
		{
			"__comment": "Long Side9",
			"from": [ 10, 12, 6 ],
			"to": [ 14.5, 16, 10 ],
			"faces": {
				"down": { "uv": [ 10, 6, 14.5, 10 ], "texture": "#end", "cullface": "east" },
				"up": { "uv": [ 10, 6, 14.5, 10 ], "texture": "#end", "cullface": "east" },
				"east": { "uv": [ 6, 0, 10, 4 ], "texture": "#side", "cullface": "east" }
			}
		},
		{
			"__comment": "Long Side24",
			"from": [ 10, 8, 10 ],
			"to": [ 12, 9.5, 12 ],
			"faces": {
				"down": { "uv": [ 0, 0, 2, 2 ], "texture": "#end", "cullface": "east", "rotation": 270 },
				"south": { "uv": [ 0, 6.5, 2, 8 ], "texture": "#side", "cullface": "east" },
				"east": { "uv": [ 14, 6.5, 16, 8 ], "texture": "#side", "cullface": "south" }
			}
		},
		{
			"__comment": "Long Side24",
			"from": [ 3, 9.5, 10 ],
			"to": [ 6, 12, 13 ],
			"faces": {
				"down": { "uv": [ 0, 0, 3, 3 ], "texture": "#end", "cullface": "south", "rotation": 180 },
				"south": { "uv": [ 13, 4, 16, 6.5 ], "texture": "#side", "cullface": "west" },
				"west": { "uv": [ 0, 4, 3, 6.5 ], "texture": "#side", "cullface": "south" }
			}
		},
		{
			"__comment": "Long Side7",
			"from": [ 6, 0, 10 ],
			"to": [ 10, 1, 10.5 ],
			"faces": {
				"down": { "uv": [ 6.000001, 5.500002, 10, 6.000002 ], "texture": "#end", "cullface": "south" },
				"up": { "uv": [ 6.000001, 9.999998, 10, 10.5 ], "texture": "#end", "cullface": "south" },
				"south": { "uv": [ 6.000001, 15, 10, 16 ], "texture": "#side", "cullface": "south" }
			}
		},
		{
			"__comment": "Long Side9",
			"from": [ 6, 7, 10 ],
			"to": [ 10, 8, 11 ],
			"faces": {
				"down": { "uv": [ 6.000001, 5.000002, 10, 6.000002 ], "texture": "#end", "cullface": "south" },
				"south": { "uv": [ 6.000001, 8, 10, 9 ], "texture": "#side", "cullface": "south" }
			}
		},
		{
			"__comment": "Long Side22",
			"from": [ 5.5, 0, 10 ],
			"to": [ 6, 1, 10.5 ],
			"faces": {
				"down": { "uv": [ 16, 0, 15.5, 1 ], "texture": "#end", "cullface": "south", "rotation": 180 },
				"up": { "uv": [ 0, 16, 0.5, 15.5 ], "texture": "#end", "cullface": "south", "rotation": 180 },
				"south": { "uv": [ 0, 15, 0.5, 16 ], "texture": "#side", "cullface": "west" },
				"west": { "uv": [ 0, 15, 0.5, 16 ], "texture": "#side", "cullface": "south" }
			}
		},
		{
			"__comment": "Long Side23",
			"from": [ 1.5, 12, 10 ],
			"to": [ 6, 16, 14.5 ],
			"faces": {
				"down": { "uv": [ 0, 11.5, 4.5, 16 ], "texture": "#end", "cullface": "south", "rotation": 180 },
				"up": { "uv": [ 0, 11.5, 4.5, 16 ], "texture": "#end", "cullface": "south", "rotation": 180 },
				"south": { "uv": [ 0, 0, 4.5, 4 ], "texture": "#side", "cullface": "west" },
				"west": { "uv": [ 11.5, 0, 16, 4 ], "texture": "#side", "cullface": "south" }
			}
		},
		{
			"__comment": "Long Side24",
			"from": [ 5, 7, 10 ],
			"to": [ 6, 8, 11 ],
			"faces": {
				"down": { "uv": [ 16, 0, 15, 1 ], "texture": "#end", "cullface": "south", "rotation": 180 },
				"south": { "uv": [ 15, 8, 16, 9 ], "texture": "#side", "cullface": "west" },
				"west": { "uv": [ 0, 8, 1, 9 ], "texture": "#side", "cullface": "south" }
			}
		},
		{
			"__comment": "Long Side9",
			"from": [ 6, 8, 10 ],
			"to": [ 10, 9.5, 12 ],
			"faces": {
				"down": { "uv": [ 6.000001, 4.000002, 10, 6.000002 ], "texture": "#end", "cullface": "south" },
				"south": { "uv": [ 6.000001, 6.5, 10, 8 ], "texture": "#side", "cullface": "south" }
			}
		},
		{
			"__comment": "Long Side9",
			"from": [ 6, 9.5, 10 ],
			"to": [ 10, 12, 13 ],
			"faces": {
				"down": { "uv": [ 6.000001, 3.000002, 10, 6.000002 ], "texture": "#end", "cullface": "south" },
				"south": { "uv": [ 6.000001, 4, 10, 6.5 ], "texture": "#side", "cullface": "south" }
			}
		},
		{
			"__comment": "Long Side9",
			"from": [ 6, 12, 10 ],
			"to": [ 10, 16, 14.5 ],
			"faces": {
				"down": { "uv": [ 6.000001, 1.500001, 10, 6.000001 ], "texture": "#end", "cullface": "south" },
				"up": { "uv": [ 6.000001, 9.999999, 10, 14.5 ], "texture": "#end", "cullface": "south" },
				"south": { "uv": [ 6.000001, 0, 10, 4 ], "texture": "#side", "cullface": "south" }
			}
		},
		{
			"__comment": "Long Side24",
			"from": [ 4, 8, 10 ],
			"to": [ 6, 9.5, 12 ],
			"faces": {
				"down": { "uv": [ 0, 0, 2, 2 ], "texture": "#end", "cullface": "south", "rotation": 180 },
				"south": { "uv": [ 14, 6.5, 16, 8 ], "texture": "#side", "cullface": "west" },
				"west": { "uv": [ 0, 6.5, 2, 8 ], "texture": "#side", "cullface": "south" }
			}
		}
	]
}