{
"parent": "block/parent_verticalslab",
"textures": {
    "texture": "conquest:blocks/podzol_overgrown",
	"top": "conquest:blocks/podzol_overgrown",
	"bottom": "conquest:blocks/podzol_overgrown"
	}
}	