
{
    "parent": "block/cube_bottom_top",
    "textures": {
        "bottom": "conquest:blocks/podzol_lorein",
        "top": "conquest:blocks/podzol_lorein",
        "side": "conquest:blocks/podzol_lorein"
    }
}