{
"parent": "block/parent_verticalslab",
"textures": {
    "texture": "conquest:blocks/podzol_oldvibrant",
	"top": "conquest:blocks/podzol_oldvibrant",
	"bottom": "conquest:blocks/podzol_oldvibrant"
	}
}	