{
"parent": "block/parent_verticalslab",
"textures": {
	"particle": "blocks/dirt_podzol_side",
	"texture": "blocks/dirt_podzol_side",
	"top": "blocks/dirt_podzol_top",
	"bottom": "blocks/dirt_podzol_top"
	}
}	