{
"parent": "block/parent_arch",
"textures": {
    "texture": "blocks/prismarine_rough",
    "edge": "blocks/prismarine_rough",
    "side": "blocks/prismarine_rough",
    "side_alt": "blocks/prismarine_rough"
}
}