{
    "parent": "block/parent_base_doric_full",
    "textures": {
        "side": "conquest:blocks/roman_column_gold_base_marble",
        "down": "conquest:blocks/roman_capital_marble_top",
        "up": "conquest:blocks/roman_column_gold_top"
    }
}
