{
	"__comment": "Designed by RomanCapitalist with Cubik Studio - https://cubik.studio",
	"parent": "block/block",
	"textures": {
		"particle": "conquest:blocks/roman_base_marble",
		"bottom": "conquest:blocks/roman_capital_marble_top",
		"top": "conquest:blocks/roman_capital_marble_top",
		"side": "conquest:blocks/roman_base_marble"
	},
	"elements": [ 	 
		{
			"from": [ 0, 0, 0 ],
			"to": [ 16, 1, 16 ],
			"faces": {
				"down": { "uv": [ 0, 0, 16, 16 ], "texture": "#bottom" },
				"up": { "uv": [ 0, 0, 16, 16 ], "texture": "#top" },
				"north": { "uv": [ 0, 15, 16, 16 ], "texture": "#side" },
				"south": { "uv": [ 0, 15, 16, 16 ], "texture": "#side" },
				"west": { "uv": [ 0, 15, 16, 16 ], "texture": "#side" },
				"east": { "uv": [ 0, 15, 16, 16 ], "texture": "#side" }
			}
		},
		{
			"from": [ 8, 12, 0 ],
			"to": [ 16, 16, 16 ],
			"faces": {
				"down": { "uv": [ 8, 0, 16, 16 ], "texture": "#bottom" },
				"up": { "uv": [ 8, 0, 16, 16 ], "texture": "#top" },
				"north": { "uv": [ 0, 0, 8, 4 ], "texture": "#side" },
				"south": { "uv": [ 8, 0, 16, 4 ], "texture": "#side" },
				"west": { "uv": [ 0, 0, 16, 4 ], "texture": "#side" },
				"east": { "uv": [ 0, 0, 16, 4 ], "texture": "#side" }
			}
		},
		{
			"from": [ 0.5, 1, 0 ],
			"to": [ 16, 7, 16 ],
			"faces": {
				"down": { "uv": [ 0.5, 0, 16, 16 ], "texture": "#bottom" },
				"up": { "uv": [ 0.5, 0, 16, 16 ], "texture": "#top" },
				"north": { "uv": [ 0, 9, 15.5, 15 ], "texture": "#side" },
				"south": { "uv": [ 0.5, 9, 16, 15 ], "texture": "#side" },
				"west": { "uv": [ 0, 9, 16, 15 ], "texture": "#side" },
				"east": { "uv": [ 0, 9, 16, 15 ], "texture": "#side" }
			}
		},
		{
			"from": [ 2, 7, 0 ],
			"to": [ 16, 8, 16 ],
			"faces": {
				"down": { "uv": [ 2, 0, 16, 16 ], "texture": "#bottom" },
				"up": { "uv": [ 2, 0, 16, 16 ], "texture": "#top" },
				"north": { "uv": [ 0, 8, 14, 9 ], "texture": "#side" },
				"south": { "uv": [ 2, 8, 16, 9 ], "texture": "#side" },
				"west": { "uv": [ 0, 8, 16, 9 ], "texture": "#side" },
				"east": { "uv": [ 0, 8, 16, 9 ], "texture": "#side" }
			}
		},
		{
			"from": [ 3, 8, 0 ],
			"to": [ 16, 9.5, 16 ],
			"faces": {
				"down": { "uv": [ 3, 0, 16, 16 ], "texture": "#bottom" },
				"up": { "uv": [ 3, 0, 16, 16 ], "texture": "#top" },
				"north": { "uv": [ 0, 6.5, 13, 8 ], "texture": "#side" },
				"south": { "uv": [ 3, 6.5, 16, 8 ], "texture": "#side" },
				"west": { "uv": [ 0, 6.5, 16, 8 ], "texture": "#side" },
				"east": { "uv": [ 0, 6.5, 16, 8 ], "texture": "#side" }
			}
		},
		{
			"from": [ 6, 9.5, 0 ],
			"to": [ 16, 12, 16 ],
			"faces": {
				"down": { "uv": [ 6, 0, 16, 16 ], "texture": "#bottom" },
				"up": { "uv": [ 6, 0, 16, 16 ], "texture": "#top" },
				"north": { "uv": [ 0, 4, 10, 6.5 ], "texture": "#side" },
				"south": { "uv": [ 6, 4, 16, 6.5 ], "texture": "#side" },
				"west": { "uv": [ 0, 4, 16, 6.5 ], "texture": "#side" },
				"east": { "uv": [ 0, 4, 16, 6.5 ], "texture": "#side" }
			}
		},
		{
			"from": [ 0, 12, 8 ],
			"to": [ 8, 16, 16 ],
			"faces": {
				"down": { "uv": [ 0, 0, 8, 8 ], "texture": "#bottom" },
				"up": { "uv": [ 0, 8, 8, 16 ], "texture": "#top" },
				"north": { "uv": [ 8, 0, 16, 4 ], "texture": "#side" },
				"south": { "uv": [ 0, 0, 8, 4 ], "texture": "#side" },
				"west": { "uv": [ 8, 0, 16, 4 ], "texture": "#side" },
				"east": { "uv": [ 0, 0, 8, 4 ], "texture": "#side" }
			}
		},
		{
			"from": [ 0, 9.5, 6 ],
			"to": [ 6, 12, 16 ],
			"faces": {
				"down": { "uv": [ 0, 0, 6, 10 ], "texture": "#bottom" },
				"up": { "uv": [ 0, 6, 6, 16 ], "texture": "#top" },
				"north": { "uv": [ 10, 4, 16, 6.5 ], "texture": "#side" },
				"south": { "uv": [ 0, 4, 6, 6.5 ], "texture": "#side" },
				"west": { "uv": [ 6, 4, 16, 6.5 ], "texture": "#side" },
				"east": { "uv": [ 0, 4, 10, 6.5 ], "texture": "#side" }
			}
		},
		{
			"from": [ 0, 8, 3 ],
			"to": [ 3, 9.5, 16 ],
			"faces": {
				"down": { "uv": [ 0, 0, 3, 13 ], "texture": "#bottom" },
				"up": { "uv": [ 0, 3, 3, 16 ], "texture": "#top" },
				"north": { "uv": [ 13, 6.5, 16, 8 ], "texture": "#side" },
				"south": { "uv": [ 0, 6.5, 3, 8 ], "texture": "#side" },
				"west": { "uv": [ 3, 6.5, 16, 8 ], "texture": "#side" },
				"east": { "uv": [ 0, 6.5, 13, 8 ], "texture": "#side" }
			}
		},
		{
			"from": [ 0, 7, 2 ],
			"to": [ 2, 8, 16 ],
			"faces": {
				"down": { "uv": [ 0, 0, 2, 14 ], "texture": "#bottom" },
				"up": { "uv": [ 0, 2, 2, 16 ], "texture": "#top" },
				"north": { "uv": [ 14, 8, 16, 9 ], "texture": "#side" },
				"south": { "uv": [ 0, 8, 2, 9 ], "texture": "#side" },
				"west": { "uv": [ 2, 8, 16, 9 ], "texture": "#side" },
				"east": { "uv": [ 0, 8, 14, 9 ], "texture": "#side" }
			}
		},
		{
			"from": [ 0, 1, 0.5 ],
			"to": [ 0.5, 7, 16 ],
			"faces": {
				"down": { "uv": [ 0, 0, 0.5, 15.5 ], "texture": "#bottom" },
				"up": { "uv": [ 0, 0.5, 0.5, 16 ], "texture": "#top" },
				"north": { "uv": [ 15.5, 9, 16, 15 ], "texture": "#side" },
				"south": { "uv": [ 0, 9, 0.5, 15 ], "texture": "#side" },
				"west": { "uv": [ 0.5, 9, 16, 15 ], "texture": "#side" },
				"east": { "uv": [ 0, 9, 15.5, 15 ], "texture": "#side" }
			}
		}
	],
	"display": {
		"thirdperson_lefthand": {
			"rotation":  [ 75, -135, 0 ],
			"translation":  [ 0, 2.5, 0 ],
			"scale":  [ 0.375, 0.375, 0.375 ]
		},
		"gui": {
			"rotation":  [ 30, 135, 0 ],
			"scale":  [ 0.625, 0.625, 0.625 ]
		},
		"head": {
			"rotation":  [ 0, -90, 0 ]
		}
	}
}