{
	"__comment": "Designed by RomanCapitalist with Cubik Studio - https://cubik.studio",
	"parent": "block/block",
	"textures": {
		"particle": "conquest:blocks/roman_base_marblesandstone",
		"bottom": "conquest:blocks/roman_capital_sandstone_top",
		"top": "conquest:blocks/roman_capital_marble_top",
		"side": "conquest:blocks/roman_base_marblesandstone"
	},
	"elements": [ 	 
		{
			"from": [ 0, 12, 0 ],
			"to": [ 16, 16, 16 ],
			"faces": {
				"down": { "uv": [ 0, 0, 16, 16 ], "texture": "#top" },
				"up": { "uv": [ 0, 9.536743E-07, 16, 16 ], "texture": "#top" },
				"north": { "uv": [ 0, 0, 16, 4 ], "texture": "#side" },
				"south": { "uv": [ 0, 0, 16, 4 ], "texture": "#side" },
				"west": { "uv": [ 9.536743E-07, 0, 16, 4 ], "texture": "#side" },
				"east": { "uv": [ 0, 0, 16, 4 ], "texture": "#side" }
			}
		},
		{
			"from": [ 7.5, 0, 0 ],
			"to": [ 16, 1, 16 ],
			"faces": {
				"down": { "uv": [ 7.5, 0, 16, 16 ], "texture": "#bottom" },
				"up": { "uv": [ 7.5, 0, 16, 16 ], "texture": "#bottom" },
				"north": { "uv": [ 0, 15, 8.5, 16 ], "texture": "#side" },
				"south": { "uv": [ 7.5, 15, 16, 16 ], "texture": "#side" },
				"west": { "uv": [ 0, 15, 16, 16 ], "texture": "#side" },
				"east": { "uv": [ 0, 15, 16, 16 ], "texture": "#side" }
			}
		},
		{
			"from": [ 3, 9.5, 0 ],
			"to": [ 16, 12, 16 ],
			"faces": {
				"down": { "uv": [ 3, 0, 16, 15.99999 ], "texture": "#top" },
				"up": { "uv": [ 3, 6.67572E-06, 16, 16 ], "texture": "#bottom" },
				"north": { "uv": [ 0, 4.000002, 13, 6.500002 ], "texture": "#side" },
				"south": { "uv": [ 3, 4.000002, 16, 6.500002 ], "texture": "#side" },
				"west": { "uv": [ 6.67572E-06, 4.000002, 16, 6.500002 ], "texture": "#side" },
				"east": { "uv": [ 0, 4.000002, 15.99999, 6.500002 ], "texture": "#side" }
			}
		},
		{
			"from": [ 5, 8, 0 ],
			"to": [ 16, 9.5, 16 ],
			"faces": {
				"down": { "uv": [ 5, 0, 16, 16 ], "texture": "#top" },
				"up": { "uv": [ 5, 0, 16, 16 ], "texture": "#bottom" },
				"north": { "uv": [ 0, 6.500004, 11, 8.000004 ], "texture": "#side" },
				"south": { "uv": [ 5, 6.500004, 16, 8.000004 ], "texture": "#side" },
				"west": { "uv": [ 0, 6.500004, 16, 8.000004 ], "texture": "#side" },
				"east": { "uv": [ 0, 6.500004, 16, 8.000004 ], "texture": "#side" }
			}
		},
		{
			"from": [ 7, 7, 0 ],
			"to": [ 16, 8, 16 ],
			"faces": {
				"down": { "uv": [ 7, 9.536743E-06, 16, 16 ], "texture": "#bottom" },
				"up": { "uv": [ 7, 0, 16, 15.99999 ], "texture": "#bottom" },
				"north": { "uv": [ 0, 8.000002, 9, 9.000002 ], "texture": "#side" },
				"south": { "uv": [ 7, 8.000002, 16, 9.000002 ], "texture": "#side" },
				"west": { "uv": [ 0, 8.000002, 15.99999, 9.000002 ], "texture": "#side" },
				"east": { "uv": [ 9.536743E-06, 8.000002, 16, 9.000002 ], "texture": "#side" }
			}
		},
		{
			"from": [ 8, 1, 0 ],
			"to": [ 16, 7, 16 ],
			"faces": {
				"down": { "uv": [ 8, 0, 16, 16 ], "texture": "#top" },
				"up": { "uv": [ 8, 0, 16, 16 ], "texture": "#bottom" },
				"north": { "uv": [ 0, 9.000006, 8, 15.00001 ], "texture": "#side" },
				"south": { "uv": [ 8, 9.000006, 16, 15.00001 ], "texture": "#side" },
				"west": { "uv": [ 0, 9.000006, 16, 15.00001 ], "texture": "#side" },
				"east": { "uv": [ 0, 9.000006, 16, 15.00001 ], "texture": "#side" }
			}
		}
	],
	"display": {
		"thirdperson_lefthand": {
			"rotation":  [ 75, -135, 0 ],
			"translation":  [ 0, 2.5, 0 ],
			"scale":  [ 0.375, 0.375, 0.375 ]
		},
		"gui": {
			"rotation":  [ 30, 135, 0 ],
			"scale":  [ 0.625, 0.625, 0.625 ]
		},
		"head": {
			"rotation":  [ 0, -90, 0 ]
		}
	}
}