{
    "parent": "block/stairs",
    "textures": {
        "bottom": "conquest:blocks/rooftile_slatebrown",
        "top": "conquest:blocks/rooftile_slatebrown",
        "side": "conquest:blocks/rooftile_slatebrown"
    }
}
