{
    "parent": "block/parent_verticalslab",
    "textures": {
        "texture": "blocks/hardened_clay_stained_cyan",
        "top": "blocks/hardened_clay_stained_cyan",
        "bottom": "blocks/hardened_clay_stained_cyan"
    }
}