{
"parent": "block/parent_corner",
"textures": {
    "texture": "conquest:blocks/rooftile_slatebrown",
	"top": "conquest:blocks/rooftile_slatebrown",
	"bottom": "conquest:blocks/rooftile_slatebrown"
	}
}	