{
    "parent": "block/stairs",
    "textures": {
        "bottom": "conquest:blocks/rooftile_wavyblue",
        "top": "conquest:blocks/rooftile_wavyblue",
        "side": "conquest:blocks/rooftile_wavyblue"
    }
}
