{
    "parent": "block/outer_stairs",
    "textures": {
        "bottom": "conquest:blocks/rooftile_wavygray",
        "top": "conquest:blocks/rooftile_wavygray",
        "side": "conquest:blocks/rooftile_wavygray"
    }
}
