{
    "parent": "block/parent_corner",
    "textures": {
        "texture": "blocks/hardened_clay_stained_pink",
        "top": "blocks/hardened_clay_stained_pink",
        "bottom": "blocks/hardened_clay_stained_pink"
    }
}