{
    "parent": "block/stairs",
    "textures": {
        "bottom": "conquest:blocks/rooftile_wavyred",
        "top": "conquest:blocks/rooftile_wavyred",
        "side": "conquest:blocks/rooftile_wavyred"
    }
}
