{
    "parent": "block/parent_corner",
    "textures": {
        "texture": "conquest:blocks/brickstairs8",
        "top": "conquest:blocks/brickstairs8",
        "bottom": "conquest:blocks/brickstairs8"
    }
}