{
    "parent": "block/stairs",
    "textures": {
        "bottom": "conquest:blocks/rooftile_slategreen",
        "top": "conquest:blocks/rooftile_slategreen",
        "side": "conquest:blocks/rooftile_slategreen"
    }
}
