{
    "parent": "block/parent_verticalslab",
    "textures": {
        "texture": "blocks/hardened_clay_stained_blue",
        "top": "blocks/hardened_clay_stained_blue",
        "bottom": "blocks/hardened_clay_stained_blue"
    }
}