{
"parent": "block/parent_corner",
"textures": {
    "texture": "conquest:blocks/rooftile_slatelightgreen",
	"top": "conquest:blocks/rooftile_slatelightgreen",
	"bottom": "conquest:blocks/rooftile_slatelightgreen"
}
}