{
    "parent": "block/outer_stairs",
    "textures": {
        "bottom": "conquest:blocks/rooftile_slatelightblue",
        "top": "conquest:blocks/rooftile_slatelightblue",
        "side": "conquest:blocks/rooftile_slatelightblue"
    }
}
