{
    "parent": "block/block",
    "__comment": "Model generated using MrCrayfish's Model Creator (http://mrcrayfish.com/modelcreator/)",
    "textures": {
        "particle": "blocks/rebellion/fences/oak_fence",
		"0": "blocks/rebellion/fences/oak_fence"
    },
    "elements": [
        {
            "name": "Cube",
            "from": [ 5.999999985098839, 0.0, 5.999999985098839 ], 
            "to": [ 9.999999985098839, 16.0, 9.999999985098839 ], 
            "faces": {
                "north": { "texture": "#0", "uv": [ 6.0, 0.0, 10.0, 16.0 ] },
                "east": { "texture": "#0", "uv": [ 9.0, 0.0, 13.0, 16.0 ] },
                "south": { "texture": "#0", "uv": [ 9.0, 0.0, 13.0, 16.0 ] },
                "west": { "texture": "#0", "uv": [ 5.0, 0.0, 9.0, 16.0 ] },
                "up": { "texture": "#0", "uv": [ 10.0, 5.0, 14.0, 9.0 ] },
                "down": { "texture": "#0", "uv": [ 6.0, 0.0, 10.0, 4.0 ] }
            }
        },
        {
            "name": "Cube",
            "from": [ 6.099999986588955, 16.0, 6.099999986588955 ], 
            "to": [ 9.899999983608723, 26.0, 9.899999983608723 ], 
            "faces": {
                "north": { "texture": "#0", "uv": [ 12.0, 6.0, 15.999999997019767, 16.0 ] },
                "east": { "texture": "#0", "uv": [ 5.0, 6.0, 8.999999997019767, 16.0 ] },
                "south": { "texture": "#0", "uv": [ 12.0, 6.0, 15.999999997019767, 16.0 ] },
                "west": { "texture": "#0", "uv": [ 5.0, 6.0, 8.999999997019767, 16.0 ] },
                "up": { "texture": "#0", "uv": [ 6.0, 0.0, 9.999999997019767, 3.999999997019768 ] },
                "down": { "texture": "#0", "uv": [ 6.0, 0.0, 9.999999997019767, 3.999999997019768 ] }
            }
        }
    ]
}