{
  "parent": "block/parent_slit",
  "textures": {
    "bottom": "conquest:blocks/darksandstone_slit_top",
    "side": "conquest:blocks/sandstone11",
    "top": "conquest:blocks/darksandstone_slit_top"
  }
}