{
    "parent": "block/inner_stairs",
    "textures": {
        "bottom": "conquest:blocks/sandstone10",
        "top": "conquest:blocks/sandstone10",
        "side": "conquest:blocks/sandstone10_sides"
    }
}
