{
"parent": "block/parent_arch",
"textures": {
    "texture": "conquest:blocks/sandstone10_sides",
    "edge": "conquest:blocks/sandstone10_sides",
    "side": "conquest:blocks/sandstone10_sides",
    "side_alt": "conquest:blocks/sandstone10_sides"
}
}