{
    "parent": "block/anvil",
    "textures": {
        "particle": "conquest:blocks/sandstone_normaldark",
        "body": "conquest:blocks/sandstone_normaldark",
        "top": "conquest:blocks/sandstone_normaldark"
    }
}
