{
    "parent": "block/block",
    "__comment": "Model generated using MrCrayfish's Model Creator (http://mrcrayfish.com/modelcreator/)",
    "textures": {
        "particle": "conquest:blocks/sandstone_tanroughnatural",
        "texture": "conquest:blocks/sandstone_tanroughnatural",
        "1": "conquest:blocks/sandstone_redroughnatural",
        "2": "conquest:blocks/sandstone_orangeroughnatural"
    },
    "elements": [
        {
            "__comment": "Cube1",
            "from": [ 12, -4, 5.5 ],
            "to": [ 20, 1, 12.5 ],
            "rotation": { "origin": [ 20, -4, 12.5 ], "axis": "y", "angle": 45 },
            "faces": {
                "down": { "uv": [ 3.5, 10, 11.5, 16 ], "texture": "#texture", "rotation": 180 },
                "up": { "uv": [ 3.5, 0, 11.5, 6 ], "texture": "#texture", "rotation": 180 },
                "north": { "uv": [ 3.5, 5, 11.5, 10 ], "texture": "#texture" },
                "south": { "uv": [ 4.5, 5, 12.5, 10 ], "texture": "#texture" },
                "west": { "uv": [ 10, 5, 16, 10 ], "texture": "#texture" },
                "east": { "uv": [ 0, 5, 6, 10 ], "texture": "#texture" }
            }
        },
        {
            "__comment": "Cube1",
            "from": [ -7, -2, 16 ],
            "to": [ -2.5, 1, 21 ],
            "faces": {
                "down": { "uv": [ 5, 9, 9.5, 14 ], "texture": "#1" },
                "up": { "uv": [ 5, 2, 9.5, 7 ], "texture": "#1" },
                "north": { "uv": [ 6.5, 5.5, 11, 8.5 ], "texture": "#1" },
                "south": { "uv": [ 5, 5.5, 9.5, 8.5 ], "texture": "#1" },
                "west": { "uv": [ 2, 5.5, 7, 8.5 ], "texture": "#1" },
                "east": { "uv": [ 9, 5.5, 14, 8.5 ], "texture": "#1" }
            }
        },
        {
            "__comment": "Cube1",
            "from": [ 16.8737, -2.5, 8.052299 ],
            "to": [ 21.3737, 0.5, 13.5523 ],
            "rotation": { "origin": [ 17, -2.5, 13.5 ], "axis": "y", "angle": -22.5 },
            "faces": {
                "down": { "uv": [ 4.468085, 3.08134, 8.968085, 8.58134 ], "texture": "#2" },
                "up": { "uv": [ 4.468085, 7.41866, 8.968085, 12.91866 ], "texture": "#2" },
                "north": { "uv": [ 7.031915, 10, 11.53191, 13 ], "texture": "#2" },
                "south": { "uv": [ 4.468085, 10, 8.968085, 13 ], "texture": "#2" },
                "west": { "uv": [ 7.41866, 10, 12.91866, 13 ], "texture": "#2" },
                "east": { "uv": [ 3.08134, 10, 8.58134, 13 ], "texture": "#2" }
            }
        },
        {
            "__comment": "Cube1",
            "from": [ 12, -5.5, 12 ],
            "to": [ 20, -0.5, 19 ],
            "rotation": { "origin": [ 20, -5.5, 19 ], "axis": "z", "angle": -22.5 },
            "faces": {
                "down": { "uv": [ 3.5, 10, 11.5, 16 ], "texture": "#2", "rotation": 180 },
                "up": { "uv": [ 3.5, 0, 11.5, 6 ], "texture": "#2", "rotation": 180 },
                "north": { "uv": [ 3.5, 5, 11.5, 10 ], "texture": "#2" },
                "south": { "uv": [ 4.5, 5, 12.5, 10 ], "texture": "#2" },
                "west": { "uv": [ 10, 5, 16, 10 ], "texture": "#2" },
                "east": { "uv": [ 0, 5, 6, 10 ], "texture": "#2" }
            }
        },
        {
            "__comment": "Cube1",
            "from": [ 2.5, -3.5, -2.5 ],
            "to": [ 9.5, 1.5, 5.5 ],
            "rotation": { "origin": [ 2.5, -3.5, 5.5 ], "axis": "y", "angle": -22.5 },
            "faces": {
                "down": { "uv": [ 3.5, 10, 11.5, 16 ], "texture": "#1", "rotation": 90 },
                "up": { "uv": [ 3.5, 0, 11.5, 6 ], "texture": "#1", "rotation": 270 },
                "north": { "uv": [ 10, 5, 16, 10 ], "texture": "#1" },
                "south": { "uv": [ 0, 5, 6, 10 ], "texture": "#1" },
                "west": { "uv": [ 4.5, 5, 12.5, 10 ], "texture": "#1" },
                "east": { "uv": [ 3.5, 5, 11.5, 10 ], "texture": "#1" }
            }
        },
        {
            "__comment": "Cube1",
            "from": [ 2.8737, -2, -4.9477 ],
            "to": [ 7.3737, 1, 0.5523 ],
            "rotation": { "origin": [ 3, -2, 0.5 ], "axis": "y", "angle": -22.5 },
            "faces": {
                "down": { "uv": [ 4.468085, 3.08134, 8.968085, 8.58134 ], "texture": "#texture" },
                "up": { "uv": [ 4.468085, 7.41866, 8.968085, 12.91866 ], "texture": "#texture" },
                "north": { "uv": [ 7.031915, 10, 11.53191, 13 ], "texture": "#texture" },
                "south": { "uv": [ 4.468085, 10, 8.968085, 13 ], "texture": "#texture" },
                "west": { "uv": [ 7.41866, 10, 12.91866, 13 ], "texture": "#texture" },
                "east": { "uv": [ 3.08134, 10, 8.58134, 13 ], "texture": "#texture" }
            }
        },
        {
            "__comment": "Cube1",
            "from": [ -0.5, -1.5, 1.5 ],
            "to": [ 7.5, 3.5, 8.5 ],
            "rotation": { "origin": [ -0.5, -1.5, 1.5 ], "axis": "x", "angle": 22.5 },
            "faces": {
                "down": { "uv": [ 3.5, 10, 11.5, 16 ], "texture": "#2" },
                "up": { "uv": [ 3.5, 0, 11.5, 6 ], "texture": "#2" },
                "north": { "uv": [ 4.5, 5, 12.5, 10 ], "texture": "#2" },
                "south": { "uv": [ 3.5, 5, 11.5, 10 ], "texture": "#2" },
                "west": { "uv": [ 0, 5, 6, 10 ], "texture": "#2" },
                "east": { "uv": [ 10, 5, 16, 10 ], "texture": "#2" }
            }
        },
        {
            "__comment": "Cube1",
            "from": [ -9, -11, 19 ],
            "to": [ -1, -4, 24 ],
            "rotation": { "origin": [ -9, -4, 19 ], "axis": "z", "angle": 45 },
            "faces": {
                "down": { "uv": [ 3.5, 5, 11.5, 10 ], "texture": "#texture" },
                "up": { "uv": [ 12.5, 10, 4.5, 5 ], "texture": "#texture" },
                "north": { "uv": [ 11.5, 16, 3.5, 10 ], "texture": "#texture" },
                "south": { "uv": [ 3.5, 0, 11.5, 6 ], "texture": "#texture" },
                "west": { "uv": [ 0, 5, 6, 10 ], "texture": "#texture", "rotation": 90 },
                "east": { "uv": [ 10, 5, 16, 10 ], "texture": "#texture", "rotation": 270 }
            }
        }
    ]
}