{
"parent": "block/parent_arch_corner",
"textures": {
    "texture": "conquest:blocks/sandstone_normaldark",
    "edge": "conquest:blocks/sandstone_normaldark",
    "side": "conquest:blocks/sandstone_normaldark",
    "side_alt": "conquest:blocks/sandstone_normaldark"
}
}