{
"__comment": "Designed by Monsterfish with BDcraft Cubik PRO 0.96 Beta - http://bdcraft.net",
"parent": "block/block",
"textures": {
    "particle": "conquest:blocks/sandstone_rock",
    "texture": "conquest:blocks/sandstone_rock"
},
"elements": [ 
{
    "from": [ 2, 0, 4 ],
    "to": [ 8, 3, 8.5 ],
    "faces": {
        "down":  { "uv": [ 14, 8.5, 8, 4 ], "texture": "#texture", "cullface": "down" },
        "up":    { "uv": [ 2, 4, 8, 8.5 ], "texture": "#texture" },
        "north": { "uv": [ 8, 13, 14, 16 ], "texture": "#texture" },
        "south": { "uv": [ 2, 13, 8, 16 ], "texture": "#texture" },
        "west":  { "uv": [ 4, 13, 8.5, 16 ], "texture": "#texture" },
        "east":  { "uv": [ 7.5, 13, 12, 16 ], "texture": "#texture" }
    }
},
{
    "from": [ 8, 1, 3.5 ],
    "to": [ 11.5, 4.5, 8 ],
    "rotation": { "origin": [ 8, 4.5, 3.5 ], "axis": "z", "angle": -22.5 },
    "faces": {
        "down":  { "uv": [ 8, 8, 4.5, 3.5 ], "texture": "#texture" },
        "up":    { "uv": [ 8, 3.5, 11.5, 8 ], "texture": "#texture" },
        "north": { "uv": [ 4.5, 11.5, 8, 15 ], "texture": "#texture" },
        "south": { "uv": [ 8, 11.5, 11.5, 15 ], "texture": "#texture" },
        "west":  { "uv": [ 3.5, 11.5, 8, 15 ], "texture": "#texture" },
        "east":  { "uv": [ 8, 11.5, 12.5, 15 ], "texture": "#texture" }
    }
},
{
    "from": [ 7, 0, 6 ],
    "to": [ 11.5, 2.5, 10 ],
    "rotation": { "origin": [ 7, 0, 6 ], "axis": "y", "angle": -22.5 },
    "faces": {
        "down":  { "uv": [ 9, 10, 4.5, 6 ], "texture": "#texture", "cullface": "down" },
        "up":    { "uv": [ 7, 6, 11.5, 10 ], "texture": "#texture" },
        "north": { "uv": [ 4.5, 13.5, 9, 16 ], "texture": "#texture" },
        "south": { "uv": [ 7, 13.5, 11.5, 16 ], "texture": "#texture" },
        "west":  { "uv": [ 6, 13.5, 10, 16 ], "texture": "#texture" },
        "east":  { "uv": [ 6, 13.5, 10, 16 ], "texture": "#texture" }
    }
},
{
    "from": [ 3.5, 0, 6 ],
    "to": [ 9.5, 3, 10.5 ],
    "rotation": { "origin": [ 3.5, 3, 6 ], "axis": "z", "angle": 22.5 },
    "faces": {
        "down":  { "uv": [ 12.5, 10.5, 6.5, 6 ], "texture": "#texture", "cullface": "down" },
        "up":    { "uv": [ 3.5, 6, 9.5, 10.5 ], "texture": "#texture" },
        "north": { "uv": [ 6.5, 13, 12.5, 16 ], "texture": "#texture" },
        "south": { "uv": [ 3.5, 13, 9.5, 16 ], "texture": "#texture" },
        "west":  { "uv": [ 6, 13, 10.5, 16 ], "texture": "#texture" },
        "east":  { "uv": [ 5.5, 13, 10, 16 ], "texture": "#texture" }
    }
},
{
    "from": [ 7, 0, 2 ],
    "to": [ 11.5, 2.5, 4.5 ],
    "rotation": { "origin": [ 7, 0, 2 ], "axis": "y", "angle": -22.5 },
    "faces": {
        "down":  { "uv": [ 9, 4.5, 4.5, 2 ], "texture": "#texture", "cullface": "down" },
        "up":    { "uv": [ 7, 2, 11.5, 4.5 ], "texture": "#texture" },
        "north": { "uv": [ 4.5, 13.5, 9, 16 ], "texture": "#texture" },
        "south": { "uv": [ 7, 13.5, 11.5, 16 ], "texture": "#texture" },
        "west":  { "uv": [ 2, 13.5, 4.5, 16 ], "texture": "#texture" },
        "east":  { "uv": [ 11.5, 13.5, 14, 16 ], "texture": "#texture" }
    }
},
{
    "from": [ 3.5, 0, 8.5 ],
    "to": [ 8, 2.5, 11 ],
    "rotation": { "origin": [ 3.5, 0, 8.5 ], "axis": "y", "angle": -22.5 },
    "faces": {
        "down":  { "uv": [ 12.5, 11, 8, 8.5 ], "texture": "#texture", "cullface": "down" },
        "up":    { "uv": [ 3.5, 8.5, 8, 11 ], "texture": "#texture" },
        "south": { "uv": [ 3.5, 13.5, 8, 16 ], "texture": "#texture" },
        "west":  { "uv": [ 8.5, 13.5, 11, 16 ], "texture": "#texture" },
        "east":  { "uv": [ 5, 13.5, 7.5, 16 ], "texture": "#texture" }
    }
},
{
    "from": [ 11.5, 0, 12.5 ],
    "to": [ 13.5, 1, 14 ],
    "rotation": { "origin": [ 11.5, 0, 12.5 ], "axis": "y", "angle": -22.5 },
    "faces": {
        "down":  { "uv": [ 4.5, 14, 2.5, 12.5 ], "texture": "#texture", "cullface": "down" },
        "up":    { "uv": [ 11.5, 12.5, 13.5, 14 ], "texture": "#texture" },
        "north": { "uv": [ 2.5, 15, 4.5, 16 ], "texture": "#texture" },
        "south": { "uv": [ 11.5, 15, 13.5, 16 ], "texture": "#texture" },
        "west":  { "uv": [ 12.5, 15, 14, 16 ], "texture": "#texture" },
        "east":  { "uv": [ 2, 15, 3.5, 16 ], "texture": "#texture" }
    }
},
{
    "from": [ 9, -0.0625, 7.5 ],
    "to": [ 13, 2.5625, 11 ],
    "rotation": { "origin": [ 9, -0.0625, 7.5 ], "axis": "y", "angle": 22.5 },
    "faces": {
        "down":  { "uv": [ 7, 11, 3, 7.5 ], "texture": "#texture", "cullface": "down" },
        "up":    { "uv": [ 9, 7.5, 13, 11 ], "texture": "#texture", "cullface": "down" },
        "north": { "uv": [ 3, 13.4375, 7, 16 ], "texture": "#texture", "cullface": "down" },
        "south": { "uv": [ 9, 13.4375, 13, 16 ], "texture": "#texture", "cullface": "down" },
        "west":  { "uv": [ 7.5, 13.4375, 11, 16 ], "texture": "#texture", "cullface": "down" },
        "east":  { "uv": [ 5, 13.4375, 8.5, 16 ], "texture": "#texture", "cullface": "down" }
    }
},
{
    "from": [ 9.5, 0, 1.5 ],
    "to": [ 10.5, 0.5, 2.5 ],
    "rotation": { "origin": [ 9.5, 0, 1.5 ], "axis": "y", "angle": 22.5 },
    "faces": {
        "down":  { "uv": [ 6.5, 2.5, 5.5, 1.5 ], "texture": "#texture", "cullface": "down" },
        "up":    { "uv": [ 9.5, 1.5, 10.5, 2.5 ], "texture": "#texture" },
        "north": { "uv": [ 5.5, 15.5, 6.5, 16 ], "texture": "#texture" },
        "south": { "uv": [ 9.5, 15.5, 10.5, 16 ], "texture": "#texture" },
        "west":  { "uv": [ 1.5, 15.5, 2.5, 16 ], "texture": "#texture" },
        "east":  { "uv": [ 13.5, 15.5, 14.5, 16 ], "texture": "#texture" }
    }
},
{
    "from": [ 11, 0, 3 ],
    "to": [ 15, 1.5, 6.5 ],
    "rotation": { "origin": [ 11, 0, 3 ], "axis": "y", "angle": -45 },
    "faces": {
        "down":  { "uv": [ 5, 6.5, 1, 3 ], "texture": "#texture", "cullface": "down" },
        "up":    { "uv": [ 11, 3, 15, 6.5 ], "texture": "#texture" },
        "north": { "uv": [ 1, 14.5, 5, 16 ], "texture": "#texture" },
        "south": { "uv": [ 11, 14.5, 15, 16 ], "texture": "#texture" },
        "west":  { "uv": [ 3, 14.5, 6.5, 16 ], "texture": "#texture" },
        "east":  { "uv": [ 9.5, 14.5, 13, 16 ], "texture": "#texture" }
    }
},
{
    "from": [ 3, 0, 4 ],
    "to": [ 7, 1.5, 7.5 ],
    "rotation": { "origin": [ 3, 0, 4 ], "axis": "y", "angle": 22.5 },
    "faces": {
        "down":  { "uv": [ 13, 7.5, 9, 4 ], "texture": "#texture", "cullface": "down" },
        "up":    { "uv": [ 3, 4, 7, 7.5 ], "texture": "#texture" },
        "north": { "uv": [ 9, 14.5, 13, 16 ], "texture": "#texture" },
        "south": { "uv": [ 3, 14.5, 7, 16 ], "texture": "#texture" },
        "west":  { "uv": [ 4, 14.5, 7.5, 16 ], "texture": "#texture" },
        "east":  { "uv": [ 8.5, 14.5, 12, 16 ], "texture": "#texture" }
    }
},
{
    "from": [ 5.5, 0, 11.5 ],
    "to": [ 11, 1.5, 14.5 ],
    "rotation": { "origin": [ 5.5, 0, 11.5 ], "axis": "y", "angle": 45 },
    "faces": {
        "down":  { "uv": [ 10.5, 14.5, 5, 11.5 ], "texture": "#texture", "cullface": "down" },
        "up":    { "uv": [ 5.5, 11.5, 11, 14.5 ], "texture": "#texture" },
        "north": { "uv": [ 5, 14.5, 10.5, 16 ], "texture": "#texture" },
        "south": { "uv": [ 5.5, 14.5, 11, 16 ], "texture": "#texture" },
        "west":  { "uv": [ 11.5, 14.5, 14.5, 16 ], "texture": "#texture" },
        "east":  { "uv": [ 1.5, 14.5, 4.5, 16 ], "texture": "#texture" }
    }
},
{
    "from": [ 2.5, 0, 4.5 ],
    "to": [ 7, 1.5, 8 ],
    "rotation": { "origin": [ 2.5, 0, 4.5 ], "axis": "y", "angle": -45 },
    "faces": {
        "down":  { "uv": [ 13.5, 8, 9, 4.5 ], "texture": "#texture", "cullface": "down" },
        "up":    { "uv": [ 2.5, 4.5, 7, 8 ], "texture": "#texture" },
        "north": { "uv": [ 9, 14.5, 13.5, 16 ], "texture": "#texture" },
        "south": { "uv": [ 2.5, 14.5, 7, 16 ], "texture": "#texture" },
        "west":  { "uv": [ 4.5, 14.5, 8, 16 ], "texture": "#texture" },
        "east":  { "uv": [ 8, 14.5, 11.5, 16 ], "texture": "#texture" }
    }
},
{
    "from": [ 2.5, 0.0625, 8.5 ],
    "to": [ 8.5, 1.5625, 12.5 ],
    "faces": {
        "down":  { "uv": [ 13.5, 12.5, 7.5, 8.5 ], "texture": "#texture" },
        "up":    { "uv": [ 2.5, 8.5, 8.5, 12.5 ], "texture": "#texture" },
        "north": { "uv": [ 7.5, 14.4375, 13.5, 15.9375 ], "texture": "#texture" },
        "south": { "uv": [ 2.5, 14.4375, 8.5, 15.9375 ], "texture": "#texture" },
        "west":  { "uv": [ 8.5, 14.4375, 12.5, 15.9375 ], "texture": "#texture" },
        "east":  { "uv": [ 3.5, 14.4375, 7.5, 15.9375 ], "texture": "#texture" }
    }
},
{
    "from": [ 0.5, 0, 11 ],
    "to": [ 2, 0.5, 12.5 ],
    "rotation": { "origin": [ 0.5, 0, 11 ], "axis": "y", "angle": -22.5 },
    "faces": {
        "down":  { "uv": [ 15.5, 12.5, 14, 11 ], "texture": "#texture", "cullface": "down" },
        "up":    { "uv": [ 0.5, 11, 2, 12.5 ], "texture": "#texture" },
        "north": { "uv": [ 14, 15.5, 15.5, 16 ], "texture": "#texture" },
        "south": { "uv": [ 0.5, 15.5, 2, 16 ], "texture": "#texture" },
        "west":  { "uv": [ 11, 15.5, 12.5, 16 ], "texture": "#texture" },
        "east":  { "uv": [ 3.5, 15.5, 5, 16 ], "texture": "#texture" }
    }
},
{
    "from": [ 0.3125, 0.3125, 11.5 ],
    "to": [ 1.3125, 0.8125, 12.5 ],
    "faces": {
        "down":  { "uv": [ 15.6875, 12.5, 14.6875, 11.5 ], "texture": "#texture" },
        "up":    { "uv": [ 0.3125, 11.5, 1.3125, 12.5 ], "texture": "#texture" },
        "north": { "uv": [ 14.6875, 15.1875, 15.6875, 15.6875 ], "texture": "#texture" },
        "south": { "uv": [ 0.3125, 15.1875, 1.3125, 15.6875 ], "texture": "#texture" },
        "west":  { "uv": [ 11.5, 15.1875, 12.5, 15.6875 ], "texture": "#texture" },
        "east":  { "uv": [ 3.5, 15.1875, 4.5, 15.6875 ], "texture": "#texture" }
    }
}
]
}