
{
    "parent": "block/inner_stairs",
    "textures": {
        "bottom": "conquest:blocks/sandstonestairsextremehills",
        "top": "conquest:blocks/sandstonestairsextremehills",
        "side": "conquest:blocks/sandstonestairsextremehills"
    }
}