{
    "parent": "block/block",
    "__comment": "Model generated using MrCrayfish's Model Creator (http://mrcrayfish.com/modelcreator/)",
    "textures": {
        "particle": "conquest:blocks/sandstone_tanroughnatural",
        "texture": "conquest:blocks/sandstone_tanroughnatural",
        "1": "conquest:blocks/sandstone_redroughnatural",
        "2": "conquest:blocks/sandstone_orangeroughnatural"
    },
    "elements": [
        {
            "__comment": "Cube1",
            "from": [ 18.1464, -2.5, 0.1464 ],
            "to": [ 25.6464, 2, 8.6464 ],
            "rotation": { "origin": [ 18.5, -2.5, 8.5 ], "axis": "y", "angle": 22.5 },
            "faces": {
                "down": { "uv": [ 7.370125, 5.85298, 14.87012, 14.35298 ], "texture": "#texture" },
                "up": { "uv": [ 7.370125, 1.64702, 14.87012, 10.14702 ], "texture": "#texture" },
                "north": { "uv": [ 1.129875, 10.5, 8.629875, 15 ], "texture": "#texture" },
                "south": { "uv": [ 7.370125, 10.5, 14.87012, 15 ], "texture": "#texture" },
                "west": { "uv": [ 1.647021, 10.5, 10.14702, 15 ], "texture": "#texture" },
                "east": { "uv": [ 5.852979, 10.5, 14.35298, 15 ], "texture": "#texture" }
            }
        },
        {
            "__comment": "Cube1",
            "from": [ 4.5, -0.5, 5.5 ],
            "to": [ 15, 7.5, 16 ],
            "rotation": { "origin": [ 4.5, -0.5, 5.5 ], "axis": "x", "angle": 22.5 },
            "faces": {
                "down": { "uv": [ 4.5, 0, 15, 10.5 ], "texture": "#1" },
                "up": { "uv": [ 4.5, 5.5, 15, 16 ], "texture": "#1" },
                "north": { "uv": [ 1, 8, 11.5, 16 ], "texture": "#1" },
                "south": { "uv": [ 4.5, 8, 15, 16 ], "texture": "#1" },
                "west": { "uv": [ 5.5, 8, 16, 16 ], "texture": "#1" },
                "east": { "uv": [ 0, 8, 10.5, 16 ], "texture": "#1" }
            }
        },
        {
            "__comment": "Cube1",
            "from": [ 5.5, -3, 15 ],
            "to": [ 16, 2.5, 25.5 ],
            "rotation": { "origin": [ 5.5, -3, 15 ], "axis": "y", "angle": 22.5 },
            "faces": {
                "down": { "uv": [ 1.5, 0, 12, 10.5 ], "texture": "#1" },
                "up": { "uv": [ 1.5, 5.5, 12, 16 ], "texture": "#1" },
                "north": { "uv": [ 4, 13.5, 14.5, 16 ], "texture": "#1" },
                "south": { "uv": [ 1.5, 13.5, 12, 16 ], "texture": "#1" },
                "west": { "uv": [ 5.5, 13.5, 16, 16 ], "texture": "#1" },
                "east": { "uv": [ 0, 13.5, 10.5, 16 ], "texture": "#1" }
            }
        },
        {
            "__comment": "Cube1",
            "from": [ 0.5, -3, 3 ],
            "to": [ 11, 2.5, 13.5 ],
            "rotation": { "origin": [ 0.5, -3, 13.5 ], "axis": "y", "angle": -22.5 },
            "faces": {
                "down": { "uv": [ 1.5, 0, 12, 10.5 ], "texture": "#2", "rotation": 90 },
                "up": { "uv": [ 1.5, 5.5, 12, 16 ], "texture": "#2", "rotation": 270 },
                "north": { "uv": [ 0, 13.5, 10.5, 16 ], "texture": "#2" },
                "south": { "uv": [ 5.5, 13.5, 16, 16 ], "texture": "#2" },
                "west": { "uv": [ 4, 13.5, 14.5, 16 ], "texture": "#2" },
                "east": { "uv": [ 1.5, 13.5, 12, 16 ], "texture": "#2" }
            }
        },
        {
            "__comment": "Cube1",
            "from": [ 6.6935, -2, 14.6464 ],
            "to": [ 13.1935, 1, 23.1464 ],
            "rotation": { "origin": [ 7, -2, 23 ], "axis": "y", "angle": 45 },
            "faces": {
                "down": { "uv": [ 8.693546, 5.353599, 15.19355, 13.8536 ], "texture": "#2" },
                "up": { "uv": [ 8.693546, 2.146401, 15.19355, 10.6464 ], "texture": "#2" },
                "north": { "uv": [ 0.8064537, 10.5, 7.306454, 13.5 ], "texture": "#2" },
                "south": { "uv": [ 8.693546, 10.5, 15.19355, 13.5 ], "texture": "#2" },
                "west": { "uv": [ 2.146401, 10.5, 10.6464, 13.5 ], "texture": "#2" },
                "east": { "uv": [ 5.353599, 10.5, 13.8536, 13.5 ], "texture": "#2" }
            }
        },
        {
            "__comment": "Cube1",
            "from": [ 4.1768, -3, -9.0732 ],
            "to": [ 10.6768, 1.5, -3.0732 ],
            "rotation": { "origin": [ 4, -3, -3 ], "axis": "y", "angle": -22.5 },
            "faces": {
                "down": { "uv": [ 6.487442, 4.04328, 12.98744, 10.04328 ], "texture": "#1" },
                "up": { "uv": [ 6.487442, 5.95672, 12.98744, 11.95672 ], "texture": "#1" },
                "north": { "uv": [ 3.012558, 8.5, 9.512558, 13 ], "texture": "#1" },
                "south": { "uv": [ 6.487442, 8.5, 12.98744, 13 ], "texture": "#1" },
                "west": { "uv": [ 5.95672, 8.5, 11.95672, 13 ], "texture": "#1" },
                "east": { "uv": [ 4.04328, 8.5, 10.04328, 13 ], "texture": "#1" }
            }
        },
        {
            "__comment": "Cube1",
            "from": [ 17, -4.1935, 2.1464 ],
            "to": [ 20, 2.3065, 10.6464 ],
            "rotation": { "origin": [ 17, 2, 10.5 ], "axis": "z", "angle": -22.5 },
            "faces": {
                "down": { "uv": [ 5.353599, 10.5, 13.8536, 13.5 ], "texture": "#2", "rotation": 90 },
                "up": { "uv": [ 10.6464, 13.5, 2.146401, 10.5 ], "texture": "#2", "rotation": 270 },
                "north": { "uv": [ 0.8064537, 10.5, 7.306454, 13.5 ], "texture": "#2", "rotation": 270 },
                "south": { "uv": [ 8.693546, 10.5, 15.19355, 13.5 ], "texture": "#2", "rotation": 90 },
                "west": { "uv": [ 8.693546, 5.353599, 15.19355, 13.8536 ], "texture": "#2", "rotation": 90 },
                "east": { "uv": [ 15.19355, 10.6464, 8.693546, 2.146401 ], "texture": "#2", "rotation": 270 }
            }
        },
        {
            "__comment": "Cube1",
            "from": [ 0.1935, -2, 8.146399 ],
            "to": [ 6.6935, 1, 16.6464 ],
            "rotation": { "origin": [ 0.5, -2, 16.5 ], "axis": "z", "angle": 22.5 },
            "faces": {
                "down": { "uv": [ 8.693546, 5.353599, 15.19355, 13.8536 ], "texture": "#1" },
                "up": { "uv": [ 8.693546, 2.146401, 15.19355, 10.6464 ], "texture": "#1" },
                "north": { "uv": [ 0.8064537, 10.5, 7.306454, 13.5 ], "texture": "#1" },
                "south": { "uv": [ 8.693546, 10.5, 15.19355, 13.5 ], "texture": "#1" },
                "west": { "uv": [ 2.146401, 10.5, 10.6464, 13.5 ], "texture": "#1" },
                "east": { "uv": [ 5.353599, 10.5, 13.8536, 13.5 ], "texture": "#1" }
            }
        },
        {
            "__comment": "Cube1",
            "from": [ 7.7338, -0.9833, -9.3967 ],
            "to": [ 13.2338, 2.0167, -3.3967 ],
            "rotation": { "origin": [ 8, -1, -3.5 ], "axis": "z", "angle": -22.5 },
            "faces": {
                "down": { "uv": [ 7.760431, 4.896658, 13.26043, 10.89666 ], "texture": "#texture" },
                "up": { "uv": [ 7.760431, 5.103342, 13.26043, 11.10334 ], "texture": "#texture" },
                "north": { "uv": [ 2.739569, 7.882727, 8.239569, 10.88273 ], "texture": "#texture" },
                "south": { "uv": [ 7.760431, 7.882727, 13.26043, 10.88273 ], "texture": "#texture" },
                "west": { "uv": [ 5.103343, 7.882727, 11.10334, 10.88273 ], "texture": "#texture" },
                "east": { "uv": [ 4.896657, 7.882727, 10.89666, 10.88273 ], "texture": "#texture" }
            }
        },
        {
            "__comment": "Cube1",
            "from": [ 17.1464, -1.5, 1.1464 ],
            "to": [ 24.6464, 3, 9.6464 ],
            "rotation": { "origin": [ 17.5, -1.5, 9.5 ], "axis": "y", "angle": -22.5 },
            "faces": {
                "down": { "uv": [ 7.370125, 5.85298, 14.87012, 14.35298 ], "texture": "#texture" },
                "up": { "uv": [ 7.370125, 1.64702, 14.87012, 10.14702 ], "texture": "#texture" },
                "north": { "uv": [ 1.129875, 10.5, 8.629875, 15 ], "texture": "#texture" },
                "south": { "uv": [ 7.370125, 10.5, 14.87012, 15 ], "texture": "#texture" },
                "west": { "uv": [ 1.647021, 10.5, 10.14702, 15 ], "texture": "#texture" },
                "east": { "uv": [ 5.852979, 10.5, 14.35298, 15 ], "texture": "#texture" }
            }
        },
        {
            "__comment": "Cube1",
            "from": [ 21.6935, 0, 2.1464 ],
            "to": [ 28.1935, 3, 10.6464 ],
            "rotation": { "origin": [ 22, 0, 10.5 ], "axis": "z", "angle": -22.5 },
            "faces": {
                "down": { "uv": [ 8.693546, 5.353599, 15.19355, 13.8536 ], "texture": "#texture" },
                "up": { "uv": [ 8.693546, 2.146401, 15.19355, 10.6464 ], "texture": "#texture" },
                "north": { "uv": [ 0.8064537, 10.5, 7.306454, 13.5 ], "texture": "#texture" },
                "south": { "uv": [ 8.693546, 10.5, 15.19355, 13.5 ], "texture": "#texture" },
                "west": { "uv": [ 2.146401, 10.5, 10.6464, 13.5 ], "texture": "#texture" },
                "east": { "uv": [ 5.353599, 10.5, 13.8536, 13.5 ], "texture": "#texture" }
            }
        }
    ]
}