{
"parent": "block/parent_arch_corner",
"textures": {
    "texture": "conquest:blocks/doubleslab9",
    "edge": "conquest:blocks/doubleslab9",
    "side": "conquest:blocks/doubleslab9",
    "side_alt": "conquest:blocks/doubleslab9"
}
}