{
"parent": "block/parent_corner",
"textures": {
    "texture": "conquest:blocks/schist_dwarvenrunes",
	"top": "conquest:blocks/schist_dwarvenrunes",
	"bottom": "conquest:blocks/schist_dwarvenrunes"
}
}