{
    "parent": "block/inner_stairs",
    "textures": {
        "bottom": "conquest:blocks/schist_dwarvendesign",
        "top": "conquest:blocks/schist_dwarvendesign",
        "side": "conquest:blocks/schist_dwarvendesign"
    }
}
