{
    "parent": "block/stairs",
    "textures": {
        "bottom": "conquest:blocks/schist_dwarven1",
        "top": "conquest:blocks/schist_dwarven1",
        "side": "conquest:blocks/schist_dwarven1"
    }
}
