{
"parent": "block/parent_corner",
"textures": {
    "texture": "conquest:blocks/schist_dwarvendesign",
	"top": "conquest:blocks/schist_dwarvendesign",
	"bottom": "conquest:blocks/schist_dwarvendesign"
}
}