{
"parent": "block/block",
"elements": [ 
{
    "from": [ 14, 0, 15 ],
    "to": [ 16, 16, 16 ],
    "faces": {
        "down":  { "uv": [ 2, 16, 0, 15 ], "texture": "#texture" },
        "up":    { "uv": [ 14, 15, 16, 16 ], "texture": "#texture" },
        "north": { "uv": [ 16, 0, 14, 16 ], "texture": "#texture" },
        "south": { "uv": [ 14, 0, 16, 16 ], "texture": "#texture" },
        "west":  { "uv": [ 15, 0, 16, 16 ], "texture": "#texture" },
        "east":  { "uv": [ 16, 0, 15, 16 ], "texture": "#texture" }
    }
},
{
    "from": [ 0, 0, 15 ],
    "to": [ 2, 16, 16 ],
    "faces": {
        "down":  { "uv": [ 16, 16, 14, 15 ], "texture": "#texture" },
        "up":    { "uv": [ 0, 15, 2, 16 ], "texture": "#texture" },
        "north": { "uv": [ 2, 0, 0, 16 ], "texture": "#texture" },
        "south": { "uv": [ 0, 0, 2, 16 ], "texture": "#texture" },
        "west":  { "uv": [ 15, 0, 16, 16 ], "texture": "#texture" },
        "east":  { "uv": [ 16, 0, 15, 16 ], "texture": "#texture" }
    }
},
{
    "from": [ 2, 14.2662, 15 ],
    "to": [ 14, 15.6804, 15.2 ],
    "shade": false,
    "rotation": { "origin": [ 2, 15.6804, 15 ], "axis": "x", "angle": -45 },
    "faces": {
        "down":  { "uv": [ 2, 5, 14, 5.5 ], "texture": "#texture" },
        "up":    { "uv": [ 2, 5, 14, 5.5 ], "texture": "#texture" },
        "north": { "uv": [ 2, 5, 14, 6.5 ], "texture": "#texture" },
        "south": { "uv": [ 2, 5, 14, 3.5 ], "texture": "#texture" },
        "west":  { "uv": [ 2, 5, 2.5, 5.5 ], "texture": "#texture" },
        "east":  { "uv": [ 2, 5, 2.5, 5.5 ], "texture": "#texture" }
    }
},
{
    "from": [ 2, 12.8358, 15 ],
    "to": [ 14, 14.25, 15.2 ],
    "shade": false,
    "rotation": { "origin": [ 2, 14.25, 15 ], "axis": "x", "angle": -45 },
    "faces": {
        "down":  { "uv": [ 2, 5, 14, 5.5 ], "texture": "#texture" },
        "up":    { "uv": [ 2, 5, 14, 5.5 ], "texture": "#texture" },
        "north": { "uv": [ 2, 2, 14, 3.5 ], "texture": "#texture" },
        "south": { "uv": [ 2, 3.5, 14, 2 ], "texture": "#texture" },
        "west":  { "uv": [ 2, 5, 2.5, 5.5 ], "texture": "#texture" },
        "east":  { "uv": [ 2, 5, 2.5, 5.5 ], "texture": "#texture" }
    }
},
{
    "from": [ 2, 11.3812, 15 ],
    "to": [ 14, 12.7954, 15.2 ],
    "shade": false,
    "rotation": { "origin": [ 2, 12.7954, 15 ], "axis": "x", "angle": -45 },
    "faces": {
        "down":  { "uv": [ 2, 5, 14, 5.5 ], "texture": "#texture" },
        "up":    { "uv": [ 2, 5, 14, 5.5 ], "texture": "#texture" },
        "north": { "uv": [ 2, 3.5, 14, 5 ], "texture": "#texture" },
        "south": { "uv": [ 2, 5, 14, 3.5 ], "texture": "#texture" },
        "west":  { "uv": [ 2, 5, 2.5, 5.5 ], "texture": "#texture" },
        "east":  { "uv": [ 2, 5, 2.5, 5.5 ], "texture": "#texture" }
    }
},
{
    "from": [ 2, 9.92673, 15 ],
    "to": [ 14, 11.3409, 15.2 ],
    "shade": false,
    "rotation": { "origin": [ 2, 11.3409, 15 ], "axis": "x", "angle": -45 },
    "faces": {
        "down":  { "uv": [ 2, 5, 14, 5.5 ], "texture": "#texture" },
        "up":    { "uv": [ 2, 5, 14, 5.5 ], "texture": "#texture" },
        "north": { "uv": [ 2, 5, 14, 6.5 ], "texture": "#texture" },
        "south": { "uv": [ 2, 6.5, 14, 5 ], "texture": "#texture" },
        "west":  { "uv": [ 2, 5, 2.5, 5.5 ], "texture": "#texture" },
        "east":  { "uv": [ 2, 5, 2.5, 5.5 ], "texture": "#texture" }
    }
},
{
    "from": [ 2, 8.47216, 15 ],
    "to": [ 14, 9.88637, 15.2 ],
    "shade": false,
    "rotation": { "origin": [ 2, 9.88637, 15 ], "axis": "x", "angle": -45 },
    "faces": {
        "down":  { "uv": [ 2, 5, 14, 5.5 ], "texture": "#texture" },
        "up":    { "uv": [ 2, 5, 14, 5.5 ], "texture": "#texture" },
        "north": { "uv": [ 2, 6.5, 14, 8 ], "texture": "#texture" },
        "south": { "uv": [ 2, 8, 14, 6.5 ], "texture": "#texture" },
        "west":  { "uv": [ 2, 5, 2.5, 5.5 ], "texture": "#texture" },
        "east":  { "uv": [ 2, 5, 2.5, 5.5 ], "texture": "#texture" }
    }
},
{
    "from": [ 2, 7.0176, 15 ],
    "to": [ 14, 8.43181, 15.2 ],
    "shade": false,
    "rotation": { "origin": [ 2, 8.43181, 15 ], "axis": "x", "angle": -45 },
    "faces": {
        "down":  { "uv": [ 2, 5, 14, 5.5 ], "texture": "#texture" },
        "up":    { "uv": [ 2, 5, 14, 5.5 ], "texture": "#texture" },
        "north": { "uv": [ 2, 8, 14, 9.5 ], "texture": "#texture" },
        "south": { "uv": [ 2, 9.5, 14, 8 ], "texture": "#texture" },
        "west":  { "uv": [ 2, 5, 2.5, 5.5 ], "texture": "#texture" },
        "east":  { "uv": [ 2, 5, 2.5, 5.5 ], "texture": "#texture" }
    }
},
{
    "from": [ 2, 5.56304, 15 ],
    "to": [ 14, 6.97725, 15.2 ],
    "shade": false,
    "rotation": { "origin": [ 2, 6.97725, 15 ], "axis": "x", "angle": -45 },
    "faces": {
        "down":  { "uv": [ 2, 5, 14, 5.5 ], "texture": "#texture" },
        "up":    { "uv": [ 2, 5, 14, 5.5 ], "texture": "#texture" },
        "north": { "uv": [ 2, 5, 14, 6.5 ], "texture": "#texture" },
        "south": { "uv": [ 2, 6.5, 14, 5 ], "texture": "#texture" },
        "west":  { "uv": [ 2, 5, 2.5, 5.5 ], "texture": "#texture" },
        "east":  { "uv": [ 2, 5, 2.5, 5.5 ], "texture": "#texture" }
    }
},
{
    "from": [ 2, 4.10852, 15 ],
    "to": [ 14, 5.52273, 15.2 ],
    "shade": false,
    "rotation": { "origin": [ 2, 5.52273, 15 ], "axis": "x", "angle": -45 },
    "faces": {
        "down":  { "uv": [ 2, 5, 14, 5.5 ], "texture": "#texture" },
        "up":    { "uv": [ 2, 5, 14, 5.5 ], "texture": "#texture" },
        "north": { "uv": [ 2, 9.5, 14, 11 ], "texture": "#texture" },
        "south": { "uv": [ 2, 11, 14, 9.5 ], "texture": "#texture" },
        "west":  { "uv": [ 2, 5, 2.5, 5.5 ], "texture": "#texture" },
        "east":  { "uv": [ 2, 5, 2.5, 5.5 ], "texture": "#texture" }
    }
},
{
    "from": [ 2, 2.65397, 15 ],
    "to": [ 14, 4.06818, 15.2 ],
    "shade": false,
    "rotation": { "origin": [ 2, 4.06818, 15 ], "axis": "x", "angle": -45 },
    "faces": {
        "down":  { "uv": [ 2, 5, 14, 5.5 ], "texture": "#texture" },
        "up":    { "uv": [ 2, 5, 14, 5.5 ], "texture": "#texture" },
        "north": { "uv": [ 2, 11, 14, 12.5 ], "texture": "#texture" },
        "south": { "uv": [ 2, 12.5, 14, 11 ], "texture": "#texture" },
        "west":  { "uv": [ 2, 5, 2.5, 5.5 ], "texture": "#texture" },
        "east":  { "uv": [ 2, 5, 2.5, 5.5 ], "texture": "#texture" }
    }
},
{
    "from": [ 2, 1.19943, 15 ],
    "to": [ 14, 2.61364, 15.2 ],
    "shade": false,
    "rotation": { "origin": [ 2, 2.61364, 15 ], "axis": "x", "angle": -45 },
    "faces": {
        "down":  { "uv": [ 2, 5, 14, 5.5 ], "texture": "#texture" },
        "up":    { "uv": [ 2, 5, 14, 5.5 ], "texture": "#texture" },
        "north": { "uv": [ 2, 12.5, 14, 14 ], "texture": "#texture" },
        "south": { "uv": [ 2, 14, 14, 12.5 ], "texture": "#texture" },
        "west":  { "uv": [ 2, 5, 2.5, 5.5 ], "texture": "#texture" },
        "east":  { "uv": [ 2, 5, 2.5, 5.5 ], "texture": "#texture" }
    }
},
{
    "from": [ 2, -0.255116, 15 ],
    "to": [ 14, 1.15909, 15.2 ],
    "shade": false,
    "rotation": { "origin": [ 2, 1.15909, 15 ], "axis": "x", "angle": -45 },
    "faces": {
        "down":  { "uv": [ 2, 5, 14, 5.5 ], "texture": "#texture" },
        "up":    { "uv": [ 2, 5, 14, 5.5 ], "texture": "#texture" },
        "north": { "uv": [ 2, 9.5, 14, 11 ], "texture": "#texture" },
        "south": { "uv": [ 2, 11, 14, 9.5 ], "texture": "#texture" },
        "west":  { "uv": [ 2, 5, 2.5, 5.5 ], "texture": "#texture" },
        "east":  { "uv": [ 2, 5, 2.5, 5.5 ], "texture": "#texture" }
    }
}
]
}