{
"textures": {
    "particle": "conquest:blocks/fencegatefrozenriver",
    "bars": "conquest:blocks/fencegatefrozenriver",
    "edge": "conquest:blocks/fencegatefrozenriver"
},
"elements": [ 
{
    "from": [ 8, 0, 0 ],
    "to": [ 8.0625, 16, 16 ],
    "faces": {
        "west":  { "uv": [ 0, 0, 16, 16 ], "texture": "#bars" },
        "east":  { "uv": [ 0, 0, 16, 16 ], "texture": "#bars" }
    }
},
{
    "from": [ 8, 0, 8 ],
    "to": [ 16, 16, 8.0625 ],
    "faces": {
        "north": { "uv": [ 0, 0, 8, 16 ], "texture": "#bars" },
        "south": { "uv": [ 8, 0, 16, 16 ], "texture": "#bars" }
    }
}
]
}