{
	"__comment": "Model generated using MrCrayfish's Model Creator (http://mrcrayfish.com/modelcreator/)",
	"textures": {
		"0": "blocks/rebellion/fences/wattle/hardened_planks",
		"1": "blocks/rebellion/random/sign_post"
	},
	"elements": [
		{
			"from": [ 7, -16, 7 ],
			"to": [ 9, 0, 9 ],
			"faces": {
				"down": { "uv": [ 7, 1, 9, 3 ], "texture": "#0" },
				"up": { "uv": [ 5, 0, 7, 2 ], "texture": "#0" },
				"north": { "uv": [ 10, 0, 12, 16 ], "texture": "#0" },
				"south": { "uv": [ 11, 0, 13, 16 ], "texture": "#0" },
				"west": { "uv": [ 10, 0, 12, 16 ], "texture": "#0" },
				"east": { "uv": [ 12, 0, 14, 16 ], "texture": "#0" }
			}
		},
		{
			"from": [ 7, 0, 7 ],
			"to": [ 9, 16, 9 ],
			"faces": {
				"down": { "uv": [ 0, 0, 2, 2 ], "texture": "#0" },
				"up": { "uv": [ 0, 0, 2, 2 ], "texture": "#0" },
				"north": { "uv": [ 0, 0, 2, 16 ], "texture": "#0" },
				"south": { "uv": [ 0, 0, 2, 16 ], "texture": "#0" },
				"west": { "uv": [ 0, 0, 2, 16 ], "texture": "#0" },
				"east": { "uv": [ 0, 0, 2, 16 ], "texture": "#0" }
			}
		},
		{
			"from": [ 7, 16, 7 ],
			"to": [ 9, 28, 9 ],
			"faces": {
				"down": { "uv": [ 5, 0, 7, 2 ], "texture": "#0" },
				"up": { "uv": [ 6, 0, 8, 2 ], "texture": "#0" },
				"north": { "uv": [ 10, 0, 12, 12 ], "texture": "#0" },
				"south": { "uv": [ 10, 0, 12, 12 ], "texture": "#0" },
				"west": { "uv": [ 10, 0, 12, 12 ], "texture": "#0" },
				"east": { "uv": [ 6, 0, 8, 12 ], "texture": "#0" }
			}
		},
		{
			"from": [ 6, 19, 7.5 ],
			"to": [ 22, 22, 8.5 ],
			"faces": {
				"down": { "uv": [ 0, 6, 16, 7 ], "texture": "#1" },
				"up": { "uv": [ 0, 6, 16, 7 ], "texture": "#1" },
				"north": { "uv": [ 0, 6, 16, 9 ], "texture": "#1" },
				"south": { "uv": [ 0, 1, 16, 4 ], "texture": "#1" },
				"west": { "uv": [ 0, 1, 1, 4 ], "texture": "#1" },
				"east": { "uv": [ 0, 1, 1, 4 ], "texture": "#1" }
			}
		},
		{
			"from": [ 22, 19.5, 7.5 ],
			"to": [ 23, 21.5, 8.5 ],
			"faces": {
				"down": { "uv": [ 0, 1, 1, 2 ], "texture": "#1" },
				"up": { "uv": [ 0, 1, 1, 2 ], "texture": "#1" },
				"north": { "uv": [ 0, 1, 1, 3 ], "texture": "#1" },
				"south": { "uv": [ 1, 1, 2, 3 ], "texture": "#1" },
				"west": { "uv": [ 0, 1, 1, 3 ], "texture": "#1" },
				"east": { "uv": [ 0, 1, 1, 3 ], "texture": "#1" }
			}
		},
		{
			"from": [ 23, 20, 7.5 ],
			"to": [ 24, 21, 8.5 ],
			"faces": {
				"down": { "uv": [ 3, 1, 4, 2 ], "texture": "#1" },
				"up": { "uv": [ 9, 1, 10, 2 ], "texture": "#1" },
				"north": { "uv": [ 1, 1, 2, 2 ], "texture": "#1" },
				"south": { "uv": [ 10, 1, 11, 2 ], "texture": "#1" },
				"west": { "uv": [ 1, 1, 2, 2 ], "texture": "#1" },
				"east": { "uv": [ 1, 1, 2, 2 ], "texture": "#1" }
			}
		},
		{
			"from": [ -6, 20, 7.5 ],
			"to": [ 10, 23, 8.5 ],
			"rotation": { "origin": [ 8, 8, 8 ], "axis": "y", "angle": -45 },
			"faces": {
				"down": { "uv": [ 0, 12, 16, 13 ], "texture": "#1" },
				"up": { "uv": [ 0, 6, 16, 7 ], "texture": "#1" },
				"north": { "uv": [ 0, 12, 16, 15 ], "texture": "#1" },
				"south": { "uv": [ 0, 12, 16, 15 ], "texture": "#1" },
				"west": { "uv": [ 0, 7, 1, 10 ], "texture": "#1" },
				"east": { "uv": [ 1, 12, 2, 15 ], "texture": "#1" }
			}
		},
		{
			"from": [ 7.5, 20.5, -7 ],
			"to": [ 8.5, 22.5, -6 ],
			"rotation": { "origin": [ 8, 8, 8 ], "axis": "y", "angle": 45 },
			"faces": {
				"down": { "uv": [ 1, 7, 2, 8 ], "texture": "#1" },
				"up": { "uv": [ 0, 7, 1, 8 ], "texture": "#1" },
				"north": { "uv": [ 1, 7, 2, 9 ], "texture": "#1" },
				"south": { "uv": [ 1, 7, 2, 9 ], "texture": "#1" },
				"west": { "uv": [ 2, 7, 3, 9 ], "texture": "#1" },
				"east": { "uv": [ 8, 1, 9, 3 ], "texture": "#1" }
			}
		},
		{
			"from": [ 7.2, 14, 7.5 ],
			"to": [ 20.2, 17, 8.5 ],
			"rotation": { "origin": [ 8, 8, 8 ], "axis": "y", "angle": 45 },
			"faces": {
				"down": { "uv": [ 0, 12, 13, 13 ], "texture": "#1" },
				"up": { "uv": [ 0, 6, 13, 7 ], "texture": "#1" },
				"north": { "uv": [ 0, 7, 13, 10 ], "texture": "#1" },
				"south": { "uv": [ 0, 7, 13, 10 ], "texture": "#1" },
				"west": { "uv": [ 0, 7, 1, 10 ], "texture": "#1" },
				"east": { "uv": [ 1, 12, 2, 15 ], "texture": "#1" }
			}
		},
		{
			"from": [ 7.5, 21, -8 ],
			"to": [ 8.5, 22, -7 ],
			"rotation": { "origin": [ 8, 8, 8 ], "axis": "y", "angle": 45 },
			"faces": {
				"down": { "uv": [ 2, 7, 3, 8 ], "texture": "#1" },
				"up": { "uv": [ 2, 7, 3, 8 ], "texture": "#1" },
				"north": { "uv": [ 5, 7, 6, 8 ], "texture": "#1" },
				"south": { "uv": [ 11, 7, 12, 8 ], "texture": "#1" },
				"west": { "uv": [ 5, 7, 6, 8 ], "texture": "#1" },
				"east": { "uv": [ 13, 1, 14, 2 ], "texture": "#1" }
			}
		},
		{
			"from": [ 7.5, 14.5, -5.2 ],
			"to": [ 8.5, 16.5, -4.2 ],
			"rotation": { "origin": [ 8, 8, 8 ], "axis": "y", "angle": -45 },
			"faces": {
				"down": { "uv": [ 2, 7, 3, 8 ], "texture": "#1" },
				"up": { "uv": [ 1, 7, 2, 8 ], "texture": "#1" },
				"north": { "uv": [ 1, 7, 2, 9 ], "texture": "#1" },
				"south": { "uv": [ 1, 7, 2, 9 ], "texture": "#1" },
				"west": { "uv": [ 2, 7, 3, 9 ], "texture": "#1" },
				"east": { "uv": [ 0, 1, 1, 3 ], "texture": "#1" }
			}
		},
		{
			"from": [ 7.5, 15, -6.2 ],
			"to": [ 8.5, 16, -5.2 ],
			"rotation": { "origin": [ 8, 8, 8 ], "axis": "y", "angle": -45 },
			"faces": {
				"down": { "uv": [ 9, 7, 10, 8 ], "texture": "#1" },
				"up": { "uv": [ 7, 8, 8, 9 ], "texture": "#1" },
				"north": { "uv": [ 10, 7, 11, 8 ], "texture": "#1" },
				"south": { "uv": [ 10, 7, 11, 8 ], "texture": "#1" },
				"west": { "uv": [ 2, 7, 3, 8 ], "texture": "#1" },
				"east": { "uv": [ 2, 7, 3, 8 ], "texture": "#1" }
			}
		},
		{
			"from": [ -3.8, 14, 7.5 ],
			"to": [ 12.2, 17, 8.5 ],
			"rotation": { "origin": [ 8, 8, 8 ], "axis": "y", "angle": 22.5 },
			"faces": {
				"down": { "uv": [ 0, 12, 16, 13 ], "texture": "#1" },
				"up": { "uv": [ 0, 6, 16, 7 ], "texture": "#1" },
				"north": { "uv": [ 0, 12, 16, 15 ], "texture": "#1" },
				"south": { "uv": [ 0, 12, 16, 15 ], "texture": "#1" },
				"west": { "uv": [ 12, 6, 13, 9 ], "texture": "#1" },
				"east": { "uv": [ 15, 7, 16, 10 ], "texture": "#1" }
			}
		},
		{
			"from": [ -3.8, 14, 7.5 ],
			"to": [ 12.2, 17, 8.5 ],
			"rotation": { "origin": [ 8, 8, 8 ], "axis": "y", "angle": -22.5 },
			"faces": {
				"down": { "uv": [ 0, 12, 16, 13 ], "texture": "#1" },
				"up": { "uv": [ 0, 6, 16, 7 ], "texture": "#1" },
				"north": { "uv": [ 0, 12, 16, 15 ], "texture": "#1" },
				"south": { "uv": [ 0, 12, 16, 15 ], "texture": "#1" },
				"west": { "uv": [ 12, 6, 13, 9 ], "texture": "#1" },
				"east": { "uv": [ 15, 7, 16, 10 ], "texture": "#1" }
			}
		},
		{
			"from": [ 12.2, 14, 7.5 ],
			"to": [ 20.2, 17, 8.5 ],
			"rotation": { "origin": [ 8, 8, 8 ], "axis": "y", "angle": -22.5 },
			"faces": {
				"down": { "uv": [ 6, 12, 14, 13 ], "texture": "#1" },
				"up": { "uv": [ 6, 6, 14, 7 ], "texture": "#1" },
				"north": { "uv": [ 0, 7, 8, 10 ], "texture": "#1" },
				"south": { "uv": [ 7, 6, 15, 9 ], "texture": "#1" },
				"west": { "uv": [ 8, 6, 9, 9 ], "texture": "#1" },
				"east": { "uv": [ 10, 6, 11, 9 ], "texture": "#1" }
			}
		},
		{
			"from": [ 20.2, 14.5, 7.5 ],
			"to": [ 21.2, 16.5, 8.5 ],
			"rotation": { "origin": [ 8, 8, 8 ], "axis": "y", "angle": -22.5 },
			"faces": {
				"down": { "uv": [ 3, 8, 4, 9 ], "texture": "#1" },
				"up": { "uv": [ 6, 6, 7, 7 ], "texture": "#1" },
				"north": { "uv": [ 0, 7, 1, 9 ], "texture": "#1" },
				"south": { "uv": [ 2, 6, 3, 8 ], "texture": "#1" },
				"west": { "uv": [ 8, 6, 9, 8 ], "texture": "#1" },
				"east": { "uv": [ 6, 6, 7, 8 ], "texture": "#1" }
			}
		},
		{
			"from": [ 21.2, 15, 7.5 ],
			"to": [ 22.2, 16, 8.5 ],
			"rotation": { "origin": [ 8, 8, 8 ], "axis": "y", "angle": -22.5 },
			"faces": {
				"down": { "uv": [ 1, 7, 2, 8 ], "texture": "#1" },
				"up": { "uv": [ 2, 6, 3, 7 ], "texture": "#1" },
				"north": { "uv": [ 5, 7, 6, 8 ], "texture": "#1" },
				"south": { "uv": [ 1, 7, 2, 8 ], "texture": "#1" },
				"west": { "uv": [ 3, 6, 4, 7 ], "texture": "#1" },
				"east": { "uv": [ 2, 8, 3, 9 ], "texture": "#1" }
			}
		},
		{
			"from": [ -5.8, 15, 7.5 ],
			"to": [ -4.8, 16, 8.5 ],
			"rotation": { "origin": [ 8, 8, 8 ], "axis": "y", "angle": -22.5 },
			"faces": {
				"down": { "uv": [ 1, 7, 2, 8 ], "texture": "#1" },
				"up": { "uv": [ 2, 6, 3, 7 ], "texture": "#1" },
				"north": { "uv": [ 5, 7, 6, 8 ], "texture": "#1" },
				"south": { "uv": [ 1, 7, 2, 8 ], "texture": "#1" },
				"west": { "uv": [ 3, 6, 4, 7 ], "texture": "#1" },
				"east": { "uv": [ 2, 8, 3, 9 ], "texture": "#1" }
			}
		},
		{
			"from": [ -4.8, 14.5, 7.5 ],
			"to": [ -3.799999, 16.5, 8.5 ],
			"rotation": { "origin": [ 8, 8, 8 ], "axis": "y", "angle": -22.5 },
			"faces": {
				"down": { "uv": [ 1, 7, 2, 8 ], "texture": "#1" },
				"up": { "uv": [ 2, 6, 3, 7 ], "texture": "#1" },
				"north": { "uv": [ 7, 7, 8, 9 ], "texture": "#1" },
				"south": { "uv": [ 7, 7, 8, 9 ], "texture": "#1" },
				"west": { "uv": [ 3, 6, 4, 8 ], "texture": "#1" },
				"east": { "uv": [ 9, 7, 10, 9 ], "texture": "#1" }
			}
		},
		{
			"from": [ 7.5, 17, 6 ],
			"to": [ 8.5, 20, 20 ],
			"faces": {
				"down": { "uv": [ 0, 7, 16, 8 ], "texture": "#1", "rotation": 90 },
				"up": { "uv": [ 0, 7, 16, 8 ], "texture": "#1", "rotation": 90 },
				"north": { "uv": [ 3, 1, 4, 4 ], "texture": "#1" },
				"south": { "uv": [ 2, 1, 3, 4 ], "texture": "#1" },
				"west": { "uv": [ 2, 1, 16, 4 ], "texture": "#1" },
				"east": { "uv": [ 2, 1, 16, 4 ], "texture": "#1" }
			}
		},
		{
			"from": [ 7.5, 17.5, 20 ],
			"to": [ 8.5, 19.5, 21 ],
			"faces": {
				"down": { "uv": [ 1, 7, 2, 8 ], "texture": "#1" },
				"up": { "uv": [ 0, 7, 1, 8 ], "texture": "#1" },
				"north": { "uv": [ 1, 7, 2, 9 ], "texture": "#1" },
				"south": { "uv": [ 1, 7, 2, 9 ], "texture": "#1" },
				"west": { "uv": [ 2, 7, 3, 9 ], "texture": "#1" },
				"east": { "uv": [ 2, 7, 3, 9 ], "texture": "#1" }
			}
		},
		{
			"from": [ 7.5, 18, 21 ],
			"to": [ 8.5, 19, 22 ],
			"faces": {
				"down": { "uv": [ 1, 7, 2, 8 ], "texture": "#1" },
				"up": { "uv": [ 2, 7, 3, 8 ], "texture": "#1" },
				"north": { "uv": [ 4, 7, 5, 8 ], "texture": "#1" },
				"south": { "uv": [ 4, 8, 5, 9 ], "texture": "#1" },
				"west": { "uv": [ 4, 7, 5, 8 ], "texture": "#1" },
				"east": { "uv": [ 6, 7, 7, 8 ], "texture": "#1" }
			}
		},
		{
			"from": [ -4.8, 14.5, 7.5 ],
			"to": [ -3.799999, 16.5, 8.5 ],
			"rotation": { "origin": [ 8, 8, 8 ], "axis": "y", "angle": 22.5 },
			"faces": {
				"down": { "uv": [ 1, 7, 2, 8 ], "texture": "#1" },
				"up": { "uv": [ 2, 6, 3, 7 ], "texture": "#1" },
				"north": { "uv": [ 3, 7, 4, 9 ], "texture": "#1" },
				"south": { "uv": [ 3, 7, 4, 9 ], "texture": "#1" },
				"west": { "uv": [ 3, 6, 4, 8 ], "texture": "#1" },
				"east": { "uv": [ 2, 7, 3, 9 ], "texture": "#1" }
			}
		},
		{
			"from": [ -5.8, 15, 7.5 ],
			"to": [ -4.8, 16, 8.5 ],
			"rotation": { "origin": [ 8, 8, 8 ], "axis": "y", "angle": 22.5 },
			"faces": {
				"down": { "uv": [ 1, 7, 2, 8 ], "texture": "#1" },
				"up": { "uv": [ 1, 8, 2, 9 ], "texture": "#1" },
				"north": { "uv": [ 2, 7, 3, 8 ], "texture": "#1" },
				"south": { "uv": [ 1, 7, 2, 8 ], "texture": "#1" },
				"west": { "uv": [ 1, 8, 2, 9 ], "texture": "#1" },
				"east": { "uv": [ 1, 7, 2, 8 ], "texture": "#1" }
			}
		}
	],
	"display": {
		"firstperson_righthand": {
			"scale":  [ 0.3, 0.3, 0.3 ]
		},
		"firstperson_lefthand": {
			"scale":  [ 0.3, 0.3, 0.3 ]
		},
		"gui": {
			"rotation":  [ 0, 61, 0 ],
			"scale":  [ 0.3, 0.3, 0.3 ]
		},
		"head": {
			"rotation":  [ 52, 20, 0 ],
			"translation":  [ 6.9565, -11.12, 4.1739 ]
		},
		"ground": {
			"translation":  [ 0, 9.0434, 0 ],
			"scale":  [ 0.5, 0.5, 0.5 ]
		},
		"fixed": {
			"scale":  [ 2.4, 2.4, 2.4 ]
		}
	}
}