{
    "parent": "conquest:block/anvil_body",
    "textures": {
        "particle": "conquest:blocks/stone8_side",
        "body": "conquest:blocks/stone8_side",
        "top": "conquest:blocks/stone8_side"
    }
}