{
"parent": "block/parent_arch_corner",
"textures": {
    "texture": "conquest:blocks/stonebrick_ruined",
    "edge": "conquest:blocks/stonebrick_ruined",
    "side": "conquest:blocks/stonebrick_ruined",
    "side_alt": "conquest:blocks/stonebrick_ruined"
}
}