{
    "parent": "block/cube_bottom_top",
    "textures": {
        "bottom": "conquest:blocks/stone_mossy",
        "top": "conquest:blocks/stone_mossy",
        "side": "conquest:blocks/stone_mossy"
    }
}