{
    "parent": "block/parent_arch",
    "textures": {
        "texture": "conquest:blocks/stone8_side",
        "edge": "conquest:blocks/stone8_side",
        "side": "conquest:blocks/stone8_side",
        "side_alt": "conquest:blocks/stone8_side"
    }
}