{
"__comment": "Designed by Monsterfish with BDcraft Cubik PRO 0.96 Beta - http://bdcraft.net",
"parent": "block/cube_all",
"textures": {
        "particle": "conquest:blocks/stone_calcite",
        "bottom": "conquest:blocks/stone_calcite",
        "side": "conquest:blocks/stone_calcite"
    },
"elements": [ 
{
    "from": [ 0, 0, 12 ],
    "to": [ 4, 16, 16 ],
    "faces": {
        "north": { "uv": [ 12, 0, 16, 16 ], "texture": "#side" },
        "south": { "uv": [ 0, 0, 4, 16 ], "texture": "#side" },
        "west":  { "uv": [ 12, 0, 16, 16 ], "texture": "#side" },
        "east":  { "uv": [ 0, 0, 4, 16 ], "texture": "#side" }
    }
},
{
    "from": [ 0, 0, 0 ],
    "to": [ 4, 16, 4 ],
    "faces": {
        "north": { "uv": [ 11.5, 0, 16, 16 ], "texture": "#side" },
        "south": { "uv": [ 0, 0, 4.5, 16 ], "texture": "#side" },
        "west":  { "uv": [ 0, 0, 4.5, 16 ], "texture": "#side" },
        "east":  { "uv": [ 11.5, 0, 16, 16 ], "texture": "#side" }
    }
},
{
    "from": [ 12, 0, 12 ],
    "to": [ 16, 16, 16 ],
    "faces": {
        "north": { "uv": [ 0, 0, 4.5, 16 ], "texture": "#side" },
        "south": { "uv": [ 11.5, 0, 16, 16 ], "texture": "#side" },
        "west":  { "uv": [ 11.5, 0, 16, 16 ], "texture": "#side" },
        "east":  { "uv": [ 0, 0, 4.5, 16 ], "texture": "#side" }
    }
},
{
    "from": [ 12, 0, 0 ],
    "to": [ 16, 16, 4 ],
    "faces": {
        "north": { "uv": [ 0, 0, 4, 16 ], "texture": "#side" },
        "south": { "uv": [ 12, 0, 16, 16 ], "texture": "#side" },
        "west":  { "uv": [ 0, 0, 4, 16 ], "texture": "#side" },
        "east":  { "uv": [ 12, 0, 16, 16 ], "texture": "#side" }
    }
},
{
    "from": [ 0, -0.000625, 0 ],
    "to": [ 16, 0, 16 ],
    "faces": {
        "down":  { "uv": [ 16, 16, 0, 0 ], "texture": "#bottom", "cullface": "down" },
        "up":    { "uv": [ 0, 0, 16, 16 ], "texture": "#bottom", "cullface": "down" }
    }
},
{
    "from": [ 0, 16, 0 ],
    "to": [ 16, 16.000625, 16 ],
    "faces": {
        "down":  { "uv": [ 16, 16, 0, 0 ], "texture": "#bottom", "cullface": "up" },
        "up":    { "uv": [ 0, 0, 16, 16 ], "texture": "#bottom", "cullface": "up" }
    }
}
],
"display": {
    "thirdperson_righthand": {
        "rotation": [ 75, 45, 0 ],
        "translation": [ 0, 2.5, 0 ],
        "scale": [ 0.375, 0.375, 0.375 ]
    },
    "thirdperson_lefthand": {
        "rotation": [ 75, 45, 0 ],
        "translation": [ 0, 2.5, 0 ],
        "scale": [ 0.375, 0.375, 0.375 ]
    },
    "head": {
        "rotation": [ 0, 0, 0 ],
        "translation": [ 0, 0, 0 ],
        "scale": [ 1, 1, 1 ]
    },
    "ground": {
        "rotation": [ 0, 0, 0 ],
        "translation": [ 0, 3, 0 ],
        "scale": [ 0.25, 0.25, 0.25 ]
    },
    "fixed": {
        "rotation": [ 0, 0, 0 ],
        "translation": [ 0, 0, 0 ],
        "scale": [ 0.5, 0.5, 0.5 ]
    },
    "firstperson_righthand": {
        "rotation": [ 0, 45, 0 ],
        "translation": [ 0, 0, 0 ],
        "scale": [ 0.4, 0.4, 0.4 ]
    },
    "firstperson_lefthand": {
        "rotation": [ 0, 45, 0 ],
        "translation": [ 0, 0, 0 ],
        "scale": [ 0.4, 0.4, 0.4 ]
    },
    "gui": {
        "rotation": [ 30, 225, 0 ],
        "translation": [ 0, 0, 0 ],
        "scale": [ 0.625, 0.625, 0.625 ]
    }
}
}