{
    "parent": "block/inner_stairs",
    "textures": {
        "bottom": "conquest:blocks/stone8_side",
        "top": "conquest:blocks/stone8_side",
        "side": "conquest:blocks/stone8_side"
    }
}
