{
"parent": "block/parent_verticalslab",
"textures": {
    "texture": "conquest:blocks/stone_basaltnatural_side",
	"top": "conquest:blocks/stone_basaltnatural_top",
	"bottom": "conquest:blocks/stone_basaltnatural_top"
	}
}	