{
"parent": "block/parent_verticalslab",
"textures": {
    "texture": "conquest:blocks/stone_marblenatural",
	"top": "conquest:blocks/stone_marblenatural",
	"bottom": "conquest:blocks/stone_marblenatural"
	}
}	