{
    "parent": "block/parent_arch",
    "textures": {
        "texture": "conquest:blocks/stone_calcite",
        "edge": "conquest:blocks/stone_calcite",
        "side": "conquest:blocks/stone_calcite",
        "side_alt": "conquest:blocks/stone_calcite"
    }
}