{
"parent": "block/parent_windowslit",
"textures": {
    "texture": "conquest:blocks/stonebrick_darkgray",
    "top": "conquest:blocks/stonebrick_darkgray",
	"bottom": "conquest:blocks/stonebrick_darkgray"
	}
}