{
    "parent": "block/outer_stairs",
    "textures": {
        "bottom": "conquest:blocks/stonebrick_darkmudstone",
        "top": "conquest:blocks/stonebrick_darkmudstone",
        "side": "conquest:blocks/stonebrick_darkmudstone"
    }
}
