{
"parent": "block/parent_arch",
"textures": {
    "texture": "conquest:blocks/cobble11",
    "edge": "conquest:blocks/cobble11",
    "side": "conquest:blocks/cobble11",
    "side_alt": "conquest:blocks/cobble11"
}
}