{
    "parent": "conquest:block/anvil_base",
    "textures": {
        "particle": "conquest:blocks/stonebrick_darkgray",
        "body": "conquest:blocks/stonebrick_darkgray",
        "top": "conquest:blocks/stonebrick_darkgray"
    }
}