{
"parent": "block/parent_verticalslab",
"textures": {
    "texture": "conquest:blocks/chiseledstonebrickjungle",
	"top": "conquest:blocks/chiseledstonebrickjungle",
	"bottom": "conquest:blocks/chiseledstonebrickjungle"
	}
}	