{
"parent": "block/parent_windowslit",
"textures": {
    "texture": "conquest:blocks/stonebrick_ruined",
    "top": "conquest:blocks/stonebrick_ruined",
	"bottom": "conquest:blocks/stonebrick_ruined"
	}
}