{
"parent": "block/parent_arch_corner",
"textures": {
    "texture": "conquest:blocks/stone_schist",
    "edge": "conquest:blocks/stone_schist",
    "side": "conquest:blocks/stone_schist",
    "side_alt": "conquest:blocks/stone_schist"
}
}