{
"parent": "block/parent_arch",
"textures": {
    "texture": "conquest:blocks/stonebrick_lightgray",
    "edge": "conquest:blocks/stonebrick_lightgray",
    "side": "conquest:blocks/stonebrick_lightgray",
    "side_alt": "conquest:blocks/stonebrick_lightgray"
}
}