{
    "parent": "block/outer_stairs",
    "textures": {
        "bottom": "conquest:blocks/stone_calcitesmooth",
        "top": "conquest:blocks/stone_calcitesmooth",
        "side": "conquest:blocks/stone_calcitesmooth"
    }
}
