
{
    "parent": "block/outer_stairs",
    "textures": {
        "bottom": "conquest:blocks/stonebrickstairs8",
        "top": "conquest:blocks/stonebrickstairs8",
        "side": "conquest:blocks/stonebrickstairs8"
    }
}