{
"__comment": "Designed by Jugbot with BDcraft Cubik PRO 0.96 Beta - http://bdcraft.net",
"parent": "block/block",
"textures": {
    "particle": "blocks/cobblestone",
    "texture": "blocks/cobblestone",
    "Arrow_slit": "conquest:blocks/arrow_slit_large"
},
"elements": [ 
{
    "from": [ 9, 0, 15 ],
    "to": [ 16, 16, 16 ],
    "faces": {
        "down":  { "uv": [ 7, 16, 0, 15 ], "texture": "#texture" },
        "up":    { "uv": [ 9, 15, 16, 16 ], "texture": "#texture" },
        "north": { "uv": [ 0, 0, 7, 16 ], "texture": "#texture" },
        "south": { "uv": [ 9, 0, 16, 16 ], "texture": "#Arrow_slit" },
        "west":  { "uv": [ 10.5, 0, 11.5, 16 ], "texture": "#Arrow_slit" },
        "east":  { "uv": [ 0, 0, 1, 16 ], "texture": "#texture" }
    }
},
{
    "from": [ 0, 0, 15 ],
    "to": [ 7, 16, 16 ],
    "faces": {
        "down":  { "uv": [ 16, 16, 9, 15 ], "texture": "#texture" },
        "up":    { "uv": [ 0, 15, 7, 16 ], "texture": "#texture" },
        "north": { "uv": [ 9, 0, 16, 16 ], "texture": "#texture" },
        "south": { "uv": [ 0, 0, 7, 16 ], "texture": "#Arrow_slit" },
        "west":  { "uv": [ 15, 0, 16, 16 ], "texture": "#texture" },
        "east":  { "uv": [ 5.5, 0, 6.5, 16 ], "texture": "#Arrow_slit" }
    }
},
{
    "__comment": "Slants",
    "from": [ 9, 0.05, 15 ],
    "to": [ 14.6569, 15.95, 16 ],
    "rotation": { "origin": [ 9, 0.05, 15 ], "axis": "y", "angle": 45 },
    "faces": {
        "down":  { "uv": [ 7, 16, 1.5, 15 ], "texture": "#texture" },
        "up":    { "uv": [ 9, 15, 14.5, 16 ], "texture": "#texture" },
        "north": { "uv": [ 1.5, 0, 7, 16 ], "texture": "#Arrow_slit" },
        "south": { "uv": [ 9, 0, 14.5, 16 ], "texture": "#Arrow_slit" },
        "west":  { "uv": [ 15, 0, 16, 16 ], "texture": "#texture" },
        "east":  { "uv": [ 0, 0, 1, 16 ], "texture": "#texture" }
    }
},
{
    "from": [ 13, 0, 8 ],
    "to": [ 16, 16, 15 ],
    "faces": {
        "down":  { "uv": [ 3, 15, 0, 11 ], "texture": "#texture" },
        "up":    { "uv": [ 13, 11, 16, 15 ], "texture": "#texture" },
        "north": { "uv": [ 0, 0, 3, 16 ], "texture": "#texture" },
        "south": { "uv": [ 13, 0, 16, 16 ], "texture": "#texture" },
        "west":  { "uv": [ 11, 0, 15, 16 ], "texture": "#texture" },
        "east":  { "uv": [ 1, 0, 5, 16 ], "texture": "#texture" }
    }
},
{
    "from": [ 0, 0, 8 ],
    "to": [ 3, 16, 15 ],
    "faces": {
        "down":  { "uv": [ 16, 15, 13, 8 ], "texture": "#texture" },
        "up":    { "uv": [ 0, 8, 3, 15 ], "texture": "#texture" },
        "north": { "uv": [ 13, 0, 16, 16 ], "texture": "#texture" },
        "south": { "uv": [ 0, 0, 3, 16 ], "texture": "#texture" },
        "west":  { "uv": [ 8, 0, 15, 16 ], "texture": "#texture" },
        "east":  { "uv": [ 1, 0, 8, 16 ], "texture": "#texture" }
    }
},
{
    "__comment": "Slants",
    "from": [ 3, 0.05, 11 ],
    "to": [ 8.65685, 15.95, 12 ],
    "rotation": { "origin": [ 3, 0.05, 11 ], "axis": "y", "angle": -45 },
    "faces": {
        "down":  { "uv": [ 13, 12, 7.5, 11 ], "texture": "#texture" },
        "up":    { "uv": [ 3, 11, 8.5, 12 ], "texture": "#texture" },
        "north": { "uv": [ 9, 0, 14.5, 16 ], "texture": "#Arrow_slit" },
        "south": { "uv": [ 1.5, 0, 7, 16 ], "texture": "#Arrow_slit" },
        "west":  { "uv": [ 11, 0, 12, 16 ], "texture": "#texture" },
        "east":  { "uv": [ 4, 0, 5, 16 ], "texture": "#texture" }
    }
},
{
    "from": [ 3, 0, 12.5 ],
    "to": [ 4.5, 16, 15 ],
    "faces": {
        "down":  { "uv": [ 13, 15, 11.5, 12.5 ], "texture": "#texture" },
        "up":    { "uv": [ 3, 12.5, 4.5, 15 ], "texture": "#texture" },
        "north": { "uv": [ 11.5, 0, 13, 16 ], "texture": "#texture" },
        "south": { "uv": [ 3, 0, 4.5, 16 ], "texture": "#texture" },
        "west":  { "uv": [ 12.5, 0, 15, 16 ], "texture": "#texture" },
        "east":  { "uv": [ 1, 0, 3.5, 16 ], "texture": "#texture" }
    }
},
{
    "from": [ 4.5, 0, 14 ],
    "to": [ 5.5, 16, 15 ],
    "faces": {
        "down":  { "uv": [ 11.5, 15, 10.5, 14 ], "texture": "#texture" },
        "up":    { "uv": [ 4.5, 14, 5.5, 15 ], "texture": "#texture" },
        "north": { "uv": [ 10.5, 0, 11.5, 16 ], "texture": "#texture" },
        "south": { "uv": [ 4.5, 0, 5.5, 16 ], "texture": "#texture" },
        "west":  { "uv": [ 14, 0, 15, 16 ], "texture": "#texture" },
        "east":  { "uv": [ 1, 0, 2, 16 ], "texture": "#texture" }
    }
},
{
    "from": [ 11.5, 0, 12.5 ],
    "to": [ 13, 16, 15 ],
    "faces": {
        "down":  { "uv": [ 4.5, 15, 3, 12.5 ], "texture": "#texture" },
        "up":    { "uv": [ 11.5, 12.5, 13, 15 ], "texture": "#texture" },
        "north": { "uv": [ 3, 0, 4.5, 16 ], "texture": "#texture" },
        "south": { "uv": [ 11.5, 0, 13, 16 ], "texture": "#texture" },
        "west":  { "uv": [ 12.5, 0, 15, 16 ], "texture": "#texture" },
        "east":  { "uv": [ 1, 0, 3.5, 16 ], "texture": "#texture" }
    }
},
{
    "from": [ 10.5, 0, 14 ],
    "to": [ 11.5, 16, 15 ],
    "faces": {
        "down":  { "uv": [ 5.5, 15, 4.5, 14 ], "texture": "#texture" },
        "up":    { "uv": [ 10.5, 14, 11.5, 15 ], "texture": "#texture" },
        "north": { "uv": [ 4.5, 0, 5.5, 16 ], "texture": "#texture" },
        "south": { "uv": [ 10.5, 0, 11.5, 16 ], "texture": "#texture" },
        "west":  { "uv": [ 14, 0, 15, 16 ], "texture": "#texture" },
        "east":  { "uv": [ 1, 0, 2, 16 ], "texture": "#texture" }
    }
}
]
}