{
    "parent": "block/outer_stairs",
    "textures": {
        "bottom": "conquest:blocks/roman_hardclay_white",
        "top": "conquest:blocks/roman_hardclay_white",
        "side": "conquest:blocks/roman_hardclay_white"
    }
}
