{
    "parent": "block/inner_stairs",
    "textures": {
        "bottom": "conquest:blocks/roman_hardclay_lime",
        "top": "conquest:blocks/roman_hardclay_lime",
        "side": "conquest:blocks/roman_hardclay_lime"
    }
}
