{
"parent": "block/parent_windowslit",
"textures": {
    "texture": "conquest:blocks/roman_hardclay_brown",
    "top": "conquest:blocks/roman_hardclay_brown",
	"bottom": "conquest:blocks/roman_hardclay_brown"
	}
}