{
    "parent": "block/anvil",
    "textures": {
        "particle": "conquest:blocks/roman_hardclay_green",
        "body": "conquest:blocks/roman_hardclay_green",
        "top": "conquest:blocks/roman_hardclay_green"
    }
}
