{
"parent": "block/parent_corner",
"textures": {
    "texture": "conquest:blocks/roman_hardclay_silver",
	"top": "conquest:blocks/roman_hardclay_silver",
	"bottom": "conquest:blocks/roman_hardclay_silver"
}
}