{
    "parent": "block/stairs",
    "textures": {
        "bottom": "conquest:blocks/clayyellowmesa",
        "top": "conquest:blocks/clayyellowmesa",
        "side": "conquest:blocks/clayyellowmesa"
    }
}
