{
    "parent": "block/stairs",
    "textures": {
        "bottom": "conquest:blocks/roman_hardclay_brown",
        "top": "conquest:blocks/roman_hardclay_brown",
        "side": "conquest:blocks/roman_hardclay_brown"
    }
}
