{
"__comment": "Designed by Jugbot with BDcraft Cubik PRO 0.96 Beta - http://bdcraft.net",
"parent": "block/block",
"textures": {
    "particle": "conquest:blocks/cauldronfrozenocean_top",
    "texture": "conquest:blocks/table_full",
    "planks_oak": "conquest:blocks/cauldronfrozenocean_top"
},
"elements": [ 
{
    "__comment": "Top",
    "from": [ 0, 13, 0 ],
    "to": [ 16, 16, 16 ],
    "faces": {
        "down":  { "uv": [ 16, 16, 0, 0 ], "texture": "#planks_oak" },
        "up":    { "uv": [ 0, 0, 16, 16 ], "texture": "#planks_oak" },
        "north": { "uv": [ 0, 0, 16, 3 ], "texture": "#texture" },
        "south": { "uv": [ 0, 0, 16, 3 ], "texture": "#texture" },
        "west":  { "uv": [ 0, 0, 16, 3 ], "texture": "#texture" },
        "east":  { "uv": [ 0, 0, 16, 3 ], "texture": "#texture" }
    }
},
{
    "__comment": "LegNW",
    "from": [ 12, 0, 0 ],
    "to": [ 16, 1, 4 ],
    "faces": {
        "down":  { "uv": [ 16, 9.5, 12.5, 6 ], "texture": "#texture" },
        "up":    { "uv": [ 0, 8, 3.5, 11.5 ], "texture": "#texture" },
        "north": { "uv": [ 12.5, 15, 16, 16 ], "texture": "#texture" },
        "south": { "uv": [ 0, 15, 3.5, 16 ], "texture": "#texture" },
        "west":  { "uv": [ 0, 15, 3.5, 16 ], "texture": "#texture" },
        "east":  { "uv": [ 12.5, 15, 16, 16 ], "texture": "#texture" }
    }
},
{
    "__comment": "LegNW",
    "from": [ 12, 1.5, 0 ],
    "to": [ 16, 13, 4 ],
    "faces": {
        "down":  { "uv": [ 16, 10.5, 12.5, 7 ], "texture": "#texture" },
        "up":    { "uv": [ 0, 6, 3.5, 9.5 ], "texture": "#texture" },
        "north": { "uv": [ 12.5, 3, 16, 14.5 ], "texture": "#texture" },
        "south": { "uv": [ 0, 3, 3.5, 14.5 ], "texture": "#texture" },
        "west":  { "uv": [ 0, 3, 3.5, 14.5 ], "texture": "#texture" },
        "east":  { "uv": [ 12.5, 3, 16, 14.5 ], "texture": "#texture" }
    }
},
{
    "__comment": "LegNW",
    "from": [ 12.5, 1, 0.5 ],
    "to": [ 15.5, 1.5, 3.5 ],
    "faces": {
        "down":  { "uv": [ 3.5, 3.5, 0.5, 0.5 ], "texture": "#texture" },
        "up":    { "uv": [ 12.5, 0.5, 15.5, 3.5 ], "texture": "#texture" },
        "north": { "uv": [ 0.5, 14.5, 3.5, 15 ], "texture": "#texture" },
        "south": { "uv": [ 12.5, 14.5, 15.5, 15 ], "texture": "#texture" },
        "west":  { "uv": [ 0.5, 14.5, 3.5, 15 ], "texture": "#texture" },
        "east":  { "uv": [ 12.5, 14.5, 15.5, 15 ], "texture": "#texture" }
    }
},
{
    "__comment": "PlaneN",
    "from": [ 0, 0, 0.5 ],
    "to": [ 16, 13, 0.5625 ],
    "faces": {
        "north": { "uv": [ 0, 3, 16, 16 ], "texture": "#texture" },
        "south": { "uv": [ 0, 3, 16, 16 ], "texture": "#texture" }
    }
},
{
    "__comment": "PlaneS",
    "from": [ 0, 0, 15.5 ],
    "to": [ 16, 13, 15.5625 ],
    "faces": {
        "north": { "uv": [ 0, 3, 16, 16 ], "texture": "#texture" },
        "south": { "uv": [ 0, 3, 16, 16 ], "texture": "#texture" }
    }
},
{
    "__comment": "PlaneE",
    "from": [ 15.5, 0, 0 ],
    "to": [ 15.5625, 13, 16 ],
    "faces": {
        "west":  { "uv": [ 0, 3, 16, 16 ], "texture": "#texture" },
        "east":  { "uv": [ 0, 3, 16, 16 ], "texture": "#texture" }
    }
},
{
    "__comment": "PlaneW",
    "from": [ 0.5, 0, 0 ],
    "to": [ 0.5625, 13, 16 ],
    "faces": {
        "west":  { "uv": [ 0, 3, 16, 16 ], "texture": "#texture" },
        "east":  { "uv": [ 0, 3, 16, 16 ], "texture": "#texture" }
    }
},
{
    "__comment": "LegNW*",
    "from": [ 12, 0, 12 ],
    "to": [ 16, 1, 16 ],
    "faces": {
        "down":  { "uv": [ 16, 9.5, 12.5, 6 ], "texture": "#texture" },
        "up":    { "uv": [ 0, 8, 3.5, 11.5 ], "texture": "#texture" },
        "north": { "uv": [ 12.5, 15, 16, 16 ], "texture": "#texture" },
        "south": { "uv": [ 0, 15, 3.5, 16 ], "texture": "#texture" },
        "west":  { "uv": [ 0, 15, 3.5, 16 ], "texture": "#texture" },
        "east":  { "uv": [ 12.5, 15, 16, 16 ], "texture": "#texture" }
    }
},
{
    "__comment": "LegNW*",
    "from": [ 12, 1.5, 12 ],
    "to": [ 16, 13, 16 ],
    "faces": {
        "down":  { "uv": [ 16, 10.5, 12.5, 7 ], "texture": "#texture" },
        "up":    { "uv": [ 0, 6, 3.5, 9.5 ], "texture": "#texture" },
        "north": { "uv": [ 12.5, 3, 16, 14.5 ], "texture": "#texture" },
        "south": { "uv": [ 0, 3, 3.5, 14.5 ], "texture": "#texture" },
        "west":  { "uv": [ 0, 3, 3.5, 14.5 ], "texture": "#texture" },
        "east":  { "uv": [ 12.5, 3, 16, 14.5 ], "texture": "#texture" }
    }
},
{
    "__comment": "LegNW*",
    "from": [ 12.5, 1, 12.5 ],
    "to": [ 15.5, 1.5, 15.5 ],
    "faces": {
        "down":  { "uv": [ 3.5, 15.5, 0.5, 12.5 ], "texture": "#texture" },
        "up":    { "uv": [ 12.5, 12.5, 15.5, 15.5 ], "texture": "#texture" },
        "north": { "uv": [ 0.5, 14.5, 3.5, 15 ], "texture": "#texture" },
        "south": { "uv": [ 12.5, 14.5, 15.5, 15 ], "texture": "#texture" },
        "west":  { "uv": [ 12.5, 14.5, 15.5, 15 ], "texture": "#texture" },
        "east":  { "uv": [ 0.5, 14.5, 3.5, 15 ], "texture": "#texture" }
    }
},
{
    "__comment": "LegNW*",
    "from": [ 0, 0, 12 ],
    "to": [ 4, 1, 16 ],
    "faces": {
        "down":  { "uv": [ 16, 9.5, 12.5, 6 ], "texture": "#texture" },
        "up":    { "uv": [ 0, 8, 3.5, 11.5 ], "texture": "#texture" },
        "north": { "uv": [ 12.5, 15, 16, 16 ], "texture": "#texture" },
        "south": { "uv": [ 0, 15, 3.5, 16 ], "texture": "#texture" },
        "west":  { "uv": [ 0, 15, 3.5, 16 ], "texture": "#texture" },
        "east":  { "uv": [ 12.5, 15, 16, 16 ], "texture": "#texture" }
    }
},
{
    "__comment": "LegNW*",
    "from": [ 0, 1.5, 12 ],
    "to": [ 4, 13, 16 ],
    "faces": {
        "down":  { "uv": [ 16, 10.5, 12.5, 7 ], "texture": "#texture" },
        "up":    { "uv": [ 0, 6, 3.5, 9.5 ], "texture": "#texture" },
        "north": { "uv": [ 12.5, 3, 16, 14.5 ], "texture": "#texture" },
        "south": { "uv": [ 0, 3, 3.5, 14.5 ], "texture": "#texture" },
        "west":  { "uv": [ 0, 3, 3.5, 14.5 ], "texture": "#texture" },
        "east":  { "uv": [ 12.5, 3, 16, 14.5 ], "texture": "#texture" }
    }
},
{
    "__comment": "LegNW*",
    "from": [ 0.5, 1, 12.5 ],
    "to": [ 3.5, 1.5, 15.5 ],
    "faces": {
        "down":  { "uv": [ 15.5, 15.5, 12.5, 12.5 ], "texture": "#texture" },
        "up":    { "uv": [ 0.5, 12.5, 3.5, 15.5 ], "texture": "#texture" },
        "north": { "uv": [ 12.5, 14.5, 15.5, 15 ], "texture": "#texture" },
        "south": { "uv": [ 0.5, 14.5, 3.5, 15 ], "texture": "#texture" },
        "west":  { "uv": [ 12.5, 14.5, 15.5, 15 ], "texture": "#texture" },
        "east":  { "uv": [ 0.5, 14.5, 3.5, 15 ], "texture": "#texture" }
    }
},
{
    "__comment": "LegNW*",
    "from": [ 0, 0, 0 ],
    "to": [ 4, 1, 4 ],
    "faces": {
        "down":  { "uv": [ 16, 9.5, 12.5, 6 ], "texture": "#texture" },
        "up":    { "uv": [ 0, 8, 3.5, 11.5 ], "texture": "#texture" },
        "north": { "uv": [ 12.5, 15, 16, 16 ], "texture": "#texture" },
        "south": { "uv": [ 0, 15, 3.5, 16 ], "texture": "#texture" },
        "west":  { "uv": [ 0, 15, 3.5, 16 ], "texture": "#texture" },
        "east":  { "uv": [ 12.5, 15, 16, 16 ], "texture": "#texture" }
    }
},
{
    "__comment": "LegNW*",
    "from": [ 0, 1.5, 0 ],
    "to": [ 4, 13, 4 ],
    "faces": {
        "down":  { "uv": [ 16, 10.5, 12.5, 7 ], "texture": "#texture" },
        "up":    { "uv": [ 0, 6, 3.5, 9.5 ], "texture": "#texture" },
        "north": { "uv": [ 12.5, 3, 16, 14.5 ], "texture": "#texture" },
        "south": { "uv": [ 0, 3, 3.5, 14.5 ], "texture": "#texture" },
        "west":  { "uv": [ 0, 3, 3.5, 14.5 ], "texture": "#texture" },
        "east":  { "uv": [ 12.5, 3, 16, 14.5 ], "texture": "#texture" }
    }
},
{
    "__comment": "LegNW*",
    "from": [ 0.5, 1, 0.5 ],
    "to": [ 3.5, 1.5, 3.5 ],
    "faces": {
        "down":  { "uv": [ 15.5, 3.5, 12.5, 0.5 ], "texture": "#texture" },
        "up":    { "uv": [ 0.5, 0.5, 3.5, 3.5 ], "texture": "#texture" },
        "north": { "uv": [ 12.5, 14.5, 15.5, 15 ], "texture": "#texture" },
        "south": { "uv": [ 0.5, 14.5, 3.5, 15 ], "texture": "#texture" },
        "west":  { "uv": [ 0.5, 14.5, 3.5, 15 ], "texture": "#texture" },
        "east":  { "uv": [ 12.5, 14.5, 15.5, 15 ], "texture": "#texture" }
    }
}
]
}