{
    "parent": "block/outer_stairs",
    "textures": {
        "bottom": "conquest:blocks/tiles_light",
        "top": "conquest:blocks/tiles_light",
        "side": "conquest:blocks/tiles_light"
    }
}
