{
"parent": "block/parent_arch",
"textures": {
    "texture": "conquest:blocks/tiles_arnor",
    "edge": "conquest:blocks/tiles_arnor",
    "side": "conquest:blocks/tiles_arnor",
    "side_alt": "conquest:blocks/tiles_arnor"
}
}