{
	"parent": "block/block",
	"textures": {
		"particle": "blocks/rebellion/blacksmith/tools/hammer_iron",
		"texture": "blocks/rebellion/blacksmith/tools/plain_wood",
		"texture1": "blocks/rebellion/blacksmith/tools/rusty_metal",
		"texture2": "blocks/rebellion/blacksmith/tools/hammer_iron"
	},
	"elements": [
		{
			"__comment": "Cube4",
			"from": [ 12.5, 0, 8.5 ],
			"to": [ 13, 1, 10 ],
			"faces": {
				"down": { "uv": [ 12.5, 6, 13, 7.5 ], "texture": "#texture" },
				"up": { "uv": [ 12.5, 8.5, 13, 10 ], "texture": "#texture" },
				"north": { "uv": [ 3, 15, 3.5, 16 ], "texture": "#texture" },
				"south": { "uv": [ 12.5, 15, 13, 16 ], "texture": "#texture" },
				"west": { "uv": [ 8.5, 15, 10, 16 ], "texture": "#texture" },
				"east": { "uv": [ 6, 15, 7.5, 16 ], "texture": "#texture" }
			}
		},
		{
			"__comment": "Cube4",
			"from": [ -0.5, 3, 7.25 ],
			"to": [ 13.5, 3.5, 7.75 ],
			"faces": {
				"down": { "uv": [ 0, 8.25, 13.5, 8.75 ], "texture": "#texture" },
				"up": { "uv": [ 0, 7.25, 13.5, 7.75 ], "texture": "#texture" },
				"north": { "uv": [ 2.5, 12.5, 16, 13 ], "texture": "#texture" },
				"south": { "uv": [ 0, 12.5, 13.5, 13 ], "texture": "#texture" },
				"west": { "uv": [ 7.25, 12.5, 7.75, 13 ], "texture": "#texture" },
				"east": { "uv": [ 8.25, 12.5, 8.75, 13 ], "texture": "#texture" }
			}
		},
		{
			"__comment": "Cube4",
			"from": [ 12.5, 0, 4.5 ],
			"to": [ 13, 1, 6 ],
			"faces": {
				"down": { "uv": [ 12.5, 10, 13, 11.5 ], "texture": "#texture" },
				"up": { "uv": [ 12.5, 4.5, 13, 6 ], "texture": "#texture" },
				"north": { "uv": [ 3, 15, 3.5, 16 ], "texture": "#texture" },
				"south": { "uv": [ 12.5, 15, 13, 16 ], "texture": "#texture" },
				"west": { "uv": [ 4.5, 15, 6, 16 ], "texture": "#texture" },
				"east": { "uv": [ 10, 15, 11.5, 16 ], "texture": "#texture" }
			}
		},
		{
			"__comment": "Cube4",
			"from": [ 12.5, 1, 4.5 ],
			"to": [ 13, 2, 6.5 ],
			"faces": {
				"down": { "uv": [ 12.5, 9.5, 13, 11.5 ], "texture": "#texture" },
				"up": { "uv": [ 12.5, 4.5, 13, 6.5 ], "texture": "#texture" },
				"north": { "uv": [ 3, 14, 3.5, 15 ], "texture": "#texture" },
				"south": { "uv": [ 12.5, 14, 13, 15 ], "texture": "#texture" },
				"west": { "uv": [ 4.5, 14, 6.5, 15 ], "texture": "#texture" },
				"east": { "uv": [ 9.5, 14, 11.5, 15 ], "texture": "#texture" }
			}
		},
		{
			"__comment": "Cube4",
			"from": [ 12.5, 1, 8 ],
			"to": [ 13, 2, 10 ],
			"faces": {
				"down": { "uv": [ 12.5, 6, 13, 8 ], "texture": "#texture" },
				"up": { "uv": [ 12.5, 8, 13, 10 ], "texture": "#texture" },
				"north": { "uv": [ 3, 14, 3.5, 15 ], "texture": "#texture" },
				"south": { "uv": [ 12.5, 14, 13, 15 ], "texture": "#texture" },
				"west": { "uv": [ 8, 14, 10, 15 ], "texture": "#texture" },
				"east": { "uv": [ 6, 14, 8, 15 ], "texture": "#texture" }
			}
		},
		{
			"__comment": "Cube4",
			"from": [ 12.5, 2, 4.5 ],
			"to": [ 13, 4, 10 ],
			"faces": {
				"down": { "uv": [ 12.5, 6, 13, 11.5 ], "texture": "#texture" },
				"up": { "uv": [ 12.5, 4.5, 13, 10 ], "texture": "#texture" },
				"north": { "uv": [ 3, 12, 3.5, 14 ], "texture": "#texture" },
				"south": { "uv": [ 12.5, 12, 13, 14 ], "texture": "#texture" },
				"west": { "uv": [ 4.5, 12, 10, 14 ], "texture": "#texture" },
				"east": { "uv": [ 6, 12, 11.5, 14 ], "texture": "#texture" }
			}
		},
		{
			"__comment": "Cube4",
			"from": [ 12.5, 4, 5 ],
			"to": [ 13, 8, 9.5 ],
			"faces": {
				"down": { "uv": [ 12.5, 6.5, 13, 11 ], "texture": "#texture" },
				"up": { "uv": [ 12.5, 5, 13, 9.5 ], "texture": "#texture" },
				"north": { "uv": [ 3, 8, 3.5, 12 ], "texture": "#texture" },
				"south": { "uv": [ 12.5, 8, 13, 12 ], "texture": "#texture" },
				"west": { "uv": [ 5, 8, 9.5, 12 ], "texture": "#texture" },
				"east": { "uv": [ 6.5, 8, 11, 12 ], "texture": "#texture" }
			}
		},
		{
			"__comment": "Cube4",
			"from": [ 0, 8, 5.5 ],
			"to": [ 0.5, 11.5, 9 ],
			"faces": {
				"down": { "uv": [ 0, 7, 0.5, 10.5 ], "texture": "#texture" },
				"up": { "uv": [ 0, 5.5, 0.5, 9 ], "texture": "#texture" },
				"north": { "uv": [ 15.5, 4.5, 16, 8 ], "texture": "#texture" },
				"south": { "uv": [ 0, 4.5, 0.5, 8 ], "texture": "#texture" },
				"west": { "uv": [ 5.5, 4.5, 9, 8 ], "texture": "#texture" },
				"east": { "uv": [ 7, 4.5, 10.5, 8 ], "texture": "#texture" }
			}
		},
		{
			"__comment": "Cube4",
			"from": [ 0, 0, 8.5 ],
			"to": [ 0.5, 1, 10 ],
			"faces": {
				"down": { "uv": [ 0, 6, 0.5, 7.5 ], "texture": "#texture" },
				"up": { "uv": [ 0, 8.5, 0.5, 10 ], "texture": "#texture" },
				"north": { "uv": [ 15.5, 15, 16, 16 ], "texture": "#texture" },
				"south": { "uv": [ 0, 15, 0.5, 16 ], "texture": "#texture" },
				"west": { "uv": [ 8.5, 15, 10, 16 ], "texture": "#texture" },
				"east": { "uv": [ 6, 15, 7.5, 16 ], "texture": "#texture" }
			}
		},
		{
			"__comment": "Cube4",
			"from": [ 0, 0, 4.5 ],
			"to": [ 0.5, 1, 6 ],
			"faces": {
				"down": { "uv": [ 0, 10, 0.5, 11.5 ], "texture": "#texture" },
				"up": { "uv": [ 0, 4.5, 0.5, 6 ], "texture": "#texture" },
				"north": { "uv": [ 15.5, 15, 16, 16 ], "texture": "#texture" },
				"south": { "uv": [ 0, 15, 0.5, 16 ], "texture": "#texture" },
				"west": { "uv": [ 4.5, 15, 6, 16 ], "texture": "#texture" },
				"east": { "uv": [ 10, 15, 11.5, 16 ], "texture": "#texture" }
			}
		},
		{
			"__comment": "Cube4",
			"from": [ 0, 1, 4.5 ],
			"to": [ 0.5, 2, 6.5 ],
			"faces": {
				"down": { "uv": [ 0, 9.5, 0.5, 11.5 ], "texture": "#texture" },
				"up": { "uv": [ 0, 4.5, 0.5, 6.5 ], "texture": "#texture" },
				"north": { "uv": [ 15.5, 14, 16, 15 ], "texture": "#texture" },
				"south": { "uv": [ 0, 14, 0.5, 15 ], "texture": "#texture" },
				"west": { "uv": [ 4.5, 14, 6.5, 15 ], "texture": "#texture" },
				"east": { "uv": [ 9.5, 14, 11.5, 15 ], "texture": "#texture" }
			}
		},
		{
			"__comment": "Cube4",
			"from": [ 0, 1, 8 ],
			"to": [ 0.5, 2, 10 ],
			"faces": {
				"down": { "uv": [ 0, 6, 0.5, 8 ], "texture": "#texture" },
				"up": { "uv": [ 0, 8, 0.5, 10 ], "texture": "#texture" },
				"north": { "uv": [ 15.5, 14, 16, 15 ], "texture": "#texture" },
				"south": { "uv": [ 0, 14, 0.5, 15 ], "texture": "#texture" },
				"west": { "uv": [ 8, 14, 10, 15 ], "texture": "#texture" },
				"east": { "uv": [ 6, 14, 8, 15 ], "texture": "#texture" }
			}
		},
		{
			"__comment": "Cube4",
			"from": [ 0, 2, 4.5 ],
			"to": [ 0.5, 4, 10 ],
			"faces": {
				"down": { "uv": [ 0, 6, 0.5, 11.5 ], "texture": "#texture" },
				"up": { "uv": [ 0, 4.5, 0.5, 10 ], "texture": "#texture" },
				"north": { "uv": [ 15.5, 12, 16, 14 ], "texture": "#texture" },
				"south": { "uv": [ 0, 12, 0.5, 14 ], "texture": "#texture" },
				"west": { "uv": [ 4.5, 12, 10, 14 ], "texture": "#texture" },
				"east": { "uv": [ 6, 12, 11.5, 14 ], "texture": "#texture" }
			}
		},
		{
			"__comment": "Cube4",
			"from": [ 0, 4, 5 ],
			"to": [ 0.5, 8, 9.5 ],
			"faces": {
				"down": { "uv": [ 0, 6.5, 0.5, 11 ], "texture": "#texture" },
				"up": { "uv": [ 0, 5, 0.5, 9.5 ], "texture": "#texture" },
				"north": { "uv": [ 15.5, 8, 16, 12 ], "texture": "#texture" },
				"south": { "uv": [ 0, 8, 0.5, 12 ], "texture": "#texture" },
				"west": { "uv": [ 5, 8, 9.5, 12 ], "texture": "#texture" },
				"east": { "uv": [ 6.5, 8, 11, 12 ], "texture": "#texture" }
			}
		},
		{
			"__comment": "Cube4",
			"from": [ 12.5, 8, 5.5 ],
			"to": [ 13, 11.5, 9 ],
			"faces": {
				"down": { "uv": [ 12.5, 7, 13, 10.5 ], "texture": "#texture" },
				"up": { "uv": [ 12.5, 5.5, 13, 9 ], "texture": "#texture" },
				"north": { "uv": [ 3, 4.5, 3.5, 8 ], "texture": "#texture" },
				"south": { "uv": [ 12.5, 4.5, 13, 8 ], "texture": "#texture" },
				"west": { "uv": [ 5.5, 4.5, 9, 8 ], "texture": "#texture" },
				"east": { "uv": [ 7, 4.5, 10.5, 8 ], "texture": "#texture" }
			}
		},
		{
			"__comment": "Cube4",
			"from": [ 0, 12, 6 ],
			"to": [ 0.5, 12.5, 8.5 ],
			"faces": {
				"down": { "uv": [ 0, 7.5, 0.5, 10 ], "texture": "#texture" },
				"up": { "uv": [ 0, 6, 0.5, 8.5 ], "texture": "#texture" },
				"north": { "uv": [ 15.5, 3.5, 16, 4 ], "texture": "#texture" },
				"south": { "uv": [ 0, 3.5, 0.5, 4 ], "texture": "#texture" },
				"west": { "uv": [ 6, 3.5, 8.5, 4 ], "texture": "#texture" },
				"east": { "uv": [ 7.5, 3.5, 10, 4 ], "texture": "#texture" }
			}
		},
		{
			"__comment": "Cube4",
			"from": [ 11.5, 8.875, 6 ],
			"to": [ 12, 9.375, 7 ],
			"faces": {
				"down": { "uv": [ 11.5, 9, 12, 10 ], "texture": "#texture1" },
				"up": { "uv": [ 11.5, 6, 12, 7 ], "texture": "#texture1" },
				"north": { "uv": [ 4, 6.625, 4.5, 7.125 ], "texture": "#texture1" },
				"south": { "uv": [ 11.5, 6.625, 12, 7.125 ], "texture": "#texture1" },
				"west": { "uv": [ 6, 6.625, 7, 7.125 ], "texture": "#texture1" },
				"east": { "uv": [ 9, 6.625, 10, 7.125 ], "texture": "#texture1" }
			}
		},
		{
			"__comment": "Cube4",
			"from": [ -0.5, 11, 7.25 ],
			"to": [ 13.5, 11.5, 7.75 ],
			"faces": {
				"down": { "uv": [ 0, 8.25, 13.5, 8.75 ], "texture": "#texture" },
				"up": { "uv": [ 0, 7.25, 13.5, 7.75 ], "texture": "#texture" },
				"north": { "uv": [ 2.5, 4.5, 16, 5 ], "texture": "#texture" },
				"south": { "uv": [ 0, 4.5, 13.5, 5 ], "texture": "#texture" },
				"west": { "uv": [ 7.25, 4.5, 7.75, 5 ], "texture": "#texture" },
				"east": { "uv": [ 8.25, 4.5, 8.75, 5 ], "texture": "#texture" }
			}
		},
		{
			"__comment": "Cube4",
			"from": [ -0.5, 11.25, 7 ],
			"to": [ 13.5, 11.75, 7.5 ],
			"faces": {
				"down": { "uv": [ 0, 8.5, 13.5, 9 ], "texture": "#texture" },
				"up": { "uv": [ 0, 7, 13.5, 7.5 ], "texture": "#texture" },
				"north": { "uv": [ 2.5, 4.25, 16, 4.75 ], "texture": "#texture" },
				"south": { "uv": [ 0, 4.25, 13.5, 4.75 ], "texture": "#texture" },
				"west": { "uv": [ 7, 4.25, 7.5, 4.75 ], "texture": "#texture" },
				"east": { "uv": [ 8.5, 4.25, 9, 4.75 ], "texture": "#texture" }
			}
		},
		{
			"__comment": "Cube4",
			"from": [ -0.5, 3.25, 7 ],
			"to": [ 13.5, 3.75, 7.5 ],
			"faces": {
				"down": { "uv": [ 0, 8.5, 13.5, 9 ], "texture": "#texture" },
				"up": { "uv": [ 0, 7, 13.5, 7.5 ], "texture": "#texture" },
				"north": { "uv": [ 2.5, 12.25, 16, 12.75 ], "texture": "#texture" },
				"south": { "uv": [ 0, 12.25, 13.5, 12.75 ], "texture": "#texture" },
				"west": { "uv": [ 7, 12.25, 7.5, 12.75 ], "texture": "#texture" },
				"east": { "uv": [ 8.5, 12.25, 9, 12.75 ], "texture": "#texture" }
			}
		},
		{
			"__comment": "Cube4",
			"from": [ -0.5, 10.75, 7 ],
			"to": [ 13.5, 11.25, 7.5 ],
			"faces": {
				"down": { "uv": [ 0, 8.5, 13.5, 9 ], "texture": "#texture" },
				"up": { "uv": [ 0, 7, 13.5, 7.5 ], "texture": "#texture" },
				"north": { "uv": [ 2.5, 4.75, 16, 5.25 ], "texture": "#texture" },
				"south": { "uv": [ 0, 4.75, 13.5, 5.25 ], "texture": "#texture" },
				"west": { "uv": [ 7, 4.75, 7.5, 5.25 ], "texture": "#texture" },
				"east": { "uv": [ 8.5, 4.75, 9, 5.25 ], "texture": "#texture" }
			}
		},
		{
			"__comment": "Cube4",
			"from": [ -0.5, 11, 6.75 ],
			"to": [ 13.5, 11.5, 7.25 ],
			"faces": {
				"down": { "uv": [ 0, 8.75, 13.5, 9.25 ], "texture": "#texture" },
				"up": { "uv": [ 0, 6.75, 13.5, 7.25 ], "texture": "#texture" },
				"north": { "uv": [ 2.5, 4.5, 16, 5 ], "texture": "#texture" },
				"south": { "uv": [ 0, 4.5, 13.5, 5 ], "texture": "#texture" },
				"west": { "uv": [ 6.75, 4.5, 7.25, 5 ], "texture": "#texture" },
				"east": { "uv": [ 8.75, 4.5, 9.25, 5 ], "texture": "#texture" }
			}
		},
		{
			"__comment": "Cube4",
			"from": [ -0.5, 3, 6.75 ],
			"to": [ 13.5, 3.5, 7.25 ],
			"faces": {
				"down": { "uv": [ 0, 8.75, 13.5, 9.25 ], "texture": "#texture" },
				"up": { "uv": [ 0, 6.75, 13.5, 7.25 ], "texture": "#texture" },
				"north": { "uv": [ 2.5, 12.5, 16, 13 ], "texture": "#texture" },
				"south": { "uv": [ 0, 12.5, 13.5, 13 ], "texture": "#texture" },
				"west": { "uv": [ 6.75, 12.5, 7.25, 13 ], "texture": "#texture" },
				"east": { "uv": [ 8.75, 12.5, 9.25, 13 ], "texture": "#texture" }
			}
		},
		{
			"__comment": "Cube4",
			"from": [ -0.5, 2.75, 7 ],
			"to": [ 13.5, 3.25, 7.5 ],
			"faces": {
				"down": { "uv": [ 0, 8.5, 13.5, 9 ], "texture": "#texture" },
				"up": { "uv": [ 0, 7, 13.5, 7.5 ], "texture": "#texture" },
				"north": { "uv": [ 2.5, 12.75, 16, 13.25 ], "texture": "#texture" },
				"south": { "uv": [ 0, 12.75, 13.5, 13.25 ], "texture": "#texture" },
				"west": { "uv": [ 7, 12.75, 7.5, 13.25 ], "texture": "#texture" },
				"east": { "uv": [ 8.5, 12.75, 9, 13.25 ], "texture": "#texture" }
			}
		},
		{
			"__comment": "Cube4",
			"from": [ 0.5, 7, 7 ],
			"to": [ 12.5, 9.5, 7.5 ],
			"faces": {
				"down": { "uv": [ 0.5, 8.5, 12.5, 9 ], "texture": "#texture" },
				"up": { "uv": [ 0.5, 7, 12.5, 7.5 ], "texture": "#texture" },
				"north": { "uv": [ 3.5, 6.5, 15.5, 9 ], "texture": "#texture" },
				"south": { "uv": [ 0.5, 6.5, 12.5, 9 ], "texture": "#texture" },
				"west": { "uv": [ 7, 6.5, 7.5, 9 ], "texture": "#texture" },
				"east": { "uv": [ 8.5, 6.5, 9, 9 ], "texture": "#texture" }
			}
		},
		{
			"__comment": "Cube4",
			"from": [ 0, 0, 4.5 ],
			"to": [ 0.5, 1, 6 ],
			"faces": {
				"down": { "uv": [ 0, 10, 0.5, 11.5 ], "texture": "#texture" },
				"up": { "uv": [ 0, 4.5, 0.5, 6 ], "texture": "#texture" },
				"north": { "uv": [ 15.5, 15, 16, 16 ], "texture": "#texture" },
				"south": { "uv": [ 0, 15, 0.5, 16 ], "texture": "#texture" },
				"west": { "uv": [ 4.5, 15, 6, 16 ], "texture": "#texture" },
				"east": { "uv": [ 10, 15, 11.5, 16 ], "texture": "#texture" }
			}
		},
		{
			"__comment": "Cube4",
			"from": [ 0, 0, 8.5 ],
			"to": [ 0.5, 1, 10 ],
			"faces": {
				"down": { "uv": [ 0, 6, 0.5, 7.5 ], "texture": "#texture" },
				"up": { "uv": [ 0, 8.5, 0.5, 10 ], "texture": "#texture" },
				"north": { "uv": [ 15.5, 15, 16, 16 ], "texture": "#texture" },
				"south": { "uv": [ 0, 15, 0.5, 16 ], "texture": "#texture" },
				"west": { "uv": [ 8.5, 15, 10, 16 ], "texture": "#texture" },
				"east": { "uv": [ 6, 15, 7.5, 16 ], "texture": "#texture" }
			}
		},
		{
			"__comment": "Cube4",
			"from": [ 0, 1.75, 7.625 ],
			"to": [ 0.5, 2.25, 8.125 ],
			"faces": {
				"down": { "uv": [ 0, 7.875, 0.5, 8.375 ], "texture": "#texture" },
				"up": { "uv": [ 0, 7.625, 0.5, 8.125 ], "texture": "#texture" },
				"north": { "uv": [ 15.5, 13.75, 16, 14.25 ], "texture": "#texture" },
				"south": { "uv": [ 0, 13.75, 0.5, 14.25 ], "texture": "#texture" },
				"west": { "uv": [ 7.625, 13.75, 8.125, 14.25 ], "texture": "#texture" },
				"east": { "uv": [ 7.875, 13.75, 8.375, 14.25 ], "texture": "#texture" }
			}
		},
		{
			"__comment": "Cube4",
			"from": [ 0, 1, 8 ],
			"to": [ 0.5, 2, 10 ],
			"faces": {
				"down": { "uv": [ 0, 6, 0.5, 8 ], "texture": "#texture" },
				"up": { "uv": [ 0, 8, 0.5, 10 ], "texture": "#texture" },
				"north": { "uv": [ 15.5, 14, 16, 15 ], "texture": "#texture" },
				"south": { "uv": [ 0, 14, 0.5, 15 ], "texture": "#texture" },
				"west": { "uv": [ 8, 14, 10, 15 ], "texture": "#texture" },
				"east": { "uv": [ 6, 14, 8, 15 ], "texture": "#texture" }
			}
		},
		{
			"__comment": "Cube4",
			"from": [ 0, 2, 4.5 ],
			"to": [ 0.5, 4, 10 ],
			"faces": {
				"down": { "uv": [ 0, 6, 0.5, 11.5 ], "texture": "#texture" },
				"up": { "uv": [ 0, 4.5, 0.5, 10 ], "texture": "#texture" },
				"north": { "uv": [ 15.5, 12, 16, 14 ], "texture": "#texture" },
				"south": { "uv": [ 0, 12, 0.5, 14 ], "texture": "#texture" },
				"west": { "uv": [ 4.5, 12, 10, 14 ], "texture": "#texture" },
				"east": { "uv": [ 6, 12, 11.5, 14 ], "texture": "#texture" }
			}
		},
		{
			"__comment": "Cube4",
			"from": [ 12.5, 8, 5.25 ],
			"to": [ 13, 10.5, 5.75 ],
			"faces": {
				"down": { "uv": [ 12.5, 10.25, 13, 10.75 ], "texture": "#texture" },
				"up": { "uv": [ 12.5, 5.25, 13, 5.75 ], "texture": "#texture" },
				"north": { "uv": [ 3, 5.5, 3.5, 8 ], "texture": "#texture" },
				"south": { "uv": [ 12.5, 5.5, 13, 8 ], "texture": "#texture" },
				"west": { "uv": [ 5.25, 5.5, 5.75, 8 ], "texture": "#texture" },
				"east": { "uv": [ 10.25, 5.5, 10.75, 8 ], "texture": "#texture" }
			}
		},
		{
			"__comment": "Cube4",
			"from": [ 0, 12, 6 ],
			"to": [ 0.5, 12.5, 8.5 ],
			"faces": {
				"down": { "uv": [ 0, 7.5, 0.5, 10 ], "texture": "#texture" },
				"up": { "uv": [ 0, 6, 0.5, 8.5 ], "texture": "#texture" },
				"north": { "uv": [ 15.5, 3.5, 16, 4 ], "texture": "#texture" },
				"south": { "uv": [ 0, 3.5, 0.5, 4 ], "texture": "#texture" },
				"west": { "uv": [ 6, 3.5, 8.5, 4 ], "texture": "#texture" },
				"east": { "uv": [ 7.5, 3.5, 10, 4 ], "texture": "#texture" }
			}
		},
		{
			"__comment": "Cube4",
			"from": [ 0, 4, 5 ],
			"to": [ 0.5, 8, 9.5 ],
			"faces": {
				"down": { "uv": [ 0, 6.5, 0.5, 11 ], "texture": "#texture" },
				"up": { "uv": [ 0, 5, 0.5, 9.5 ], "texture": "#texture" },
				"north": { "uv": [ 15.5, 8, 16, 12 ], "texture": "#texture" },
				"south": { "uv": [ 0, 8, 0.5, 12 ], "texture": "#texture" },
				"west": { "uv": [ 5, 8, 9.5, 12 ], "texture": "#texture" },
				"east": { "uv": [ 6.5, 8, 11, 12 ], "texture": "#texture" }
			}
		},
		{
			"__comment": "Cube4",
			"from": [ 0, 4, 9.25 ],
			"to": [ 0.5, 6.5, 9.75 ],
			"faces": {
				"down": { "uv": [ 0, 6.25, 0.5, 6.75 ], "texture": "#texture" },
				"up": { "uv": [ 0, 9.25, 0.5, 9.75 ], "texture": "#texture" },
				"north": { "uv": [ 15.5, 9.5, 16, 12 ], "texture": "#texture" },
				"south": { "uv": [ 0, 9.5, 0.5, 12 ], "texture": "#texture" },
				"west": { "uv": [ 9.25, 9.5, 9.75, 12 ], "texture": "#texture" },
				"east": { "uv": [ 6.25, 9.5, 6.75, 12 ], "texture": "#texture" }
			}
		},
		{
			"__comment": "Cube4",
			"from": [ 12.5, 4, 9.25 ],
			"to": [ 13, 6.5, 9.75 ],
			"faces": {
				"down": { "uv": [ 12.5, 6.25, 13, 6.75 ], "texture": "#texture" },
				"up": { "uv": [ 12.5, 9.25, 13, 9.75 ], "texture": "#texture" },
				"north": { "uv": [ 3, 9.5, 3.5, 12 ], "texture": "#texture" },
				"south": { "uv": [ 12.5, 9.5, 13, 12 ], "texture": "#texture" },
				"west": { "uv": [ 9.25, 9.5, 9.75, 12 ], "texture": "#texture" },
				"east": { "uv": [ 6.25, 9.5, 6.75, 12 ], "texture": "#texture" }
			}
		},
		{
			"__comment": "Cube4",
			"from": [ 0, 8, 5.25 ],
			"to": [ 0.5, 10.5, 5.75 ],
			"faces": {
				"down": { "uv": [ 0, 10.25, 0.5, 10.75 ], "texture": "#texture" },
				"up": { "uv": [ 0, 5.25, 0.5, 5.75 ], "texture": "#texture" },
				"north": { "uv": [ 15.5, 5.5, 16, 8 ], "texture": "#texture" },
				"south": { "uv": [ 0, 5.5, 0.5, 8 ], "texture": "#texture" },
				"west": { "uv": [ 5.25, 5.5, 5.75, 8 ], "texture": "#texture" },
				"east": { "uv": [ 10.25, 5.5, 10.75, 8 ], "texture": "#texture" }
			}
		},
		{
			"__comment": "Cube4",
			"from": [ 0, 4, 4.75 ],
			"to": [ 0.5, 6.5, 5.25 ],
			"faces": {
				"down": { "uv": [ 0, 10.75, 0.5, 11.25 ], "texture": "#texture" },
				"up": { "uv": [ 0, 4.75, 0.5, 5.25 ], "texture": "#texture" },
				"north": { "uv": [ 15.5, 9.5, 16, 12 ], "texture": "#texture" },
				"south": { "uv": [ 0, 9.5, 0.5, 12 ], "texture": "#texture" },
				"west": { "uv": [ 4.75, 9.5, 5.25, 12 ], "texture": "#texture" },
				"east": { "uv": [ 10.75, 9.5, 11.25, 12 ], "texture": "#texture" }
			}
		},
		{
			"__comment": "Cube4",
			"from": [ 12.5, 4, 4.75 ],
			"to": [ 13, 6.5, 5.25 ],
			"faces": {
				"down": { "uv": [ 12.5, 10.75, 13, 11.25 ], "texture": "#texture" },
				"up": { "uv": [ 12.5, 4.75, 13, 5.25 ], "texture": "#texture" },
				"north": { "uv": [ 3, 9.5, 3.5, 12 ], "texture": "#texture" },
				"south": { "uv": [ 12.5, 9.5, 13, 12 ], "texture": "#texture" },
				"west": { "uv": [ 4.75, 9.5, 5.25, 12 ], "texture": "#texture" },
				"east": { "uv": [ 10.75, 9.5, 11.25, 12 ], "texture": "#texture" }
			}
		},
		{
			"__comment": "Cube4",
			"from": [ 0, 8, 8.75 ],
			"to": [ 0.5, 10.5, 9.25 ],
			"faces": {
				"down": { "uv": [ 0, 6.75, 0.5, 7.25 ], "texture": "#texture" },
				"up": { "uv": [ 0, 8.75, 0.5, 9.25 ], "texture": "#texture" },
				"north": { "uv": [ 15.5, 5.5, 16, 8 ], "texture": "#texture" },
				"south": { "uv": [ 0, 5.5, 0.5, 8 ], "texture": "#texture" },
				"west": { "uv": [ 8.75, 5.5, 9.25, 8 ], "texture": "#texture" },
				"east": { "uv": [ 6.75, 5.5, 7.25, 8 ], "texture": "#texture" }
			}
		},
		{
			"__comment": "Cube4",
			"from": [ 12.5, 8, 8.75 ],
			"to": [ 13, 10.5, 9.25 ],
			"faces": {
				"down": { "uv": [ 12.5, 6.75, 13, 7.25 ], "texture": "#texture" },
				"up": { "uv": [ 12.5, 8.75, 13, 9.25 ], "texture": "#texture" },
				"north": { "uv": [ 3, 5.5, 3.5, 8 ], "texture": "#texture" },
				"south": { "uv": [ 12.5, 5.5, 13, 8 ], "texture": "#texture" },
				"west": { "uv": [ 8.75, 5.5, 9.25, 8 ], "texture": "#texture" },
				"east": { "uv": [ 6.75, 5.5, 7.25, 8 ], "texture": "#texture" }
			}
		},
		{
			"__comment": "Cube4",
			"from": [ 12.5, 12, 6 ],
			"to": [ 13, 12.5, 8.5 ],
			"faces": {
				"down": { "uv": [ 12.5, 7.5, 13, 10 ], "texture": "#texture" },
				"up": { "uv": [ 12.5, 6, 13, 8.5 ], "texture": "#texture" },
				"north": { "uv": [ 3, 3.5, 3.5, 4 ], "texture": "#texture" },
				"south": { "uv": [ 12.5, 3.5, 13, 4 ], "texture": "#texture" },
				"west": { "uv": [ 6, 3.5, 8.5, 4 ], "texture": "#texture" },
				"east": { "uv": [ 7.5, 3.5, 10, 4 ], "texture": "#texture" }
			}
		},
		{
			"__comment": "Cube4",
			"from": [ 12.5, 11.25, 5.75 ],
			"to": [ 13, 12.25, 8.75 ],
			"faces": {
				"down": { "uv": [ 12.5, 7.25, 13, 10.25 ], "texture": "#texture" },
				"up": { "uv": [ 12.5, 5.75, 13, 8.75 ], "texture": "#texture" },
				"north": { "uv": [ 3, 3.75, 3.5, 4.75 ], "texture": "#texture" },
				"south": { "uv": [ 12.5, 3.75, 13, 4.75 ], "texture": "#texture" },
				"west": { "uv": [ 5.75, 3.75, 8.75, 4.75 ], "texture": "#texture" },
				"east": { "uv": [ 7.25, 3.75, 10.25, 4.75 ], "texture": "#texture" }
			}
		},
		{
			"__comment": "Cube4",
			"from": [ 0, 11.25, 5.75 ],
			"to": [ 0.5, 12.25, 8.75 ],
			"faces": {
				"down": { "uv": [ 0, 7.25, 0.5, 10.25 ], "texture": "#texture" },
				"up": { "uv": [ 0, 5.75, 0.5, 8.75 ], "texture": "#texture" },
				"north": { "uv": [ 15.5, 3.75, 16, 4.75 ], "texture": "#texture" },
				"south": { "uv": [ 0, 3.75, 0.5, 4.75 ], "texture": "#texture" },
				"west": { "uv": [ 5.75, 3.75, 8.75, 4.75 ], "texture": "#texture" },
				"east": { "uv": [ 7.25, 3.75, 10.25, 4.75 ], "texture": "#texture" }
			}
		},
		{
			"__comment": "Cube4",
			"from": [ 0, 1, 4.5 ],
			"to": [ 0.5, 2, 6.5 ],
			"faces": {
				"down": { "uv": [ 0, 9.5, 0.5, 11.5 ], "texture": "#texture" },
				"up": { "uv": [ 0, 4.5, 0.5, 6.5 ], "texture": "#texture" },
				"north": { "uv": [ 15.5, 14, 16, 15 ], "texture": "#texture" },
				"south": { "uv": [ 0, 14, 0.5, 15 ], "texture": "#texture" },
				"west": { "uv": [ 4.5, 14, 6.5, 15 ], "texture": "#texture" },
				"east": { "uv": [ 9.5, 14, 11.5, 15 ], "texture": "#texture" }
			}
		},
		{
			"__comment": "Cube4",
			"from": [ 12.5, 1.75, 7.625 ],
			"to": [ 13, 2.25, 8.125 ],
			"faces": {
				"down": { "uv": [ 12.5, 7.875, 13, 8.375 ], "texture": "#texture" },
				"up": { "uv": [ 12.5, 7.625, 13, 8.125 ], "texture": "#texture" },
				"north": { "uv": [ 3, 13.75, 3.5, 14.25 ], "texture": "#texture" },
				"south": { "uv": [ 12.5, 13.75, 13, 14.25 ], "texture": "#texture" },
				"west": { "uv": [ 7.625, 13.75, 8.125, 14.25 ], "texture": "#texture" },
				"east": { "uv": [ 7.875, 13.75, 8.375, 14.25 ], "texture": "#texture" }
			}
		},
		{
			"__comment": "Cube4",
			"from": [ 0, 1.75, 6.375 ],
			"to": [ 0.5, 2.25, 6.875 ],
			"faces": {
				"down": { "uv": [ 0, 9.125, 0.5, 9.625 ], "texture": "#texture" },
				"up": { "uv": [ 0, 6.375, 0.5, 6.875 ], "texture": "#texture" },
				"north": { "uv": [ 15.5, 13.75, 16, 14.25 ], "texture": "#texture" },
				"south": { "uv": [ 0, 13.75, 0.5, 14.25 ], "texture": "#texture" },
				"west": { "uv": [ 6.375, 13.75, 6.875, 14.25 ], "texture": "#texture" },
				"east": { "uv": [ 9.125, 13.75, 9.625, 14.25 ], "texture": "#texture" }
			}
		},
		{
			"__comment": "Cube4",
			"from": [ 12.5, 1.75, 6.375 ],
			"to": [ 13, 2.25, 6.875 ],
			"faces": {
				"down": { "uv": [ 12.5, 9.125, 13, 9.625 ], "texture": "#texture" },
				"up": { "uv": [ 12.5, 6.375, 13, 6.875 ], "texture": "#texture" },
				"north": { "uv": [ 3, 13.75, 3.5, 14.25 ], "texture": "#texture" },
				"south": { "uv": [ 12.5, 13.75, 13, 14.25 ], "texture": "#texture" },
				"west": { "uv": [ 6.375, 13.75, 6.875, 14.25 ], "texture": "#texture" },
				"east": { "uv": [ 9.125, 13.75, 9.625, 14.25 ], "texture": "#texture" }
			}
		},
		{
			"__comment": "Cube4",
			"from": [ 1.5, 8.5, 6.75 ],
			"to": [ 11.5, 9, 7.25 ],
			"faces": {
				"down": { "uv": [ 1.5, 8.75, 11.5, 9.25 ], "texture": "#texture" },
				"up": { "uv": [ 1.5, 6.75, 11.5, 7.25 ], "texture": "#texture" },
				"north": { "uv": [ 4.5, 7, 14.5, 7.5 ], "texture": "#texture" },
				"south": { "uv": [ 1.5, 7, 11.5, 7.5 ], "texture": "#texture" },
				"west": { "uv": [ 6.75, 7, 7.25, 7.5 ], "texture": "#texture" },
				"east": { "uv": [ 8.75, 7, 9.25, 7.5 ], "texture": "#texture" }
			}
		},
		{
			"__comment": "Cube4",
			"from": [ 1, 8.875, 6 ],
			"to": [ 1.5, 9.375, 7 ],
			"faces": {
				"down": { "uv": [ 1, 9, 1.5, 10 ], "texture": "#texture1" },
				"up": { "uv": [ 1, 6, 1.5, 7 ], "texture": "#texture1" },
				"north": { "uv": [ 14.5, 6.625, 15, 7.125 ], "texture": "#texture1" },
				"south": { "uv": [ 1, 6.625, 1.5, 7.125 ], "texture": "#texture1" },
				"west": { "uv": [ 6, 6.625, 7, 7.125 ], "texture": "#texture1" },
				"east": { "uv": [ 9, 6.625, 10, 7.125 ], "texture": "#texture1" }
			}
		},
		{
			"__comment": "Cube4",
			"from": [ 1.5, 8.875, 5.5 ],
			"to": [ 11.5, 9.375, 6 ],
			"faces": {
				"down": { "uv": [ 1.5, 10, 11.5, 10.5 ], "texture": "#texture1" },
				"up": { "uv": [ 1.5, 5.5, 11.5, 6 ], "texture": "#texture1" },
				"north": { "uv": [ 4.5, 6.625, 14.5, 7.125 ], "texture": "#texture1" },
				"south": { "uv": [ 1.5, 6.625, 11.5, 7.125 ], "texture": "#texture1" },
				"west": { "uv": [ 5.5, 6.625, 6, 7.125 ], "texture": "#texture1" },
				"east": { "uv": [ 10, 6.625, 10.5, 7.125 ], "texture": "#texture1" }
			}
		},
		{
			"__comment": "Cube4",
			"from": [ 1.875, 2.75, 6 ],
			"to": [ 2.375, 10.25, 6.5 ],
			"faces": {
				"down": { "uv": [ 2, 9.5, 2.5, 10 ], "texture": "#texture" },
				"up": { "uv": [ 2, 6, 2.5, 6.5 ], "texture": "#texture" },
				"north": { "uv": [ 11.5, 3, 12, 13 ], "texture": "#texture" },
				"south": { "uv": [ 2, 5.75, 2.5, 10.75 ], "texture": "#texture" },
				"west": { "uv": [ 6, 5.75, 7, 16 ], "texture": "#texture" },
				"east": { "uv": [ 7, 2, 8, 15 ], "texture": "#texture" }
			}
		},
		{
			"__comment": "Cube4",
			"from": [ 10.5, 4.5, 5 ],
			"to": [ 11, 9.5, 5.5 ],
			"faces": {
				"down": { "uv": [ 10.5, 10.5, 11, 11 ], "texture": "#texture2" },
				"up": { "uv": [ 10.5, 5, 11, 5.5 ], "texture": "#texture2" },
				"north": { "uv": [ 5, 6.5, 6, 15.5 ], "texture": "#texture2" },
				"south": { "uv": [ 10, 4, 11, 14 ], "texture": "#texture2" },
				"west": { "uv": [ 4, 0, 5, 12 ], "texture": "#texture2" },
				"east": { "uv": [ 10, 4, 11, 14.5 ], "texture": "#texture2" }
			}
		},
		{
			"__comment": "Cube4",
			"from": [ 8.5, 3, 5 ],
			"to": [ 9, 9.5, 5.5 ],
			"faces": {
				"down": { "uv": [ 8.5, 10.5, 9, 11 ], "texture": "#texture2" },
				"up": { "uv": [ 8.5, 5, 9, 5.5 ], "texture": "#texture2" },
				"north": { "uv": [ 7, 5.5, 8, 16 ], "texture": "#texture2" },
				"south": { "uv": [ 15, 0, 16, 11 ], "texture": "#texture2" },
				"west": { "uv": [ 5, 6.5, 5.5, 13 ], "texture": "#texture2" },
				"east": { "uv": [ 12, 4, 13, 15 ], "texture": "#texture2" }
			}
		},
		{
			"__comment": "Cube4",
			"from": [ 7.5, 3, 6 ],
			"to": [ 8, 10.5, 6.5 ],
			"faces": {
				"down": { "uv": [ 7.5, 9.5, 8, 10 ], "texture": "#texture" },
				"up": { "uv": [ 7.5, 6, 8, 6.5 ], "texture": "#texture" },
				"north": { "uv": [ 7.5, 1.5, 8, 14.5 ], "texture": "#texture" },
				"south": { "uv": [ 11, 0.5, 12, 13.5 ], "texture": "#texture" },
				"west": { "uv": [ 11.5, 0, 12, 12 ], "texture": "#texture" },
				"east": { "uv": [ 1, 1, 2, 13 ], "texture": "#texture" }
			}
		},
		{
			"__comment": "Cube4",
			"from": [ 3.5, 4.5, 5 ],
			"to": [ 4, 9.5, 5.5 ],
			"faces": {
				"down": { "uv": [ 3.5, 10.5, 4, 11 ], "texture": "#texture2" },
				"up": { "uv": [ 3.5, 5, 4, 5.5 ], "texture": "#texture2" },
				"north": { "uv": [ 12, 3.5, 13, 12 ], "texture": "#texture2" },
				"south": { "uv": [ 4, 4.5, 5, 13 ], "texture": "#texture2" },
				"west": { "uv": [ 5, 4, 6, 16 ], "texture": "#texture2" },
				"east": { "uv": [ 10.5, 6.5, 11, 11.5 ], "texture": "#texture2" }
			}
		},
		{
			"__comment": "Cube4",
			"from": [ 5.875, 3.25, 6 ],
			"to": [ 6.375, 10.25, 6.5 ],
			"faces": {
				"down": { "uv": [ 5.875, 9.5, 6.375, 10 ], "texture": "#texture" },
				"up": { "uv": [ 5.875, 6, 6.375, 6.5 ], "texture": "#texture" },
				"north": { "uv": [ 9.625, 5.75, 10.125, 12.75 ], "texture": "#texture" },
				"south": { "uv": [ 5, 0, 6, 11 ], "texture": "#texture" },
				"west": { "uv": [ 6, 5.75, 7, 16 ], "texture": "#texture" },
				"east": { "uv": [ 9.5, 5.75, 10, 12.75 ], "texture": "#texture" }
			}
		},
		{
			"__comment": "Cube4",
			"from": [ 4.5, 10.375, 5 ],
			"to": [ 5, 10.875, 5.5 ],
			"rotation": { "origin": [ 4.5, 10.375, 5 ], "axis": "x", "angle": 22.5 },
			"faces": {
				"down": { "uv": [ 10.5, 10.5, 11, 11 ], "texture": "#texture2", "rotation": 180 },
				"up": { "uv": [ 10.5, 5, 11, 5.5 ], "texture": "#texture2", "rotation": 180 },
				"north": { "uv": [ 10.5, 5, 11, 6 ], "texture": "#texture2" },
				"south": { "uv": [ 5, 5, 5.5, 6 ], "texture": "#texture2" },
				"west": { "uv": [ 10.5, 5, 11, 6 ], "texture": "#texture2" },
				"east": { "uv": [ 5, 5, 5.5, 6 ], "texture": "#texture2" }
			}
		},
		{
			"__comment": "Cube4",
			"from": [ 4.5, 5, 5 ],
			"to": [ 5, 9.5, 5.5 ],
			"faces": {
				"down": { "uv": [ 4.5, 9.5, 5, 10 ], "texture": "#texture2" },
				"up": { "uv": [ 4.5, 6, 5, 6.5 ], "texture": "#texture2" },
				"north": { "uv": [ 11, 6.5, 11.5, 14 ], "texture": "#texture2" },
				"south": { "uv": [ 4, 4, 5, 12 ], "texture": "#texture2" },
				"west": { "uv": [ 7, 6.5, 8, 16 ], "texture": "#texture2" },
				"east": { "uv": [ 0, 3, 1, 13 ], "texture": "#texture2" }
			}
		},
		{
			"__comment": "Cube4",
			"from": [ 8.5, 3, 6 ],
			"to": [ 9, 9.5, 6.5 ],
			"faces": {
				"down": { "uv": [ 8.5, 9.5, 9, 10 ], "texture": "#texture2" },
				"up": { "uv": [ 8.5, 6, 9, 6.5 ], "texture": "#texture2" },
				"north": { "uv": [ 7, 4, 8, 14 ], "texture": "#texture2" },
				"south": { "uv": [ 8, 4, 9, 16 ], "texture": "#texture2" },
				"west": { "uv": [ 6, 0, 7, 12 ], "texture": "#texture2" },
				"east": { "uv": [ 1, 2.5, 2, 14 ], "texture": "#texture2" }
			}
		},
		{
			"__comment": "Cube4",
			"from": [ 3.5, 4.5, 6 ],
			"to": [ 4, 9.5, 6.5 ],
			"faces": {
				"down": { "uv": [ 3.5, 9.5, 4, 10 ], "texture": "#texture2" },
				"up": { "uv": [ 3.5, 6, 4, 6.5 ], "texture": "#texture2" },
				"north": { "uv": [ 11, 3, 12, 12 ], "texture": "#texture2" },
				"south": { "uv": [ 1, 3, 2, 12 ], "texture": "#texture2" },
				"west": { "uv": [ 7, 5, 8, 16 ], "texture": "#texture2" },
				"east": { "uv": [ 9.5, 6.5, 10, 11.5 ], "texture": "#texture2" }
			}
		},
		{
			"__comment": "Cube4",
			"from": [ 10.5, 4.5, 6 ],
			"to": [ 11, 9.5, 6.5 ],
			"faces": {
				"down": { "uv": [ 10.5, 9.5, 11, 10 ], "texture": "#texture2" },
				"up": { "uv": [ 10.5, 6, 11, 6.5 ], "texture": "#texture2" },
				"north": { "uv": [ 5, 4, 6, 13 ], "texture": "#texture2" },
				"south": { "uv": [ 11, 4, 12, 14 ], "texture": "#texture2" },
				"west": { "uv": [ 6, 6.5, 7, 16 ], "texture": "#texture2" },
				"east": { "uv": [ 10, 4.5, 11, 16 ], "texture": "#texture2" }
			}
		},
		{
			"__comment": "Cube4",
			"from": [ 4.5, 9.5, 5.5 ],
			"to": [ 5, 10, 6 ],
			"faces": {
				"down": { "uv": [ 3.5, 10, 4, 10.5 ], "texture": "#texture2" },
				"up": { "uv": [ 3.5, 5.5, 4, 6 ], "texture": "#texture2" },
				"north": { "uv": [ 12, 6, 12.5, 6.5 ], "texture": "#texture2" },
				"south": { "uv": [ 3.5, 6, 4, 6.5 ], "texture": "#texture2" },
				"west": { "uv": [ 5.5, 6, 6, 6.5 ], "texture": "#texture2" },
				"east": { "uv": [ 10, 6, 10.5, 6.5 ], "texture": "#texture2" }
			}
		},
		{
			"__comment": "Cube4",
			"from": [ 4.5, 10.125, 6 ],
			"to": [ 5, 10.625, 6.5 ],
			"rotation": { "origin": [ 4.5, 10.125, 6 ], "axis": "x", "angle": -22.5 },
			"faces": {
				"down": { "uv": [ 10.5, 9.5, 11, 10 ], "texture": "#texture2" },
				"up": { "uv": [ 10.5, 6, 11, 6.5 ], "texture": "#texture2" },
				"north": { "uv": [ 5, 5, 5.5, 6 ], "texture": "#texture2" },
				"south": { "uv": [ 10.5, 5, 11, 6 ], "texture": "#texture2" },
				"west": { "uv": [ 6, 5, 6.5, 6 ], "texture": "#texture2" },
				"east": { "uv": [ 9.5, 5, 10, 6 ], "texture": "#texture2" }
			}
		},
		{
			"__comment": "Cube4",
			"from": [ 3.5, 10.6913, 6.0381 ],
			"to": [ 4, 11.1913, 6.5381 ],
			"rotation": { "origin": [ 3.5, 10.6913, 6.0381 ], "axis": "x", "angle": -22.5 },
			"faces": {
				"down": { "uv": [ 10.5, 10.5, 11, 11 ], "texture": "#texture2", "rotation": 90 },
				"up": { "uv": [ 10.5, 5, 11, 5.5 ], "texture": "#texture2", "rotation": 270 },
				"north": { "uv": [ 10.5, 4.5, 11, 5 ], "texture": "#texture2" },
				"south": { "uv": [ 5, 4.5, 5.5, 5 ], "texture": "#texture2" },
				"west": { "uv": [ 5, 4.5, 5.5, 5 ], "texture": "#texture2" },
				"east": { "uv": [ 10.5, 4.5, 11, 5 ], "texture": "#texture2" }
			}
		},
		{
			"__comment": "Cube4",
			"from": [ 10.5, 9.875, 6 ],
			"to": [ 11, 10.875, 6.5 ],
			"faces": {
				"down": { "uv": [ 10.5, 9.5, 11, 10 ], "texture": "#texture2" },
				"up": { "uv": [ 10.5, 6, 11, 6.5 ], "texture": "#texture2" },
				"north": { "uv": [ 5, 5, 5.5, 6 ], "texture": "#texture2" },
				"south": { "uv": [ 10.5, 5, 11, 6 ], "texture": "#texture2" },
				"west": { "uv": [ 6, 5, 6.5, 6 ], "texture": "#texture2" },
				"east": { "uv": [ 9.5, 5, 10, 6 ], "texture": "#texture2" }
			}
		},
		{
			"__comment": "Cube4",
			"from": [ 10.5, 9.875, 5 ],
			"to": [ 11, 10.875, 5.5 ],
			"faces": {
				"down": { "uv": [ 10.5, 10.5, 11, 11 ], "texture": "#texture2", "rotation": 180 },
				"up": { "uv": [ 10.5, 5, 11, 5.5 ], "texture": "#texture2", "rotation": 180 },
				"north": { "uv": [ 10.5, 5, 11, 6 ], "texture": "#texture2" },
				"south": { "uv": [ 5, 5, 5.5, 6 ], "texture": "#texture2" },
				"west": { "uv": [ 10.5, 5, 11, 6 ], "texture": "#texture2" },
				"east": { "uv": [ 5, 5, 5.5, 6 ], "texture": "#texture2" }
			}
		},
		{
			"__comment": "Cube4",
			"from": [ 10.5, 9.5, 5.5 ],
			"to": [ 11, 10, 6 ],
			"faces": {
				"down": { "uv": [ 10.5, 10, 11, 10.5 ], "texture": "#texture2" },
				"up": { "uv": [ 10.5, 5.5, 11, 6 ], "texture": "#texture2" },
				"north": { "uv": [ 5, 6, 5.5, 6.5 ], "texture": "#texture2" },
				"south": { "uv": [ 10.5, 6, 11, 6.5 ], "texture": "#texture2" },
				"west": { "uv": [ 5.5, 6, 6, 6.5 ], "texture": "#texture2" },
				"east": { "uv": [ 10, 6, 10.5, 6.5 ], "texture": "#texture2" }
			}
		},
		{
			"__comment": "Cube4",
			"from": [ 10.5, 10.875, 5 ],
			"to": [ 11, 11.375, 5.5 ],
			"rotation": { "origin": [ 10.5, 10.875, 5 ], "axis": "x", "angle": 45 },
			"faces": {
				"down": { "uv": [ 10.5, 10.5, 11, 11 ], "texture": "#texture2", "rotation": 270 },
				"up": { "uv": [ 10.5, 5, 11, 5.5 ], "texture": "#texture2", "rotation": 90 },
				"north": { "uv": [ 5, 4.5, 5.5, 5 ], "texture": "#texture2" },
				"south": { "uv": [ 10.5, 4.5, 11, 5 ], "texture": "#texture2" },
				"west": { "uv": [ 10.5, 4.5, 11, 5 ], "texture": "#texture2" },
				"east": { "uv": [ 5, 4.5, 5.5, 5 ], "texture": "#texture2" }
			}
		},
		{
			"__comment": "Cube4",
			"from": [ 10.5, 10.875, 6 ],
			"to": [ 11, 11.375, 6.5 ],
			"rotation": { "origin": [ 10.5, 10.875, 6.5 ], "axis": "x", "angle": -45 },
			"faces": {
				"down": { "uv": [ 11, 5, 10.5, 4.5 ], "texture": "#texture2" },
				"up": { "uv": [ 5, 4.5, 5.5, 5 ], "texture": "#texture2" },
				"north": { "uv": [ 11, 5.5, 10.5, 5 ], "texture": "#texture2", "rotation": 270 },
				"south": { "uv": [ 10.5, 10.5, 11, 11 ], "texture": "#texture2", "rotation": 90 },
				"west": { "uv": [ 5, 4.5, 5.5, 5 ], "texture": "#texture2", "rotation": 270 },
				"east": { "uv": [ 10.5, 4.5, 11, 5 ], "texture": "#texture2", "rotation": 90 }
			}
		},
		{
			"__comment": "Cube4",
			"from": [ 3.5, 10.875, 5 ],
			"to": [ 4, 11.375, 5.5 ],
			"rotation": { "origin": [ 3.5, 10.875, 5 ], "axis": "x", "angle": 22.5 },
			"faces": {
				"down": { "uv": [ 10.5, 10.5, 11, 11 ], "texture": "#texture2", "rotation": 270 },
				"up": { "uv": [ 10.5, 5, 11, 5.5 ], "texture": "#texture2", "rotation": 90 },
				"north": { "uv": [ 5, 4.5, 5.5, 5 ], "texture": "#texture2" },
				"south": { "uv": [ 10.5, 4.5, 11, 5 ], "texture": "#texture2" },
				"west": { "uv": [ 10.5, 4.5, 11, 5 ], "texture": "#texture2" },
				"east": { "uv": [ 5, 4.5, 5.5, 5 ], "texture": "#texture2" }
			}
		},
		{
			"__comment": "Cube4",
			"from": [ 7.625, 9.5, 5.5 ],
			"to": [ 8.125, 10, 7 ],
			"faces": {
				"down": { "uv": [ 7.625, 9, 8.125, 10.5 ], "texture": "#texture2" },
				"up": { "uv": [ 7.625, 5.5, 8.125, 7 ], "texture": "#texture2" },
				"north": { "uv": [ 7.875, 6, 8.375, 6.5 ], "texture": "#texture2" },
				"south": { "uv": [ 7.625, 6, 8.125, 6.5 ], "texture": "#texture2" },
				"west": { "uv": [ 5.5, 6, 7, 6.5 ], "texture": "#texture2" },
				"east": { "uv": [ 9, 6, 10.5, 6.5 ], "texture": "#texture2" }
			}
		},
		{
			"__comment": "Cube4",
			"from": [ 8.5, 10, 5.125 ],
			"to": [ 9, 11, 5.625 ],
			"rotation": { "origin": [ 8.5, 10, 5.125 ], "axis": "x", "angle": 22.5 },
			"faces": {
				"down": { "uv": [ 10.5, 10.5, 11, 11 ], "texture": "#texture2", "rotation": 180 },
				"up": { "uv": [ 10.5, 5, 11, 5.5 ], "texture": "#texture2", "rotation": 180 },
				"north": { "uv": [ 10.5, 5, 11, 6 ], "texture": "#texture2" },
				"south": { "uv": [ 5, 5, 5.5, 6 ], "texture": "#texture2" },
				"west": { "uv": [ 10.5, 5, 11, 6 ], "texture": "#texture2" },
				"east": { "uv": [ 5, 5, 5.5, 6 ], "texture": "#texture2" }
			}
		},
		{
			"__comment": "Cube4",
			"from": [ 8.5, 9.875, 6 ],
			"to": [ 9, 10.875, 6.5 ],
			"rotation": { "origin": [ 8.5, 9.875, 6 ], "axis": "x", "angle": -22.5 },
			"faces": {
				"down": { "uv": [ 10.5, 9.5, 11, 10 ], "texture": "#texture2" },
				"up": { "uv": [ 10.5, 6, 11, 6.5 ], "texture": "#texture2" },
				"north": { "uv": [ 5, 5, 5.5, 6 ], "texture": "#texture2" },
				"south": { "uv": [ 10.5, 5, 11, 6 ], "texture": "#texture2" },
				"west": { "uv": [ 6, 5, 6.5, 6 ], "texture": "#texture2" },
				"east": { "uv": [ 9.5, 5, 10, 6 ], "texture": "#texture2" }
			}
		},
		{
			"__comment": "Cube4",
			"from": [ 8.5, 9.5, 5.5 ],
			"to": [ 9, 10, 6 ],
			"faces": {
				"down": { "uv": [ 8.5, 10, 9, 10.5 ], "texture": "#texture2" },
				"up": { "uv": [ 8.5, 5.5, 9, 6 ], "texture": "#texture2" },
				"north": { "uv": [ 7, 6, 7.5, 6.5 ], "texture": "#texture2" },
				"south": { "uv": [ 8.5, 6, 9, 6.5 ], "texture": "#texture2" },
				"west": { "uv": [ 5.5, 6, 6, 6.5 ], "texture": "#texture2" },
				"east": { "uv": [ 10, 6, 10.5, 6.5 ], "texture": "#texture2" }
			}
		},
		{
			"__comment": "Cube4",
			"from": [ 6.25, 9.5, 5 ],
			"to": [ 6.75, 10, 7.5 ],
			"faces": {
				"down": { "uv": [ 6.25, 8.25, 6.75, 10.75 ], "texture": "#texture2" },
				"up": { "uv": [ 6.25, 5.25, 6.75, 7.75 ], "texture": "#texture2" },
				"north": { "uv": [ 9.25, 6, 9.75, 6.5 ], "texture": "#texture2" },
				"south": { "uv": [ 6.25, 6, 6.75, 6.5 ], "texture": "#texture2" },
				"west": { "uv": [ 5.25, 6, 7.75, 6.5 ], "texture": "#texture2" },
				"east": { "uv": [ 8.25, 6, 10.75, 6.5 ], "texture": "#texture2" }
			}
		},
		{
			"__comment": "Cube4",
			"from": [ 6, 9.375, 4.75 ],
			"to": [ 6.5, 9.875, 7.75 ],
			"faces": {
				"down": { "uv": [ 6, 8, 6.5, 11 ], "texture": "#texture2" },
				"up": { "uv": [ 6, 5, 6.5, 8 ], "texture": "#texture2" },
				"north": { "uv": [ 9.5, 6.125, 10, 6.625 ], "texture": "#texture2" },
				"south": { "uv": [ 6, 6.125, 6.5, 6.625 ], "texture": "#texture2" },
				"west": { "uv": [ 5, 6.125, 8, 6.625 ], "texture": "#texture2" },
				"east": { "uv": [ 8, 6.125, 11, 6.625 ], "texture": "#texture2" }
			}
		},
		{
			"__comment": "Cube4",
			"from": [ 7.25, 9.375, 5 ],
			"to": [ 8.25, 10.375, 7.5 ],
			"faces": {
				"down": { "uv": [ 7.25, 8.25, 8.25, 10.75 ], "texture": "#texture2" },
				"up": { "uv": [ 11, 11, 13, 15 ], "texture": "#texture2" },
				"north": { "uv": [ 0, 14, 2, 16 ], "texture": "#texture2" },
				"south": { "uv": [ 7, 6, 8.75, 7.875 ], "texture": "#texture2" },
				"west": { "uv": [ 11, 8, 15, 10 ], "texture": "#texture2" },
				"east": { "uv": [ 7, 8, 11, 10 ], "texture": "#texture2" }
			}
		},
		{
			"__comment": "Cube4",
			"from": [ 5.75, 9.5, 5 ],
			"to": [ 6.25, 10, 7.5 ],
			"faces": {
				"down": { "uv": [ 5.75, 8.25, 6.25, 10.75 ], "texture": "#texture2" },
				"up": { "uv": [ 5.75, 5.25, 6.25, 7.75 ], "texture": "#texture2" },
				"north": { "uv": [ 9.75, 6, 10.25, 6.5 ], "texture": "#texture2" },
				"south": { "uv": [ 5.75, 6, 6.25, 6.5 ], "texture": "#texture2" },
				"west": { "uv": [ 5.25, 6, 7.75, 6.5 ], "texture": "#texture2" },
				"east": { "uv": [ 8.25, 6, 10.75, 6.5 ], "texture": "#texture2" }
			}
		},
		{
			"__comment": "Cube4",
			"from": [ 1.5, 9.5, 5.75 ],
			"to": [ 2, 10, 7.25 ],
			"faces": {
				"down": { "uv": [ 2, 9, 2.5, 11 ], "texture": "#texture2" },
				"up": { "uv": [ 2, 5, 2.5, 7 ], "texture": "#texture2" },
				"north": { "uv": [ 13.5, 6, 14, 6.5 ], "texture": "#texture2" },
				"south": { "uv": [ 2, 6, 2.5, 6.5 ], "texture": "#texture2" },
				"west": { "uv": [ 5, 6, 7, 6.5 ], "texture": "#texture2" },
				"east": { "uv": [ 9, 6, 11, 6.5 ], "texture": "#texture2" }
			}
		},
		{
			"__comment": "Cube4",
			"from": [ 2.25, 9.5, 5.75 ],
			"to": [ 2.75, 10, 7.25 ],
			"faces": {
				"down": { "uv": [ 2, 9, 2.5, 11 ], "texture": "#texture2" },
				"up": { "uv": [ 2, 5, 2.5, 7 ], "texture": "#texture2" },
				"north": { "uv": [ 13.5, 6, 14, 6.5 ], "texture": "#texture2" },
				"south": { "uv": [ 2, 6, 2.5, 6.5 ], "texture": "#texture2" },
				"west": { "uv": [ 5, 6, 7, 6.5 ], "texture": "#texture2" },
				"east": { "uv": [ 9, 7, 11, 8 ], "texture": "#texture2" }
			}
		},
		{
			"__comment": "Cube4",
			"from": [ 6, 3.25, 6.125 ],
			"to": [ 6.5, 10.25, 6.625 ],
			"faces": {
				"down": { "uv": [ 6, 9.375, 6.5, 9.875 ], "texture": "#texture" },
				"up": { "uv": [ 6, 6.125, 6.5, 6.625 ], "texture": "#texture" },
				"north": { "uv": [ 9.5, 5.75, 10, 12.75 ], "texture": "#texture" },
				"south": { "uv": [ 2, 1, 3, 12 ], "texture": "#texture" },
				"west": { "uv": [ 6.125, 5.75, 6.625, 12.75 ], "texture": "#texture" },
				"east": { "uv": [ 9.375, 5.75, 9.875, 12.75 ], "texture": "#texture" }
			}
		},
		{
			"__comment": "Cube4",
			"from": [ 6.125, 3.25, 6 ],
			"to": [ 6.625, 10.25, 6.5 ],
			"faces": {
				"down": { "uv": [ 6.125, 9.5, 6.625, 10 ], "texture": "#texture" },
				"up": { "uv": [ 6.125, 6, 6.625, 6.5 ], "texture": "#texture" },
				"north": { "uv": [ 9.375, 5.75, 9.875, 12.75 ], "texture": "#texture" },
				"south": { "uv": [ 6.125, 5.75, 6.625, 12.75 ], "texture": "#texture" },
				"west": { "uv": [ 6, 5.75, 6.5, 12.75 ], "texture": "#texture" },
				"east": { "uv": [ 12, 0, 13, 15 ], "texture": "#texture" }
			}
		},
		{
			"__comment": "Cube4",
			"from": [ 6, 3.25, 5.875 ],
			"to": [ 6.5, 10.25, 6.375 ],
			"faces": {
				"down": { "uv": [ 6, 9.625, 6.5, 10.125 ], "texture": "#texture" },
				"up": { "uv": [ 6, 5.875, 6.5, 6.375 ], "texture": "#texture" },
				"north": { "uv": [ 9.5, 3, 10, 14.5 ], "texture": "#texture" },
				"south": { "uv": [ 6, 5.75, 6.5, 12.75 ], "texture": "#texture" },
				"west": { "uv": [ 7, 3.5, 8, 16 ], "texture": "#texture" },
				"east": { "uv": [ 9.625, 5.75, 10.125, 12.75 ], "texture": "#texture" }
			}
		},
		{
			"__comment": "Cube4",
			"from": [ 6, 9.625, 4.75 ],
			"to": [ 6.5, 10.125, 7.75 ],
			"faces": {
				"down": { "uv": [ 6, 8, 6.5, 11 ], "texture": "#texture2" },
				"up": { "uv": [ 6, 5, 6.5, 8 ], "texture": "#texture2" },
				"north": { "uv": [ 9.5, 5.875, 10, 6.375 ], "texture": "#texture2" },
				"south": { "uv": [ 6, 5.875, 6.5, 6.375 ], "texture": "#texture2" },
				"west": { "uv": [ 5, 5.875, 8, 6.375 ], "texture": "#texture2" },
				"east": { "uv": [ 8, 5.875, 11, 6.375 ], "texture": "#texture2" }
			}
		},
		{
			"__comment": "Cube4",
			"from": [ 2, 2.75, 6.25 ],
			"to": [ 2.5, 10.25, 6.75 ],
			"faces": {
				"down": { "uv": [ 2, 9.5, 2.5, 10 ], "texture": "#texture" },
				"up": { "uv": [ 2, 6, 2.5, 6.5 ], "texture": "#texture" },
				"north": { "uv": [ 13.5, 3, 14, 12.5 ], "texture": "#texture" },
				"south": { "uv": [ 2, 5.75, 2.5, 10.75 ], "texture": "#texture" },
				"west": { "uv": [ 6, 5.75, 6.5, 10.75 ], "texture": "#texture" },
				"east": { "uv": [ 10, 2, 11, 15 ], "texture": "#texture" }
			}
		},
		{
			"__comment": "Cube4",
			"from": [ 1.875, 2.75, 6.5 ],
			"to": [ 2.375, 10.25, 7 ],
			"faces": {
				"down": { "uv": [ 2, 9.5, 2.5, 10 ], "texture": "#texture" },
				"up": { "uv": [ 2, 6, 2.5, 6.5 ], "texture": "#texture" },
				"north": { "uv": [ 13.5, 5.75, 14, 10.75 ], "texture": "#texture" },
				"south": { "uv": [ 2, 5.75, 3, 16 ], "texture": "#texture" },
				"west": { "uv": [ 6, 0.5, 7, 11.5 ], "texture": "#texture" },
				"east": { "uv": [ 10, 3, 11, 16 ], "texture": "#texture" }
			}
		},
		{
			"__comment": "Cube4",
			"from": [ 1.75, 2.75, 6.25 ],
			"to": [ 2.25, 10.25, 6.75 ],
			"faces": {
				"down": { "uv": [ 2, 9.5, 2.5, 10 ], "texture": "#texture" },
				"up": { "uv": [ 2, 6, 2.5, 6.5 ], "texture": "#texture" },
				"north": { "uv": [ 13.5, 5.75, 14, 10.75 ], "texture": "#texture" },
				"south": { "uv": [ 1, 1, 2, 11 ], "texture": "#texture" },
				"west": { "uv": [ 4, 4, 5, 16 ], "texture": "#texture" },
				"east": { "uv": [ 9.5, 5.75, 10, 10.75 ], "texture": "#texture" }
			}
		},
		{
			"__comment": "Cube4",
			"from": [ 1.625, 9.25, 5.375 ],
			"to": [ 2.625, 9.75, 7.875 ],
			"faces": {
				"down": { "uv": [ 2, 9, 2.5, 11 ], "texture": "#texture2" },
				"up": { "uv": [ 2, 5, 2.5, 7 ], "texture": "#texture2" },
				"north": { "uv": [ 13.5, 6, 14, 6.5 ], "texture": "#texture2" },
				"south": { "uv": [ 2, 6, 2.5, 6.5 ], "texture": "#texture2" },
				"west": { "uv": [ 5, 6, 7, 6.5 ], "texture": "#texture2" },
				"east": { "uv": [ 9, 7, 11, 8 ], "texture": "#texture2" }
			}
		},
		{
			"__comment": "Cube4",
			"from": [ 3.5, 9.5, 5.5 ],
			"to": [ 4, 10, 6 ],
			"faces": {
				"down": { "uv": [ 3.5, 10, 4, 10.5 ], "texture": "#texture2" },
				"up": { "uv": [ 3.5, 5.5, 4, 6 ], "texture": "#texture2" },
				"north": { "uv": [ 12, 6, 12.5, 6.5 ], "texture": "#texture2" },
				"south": { "uv": [ 3.5, 6, 4, 6.5 ], "texture": "#texture2" },
				"west": { "uv": [ 5.5, 6, 6, 6.5 ], "texture": "#texture2" },
				"east": { "uv": [ 10, 6, 10.5, 6.5 ], "texture": "#texture2" }
			}
		},
		{
			"__comment": "Cube4",
			"from": [ 4.5, 5, 6 ],
			"to": [ 5, 9.5, 6.5 ],
			"faces": {
				"down": { "uv": [ 4.5, 9.5, 5, 10 ], "texture": "#texture2" },
				"up": { "uv": [ 4.5, 6, 5, 6.5 ], "texture": "#texture2" },
				"north": { "uv": [ 11, 6.5, 11.5, 14 ], "texture": "#texture2" },
				"south": { "uv": [ 4, 4, 5, 12 ], "texture": "#texture2" },
				"west": { "uv": [ 7, 6.5, 8, 16 ], "texture": "#texture2" },
				"east": { "uv": [ 0, 3, 1, 13 ], "texture": "#texture2" }
			}
		},
		{
			"__comment": "Cube4",
			"from": [ 3.5, 9.875, 5 ],
			"to": [ 4, 10.875, 5.5 ],
			"faces": {
				"down": { "uv": [ 10.5, 10.5, 11, 11 ], "texture": "#texture2", "rotation": 180 },
				"up": { "uv": [ 10.5, 5, 11, 5.5 ], "texture": "#texture2", "rotation": 180 },
				"north": { "uv": [ 10.5, 5, 11, 6 ], "texture": "#texture2" },
				"south": { "uv": [ 5, 5, 5.5, 6 ], "texture": "#texture2" },
				"west": { "uv": [ 10.5, 5, 11, 6 ], "texture": "#texture2" },
				"east": { "uv": [ 5, 5, 5.5, 6 ], "texture": "#texture2" }
			}
		},
		{
			"__comment": "Cube4",
			"from": [ 3.5, 9.875, 6 ],
			"to": [ 4, 10.875, 6.5 ],
			"faces": {
				"down": { "uv": [ 10.5, 9.5, 11, 10 ], "texture": "#texture2" },
				"up": { "uv": [ 10.5, 6, 11, 6.5 ], "texture": "#texture2" },
				"north": { "uv": [ 5, 5, 5.5, 6 ], "texture": "#texture2" },
				"south": { "uv": [ 10.5, 5, 11, 6 ], "texture": "#texture2" },
				"west": { "uv": [ 6, 5, 6.5, 6 ], "texture": "#texture2" },
				"east": { "uv": [ 9.5, 5, 10, 6 ], "texture": "#texture2" }
			}
		},
		{
			"__comment": "Cube4",
			"from": [ 4.5, 9.875, 6 ],
			"to": [ 5, 10.375, 6.5 ],
			"faces": {
				"down": { "uv": [ 10.5, 9.5, 11, 10 ], "texture": "#texture2" },
				"up": { "uv": [ 10.5, 6, 11, 6.5 ], "texture": "#texture2" },
				"north": { "uv": [ 5, 5, 5.5, 6 ], "texture": "#texture2" },
				"south": { "uv": [ 10.5, 5, 11, 6 ], "texture": "#texture2" },
				"west": { "uv": [ 6, 5, 6.5, 6 ], "texture": "#texture2" },
				"east": { "uv": [ 9.5, 5, 10, 6 ], "texture": "#texture2" }
			}
		},
		{
			"__comment": "Cube4",
			"from": [ 4.5, 9.875, 5 ],
			"to": [ 5, 10.375, 5.5 ],
			"faces": {
				"down": { "uv": [ 10.5, 10.5, 11, 11 ], "texture": "#texture2", "rotation": 180 },
				"up": { "uv": [ 10.5, 5, 11, 5.5 ], "texture": "#texture2", "rotation": 180 },
				"north": { "uv": [ 10.5, 5, 11, 6 ], "texture": "#texture2" },
				"south": { "uv": [ 5, 5, 5.5, 6 ], "texture": "#texture2" },
				"west": { "uv": [ 10.5, 5, 11, 6 ], "texture": "#texture2" },
				"east": { "uv": [ 5, 5, 5.5, 6 ], "texture": "#texture2" }
			}
		},
		{
			"__comment": "Cube4",
			"from": [ 1.625, 9.625, 5.375 ],
			"to": [ 2.625, 10.125, 7.875 ],
			"faces": {
				"down": { "uv": [ 2, 9, 2.5, 11 ], "texture": "#texture2" },
				"up": { "uv": [ 2, 5, 2.5, 7 ], "texture": "#texture2" },
				"north": { "uv": [ 13.5, 6, 14, 6.5 ], "texture": "#texture2" },
				"south": { "uv": [ 2, 6, 2.5, 6.5 ], "texture": "#texture2" },
				"west": { "uv": [ 5, 6, 7, 6.5 ], "texture": "#texture2" },
				"east": { "uv": [ 9, 7, 11, 8 ], "texture": "#texture2" }
			}
		},
		{
			"__comment": "Cube4",
			"from": [ 1.625, 9.5, 5.375 ],
			"to": [ 2.625, 10, 7.875 ],
			"faces": {
				"down": { "uv": [ 2, 9, 2.5, 11 ], "texture": "#texture2" },
				"up": { "uv": [ 2, 5, 2.5, 7 ], "texture": "#texture2" },
				"north": { "uv": [ 13.5, 6, 14, 6.5 ], "texture": "#texture2" },
				"south": { "uv": [ 2, 6, 2.5, 6.5 ], "texture": "#texture2" },
				"west": { "uv": [ 5, 6, 7, 6.5 ], "texture": "#texture2" },
				"east": { "uv": [ 9, 7, 11, 8 ], "texture": "#texture2" }
			}
		}
	]
}