
{
    "parent": "block/cube_bottom_top",
    "textures": {
        "bottom": "conquest:blocks/plank12",
        "top": "conquest:blocks/plank12",
        "side": "conquest:blocks/tudorframe_darkbricknarrowbackslash"
    }
}