{
"__comment": "Designed by Leondonis with BDcraft Cubik PRO 0.96 Beta - http://bdcraft.net",
"parent": "block/block",
"ambientocclusion": false,
"textures": {
    "particle": "conquest:blocks/tudorframe_redbrickslashctm",
	"bottom": "conquest:blocks/plank12",
	"top": "conquest:blocks/plank12",
	"texture": "conquest:blocks/tudorframe_redbrickslashctm",
	"texture1": "conquest:blocks/tudorframe_redbrickbackslashctm"
},
"elements": [ 
{
    "from": [ 0, 0, 8 ],
    "to": [ 16, 16, 16 ],
    "faces": {
        "down":  { "uv": [ 0, 0, 16, 8 ], "texture": "#bottom" },
        "up":    { "uv": [ 0, 8, 16, 16 ], "texture": "#top" },
        "north": { "uv": [ 0, 0, 16, 16 ], "texture": "#texture" },
        "south": { "uv": [ 0, 0, 16, 16 ], "texture": "#texture" },
        "west":  { "uv": [ 0, 0, 8, 16 ], "texture": "#texture1" },
        "east":  { "uv": [ 8, 0, 16, 16 ], "texture": "#texture1" }
    }
}
]
}