{
    "parent": "block/cube",
    "textures": {
        "particle": "conquest:blocks/tudorframe_brickbackslashctm",
        "down": "conquest:blocks/plank12",
        "up": "conquest:blocks/plank12",
        "north": "conquest:blocks/tudorframe_brickslashctm",
        "east": "conquest:blocks/tudorframe_brickbackslashctm",
        "south": "conquest:blocks/tudorframe_brickslashctm",
        "west": "conquest:blocks/tudorframe_brickbackslashctm"
    }
}
