{
    "parent": "block/upper_slab",
    "textures": {
        "bottom": "conquest:blocks/stonebrick_lightgray",
        "top": "conquest:blocks/stonebrick_lightgray",
        "side": "conquest:blocks/stonebrick_lightgray"
    }
}