{
    "parent": "block/upper_slab",
    "textures": {
        "bottom": "conquest:blocks/stone_greenschist",
        "top": "conquest:blocks/stone_greenschist",
        "side": "conquest:blocks/stone_greenschist"
    }
}