{
    "parent": "block/upper_slab",
    "textures": {
        "bottom": "conquest:blocks/painted_planks_dark_blue",
        "top": "conquest:blocks/painted_planks_dark_blue",
        "side": "conquest:blocks/painted_planks_dark_blue"
    }
}