{
    "parent": "block/upper_slab",
    "textures": {
        "bottom": "conquest:blocks/roman_black_block_inscribed1",
        "top": "conquest:blocks/roman_black_block_inscribed1",
        "side": "conquest:blocks/roman_black_block_inscribed1"
    }
}