{
    "parent": "block/upper_slab",
    "textures": {
        "bottom": "conquest:blocks/roman_marble_gray",
        "top": "conquest:blocks/roman_marble_gray",
        "side": "conquest:blocks/roman_marble_gray"
    }
}