{
    "parent": "block/upper_slab",
    "textures": {
        "bottom": "conquest:blocks/acaciaplankbirchforest",
        "top": "conquest:blocks/acaciaplankbirchforest",
        "side": "conquest:blocks/acaciaplankbirchforest"
    }
}
