{
    "parent": "block/upper_slab",
    "textures": {
        "bottom": "conquest:blocks/planks_jungleframe",
        "top": "conquest:blocks/planks_jungleframe",
        "side": "conquest:blocks/planks_jungleframe"
    }
}