{
    "parent": "block/upper_slab",
    "textures": {
        "bottom": "conquest:blocks/roman_marble_block1",
        "top": "conquest:blocks/roman_marble_block1",
        "side": "conquest:blocks/roman_marble_block1"
    }
}