{
    "parent": "block/upper_slab",
    "textures": {
        "bottom": "conquest:blocks/roman_janua",
        "top": "conquest:blocks/roman_janua",
        "side": "conquest:blocks/roman_janua"
    }
}