{
    "parent": "block/upper_slab",
    "textures": {
        "bottom": "conquest:blocks/stoneslab2mesa_top",
        "top": "conquest:blocks/stoneslab2mesa_top",
        "side": "conquest:blocks/stoneslab2mesa_side"
    }
}
