{
    "parent": "block/upper_slab",
    "textures": {
        "bottom": "conquest:blocks/planks_pinesmooth",
        "top": "conquest:blocks/planks_pinesmooth",
        "side": "conquest:blocks/planks_pinesmooth"
    }
}