{
    "parent": "block/upper_slab",
    "textures": {
        "bottom": "conquest:blocks/dark_birch_log",
        "top": "conquest:blocks/dark_birch_log",
        "side": "conquest:blocks/dark_birch_log"
    }
}