{
    "parent": "block/upper_slab",
    "textures": {
        "bottom": "conquest:blocks/rooftile_slatered",
        "top": "conquest:blocks/rooftile_slatered",
        "side": "conquest:blocks/rooftile_slatered"
    }
}