{
    "parent": "block/upper_slab",
    "textures": {
        "bottom": "conquest:blocks/sandstone11",
        "top": "conquest:blocks/sandstone11",
        "side": "conquest:blocks/sandstone11"
    }
}
