{
    "parent": "block/upper_slab",
    "textures": {
        "bottom": "conquest:blocks/stone_chalk",
        "top": "conquest:blocks/stone_chalk",
        "side": "conquest:blocks/stone_chalk"
    }
}