{
    "parent": "block/upper_slab",
    "textures": {
        "bottom": "conquest:blocks/stone_gneiss",
        "top": "conquest:blocks/stone_gneiss",
        "side": "conquest:blocks/stone_gneiss"
    }
}