{
    "parent": "block/upper_slab",
    "textures": {
        "bottom": "conquest:blocks/blackstainedslab_top",
        "top": "conquest:blocks/blackstainedslab_top",
        "side": "conquest:blocks/blackstainedslab_side"
    }
}
