{
    "parent": "block/upper_slab",
    "textures": {
        "bottom": "conquest:blocks/granite_roughnatural",
        "top": "conquest:blocks/granite_roughnatural",
        "side": "conquest:blocks/granite_roughnatural"
    }
}