{
    "parent": "block/upper_slab",
    "textures": {
        "bottom": "conquest:blocks/sandstone_tanroughnatural",
        "top": "conquest:blocks/sandstone_tanroughnatural",
        "side": "conquest:blocks/sandstone_tanroughnatural"
    }
}