{
    "parent": "block/upper_slab",
    "textures": {
        "bottom": "conquest:blocks/stonebrick_ruined",
        "top": "conquest:blocks/stonebrick_ruined",
        "side": "conquest:blocks/stonebrick_ruined"
    }
}