{
    "parent": "block/upper_slab",
    "textures": {
        "bottom": "conquest:blocks/stone_calciterough",
        "top": "conquest:blocks/stone_calciterough",
        "side": "conquest:blocks/stone_calciterough"
    }
}