{
    "parent": "block/upper_slab",
    "textures": {
        "bottom": "conquest:blocks/burned_oak_log",
        "top": "conquest:blocks/burned_oak_log",
        "side": "conquest:blocks/burned_oak_log"
    }
}