{
	"__comment": "Designed by RomanCapitalist with Cubik Studio - https://cubik.studio",
	"parent": "block/block",
	"textures": {
		"particle": "conquest:blocks/roman_base_marble",
		"end": "conquest:blocks/roman_capital_marble_top",
		"side": "conquest:blocks/roman_base_marble"
	},
	"elements": [ 	 
		{
			"__comment": "Long Side",
			"from": [ 0, 8, 0 ],
			"to": [ 16, 16, 16 ],
			"faces": {
				"down": { "uv": [ 0, 0, 16, 16 ], "texture": "#end" },
				"up": { "uv": [ 0, 0, 16, 16 ], "texture": "#end" },
				"north": { "uv": [ 0, 0, 16, 8 ], "texture": "#side" },
				"south": { "uv": [ 0, 0, 16, 8 ], "texture": "#side" },
				"west": { "uv": [ 0, 0, 16, 8 ], "texture": "#side" },
				"east": { "uv": [ 0, 0, 16, 8 ], "texture": "#side" }
			}
		},
		{
			"__comment": "Long Side23",
			"from": [ 16, 12, -4.5 ],
			"to": [ 20.5, 16, 0 ],
			"faces": {
				"down": { "uv": [ 0, 11.5, 4.5, 16 ], "texture": "#end", "cullface": "north" },
				"up": { "uv": [ 0, 11.5, 4.5, 16 ], "texture": "#end", "cullface": "north" },
				"north": { "uv": [ 0, 0, 4.5, 4 ], "texture": "#side", "cullface": "east" },
				"east": { "uv": [ 11.5, 0, 16, 4 ], "texture": "#side", "cullface": "north" }
			}
		},
		{
			"__comment": "Long Side9",
			"from": [ 0, 8, -2 ],
			"to": [ 16, 9.5, 0 ],
			"faces": {
				"down": { "uv": [ 0, 0, 16, 2 ], "texture": "#end", "cullface": "north" },
				"north": { "uv": [ 0, 6.5, 16, 8 ], "texture": "#side", "cullface": "north" }
			}
		},
		{
			"__comment": "Long Side9",
			"from": [ 0, 9.5, -3 ],
			"to": [ 16, 12, 0 ],
			"faces": {
				"down": { "uv": [ 0, 0, 16, 3 ], "texture": "#end", "cullface": "north" },
				"north": { "uv": [ 0, 4, 16, 6.5 ], "texture": "#side", "cullface": "north" }
			}
		},
		{
			"__comment": "Long Side9",
			"from": [ 0, 12, -4.5 ],
			"to": [ 16, 16, 0 ],
			"faces": {
				"down": { "uv": [ 0, 0, 16, 4.5 ], "texture": "#end", "cullface": "north" },
				"up": { "uv": [ 0, 11.5, 16, 16 ], "texture": "#end", "cullface": "north" },
				"north": { "uv": [ 0, 0, 16, 4 ], "texture": "#side", "cullface": "north" }
			}
		},
		{
			"__comment": "Long Side24",
			"from": [ 16, 8, -2 ],
			"to": [ 18, 9.5, 0 ],
			"faces": {
				"down": { "uv": [ 0, 0, 2, 2 ], "texture": "#end", "cullface": "north" },
				"north": { "uv": [ 14, 6.5, 16, 8 ], "texture": "#side", "cullface": "east" },
				"east": { "uv": [ 0, 6.5, 2, 8 ], "texture": "#side", "cullface": "north" }
			}
		},
		{
			"__comment": "Long Side24",
			"from": [ 16, 9.5, -3 ],
			"to": [ 19, 12, 0 ],
			"faces": {
				"down": { "uv": [ 0, 0, 3, 3 ], "texture": "#end", "cullface": "north" },
				"north": { "uv": [ 13, 4, 16, 6.5 ], "texture": "#side", "cullface": "east" },
				"east": { "uv": [ 0, 4, 3, 6.5 ], "texture": "#side", "cullface": "north" }
			}
		},
		{
			"__comment": "Long Side24",
			"from": [ -3, 9.5, -3 ],
			"to": [ 0, 12, 0 ],
			"faces": {
				"down": { "uv": [ 0, 0, 3, 3 ], "texture": "#end", "cullface": "north", "rotation": 90 },
				"north": { "uv": [ 0, 4, 3, 6.5 ], "texture": "#side", "cullface": "west" },
				"west": { "uv": [ 13, 4, 16, 6.5 ], "texture": "#side", "cullface": "north" }
			}
		},
		{
			"__comment": "Long Side23",
			"from": [ -4.5, 12, -4.5 ],
			"to": [ 0, 16, 0 ],
			"faces": {
				"down": { "uv": [ 0, 11.5, 4.5, 16 ], "texture": "#end", "cullface": "north", "rotation": 90 },
				"up": { "uv": [ 0, 11.5, 4.5, 16 ], "texture": "#end", "cullface": "north", "rotation": 270 },
				"north": { "uv": [ 11.5, 0, 16, 4 ], "texture": "#side", "cullface": "west" },
				"west": { "uv": [ 0, 0, 4.5, 4 ], "texture": "#side", "cullface": "north" }
			}
		},
		{
			"__comment": "Long Side9",
			"from": [ -2, 8, 0 ],
			"to": [ 0, 9.5, 16 ],
			"faces": {
				"down": { "uv": [ 0, 0, 16, 2 ], "texture": "#end", "cullface": "west", "rotation": 90 },
				"west": { "uv": [ 0, 6.5, 16, 8 ], "texture": "#side", "cullface": "west" }
			}
		},
		{
			"__comment": "Long Side9",
			"from": [ -3, 9.5, 0 ],
			"to": [ 0, 12, 16 ],
			"faces": {
				"down": { "uv": [ 0, 0, 16, 3 ], "texture": "#end", "cullface": "west", "rotation": 90 },
				"west": { "uv": [ 0, 4, 16, 6.5 ], "texture": "#side", "cullface": "west" }
			}
		},
		{
			"__comment": "Long Side9",
			"from": [ -4.5, 12, 0 ],
			"to": [ 0, 16, 16 ],
			"faces": {
				"down": { "uv": [ 11.5, 0, 16, 16 ], "texture": "#end", "cullface": "west", "rotation": 180 },
				"up": { "uv": [ 0, 0, 4.5, 16 ], "texture": "#end", "cullface": "west", "rotation": 180 },
				"west": { "uv": [ 0, 0, 16, 4 ], "texture": "#side", "cullface": "west" }
			}
		},
		{
			"__comment": "Long Side24",
			"from": [ -2, 8, -2 ],
			"to": [ 0, 9.5, 0 ],
			"faces": {
				"down": { "uv": [ 0, 0, 2, 2 ], "texture": "#end", "cullface": "north", "rotation": 90 },
				"north": { "uv": [ 0, 6.5, 2, 8 ], "texture": "#side", "cullface": "west" },
				"west": { "uv": [ 14, 6.5, 16, 8 ], "texture": "#side", "cullface": "north" }
			}
		},
		{
			"__comment": "Long Side24",
			"from": [ 16, 9.5, 16 ],
			"to": [ 19, 12, 19 ],
			"faces": {
				"down": { "uv": [ 0, 0, 3, 3 ], "texture": "#end", "cullface": "east", "rotation": 270 },
				"south": { "uv": [ 0, 4, 3, 6.5 ], "texture": "#side", "cullface": "east" },
				"east": { "uv": [ 13, 4, 16, 6.5 ], "texture": "#side", "cullface": "south" }
			}
		},
		{
			"__comment": "Long Side23",
			"from": [ 16, 12, 16 ],
			"to": [ 20.5, 16, 20.5 ],
			"faces": {
				"down": { "uv": [ 0, 11.5, 4.5, 16 ], "texture": "#end", "cullface": "east", "rotation": 270 },
				"up": { "uv": [ 0, 11.5, 4.5, 16 ], "texture": "#end", "cullface": "east", "rotation": 90 },
				"south": { "uv": [ 11.5, 0, 16, 4 ], "texture": "#side", "cullface": "east" },
				"east": { "uv": [ 0, 0, 4.5, 4 ], "texture": "#side", "cullface": "south" }
			}
		},
		{
			"__comment": "Long Side9",
			"from": [ 16, 8, 0 ],
			"to": [ 18, 9.5, 16 ],
			"faces": {
				"down": { "uv": [ 0, 0, 16, 2 ], "texture": "#end", "cullface": "east", "rotation": 270 },
				"east": { "uv": [ 0, 6.5, 16, 8 ], "texture": "#side", "cullface": "east" }
			}
		},
		{
			"__comment": "Long Side9",
			"from": [ 16, 9.5, 0 ],
			"to": [ 19, 12, 16 ],
			"faces": {
				"down": { "uv": [ 0, 0, 16, 3 ], "texture": "#end", "cullface": "east", "rotation": 270 },
				"east": { "uv": [ 0, 4, 16, 6.5 ], "texture": "#side", "cullface": "east" }
			}
		},
		{
			"__comment": "Long Side9",
			"from": [ 16, 12, 0 ],
			"to": [ 20.5, 16, 16 ],
			"faces": {
				"down": { "uv": [ 11.5, 0, 16, 16 ], "texture": "#end", "cullface": "east" },
				"up": { "uv": [ 0, 0, 4.5, 16 ], "texture": "#end", "cullface": "east" },
				"east": { "uv": [ 0, 0, 16, 4 ], "texture": "#side", "cullface": "east" }
			}
		},
		{
			"__comment": "Long Side24",
			"from": [ 16, 8, 16 ],
			"to": [ 18, 9.5, 18 ],
			"faces": {
				"down": { "uv": [ 0, 0, 2, 2 ], "texture": "#end", "cullface": "east", "rotation": 270 },
				"south": { "uv": [ 0, 6.5, 2, 8 ], "texture": "#side", "cullface": "east" },
				"east": { "uv": [ 14, 6.5, 16, 8 ], "texture": "#side", "cullface": "south" }
			}
		},
		{
			"__comment": "Long Side24",
			"from": [ -3, 9.5, 16 ],
			"to": [ 0, 12, 19 ],
			"faces": {
				"down": { "uv": [ 0, 0, 3, 3 ], "texture": "#end", "cullface": "south", "rotation": 180 },
				"south": { "uv": [ 13, 4, 16, 6.5 ], "texture": "#side", "cullface": "west" },
				"west": { "uv": [ 0, 4, 3, 6.5 ], "texture": "#side", "cullface": "south" }
			}
		},
		{
			"__comment": "Long Side23",
			"from": [ -4.5, 12, 16 ],
			"to": [ 0, 16, 20.5 ],
			"faces": {
				"down": { "uv": [ 0, 11.5, 4.5, 16 ], "texture": "#end", "cullface": "south", "rotation": 180 },
				"up": { "uv": [ 0, 11.5, 4.5, 16 ], "texture": "#end", "cullface": "south", "rotation": 180 },
				"south": { "uv": [ 0, 0, 4.5, 4 ], "texture": "#side", "cullface": "west" },
				"west": { "uv": [ 11.5, 0, 16, 4 ], "texture": "#side", "cullface": "south" }
			}
		},
		{
			"__comment": "Long Side9",
			"from": [ 0, 8, 16 ],
			"to": [ 16, 9.5, 18 ],
			"faces": {
				"down": { "uv": [ 0, 0, 16, 2 ], "texture": "#end", "cullface": "south", "rotation": 180 },
				"south": { "uv": [ 0, 6.5, 16, 8 ], "texture": "#side", "cullface": "south" }
			}
		},
		{
			"__comment": "Long Side9",
			"from": [ 0, 9.5, 16 ],
			"to": [ 16, 12, 19 ],
			"faces": {
				"down": { "uv": [ 0, 0, 16, 3 ], "texture": "#end", "cullface": "south", "rotation": 180 },
				"south": { "uv": [ 0, 4, 16, 6.5 ], "texture": "#side", "cullface": "south" }
			}
		},
		{
			"__comment": "Long Side9",
			"from": [ 0, 12, 16 ],
			"to": [ 16, 16, 20.5 ],
			"faces": {
				"down": { "uv": [ 11.5, 0, 16, 16 ], "texture": "#end", "cullface": "south", "rotation": 270 },
				"up": { "uv": [ 0, 0, 4.5, 16 ], "texture": "#end", "cullface": "south", "rotation": 90 },
				"south": { "uv": [ 0, 0, 16, 4 ], "texture": "#side", "cullface": "south" }
			}
		},
		{
			"__comment": "Long Side24",
			"from": [ -2, 8, 16 ],
			"to": [ 0, 9.5, 18 ],
			"faces": {
				"down": { "uv": [ 0, 0, 2, 2 ], "texture": "#end", "cullface": "south", "rotation": 180 },
				"south": { "uv": [ 14, 6.5, 16, 8 ], "texture": "#side", "cullface": "west" },
				"west": { "uv": [ 0, 6.5, 2, 8 ], "texture": "#side", "cullface": "south" }
			}
		}
	]
}