{
    "parent": "block/upper_slab",
    "textures": {
        "bottom": "conquest:blocks/stone_schistlichen",
        "top": "conquest:blocks/stone_schistlichen",
        "side": "conquest:blocks/stone_schistlichen"
    }
}