{
    "parent": "block/upper_slab",
    "textures": {
        "bottom": "conquest:blocks/plaster_peachworn",
        "top": "conquest:blocks/plaster_peachworn",
        "side": "conquest:blocks/plaster_peachworn"
    }
}