{
    "parent": "block/upper_slab",
    "textures": {
        "bottom": "conquest:blocks/wall_seashell",
        "top": "conquest:blocks/wall_seashell",
        "side": "conquest:blocks/wall_seashell"
    }
}