{
    "parent": "block/upper_slab",
    "textures": {
        "bottom": "conquest:blocks/painted_planks_lime",
        "top": "conquest:blocks/painted_planks_lime",
        "side": "conquest:blocks/painted_planks_lime"
    }
}