{
    "parent": "block/upper_slab",
    "textures": {
        "bottom": "conquest:blocks/plaster_redlines",
        "top": "conquest:blocks/plaster_redlines",
        "side": "conquest:blocks/plaster_redlines"
    }
}