{
    "parent": "block/upper_slab",
    "textures": {
        "bottom": "conquest:blocks/dirt_mossyrocks",
        "top": "conquest:blocks/dirt_mossyrocks",
        "side": "conquest:blocks/dirt_mossyrocks"
    }
}