{
    "parent": "block/upper_slab",
    "textures": {
        "bottom": "conquest:blocks/ironblock5",
        "top": "conquest:blocks/ironblock5",
        "side": "conquest:blocks/ironblock5"
    }
}
