{
    "parent": "block/upper_slab",
    "textures": {
        "bottom": "conquest:blocks/sandstonestairsextremehills",
        "top": "conquest:blocks/sandstonestairsextremehills",
        "side": "conquest:blocks/sandstonestairsextremehills"
    }
}
