{
    "parent": "block/upper_slab",
    "textures": {
        "bottom": "conquest:blocks/planks_ashcolored",
        "top": "conquest:blocks/planks_ashcolored",
        "side": "conquest:blocks/planks_ashcolored"
    }
}