{
    "parent": "block/upper_slab",
    "textures": {
        "bottom": "conquest:blocks/planks_whitepaintedhorizontal",
        "top": "conquest:blocks/planks_whitepaintedhorizontal",
        "side": "conquest:blocks/planks_whitepaintedhorizontal"
    }
}