{
    "parent": "block/upper_slab",
    "textures": {
        "bottom": "conquest:blocks/sandstone_normaldark",
        "top": "conquest:blocks/sandstone_normaldark",
        "side": "conquest:blocks/sandstone_normaldark"
    }
}