{
    "parent": "block/upper_slab",
    "textures": {
        "bottom": "conquest:blocks/thatch_yellow",
        "top": "conquest:blocks/thatch_yellow",
        "side": "conquest:blocks/thatch_yellow"
    }
}