{
"parent": "block/parent_verticalslab",
"textures": {
    "texture": "conquest:blocks/roman_wool_cyan",
	"top": "conquest:blocks/roman_hardclay_red",
	"bottom": "conquest:blocks/roman_hardclay_red"
	}
}	