{
    "parent": "block/outer_stairs",
    "textures": {
        "bottom": "conquest:blocks/wall_haradorange",
        "top": "conquest:blocks/wall_haradorange",
        "side": "conquest:blocks/wall_haradorange"
    }
}
