{
"parent": "block/parent_arch",
"textures": {
    "texture": "conquest:blocks/wall_mithlondlightblue",
    "edge": "conquest:blocks/wall_mithlondlightblue",
    "side": "conquest:blocks/wall_mithlondlightblue",
    "side_alt": "conquest:blocks/wall_mithlondlightblue"
}
}