{
    "parent": "conquest:block/anvil_body",
    "textures": {
        "particle": "conquest:blocks/roman_hardclay_red",
        "body": "conquest:blocks/roman_hardclay_red",
        "top": "conquest:blocks/roman_hardclay_red"
    }
}