{
"parent": "block/parent_verticalslab",
"textures": {
    "texture": "conquest:blocks/roman_clay_yellow",
	"top": "conquest:blocks/roman_hardclay_silver",
	"bottom": "conquest:blocks/roman_hardclay_silver"
	}
}	