{
    "parent": "block/inner_stairs",
    "textures": {
        "bottom": "conquest:blocks/roman_clay_white",
        "top": "conquest:blocks/roman_clay_white",
        "side": "conquest:blocks/roman_clay_white"
    }
}
