{
    "parent": "block/inner_stairs",
    "textures": {
        "bottom": "conquest:blocks/roman_wool_purple",
        "top": "conquest:blocks/roman_wool_purple",
        "side": "conquest:blocks/roman_wool_purple"
    }
}
