{
"parent": "block/parent_verticalslab",
"textures": {
    "texture": "conquest:blocks/roman_hardclay_black",
	"top": "conquest:blocks/roman_hardclay_black",
	"bottom": "conquest:blocks/roman_hardclay_black"
	}
}	