{
"parent": "block/parent_arch",
"textures": {
    "texture": "conquest:blocks/roman_clay_magenta",
    "edge": "conquest:blocks/roman_clay_magenta",
    "side": "conquest:blocks/roman_clay_magenta",
    "side_alt": "conquest:blocks/roman_clay_magenta"
}
}