{
    "parent": "conquest:block/anvil_base",
    "textures": {
        "particle": "conquest:blocks/wall_haradorange",
        "body": "conquest:blocks/wall_haradorange",
        "top": "conquest:blocks/wall_haradorange"
    }
}