{
"parent": "block/parent_corner",
"textures": {
    "texture": "conquest:blocks/wallpaper_blueyellowclean",
	"top": "conquest:blocks/wallpaper_blueyellowclean",
	"bottom": "conquest:blocks/wallpaper_blueyellowclean"
}
}