{
    "parent": "block/outer_stairs",
    "textures": {
        "bottom": "conquest:blocks/wall_mithlondlightblue",
        "top": "conquest:blocks/wall_mithlondlightblue",
        "side": "conquest:blocks/wall_mithlondlightblue"
    }
}
