{
	"parent": "block/block",
	"__comment": "Designed by Snoku bot with Cubik Studio - https://cubik.studio",
	"textures": {
		"particle": "blocks/rebellion/fences/wattle/fence",
		"texture1": "blocks/rebellion/fences/wattle/fence"
	},
	"elements": [
		{
			"__comment": "Cube1",
			"from": [ 0, 2, 7.5 ],
			"to": [ 4.5, 2.4, 8 ],
			"faces": {
				"down": { "uv": [ 8.5, 10, 9, 14.5 ], "texture": "#texture1", "rotation": 90 },
				"up": { "uv": [ 2.5, 11, 3, 15.5 ], "texture": "#texture1", "rotation": 270 },
				"north": { "uv": [ 10.5, 14, 15, 14.5 ], "texture": "#texture1" },
				"south": { "uv": [ 0.5, 9.5, 5, 10 ], "texture": "#texture1" },
				"west": { "uv": [ 6, 11, 6.5, 11.5 ], "texture": "#texture1" },
				"east": { "uv": [ 14, 13.5, 14.5, 14 ], "texture": "#texture1" }
			}
		},
		{
			"__comment": "Cube1",
			"from": [ 8.0001, 1.9, 8.9999 ],
			"to": [ 12.5001, 2.3, 9.4999 ],
			"faces": {
				"down": { "uv": [ 3.5, 10.5, 4, 15 ], "texture": "#texture1", "rotation": 90 },
				"up": { "uv": [ 7, 9.5, 7.5, 14 ], "texture": "#texture1", "rotation": 270 },
				"north": { "uv": [ 2, 10, 6.5, 10.5 ], "texture": "#texture1" },
				"south": { "uv": [ 9.5, 10, 14, 10.5 ], "texture": "#texture1" },
				"west": { "uv": [ 9.5, 12, 10, 12.5 ], "texture": "#texture1" },
				"east": { "uv": [ 7, 10, 7.5, 10.5 ], "texture": "#texture1" }
			}
		},
		{
			"__comment": "Cube1",
			"from": [ 0, 1.375, 9 ],
			"to": [ 4.5, 1.775, 9.5 ],
			"faces": {
				"down": { "uv": [ 7, 10, 7.5, 14.5 ], "texture": "#texture1", "rotation": 90 },
				"up": { "uv": [ 2.5, 11, 3, 15.5 ], "texture": "#texture1", "rotation": 270 },
				"north": { "uv": [ 10.5, 14, 15, 14.5 ], "texture": "#texture1" },
				"south": { "uv": [ 2, 10, 6.5, 10.5 ], "texture": "#texture1" },
				"west": { "uv": [ 9.5, 12, 10, 12.5 ], "texture": "#texture1" },
				"east": { "uv": [ 5.5, 9.5, 6, 10 ], "texture": "#texture1" }
			}
		},
		{
			"__comment": "Cube1",
			"from": [ 8, 1.475, 7.4999 ],
			"to": [ 12.5, 1.875, 7.9999 ],
			"faces": {
				"down": { "uv": [ 2, 11, 2.5, 15.5 ], "texture": "#texture1", "rotation": 90 },
				"up": { "uv": [ 8.5, 9.5, 9, 14 ], "texture": "#texture1", "rotation": 270 },
				"north": { "uv": [ 0.5, 9.5, 5, 10 ], "texture": "#texture1" },
				"south": { "uv": [ 9.5, 9, 14, 9.5 ], "texture": "#texture1" },
				"west": { "uv": [ 7, 9.5, 7.5, 10 ], "texture": "#texture1" },
				"east": { "uv": [ 8, 9.5, 8.5, 10 ], "texture": "#texture1" }
			}
		},
		{
			"__comment": "Cube1",
			"from": [ 8.0001, 2.875, 8.9999 ],
			"to": [ 12.5001, 3.375, 9.4999 ],
			"faces": {
				"down": { "uv": [ 3.5, 10, 4, 14.5 ], "texture": "#texture1", "rotation": 90 },
				"up": { "uv": [ 7, 9.5, 7.5, 14 ], "texture": "#texture1", "rotation": 270 },
				"north": { "uv": [ 2, 9.5, 6.5, 10 ], "texture": "#texture1" },
				"south": { "uv": [ 11.5, 11, 16, 11.5 ], "texture": "#texture1" },
				"west": { "uv": [ 9.5, 9.5, 10, 10 ], "texture": "#texture1" },
				"east": { "uv": [ 8, 11.5, 8.5, 12 ], "texture": "#texture1" }
			}
		},
		{
			"__comment": "Cube1",
			"from": [ 0, 2.875, 7.5 ],
			"to": [ 4.5, 3.375, 8 ],
			"faces": {
				"down": { "uv": [ 8.5, 10, 9, 14.5 ], "texture": "#texture1", "rotation": 90 },
				"up": { "uv": [ 2.5, 10, 3, 14.5 ], "texture": "#texture1", "rotation": 270 },
				"north": { "uv": [ 4, 10, 8.5, 10.5 ], "texture": "#texture1" },
				"south": { "uv": [ 1, 14, 5.5, 14.5 ], "texture": "#texture1" },
				"west": { "uv": [ 7.5, 13, 8, 13.5 ], "texture": "#texture1" },
				"east": { "uv": [ 8, 11, 8.5, 11.5 ], "texture": "#texture1" }
			}
		},
		{
			"__comment": "Cube1",
			"from": [ 10.9745, 1.8, 13.6693 ],
			"to": [ 14.9745, 2.2, 14.1693 ],
			"rotation": { "origin": [ 0, 2, 8 ], "axis": "y", "angle": 22.5 },
			"faces": {
				"down": { "uv": [ 4.5, 10, 5, 14 ], "texture": "#texture1", "rotation": 90 },
				"up": { "uv": [ 7, 10, 7.5, 14 ], "texture": "#texture1", "rotation": 270 },
				"north": { "uv": [ 6, 9.5, 10, 10 ], "texture": "#texture1" },
				"south": { "uv": [ 6.5, 10, 10.5, 10.5 ], "texture": "#texture1" },
				"west": { "uv": [ 9.5, 10, 10, 10.5 ], "texture": "#texture1" },
				"east": { "uv": [ 7, 9.5, 7.5, 10 ], "texture": "#texture1" }
			}
		},
		{
			"__comment": "Cube1",
			"from": [ 10.9745, 2.75, 13.6693 ],
			"to": [ 14.9745, 3.25, 14.1693 ],
			"rotation": { "origin": [ 0, 2, 8 ], "axis": "y", "angle": 22.5 },
			"faces": {
				"down": { "uv": [ 7, 9.5, 7.5, 13.5 ], "texture": "#texture1", "rotation": 90 },
				"up": { "uv": [ 6.5, 9, 7, 13 ], "texture": "#texture1", "rotation": 270 },
				"north": { "uv": [ 5.5, 12, 9.5, 12.5 ], "texture": "#texture1" },
				"south": { "uv": [ 6, 10, 10, 10.5 ], "texture": "#texture1" },
				"west": { "uv": [ 8, 11, 8.5, 11.5 ], "texture": "#texture1" },
				"east": { "uv": [ 7, 11, 7.5, 11.5 ], "texture": "#texture1" }
			}
		},
		{
			"__comment": "Cube1",
			"from": [ 11.433, 1.375, 2.7643 ],
			"to": [ 15.433, 1.775, 3.2643 ],
			"rotation": { "origin": [ 0, 2, 8 ], "axis": "y", "angle": -22.5 },
			"faces": {
				"down": { "uv": [ 6, 10.5, 6.5, 14.5 ], "texture": "#texture1", "rotation": 90 },
				"up": { "uv": [ 8.5, 9.5, 9, 13.5 ], "texture": "#texture1", "rotation": 270 },
				"north": { "uv": [ 6, 9.5, 10, 10 ], "texture": "#texture1" },
				"south": { "uv": [ 2.5, 12, 6.5, 12.5 ], "texture": "#texture1" },
				"west": { "uv": [ 8, 12, 8.5, 12.5 ], "texture": "#texture1" },
				"east": { "uv": [ 8.5, 11.5, 9, 12 ], "texture": "#texture1" }
			}
		},
		{
			"__comment": "Cube1",
			"from": [ 4.042, 3, 5.8258 ],
			"to": [ 8.042, 3.5, 6.3258 ],
			"rotation": { "origin": [ 0, 2, 8 ], "axis": "y", "angle": -22.5 },
			"faces": {
				"down": { "uv": [ 7.5, 9.5, 8, 13.5 ], "texture": "#texture1", "rotation": 90 },
				"up": { "uv": [ 8.5, 9.5, 9, 13.5 ], "texture": "#texture1", "rotation": 270 },
				"north": { "uv": [ 6.5, 9.5, 10.5, 10 ], "texture": "#texture1" },
				"south": { "uv": [ 7, 9.5, 11, 10 ], "texture": "#texture1" },
				"west": { "uv": [ 8, 12, 8.5, 12.5 ], "texture": "#texture1" },
				"east": { "uv": [ 7.5, 12, 8, 12.5 ], "texture": "#texture1" }
			}
		},
		{
			"__comment": "Cube1",
			"from": [ 4.042, 2, 5.8258 ],
			"to": [ 8.042, 2.4, 6.3258 ],
			"rotation": { "origin": [ 0, 2, 8 ], "axis": "y", "angle": -22.5 },
			"faces": {
				"down": { "uv": [ 6, 10.5, 6.5, 14.5 ], "texture": "#texture1", "rotation": 90 },
				"up": { "uv": [ 8.5, 9.5, 9, 13.5 ], "texture": "#texture1", "rotation": 270 },
				"north": { "uv": [ 6, 9.5, 10, 10 ], "texture": "#texture1" },
				"south": { "uv": [ 2.5, 12, 6.5, 12.5 ], "texture": "#texture1" },
				"west": { "uv": [ 8, 12, 8.5, 12.5 ], "texture": "#texture1" },
				"east": { "uv": [ 8.5, 11.5, 9, 12 ], "texture": "#texture1" }
			}
		},
		{
			"__comment": "Cube1",
			"from": [ 3.5834, 1.575, 10.6079 ],
			"to": [ 7.5834, 1.975, 11.1079 ],
			"rotation": { "origin": [ 0, 2, 8 ], "axis": "y", "angle": 22.5 },
			"faces": {
				"down": { "uv": [ 4.5, 10, 5, 14 ], "texture": "#texture1", "rotation": 90 },
				"up": { "uv": [ 7, 10, 7.5, 14 ], "texture": "#texture1", "rotation": 270 },
				"north": { "uv": [ 6, 9.5, 10, 10 ], "texture": "#texture1" },
				"south": { "uv": [ 6.5, 10, 10.5, 10.5 ], "texture": "#texture1" },
				"west": { "uv": [ 9.5, 10, 10, 10.5 ], "texture": "#texture1" },
				"east": { "uv": [ 7, 9.5, 7.5, 10 ], "texture": "#texture1" }
			}
		},
		{
			"__comment": "Cube1",
			"from": [ 3.5834, 7.75, 10.6079 ],
			"to": [ 7.5834, 8.25, 11.1079 ],
			"rotation": { "origin": [ 0, 2, 8 ], "axis": "y", "angle": 22.5 },
			"faces": {
				"down": { "uv": [ 4.5, 10, 5, 14 ], "texture": "#texture1", "rotation": 90 },
				"up": { "uv": [ 7, 10, 7.5, 14 ], "texture": "#texture1", "rotation": 270 },
				"north": { "uv": [ 6, 9.5, 10, 10 ], "texture": "#texture1" },
				"south": { "uv": [ 6.5, 10, 10.5, 10.5 ], "texture": "#texture1" },
				"west": { "uv": [ 9.5, 10, 10, 10.5 ], "texture": "#texture1" },
				"east": { "uv": [ 7, 9.5, 7.5, 10 ], "texture": "#texture1" }
			}
		},
		{
			"__comment": "Cube1",
			"from": [ 0, 8.125, 7.5 ],
			"to": [ 4.5, 8.525, 8 ],
			"faces": {
				"down": { "uv": [ 8.5, 10, 9, 14.5 ], "texture": "#texture1", "rotation": 90 },
				"up": { "uv": [ 2.5, 11, 3, 15.5 ], "texture": "#texture1", "rotation": 270 },
				"north": { "uv": [ 10.5, 14, 15, 14.5 ], "texture": "#texture1" },
				"south": { "uv": [ 0.5, 9.5, 5, 10 ], "texture": "#texture1" },
				"west": { "uv": [ 6, 11, 6.5, 11.5 ], "texture": "#texture1" },
				"east": { "uv": [ 14, 13.5, 14.5, 14 ], "texture": "#texture1" }
			}
		},
		{
			"__comment": "Cube1",
			"from": [ 8.0001, 8.025, 8.9999 ],
			"to": [ 12.5001, 8.424999, 9.4999 ],
			"faces": {
				"down": { "uv": [ 3.5, 10.5, 4, 15 ], "texture": "#texture1", "rotation": 90 },
				"up": { "uv": [ 7, 9.5, 7.5, 14 ], "texture": "#texture1", "rotation": 270 },
				"north": { "uv": [ 2, 10, 6.5, 10.5 ], "texture": "#texture1" },
				"south": { "uv": [ 9.5, 10, 14, 10.5 ], "texture": "#texture1" },
				"west": { "uv": [ 9.5, 12, 10, 12.5 ], "texture": "#texture1" },
				"east": { "uv": [ 7, 10, 7.5, 10.5 ], "texture": "#texture1" }
			}
		},
		{
			"__comment": "Cube1",
			"from": [ 0, 7.5, 9 ],
			"to": [ 4.5, 8, 9.5 ],
			"faces": {
				"down": { "uv": [ 7, 10, 7.5, 14.5 ], "texture": "#texture1", "rotation": 90 },
				"up": { "uv": [ 2.5, 11, 3, 15.5 ], "texture": "#texture1", "rotation": 270 },
				"north": { "uv": [ 10.5, 14, 15, 14.5 ], "texture": "#texture1" },
				"south": { "uv": [ 2, 10, 6.5, 10.5 ], "texture": "#texture1" },
				"west": { "uv": [ 9.5, 12, 10, 12.5 ], "texture": "#texture1" },
				"east": { "uv": [ 5.5, 9.5, 6, 10 ], "texture": "#texture1" }
			}
		},
		{
			"__comment": "Cube1",
			"from": [ 8, 7.625, 7.4999 ],
			"to": [ 12.5, 8.125, 7.9999 ],
			"faces": {
				"down": { "uv": [ 2, 11, 2.5, 15.5 ], "texture": "#texture1", "rotation": 90 },
				"up": { "uv": [ 8.5, 9.5, 9, 14 ], "texture": "#texture1", "rotation": 270 },
				"north": { "uv": [ 0.5, 9.5, 5, 10 ], "texture": "#texture1" },
				"south": { "uv": [ 9.5, 9, 14, 9.5 ], "texture": "#texture1" },
				"west": { "uv": [ 7, 9.5, 7.5, 10 ], "texture": "#texture1" },
				"east": { "uv": [ 8, 9.5, 8.5, 10 ], "texture": "#texture1" }
			}
		},
		{
			"__comment": "Cube1",
			"from": [ 8.0001, 9, 8.9999 ],
			"to": [ 12.5001, 9.5, 9.4999 ],
			"faces": {
				"down": { "uv": [ 3.5, 10, 4, 14.5 ], "texture": "#texture1", "rotation": 90 },
				"up": { "uv": [ 7, 9.5, 7.5, 14 ], "texture": "#texture1", "rotation": 270 },
				"north": { "uv": [ 2, 9.5, 6.5, 10 ], "texture": "#texture1" },
				"south": { "uv": [ 11.5, 11, 16, 11.5 ], "texture": "#texture1" },
				"west": { "uv": [ 9.5, 9.5, 10, 10 ], "texture": "#texture1" },
				"east": { "uv": [ 8, 11.5, 8.5, 12 ], "texture": "#texture1" }
			}
		},
		{
			"__comment": "Cube1",
			"from": [ 0, 9, 7.5 ],
			"to": [ 4.5, 9.5, 8 ],
			"faces": {
				"down": { "uv": [ 8.5, 10, 9, 14.5 ], "texture": "#texture1", "rotation": 90 },
				"up": { "uv": [ 2.5, 10, 3, 14.5 ], "texture": "#texture1", "rotation": 270 },
				"north": { "uv": [ 4, 10, 8.5, 10.5 ], "texture": "#texture1" },
				"south": { "uv": [ 1, 14, 5.5, 14.5 ], "texture": "#texture1" },
				"west": { "uv": [ 7.5, 13, 8, 13.5 ], "texture": "#texture1" },
				"east": { "uv": [ 8, 11, 8.5, 11.5 ], "texture": "#texture1" }
			}
		},
		{
			"__comment": "Cube1",
			"from": [ 10.9745, 7.925, 13.6693 ],
			"to": [ 14.9745, 8.325, 14.1693 ],
			"rotation": { "origin": [ 0, 2, 8 ], "axis": "y", "angle": 22.5 },
			"faces": {
				"down": { "uv": [ 4.5, 10, 5, 14 ], "texture": "#texture1", "rotation": 90 },
				"up": { "uv": [ 7, 10, 7.5, 14 ], "texture": "#texture1", "rotation": 270 },
				"north": { "uv": [ 6, 9.5, 10, 10 ], "texture": "#texture1" },
				"south": { "uv": [ 6.5, 10, 10.5, 10.5 ], "texture": "#texture1" },
				"west": { "uv": [ 9.5, 10, 10, 10.5 ], "texture": "#texture1" },
				"east": { "uv": [ 7, 9.5, 7.5, 10 ], "texture": "#texture1" }
			}
		},
		{
			"__comment": "Cube1",
			"from": [ 10.9745, 8.875, 13.6693 ],
			"to": [ 14.9745, 9.375, 14.1693 ],
			"rotation": { "origin": [ 0, 2, 8 ], "axis": "y", "angle": 22.5 },
			"faces": {
				"down": { "uv": [ 7, 9.5, 7.5, 13.5 ], "texture": "#texture1", "rotation": 90 },
				"up": { "uv": [ 6.5, 9, 7, 13 ], "texture": "#texture1", "rotation": 270 },
				"north": { "uv": [ 5.5, 12, 9.5, 12.5 ], "texture": "#texture1" },
				"south": { "uv": [ 6, 10, 10, 10.5 ], "texture": "#texture1" },
				"west": { "uv": [ 8, 11, 8.5, 11.5 ], "texture": "#texture1" },
				"east": { "uv": [ 7, 11, 7.5, 11.5 ], "texture": "#texture1" }
			}
		},
		{
			"__comment": "Cube1",
			"from": [ 11.433, 7.5, 2.7643 ],
			"to": [ 15.433, 8, 3.2643 ],
			"rotation": { "origin": [ 0, 2, 8 ], "axis": "y", "angle": -22.5 },
			"faces": {
				"down": { "uv": [ 6, 10.5, 6.5, 14.5 ], "texture": "#texture1", "rotation": 90 },
				"up": { "uv": [ 8.5, 9.5, 9, 13.5 ], "texture": "#texture1", "rotation": 270 },
				"north": { "uv": [ 6, 9.5, 10, 10 ], "texture": "#texture1" },
				"south": { "uv": [ 2.5, 12, 6.5, 12.5 ], "texture": "#texture1" },
				"west": { "uv": [ 8, 12, 8.5, 12.5 ], "texture": "#texture1" },
				"east": { "uv": [ 8.5, 11.5, 9, 12 ], "texture": "#texture1" }
			}
		},
		{
			"__comment": "Cube1",
			"from": [ 4.042, 9.125, 5.8258 ],
			"to": [ 8.042, 9.625, 6.3258 ],
			"rotation": { "origin": [ 0, 2, 8 ], "axis": "y", "angle": -22.5 },
			"faces": {
				"down": { "uv": [ 7.5, 9.5, 8, 13.5 ], "texture": "#texture1", "rotation": 90 },
				"up": { "uv": [ 8.5, 9.5, 9, 13.5 ], "texture": "#texture1", "rotation": 270 },
				"north": { "uv": [ 6.5, 9.5, 10.5, 10 ], "texture": "#texture1" },
				"south": { "uv": [ 7, 9.5, 11, 10 ], "texture": "#texture1" },
				"west": { "uv": [ 8, 12, 8.5, 12.5 ], "texture": "#texture1" },
				"east": { "uv": [ 7.5, 12, 8, 12.5 ], "texture": "#texture1" }
			}
		},
		{
			"__comment": "Cube1",
			"from": [ 4.042, 8.125, 5.8258 ],
			"to": [ 8.042, 8.525, 6.3258 ],
			"rotation": { "origin": [ 0, 2, 8 ], "axis": "y", "angle": -22.5 },
			"faces": {
				"down": { "uv": [ 6, 10.5, 6.5, 14.5 ], "texture": "#texture1", "rotation": 90 },
				"up": { "uv": [ 8.5, 9.5, 9, 13.5 ], "texture": "#texture1", "rotation": 270 },
				"north": { "uv": [ 6, 9.5, 10, 10 ], "texture": "#texture1" },
				"south": { "uv": [ 2.5, 12, 6.5, 12.5 ], "texture": "#texture1" },
				"west": { "uv": [ 8, 12, 8.5, 12.5 ], "texture": "#texture1" },
				"east": { "uv": [ 8.5, 11.5, 9, 12 ], "texture": "#texture1" }
			}
		},
		{
			"__comment": "Cube1",
			"from": [ 3.5834, 5.55, 10.6079 ],
			"to": [ 7.5834, 5.9, 11.1079 ],
			"rotation": { "origin": [ 0, 2, 8 ], "axis": "y", "angle": 22.5 },
			"faces": {
				"down": { "uv": [ 4.5, 10, 5, 14 ], "texture": "#texture1", "rotation": 90 },
				"up": { "uv": [ 7, 10, 7.5, 14 ], "texture": "#texture1", "rotation": 270 },
				"north": { "uv": [ 6, 9.5, 10, 10 ], "texture": "#texture1" },
				"south": { "uv": [ 6.5, 10, 10.5, 10.5 ], "texture": "#texture1" },
				"west": { "uv": [ 9.5, 10, 10, 10.5 ], "texture": "#texture1" },
				"east": { "uv": [ 7, 9.5, 7.5, 10 ], "texture": "#texture1" }
			}
		},
		{
			"__comment": "Cube1",
			"from": [ 0.125, 4.65, 7.5 ],
			"to": [ 4.625, 5.25, 8 ],
			"faces": {
				"down": { "uv": [ 8.5, 10, 9, 14.5 ], "texture": "#texture1", "rotation": 90 },
				"up": { "uv": [ 2.5, 11, 3, 15.5 ], "texture": "#texture1", "rotation": 270 },
				"north": { "uv": [ 10.5, 14, 15, 14.5 ], "texture": "#texture1" },
				"south": { "uv": [ 0.5, 9.5, 5, 10 ], "texture": "#texture1" },
				"west": { "uv": [ 6, 11, 6.5, 11.5 ], "texture": "#texture1" },
				"east": { "uv": [ 14, 13.5, 14.5, 14 ], "texture": "#texture1" }
			}
		},
		{
			"__comment": "Cube1",
			"from": [ 8.1251, 4.5, 8.9999 ],
			"to": [ 12.6251, 5.1, 9.4999 ],
			"faces": {
				"down": { "uv": [ 3.5, 10.5, 4, 15 ], "texture": "#texture1", "rotation": 90 },
				"up": { "uv": [ 7, 9.5, 7.5, 14 ], "texture": "#texture1", "rotation": 270 },
				"north": { "uv": [ 2, 10, 6.5, 10.5 ], "texture": "#texture1" },
				"south": { "uv": [ 9.5, 10, 14, 10.5 ], "texture": "#texture1" },
				"west": { "uv": [ 9.5, 12, 10, 12.5 ], "texture": "#texture1" },
				"east": { "uv": [ 7, 10, 7.5, 10.5 ], "texture": "#texture1" }
			}
		},
		{
			"__comment": "Cube1",
			"from": [ 0, 5.375, 9 ],
			"to": [ 4.5, 5.725, 9.5 ],
			"faces": {
				"down": { "uv": [ 7, 10, 7.5, 14.5 ], "texture": "#texture1", "rotation": 90 },
				"up": { "uv": [ 2.5, 11, 3, 15.5 ], "texture": "#texture1", "rotation": 270 },
				"north": { "uv": [ 10.5, 14, 15, 14.5 ], "texture": "#texture1" },
				"south": { "uv": [ 2, 10, 6.5, 10.5 ], "texture": "#texture1" },
				"west": { "uv": [ 9.5, 12, 10, 12.5 ], "texture": "#texture1" },
				"east": { "uv": [ 5.5, 9.5, 6, 10 ], "texture": "#texture1" }
			}
		},
		{
			"__comment": "Cube1",
			"from": [ 8, 5.4625, 7.4999 ],
			"to": [ 12.5, 5.8125, 7.9999 ],
			"faces": {
				"down": { "uv": [ 2, 11, 2.5, 15.5 ], "texture": "#texture1", "rotation": 90 },
				"up": { "uv": [ 8.5, 9.5, 9, 14 ], "texture": "#texture1", "rotation": 270 },
				"north": { "uv": [ 0.5, 9.5, 5, 10 ], "texture": "#texture1" },
				"south": { "uv": [ 9.5, 9, 14, 9.5 ], "texture": "#texture1" },
				"west": { "uv": [ 7, 9.5, 7.5, 10 ], "texture": "#texture1" },
				"east": { "uv": [ 8, 9.5, 8.5, 10 ], "texture": "#texture1" }
			}
		},
		{
			"__comment": "Cube1",
			"from": [ 8.0001, 6.875, 8.9999 ],
			"to": [ 12.5001, 7.375, 9.4999 ],
			"faces": {
				"down": { "uv": [ 3.5, 10, 4, 14.5 ], "texture": "#texture1", "rotation": 90 },
				"up": { "uv": [ 7, 9.5, 7.5, 14 ], "texture": "#texture1", "rotation": 270 },
				"north": { "uv": [ 2, 9.5, 6.5, 10 ], "texture": "#texture1" },
				"south": { "uv": [ 11.5, 11, 16, 11.5 ], "texture": "#texture1" },
				"west": { "uv": [ 9.5, 9.5, 10, 10 ], "texture": "#texture1" },
				"east": { "uv": [ 8, 11.5, 8.5, 12 ], "texture": "#texture1" }
			}
		},
		{
			"__comment": "Cube1",
			"from": [ 0, 6.875, 7.5 ],
			"to": [ 4.5, 7.375, 8 ],
			"faces": {
				"down": { "uv": [ 8.5, 10, 9, 14.5 ], "texture": "#texture1", "rotation": 90 },
				"up": { "uv": [ 2.5, 10, 3, 14.5 ], "texture": "#texture1", "rotation": 270 },
				"north": { "uv": [ 4, 10, 8.5, 10.5 ], "texture": "#texture1" },
				"south": { "uv": [ 1, 14, 5.5, 14.5 ], "texture": "#texture1" },
				"west": { "uv": [ 7.5, 13, 8, 13.5 ], "texture": "#texture1" },
				"east": { "uv": [ 8, 11, 8.5, 11.5 ], "texture": "#texture1" }
			}
		},
		{
			"__comment": "Cube1",
			"from": [ 11.09, 4.35, 13.7171 ],
			"to": [ 15.09, 4.95, 14.2171 ],
			"rotation": { "origin": [ 0, 2, 8 ], "axis": "y", "angle": 22.5 },
			"faces": {
				"down": { "uv": [ 4.5, 10, 5, 14 ], "texture": "#texture1", "rotation": 90 },
				"up": { "uv": [ 7, 10, 7.5, 14 ], "texture": "#texture1", "rotation": 270 },
				"north": { "uv": [ 6, 9.5, 10, 10 ], "texture": "#texture1" },
				"south": { "uv": [ 6.5, 10, 10.5, 10.5 ], "texture": "#texture1" },
				"west": { "uv": [ 9.5, 10, 10, 10.5 ], "texture": "#texture1" },
				"east": { "uv": [ 7, 9.5, 7.5, 10 ], "texture": "#texture1" }
			}
		},
		{
			"__comment": "Cube1",
			"from": [ 10.9745, 6.75, 13.6693 ],
			"to": [ 14.9745, 7.25, 14.1693 ],
			"rotation": { "origin": [ 0, 2, 8 ], "axis": "y", "angle": 22.5 },
			"faces": {
				"down": { "uv": [ 7, 9.5, 7.5, 13.5 ], "texture": "#texture1", "rotation": 90 },
				"up": { "uv": [ 6.5, 9, 7, 13 ], "texture": "#texture1", "rotation": 270 },
				"north": { "uv": [ 5.5, 12, 9.5, 12.5 ], "texture": "#texture1" },
				"south": { "uv": [ 6, 10, 10, 10.5 ], "texture": "#texture1" },
				"west": { "uv": [ 8, 11, 8.5, 11.5 ], "texture": "#texture1" },
				"east": { "uv": [ 7, 11, 7.5, 11.5 ], "texture": "#texture1" }
			}
		},
		{
			"__comment": "Cube1",
			"from": [ 11.433, 5.375, 2.7643 ],
			"to": [ 15.433, 5.725, 3.2643 ],
			"rotation": { "origin": [ 0, 2, 8 ], "axis": "y", "angle": -22.5 },
			"faces": {
				"down": { "uv": [ 6, 10.5, 6.5, 14.5 ], "texture": "#texture1", "rotation": 90 },
				"up": { "uv": [ 8.5, 9.5, 9, 13.5 ], "texture": "#texture1", "rotation": 270 },
				"north": { "uv": [ 6, 9.5, 10, 10 ], "texture": "#texture1" },
				"south": { "uv": [ 2.5, 12, 6.5, 12.5 ], "texture": "#texture1" },
				"west": { "uv": [ 8, 12, 8.5, 12.5 ], "texture": "#texture1" },
				"east": { "uv": [ 8.5, 11.5, 9, 12 ], "texture": "#texture1" }
			}
		},
		{
			"__comment": "Cube1",
			"from": [ 4.042, 7, 5.8258 ],
			"to": [ 8.042, 7.5, 6.3258 ],
			"rotation": { "origin": [ 0, 2, 8 ], "axis": "y", "angle": -22.5 },
			"faces": {
				"down": { "uv": [ 7.5, 9.5, 8, 13.5 ], "texture": "#texture1", "rotation": 90 },
				"up": { "uv": [ 8.5, 9.5, 9, 13.5 ], "texture": "#texture1", "rotation": 270 },
				"north": { "uv": [ 6.5, 9.5, 10.5, 10 ], "texture": "#texture1" },
				"south": { "uv": [ 7, 9.5, 11, 10 ], "texture": "#texture1" },
				"west": { "uv": [ 8, 12, 8.5, 12.5 ], "texture": "#texture1" },
				"east": { "uv": [ 7.5, 12, 8, 12.5 ], "texture": "#texture1" }
			}
		},
		{
			"__comment": "Cube1",
			"from": [ 4.1575, 4.65, 5.7779 ],
			"to": [ 8.157499, 5.25, 6.2779 ],
			"rotation": { "origin": [ 0, 2, 8 ], "axis": "y", "angle": -22.5 },
			"faces": {
				"down": { "uv": [ 6, 10.5, 6.5, 14.5 ], "texture": "#texture1", "rotation": 90 },
				"up": { "uv": [ 8.5, 9.5, 9, 13.5 ], "texture": "#texture1", "rotation": 270 },
				"north": { "uv": [ 6, 9.5, 10, 10 ], "texture": "#texture1" },
				"south": { "uv": [ 2.5, 12, 6.5, 12.5 ], "texture": "#texture1" },
				"west": { "uv": [ 8, 12, 8.5, 12.5 ], "texture": "#texture1" },
				"east": { "uv": [ 8.5, 11.5, 9, 12 ], "texture": "#texture1" }
			}
		},
		{
			"__comment": "Cube1",
			"from": [ 3.5834, 3.675, 10.6079 ],
			"to": [ 7.5834, 4.275, 11.1079 ],
			"rotation": { "origin": [ 0, 2, 8 ], "axis": "y", "angle": 22.5 },
			"faces": {
				"down": { "uv": [ 4.5, 10, 5, 14 ], "texture": "#texture1", "rotation": 90 },
				"up": { "uv": [ 7, 10, 7.5, 14 ], "texture": "#texture1", "rotation": 270 },
				"north": { "uv": [ 6, 9.5, 10, 10 ], "texture": "#texture1" },
				"south": { "uv": [ 6.5, 10, 10.5, 10.5 ], "texture": "#texture1" },
				"west": { "uv": [ 9.5, 10, 10, 10.5 ], "texture": "#texture1" },
				"east": { "uv": [ 7, 9.5, 7.5, 10 ], "texture": "#texture1" }
			}
		},
		{
			"__comment": "Cube1",
			"from": [ 0, 3.375, 9 ],
			"to": [ 4.5, 3.975, 9.5 ],
			"faces": {
				"down": { "uv": [ 7, 10, 7.5, 14.5 ], "texture": "#texture1", "rotation": 90 },
				"up": { "uv": [ 2.5, 11, 3, 15.5 ], "texture": "#texture1", "rotation": 270 },
				"north": { "uv": [ 10.5, 14, 15, 14.5 ], "texture": "#texture1" },
				"south": { "uv": [ 2, 10, 6.5, 10.5 ], "texture": "#texture1" },
				"west": { "uv": [ 9.5, 12, 10, 12.5 ], "texture": "#texture1" },
				"east": { "uv": [ 5.5, 9.5, 6, 10 ], "texture": "#texture1" }
			}
		},
		{
			"__comment": "Cube1",
			"from": [ 8, 3.525, 7.4999 ],
			"to": [ 12.5, 4.125, 7.9999 ],
			"faces": {
				"down": { "uv": [ 2, 11, 2.5, 15.5 ], "texture": "#texture1", "rotation": 90 },
				"up": { "uv": [ 8.5, 9.5, 9, 14 ], "texture": "#texture1", "rotation": 270 },
				"north": { "uv": [ 0.5, 9.5, 5, 10 ], "texture": "#texture1" },
				"south": { "uv": [ 9.5, 9, 14, 9.5 ], "texture": "#texture1" },
				"west": { "uv": [ 7, 9.5, 7.5, 10 ], "texture": "#texture1" },
				"east": { "uv": [ 8, 9.5, 8.5, 10 ], "texture": "#texture1" }
			}
		},
		{
			"__comment": "Cube1",
			"from": [ 11.433, 3.375, 2.7643 ],
			"to": [ 15.433, 3.975, 3.2643 ],
			"rotation": { "origin": [ 0, 2, 8 ], "axis": "y", "angle": -22.5 },
			"faces": {
				"down": { "uv": [ 6, 10.5, 6.5, 14.5 ], "texture": "#texture1", "rotation": 90 },
				"up": { "uv": [ 8.5, 9.5, 9, 13.5 ], "texture": "#texture1", "rotation": 270 },
				"north": { "uv": [ 6, 9.5, 10, 10 ], "texture": "#texture1" },
				"south": { "uv": [ 2.5, 12, 6.5, 12.5 ], "texture": "#texture1" },
				"west": { "uv": [ 8, 12, 8.5, 12.5 ], "texture": "#texture1" },
				"east": { "uv": [ 8.5, 11.5, 9, 12 ], "texture": "#texture1" }
			}
		},
		{
			"__comment": "Cube1",
			"from": [ 1.8125, 0.25, 8 ],
			"to": [ 2.8125, 13.75, 9 ],
			"faces": {
				"down": { "uv": [ 7.5, 11.5, 8.5, 12.5 ], "texture": "#texture1", "rotation": 90 },
				"up": { "uv": [ 7.5, 3.5, 8.5, 4.5 ], "texture": "#texture1", "rotation": 270 },
				"north": { "uv": [ 0, 6, 16, 7 ], "texture": "#texture1", "rotation": 90 },
				"south": { "uv": [ 0, 1.5, 16, 2.5 ], "texture": "#texture1", "rotation": 90 },
				"west": { "uv": [ 0, 2.5, 16, 3.5 ], "texture": "#texture1", "rotation": 270 },
				"east": { "uv": [ 0, 2.5, 16, 3.5 ], "texture": "#texture1", "rotation": 270 }
			}
		},
		{
			"__comment": "Cube1",
			"from": [ 4.042, 6, 5.8258 ],
			"to": [ 8.042, 6.5, 6.3258 ],
			"rotation": { "origin": [ 0, 2, 8 ], "axis": "y", "angle": -22.5 },
			"faces": {
				"down": { "uv": [ 6, 10.5, 6.5, 14.5 ], "texture": "#texture1", "rotation": 90 },
				"up": { "uv": [ 8.5, 9.5, 9, 13.5 ], "texture": "#texture1", "rotation": 270 },
				"north": { "uv": [ 6, 9.5, 10, 10 ], "texture": "#texture1" },
				"south": { "uv": [ 2.5, 12, 6.5, 12.5 ], "texture": "#texture1" },
				"west": { "uv": [ 8, 12, 8.5, 12.5 ], "texture": "#texture1" },
				"east": { "uv": [ 8.5, 11.5, 9, 12 ], "texture": "#texture1" }
			}
		},
		{
			"__comment": "Cube1",
			"from": [ 0, 6, 7.5 ],
			"to": [ 4.5, 6.5, 8 ],
			"faces": {
				"down": { "uv": [ 8.5, 10, 9, 14.5 ], "texture": "#texture1", "rotation": 90 },
				"up": { "uv": [ 2.5, 11, 3, 15.5 ], "texture": "#texture1", "rotation": 270 },
				"north": { "uv": [ 10.5, 14, 15, 14.5 ], "texture": "#texture1" },
				"south": { "uv": [ 0.5, 9.5, 5, 10 ], "texture": "#texture1" },
				"west": { "uv": [ 6, 11, 6.5, 11.5 ], "texture": "#texture1" },
				"east": { "uv": [ 14, 13.5, 14.5, 14 ], "texture": "#texture1" }
			}
		},
		{
			"__comment": "Cube1",
			"from": [ 8.0001, 5.875, 8.9999 ],
			"to": [ 12.5001, 6.375, 9.4999 ],
			"faces": {
				"down": { "uv": [ 3.5, 10.5, 4, 15 ], "texture": "#texture1", "rotation": 90 },
				"up": { "uv": [ 7, 9.5, 7.5, 14 ], "texture": "#texture1", "rotation": 270 },
				"north": { "uv": [ 2, 10, 6.5, 10.5 ], "texture": "#texture1" },
				"south": { "uv": [ 9.5, 10, 14, 10.5 ], "texture": "#texture1" },
				"west": { "uv": [ 9.5, 12, 10, 12.5 ], "texture": "#texture1" },
				"east": { "uv": [ 7, 10, 7.5, 10.5 ], "texture": "#texture1" }
			}
		},
		{
			"__comment": "Cube1",
			"from": [ 10.9745, 5.75, 13.6693 ],
			"to": [ 14.9745, 6.25, 14.1693 ],
			"rotation": { "origin": [ 0, 2, 8 ], "axis": "y", "angle": 22.5 },
			"faces": {
				"down": { "uv": [ 4.5, 10, 5, 14 ], "texture": "#texture1", "rotation": 90 },
				"up": { "uv": [ 7, 10, 7.5, 14 ], "texture": "#texture1", "rotation": 270 },
				"north": { "uv": [ 6, 9.5, 10, 10 ], "texture": "#texture1" },
				"south": { "uv": [ 6.5, 10, 10.5, 10.5 ], "texture": "#texture1" },
				"west": { "uv": [ 9.5, 10, 10, 10.5 ], "texture": "#texture1" },
				"east": { "uv": [ 7, 9.5, 7.5, 10 ], "texture": "#texture1" }
			}
		},
		{
			"__comment": "Cube1",
			"from": [ 10, -0.375, 7.9999 ],
			"to": [ 11, 13.125, 8.9999 ],
			"faces": {
				"down": { "uv": [ 7.5, 11.5, 8.5, 12.5 ], "texture": "#texture1", "rotation": 90 },
				"up": { "uv": [ 7.5, 3.5, 8.5, 4.5 ], "texture": "#texture1", "rotation": 270 },
				"north": { "uv": [ 0, 6.5, 16, 7.5 ], "texture": "#texture1", "rotation": 90 },
				"south": { "uv": [ 0, 1.5, 16, 2.5 ], "texture": "#texture1", "rotation": 90 },
				"west": { "uv": [ 0, 3, 16, 4 ], "texture": "#texture1", "rotation": 270 },
				"east": { "uv": [ 0, 4, 16, 5 ], "texture": "#texture1", "rotation": 270 }
			}
		},
		{
			"__comment": "Cube1",
			"from": [ 8.5, 1.875, 1.5 ],
			"to": [ 9, 2.275, 6 ],
			"faces": {
				"down": { "uv": [ 8.5, 10, 9, 14.5 ], "texture": "#texture1" },
				"up": { "uv": [ 2.5, 11, 3, 15.5 ], "texture": "#texture1" },
				"north": { "uv": [ 6, 11, 6.5, 11.5 ], "texture": "#texture1" },
				"south": { "uv": [ 14, 13.5, 14.5, 14 ], "texture": "#texture1" },
				"west": { "uv": [ 0.5, 9.5, 5, 10 ], "texture": "#texture1" },
				"east": { "uv": [ 10.5, 14, 15, 14.5 ], "texture": "#texture1" }
			}
		},
		{
			"__comment": "Cube1",
			"from": [ 7, 1.775, 9.5 ],
			"to": [ 7.5, 2.175, 14 ],
			"faces": {
				"down": { "uv": [ 3.5, 10.5, 4, 15 ], "texture": "#texture1" },
				"up": { "uv": [ 7, 9.5, 7.5, 14 ], "texture": "#texture1" },
				"north": { "uv": [ 9.5, 12, 10, 12.5 ], "texture": "#texture1" },
				"south": { "uv": [ 7, 10, 7.5, 10.5 ], "texture": "#texture1" },
				"west": { "uv": [ 9.5, 10, 14, 10.5 ], "texture": "#texture1" },
				"east": { "uv": [ 2, 10, 6.5, 10.5 ], "texture": "#texture1" }
			}
		},
		{
			"__comment": "Cube1",
			"from": [ 7, 1.25, 1.5 ],
			"to": [ 7.5, 1.65, 6 ],
			"faces": {
				"down": { "uv": [ 7, 10, 7.5, 14.5 ], "texture": "#texture1" },
				"up": { "uv": [ 2.5, 11, 3, 15.5 ], "texture": "#texture1" },
				"north": { "uv": [ 9.5, 12, 10, 12.5 ], "texture": "#texture1" },
				"south": { "uv": [ 5.5, 9.5, 6, 10 ], "texture": "#texture1" },
				"west": { "uv": [ 2, 10, 6.5, 10.5 ], "texture": "#texture1" },
				"east": { "uv": [ 10.5, 14, 15, 14.5 ], "texture": "#texture1" }
			}
		},
		{
			"__comment": "Cube1",
			"from": [ 8.5, 1.35, 9.5 ],
			"to": [ 9, 1.75, 14 ],
			"faces": {
				"down": { "uv": [ 2, 11, 2.5, 15.5 ], "texture": "#texture1" },
				"up": { "uv": [ 8.5, 9.5, 9, 14 ], "texture": "#texture1" },
				"north": { "uv": [ 7, 9.5, 7.5, 10 ], "texture": "#texture1" },
				"south": { "uv": [ 8, 9.5, 8.5, 10 ], "texture": "#texture1" },
				"west": { "uv": [ 9.5, 9, 14, 9.5 ], "texture": "#texture1" },
				"east": { "uv": [ 0.5, 9.5, 5, 10 ], "texture": "#texture1" }
			}
		},
		{
			"__comment": "Cube1",
			"from": [ 7, 2.75, 9.5 ],
			"to": [ 7.5, 3.25, 14 ],
			"faces": {
				"down": { "uv": [ 3.5, 10, 4, 14.5 ], "texture": "#texture1" },
				"up": { "uv": [ 7, 9.5, 7.5, 14 ], "texture": "#texture1" },
				"north": { "uv": [ 9.5, 9.5, 10, 10 ], "texture": "#texture1" },
				"south": { "uv": [ 8, 11.5, 8.5, 12 ], "texture": "#texture1" },
				"west": { "uv": [ 11.5, 11, 16, 11.5 ], "texture": "#texture1" },
				"east": { "uv": [ 2, 9.5, 6.5, 10 ], "texture": "#texture1" }
			}
		},
		{
			"__comment": "Cube1",
			"from": [ 8.5, 2.75, 1.5 ],
			"to": [ 9, 3.25, 6 ],
			"faces": {
				"down": { "uv": [ 8.5, 10, 9, 14.5 ], "texture": "#texture1" },
				"up": { "uv": [ 2.5, 10, 3, 14.5 ], "texture": "#texture1" },
				"north": { "uv": [ 7.5, 13, 8, 13.5 ], "texture": "#texture1" },
				"south": { "uv": [ 8, 11, 8.5, 11.5 ], "texture": "#texture1" },
				"west": { "uv": [ 1, 14, 5.5, 14.5 ], "texture": "#texture1" },
				"east": { "uv": [ 4, 10, 8.5, 10.5 ], "texture": "#texture1" }
			}
		},
		{
			"__comment": "Cube1",
			"from": [ 7, 1.675, 14 ],
			"to": [ 7.5, 2.075, 18 ],
			"rotation": { "origin": [ 7, 1.675, 14 ], "axis": "y", "angle": 22.5 },
			"faces": {
				"down": { "uv": [ 4.5, 10, 5, 14 ], "texture": "#texture1" },
				"up": { "uv": [ 7, 10, 7.5, 14 ], "texture": "#texture1" },
				"north": { "uv": [ 9.5, 10, 10, 10.5 ], "texture": "#texture1" },
				"south": { "uv": [ 7, 9.5, 7.5, 10 ], "texture": "#texture1" },
				"west": { "uv": [ 6.5, 10, 10.5, 10.5 ], "texture": "#texture1" },
				"east": { "uv": [ 6, 9.5, 10, 10 ], "texture": "#texture1" }
			}
		},
		{
			"__comment": "Cube1",
			"from": [ 7, 2.625, 14 ],
			"to": [ 7.5, 3.125, 18 ],
			"rotation": { "origin": [ 7, 2.625, 14 ], "axis": "y", "angle": 22.5 },
			"faces": {
				"down": { "uv": [ 7, 9.5, 7.5, 13.5 ], "texture": "#texture1" },
				"up": { "uv": [ 6.5, 9, 7, 13 ], "texture": "#texture1" },
				"north": { "uv": [ 8, 11, 8.5, 11.5 ], "texture": "#texture1" },
				"south": { "uv": [ 7, 11, 7.5, 11.5 ], "texture": "#texture1" },
				"west": { "uv": [ 6, 10, 10, 10.5 ], "texture": "#texture1" },
				"east": { "uv": [ 5.5, 12, 9.5, 12.5 ], "texture": "#texture1" }
			}
		},
		{
			"__comment": "Cube1",
			"from": [ 8.5, 1.25, 13.875 ],
			"to": [ 9, 1.65, 17.875 ],
			"rotation": { "origin": [ 8.5, 1.25, 13.875 ], "axis": "y", "angle": -22.5 },
			"faces": {
				"down": { "uv": [ 6, 10.5, 6.5, 14.5 ], "texture": "#texture1" },
				"up": { "uv": [ 8.5, 9.5, 9, 13.5 ], "texture": "#texture1" },
				"north": { "uv": [ 8, 12, 8.5, 12.5 ], "texture": "#texture1" },
				"south": { "uv": [ 8.5, 11.5, 9, 12 ], "texture": "#texture1" },
				"west": { "uv": [ 2.5, 12, 6.5, 12.5 ], "texture": "#texture1" },
				"east": { "uv": [ 6, 9.5, 10, 10 ], "texture": "#texture1" }
			}
		},
		{
			"__comment": "Cube1",
			"from": [ 8.5, 2.875, 5.875 ],
			"to": [ 9, 3.375, 9.875 ],
			"rotation": { "origin": [ 8.5, 2.875, 5.875 ], "axis": "y", "angle": -22.5 },
			"faces": {
				"down": { "uv": [ 7.5, 9.5, 8, 13.5 ], "texture": "#texture1" },
				"up": { "uv": [ 8.5, 9.5, 9, 13.5 ], "texture": "#texture1" },
				"north": { "uv": [ 8, 12, 8.5, 12.5 ], "texture": "#texture1" },
				"south": { "uv": [ 7.5, 12, 8, 12.5 ], "texture": "#texture1" },
				"west": { "uv": [ 7, 9.5, 11, 10 ], "texture": "#texture1" },
				"east": { "uv": [ 6.5, 9.5, 10.5, 10 ], "texture": "#texture1" }
			}
		},
		{
			"__comment": "Cube1",
			"from": [ 8.5, 1.875, 5.875 ],
			"to": [ 9, 2.275, 9.875 ],
			"rotation": { "origin": [ 8.5, 1.875, 5.875 ], "axis": "y", "angle": -22.5 },
			"faces": {
				"down": { "uv": [ 6, 10.5, 6.5, 14.5 ], "texture": "#texture1" },
				"up": { "uv": [ 8.5, 9.5, 9, 13.5 ], "texture": "#texture1" },
				"north": { "uv": [ 8, 12, 8.5, 12.5 ], "texture": "#texture1" },
				"south": { "uv": [ 8.5, 11.5, 9, 12 ], "texture": "#texture1" },
				"west": { "uv": [ 2.5, 12, 6.5, 12.5 ], "texture": "#texture1" },
				"east": { "uv": [ 6, 9.5, 10, 10 ], "texture": "#texture1" }
			}
		},
		{
			"__comment": "Cube1",
			"from": [ 7, 1.45, 6 ],
			"to": [ 7.5, 1.85, 10 ],
			"rotation": { "origin": [ 7, 1.45, 6 ], "axis": "y", "angle": 22.5 },
			"faces": {
				"down": { "uv": [ 4.5, 10, 5, 14 ], "texture": "#texture1" },
				"up": { "uv": [ 7, 10, 7.5, 14 ], "texture": "#texture1" },
				"north": { "uv": [ 9.5, 10, 10, 10.5 ], "texture": "#texture1" },
				"south": { "uv": [ 7, 9.5, 7.5, 10 ], "texture": "#texture1" },
				"west": { "uv": [ 6.5, 10, 10.5, 10.5 ], "texture": "#texture1" },
				"east": { "uv": [ 6, 9.5, 10, 10 ], "texture": "#texture1" }
			}
		},
		{
			"__comment": "Cube1",
			"from": [ 7, 7.625, 6 ],
			"to": [ 7.5, 8.125, 10 ],
			"rotation": { "origin": [ 7, 7.625, 6 ], "axis": "y", "angle": 22.5 },
			"faces": {
				"down": { "uv": [ 4.5, 10, 5, 14 ], "texture": "#texture1" },
				"up": { "uv": [ 7, 10, 7.5, 14 ], "texture": "#texture1" },
				"north": { "uv": [ 9.5, 10, 10, 10.5 ], "texture": "#texture1" },
				"south": { "uv": [ 7, 9.5, 7.5, 10 ], "texture": "#texture1" },
				"west": { "uv": [ 6.5, 10, 10.5, 10.5 ], "texture": "#texture1" },
				"east": { "uv": [ 6, 9.5, 10, 10 ], "texture": "#texture1" }
			}
		},
		{
			"__comment": "Cube1",
			"from": [ 8.5, 8, 1.5 ],
			"to": [ 9, 8.4, 6 ],
			"faces": {
				"down": { "uv": [ 8.5, 10, 9, 14.5 ], "texture": "#texture1" },
				"up": { "uv": [ 2.5, 11, 3, 15.5 ], "texture": "#texture1" },
				"north": { "uv": [ 6, 11, 6.5, 11.5 ], "texture": "#texture1" },
				"south": { "uv": [ 14, 13.5, 14.5, 14 ], "texture": "#texture1" },
				"west": { "uv": [ 0.5, 9.5, 5, 10 ], "texture": "#texture1" },
				"east": { "uv": [ 10.5, 14, 15, 14.5 ], "texture": "#texture1" }
			}
		},
		{
			"__comment": "Cube1",
			"from": [ 7, 7.9, 9.5 ],
			"to": [ 7.5, 8.299999, 14 ],
			"faces": {
				"down": { "uv": [ 3.5, 10.5, 4, 15 ], "texture": "#texture1" },
				"up": { "uv": [ 7, 9.5, 7.5, 14 ], "texture": "#texture1" },
				"north": { "uv": [ 9.5, 12, 10, 12.5 ], "texture": "#texture1" },
				"south": { "uv": [ 7, 10, 7.5, 10.5 ], "texture": "#texture1" },
				"west": { "uv": [ 9.5, 10, 14, 10.5 ], "texture": "#texture1" },
				"east": { "uv": [ 2, 10, 6.5, 10.5 ], "texture": "#texture1" }
			}
		},
		{
			"__comment": "Cube1",
			"from": [ 7, 7.375, 1.5 ],
			"to": [ 7.5, 7.875, 6 ],
			"faces": {
				"down": { "uv": [ 7, 10, 7.5, 14.5 ], "texture": "#texture1" },
				"up": { "uv": [ 2.5, 11, 3, 15.5 ], "texture": "#texture1" },
				"north": { "uv": [ 9.5, 12, 10, 12.5 ], "texture": "#texture1" },
				"south": { "uv": [ 5.5, 9.5, 6, 10 ], "texture": "#texture1" },
				"west": { "uv": [ 2, 10, 6.5, 10.5 ], "texture": "#texture1" },
				"east": { "uv": [ 10.5, 14, 15, 14.5 ], "texture": "#texture1" }
			}
		},
		{
			"__comment": "Cube1",
			"from": [ 8.5, 7.5, 9.5 ],
			"to": [ 9, 8, 14 ],
			"faces": {
				"down": { "uv": [ 2, 11, 2.5, 15.5 ], "texture": "#texture1" },
				"up": { "uv": [ 8.5, 9.5, 9, 14 ], "texture": "#texture1" },
				"north": { "uv": [ 7, 9.5, 7.5, 10 ], "texture": "#texture1" },
				"south": { "uv": [ 8, 9.5, 8.5, 10 ], "texture": "#texture1" },
				"west": { "uv": [ 9.5, 9, 14, 9.5 ], "texture": "#texture1" },
				"east": { "uv": [ 0.5, 9.5, 5, 10 ], "texture": "#texture1" }
			}
		},
		{
			"__comment": "Cube1",
			"from": [ 7, 8.875, 9.5 ],
			"to": [ 7.5, 9.375, 14 ],
			"faces": {
				"down": { "uv": [ 3.5, 10, 4, 14.5 ], "texture": "#texture1" },
				"up": { "uv": [ 7, 9.5, 7.5, 14 ], "texture": "#texture1" },
				"north": { "uv": [ 9.5, 9.5, 10, 10 ], "texture": "#texture1" },
				"south": { "uv": [ 8, 11.5, 8.5, 12 ], "texture": "#texture1" },
				"west": { "uv": [ 11.5, 11, 16, 11.5 ], "texture": "#texture1" },
				"east": { "uv": [ 2, 9.5, 6.5, 10 ], "texture": "#texture1" }
			}
		},
		{
			"__comment": "Cube1",
			"from": [ 8.5, 8.875, 1.5 ],
			"to": [ 9, 9.375, 6 ],
			"faces": {
				"down": { "uv": [ 8.5, 10, 9, 14.5 ], "texture": "#texture1" },
				"up": { "uv": [ 2.5, 10, 3, 14.5 ], "texture": "#texture1" },
				"north": { "uv": [ 7.5, 13, 8, 13.5 ], "texture": "#texture1" },
				"south": { "uv": [ 8, 11, 8.5, 11.5 ], "texture": "#texture1" },
				"west": { "uv": [ 1, 14, 5.5, 14.5 ], "texture": "#texture1" },
				"east": { "uv": [ 4, 10, 8.5, 10.5 ], "texture": "#texture1" }
			}
		},
		{
			"__comment": "Cube1",
			"from": [ 7, 7.8, 14 ],
			"to": [ 7.5, 8.2, 18 ],
			"rotation": { "origin": [ 7, 7.8, 14 ], "axis": "y", "angle": 22.5 },
			"faces": {
				"down": { "uv": [ 4.5, 10, 5, 14 ], "texture": "#texture1" },
				"up": { "uv": [ 7, 10, 7.5, 14 ], "texture": "#texture1" },
				"north": { "uv": [ 9.5, 10, 10, 10.5 ], "texture": "#texture1" },
				"south": { "uv": [ 7, 9.5, 7.5, 10 ], "texture": "#texture1" },
				"west": { "uv": [ 6.5, 10, 10.5, 10.5 ], "texture": "#texture1" },
				"east": { "uv": [ 6, 9.5, 10, 10 ], "texture": "#texture1" }
			}
		},
		{
			"__comment": "Cube1",
			"from": [ 7, 8.75, 14 ],
			"to": [ 7.5, 9.25, 18 ],
			"rotation": { "origin": [ 7, 8.75, 14 ], "axis": "y", "angle": 22.5 },
			"faces": {
				"down": { "uv": [ 7, 9.5, 7.5, 13.5 ], "texture": "#texture1" },
				"up": { "uv": [ 6.5, 9, 7, 13 ], "texture": "#texture1" },
				"north": { "uv": [ 8, 11, 8.5, 11.5 ], "texture": "#texture1" },
				"south": { "uv": [ 7, 11, 7.5, 11.5 ], "texture": "#texture1" },
				"west": { "uv": [ 6, 10, 10, 10.5 ], "texture": "#texture1" },
				"east": { "uv": [ 5.5, 12, 9.5, 12.5 ], "texture": "#texture1" }
			}
		},
		{
			"__comment": "Cube1",
			"from": [ 8.5, 7.375, 13.875 ],
			"to": [ 9, 7.875, 17.875 ],
			"rotation": { "origin": [ 8.5, 7.375, 13.875 ], "axis": "y", "angle": -22.5 },
			"faces": {
				"down": { "uv": [ 6, 10.5, 6.5, 14.5 ], "texture": "#texture1" },
				"up": { "uv": [ 8.5, 9.5, 9, 13.5 ], "texture": "#texture1" },
				"north": { "uv": [ 8, 12, 8.5, 12.5 ], "texture": "#texture1" },
				"south": { "uv": [ 8.5, 11.5, 9, 12 ], "texture": "#texture1" },
				"west": { "uv": [ 2.5, 12, 6.5, 12.5 ], "texture": "#texture1" },
				"east": { "uv": [ 6, 9.5, 10, 10 ], "texture": "#texture1" }
			}
		},
		{
			"__comment": "Cube1",
			"from": [ 8.5, 9, 5.875 ],
			"to": [ 9, 9.5, 9.875 ],
			"rotation": { "origin": [ 8.5, 9, 5.875 ], "axis": "y", "angle": -22.5 },
			"faces": {
				"down": { "uv": [ 7.5, 9.5, 8, 13.5 ], "texture": "#texture1" },
				"up": { "uv": [ 8.5, 9.5, 9, 13.5 ], "texture": "#texture1" },
				"north": { "uv": [ 8, 12, 8.5, 12.5 ], "texture": "#texture1" },
				"south": { "uv": [ 7.5, 12, 8, 12.5 ], "texture": "#texture1" },
				"west": { "uv": [ 7, 9.5, 11, 10 ], "texture": "#texture1" },
				"east": { "uv": [ 6.5, 9.5, 10.5, 10 ], "texture": "#texture1" }
			}
		},
		{
			"__comment": "Cube1",
			"from": [ 8.5, 8, 5.875 ],
			"to": [ 9, 8.4, 9.875 ],
			"rotation": { "origin": [ 8.5, 8, 5.875 ], "axis": "y", "angle": -22.5 },
			"faces": {
				"down": { "uv": [ 6, 10.5, 6.5, 14.5 ], "texture": "#texture1" },
				"up": { "uv": [ 8.5, 9.5, 9, 13.5 ], "texture": "#texture1" },
				"north": { "uv": [ 8, 12, 8.5, 12.5 ], "texture": "#texture1" },
				"south": { "uv": [ 8.5, 11.5, 9, 12 ], "texture": "#texture1" },
				"west": { "uv": [ 2.5, 12, 6.5, 12.5 ], "texture": "#texture1" },
				"east": { "uv": [ 6, 9.5, 10, 10 ], "texture": "#texture1" }
			}
		},
		{
			"__comment": "Cube1",
			"from": [ 7, 5.425, 6 ],
			"to": [ 7.5, 5.775, 10 ],
			"rotation": { "origin": [ 7, 5.425, 6 ], "axis": "y", "angle": 22.5 },
			"faces": {
				"down": { "uv": [ 4.5, 10, 5, 14 ], "texture": "#texture1" },
				"up": { "uv": [ 7, 10, 7.5, 14 ], "texture": "#texture1" },
				"north": { "uv": [ 9.5, 10, 10, 10.5 ], "texture": "#texture1" },
				"south": { "uv": [ 7, 9.5, 7.5, 10 ], "texture": "#texture1" },
				"west": { "uv": [ 6.5, 10, 10.5, 10.5 ], "texture": "#texture1" },
				"east": { "uv": [ 6, 9.5, 10, 10 ], "texture": "#texture1" }
			}
		},
		{
			"__comment": "Cube1",
			"from": [ 8.5, 4.525, 1.625 ],
			"to": [ 9, 5.125, 6.125 ],
			"faces": {
				"down": { "uv": [ 8.5, 10, 9, 14.5 ], "texture": "#texture1" },
				"up": { "uv": [ 2.5, 11, 3, 15.5 ], "texture": "#texture1" },
				"north": { "uv": [ 6, 11, 6.5, 11.5 ], "texture": "#texture1" },
				"south": { "uv": [ 14, 13.5, 14.5, 14 ], "texture": "#texture1" },
				"west": { "uv": [ 0.5, 9.5, 5, 10 ], "texture": "#texture1" },
				"east": { "uv": [ 10.5, 14, 15, 14.5 ], "texture": "#texture1" }
			}
		},
		{
			"__comment": "Cube1",
			"from": [ 7, 4.375, 9.625 ],
			"to": [ 7.5, 4.975, 14.125 ],
			"faces": {
				"down": { "uv": [ 3.5, 10.5, 4, 15 ], "texture": "#texture1" },
				"up": { "uv": [ 7, 9.5, 7.5, 14 ], "texture": "#texture1" },
				"north": { "uv": [ 9.5, 12, 10, 12.5 ], "texture": "#texture1" },
				"south": { "uv": [ 7, 10, 7.5, 10.5 ], "texture": "#texture1" },
				"west": { "uv": [ 9.5, 10, 14, 10.5 ], "texture": "#texture1" },
				"east": { "uv": [ 2, 10, 6.5, 10.5 ], "texture": "#texture1" }
			}
		},
		{
			"__comment": "Cube1",
			"from": [ 7, 5.25, 1.5 ],
			"to": [ 7.5, 5.6, 6 ],
			"faces": {
				"down": { "uv": [ 7, 10, 7.5, 14.5 ], "texture": "#texture1" },
				"up": { "uv": [ 2.5, 11, 3, 15.5 ], "texture": "#texture1" },
				"north": { "uv": [ 9.5, 12, 10, 12.5 ], "texture": "#texture1" },
				"south": { "uv": [ 5.5, 9.5, 6, 10 ], "texture": "#texture1" },
				"west": { "uv": [ 2, 10, 6.5, 10.5 ], "texture": "#texture1" },
				"east": { "uv": [ 10.5, 14, 15, 14.5 ], "texture": "#texture1" }
			}
		},
		{
			"__comment": "Cube1",
			"from": [ 8.5, 5.3375, 9.5 ],
			"to": [ 9, 5.6875, 14 ],
			"faces": {
				"down": { "uv": [ 2, 11, 2.5, 15.5 ], "texture": "#texture1" },
				"up": { "uv": [ 8.5, 9.5, 9, 14 ], "texture": "#texture1" },
				"north": { "uv": [ 7, 9.5, 7.5, 10 ], "texture": "#texture1" },
				"south": { "uv": [ 8, 9.5, 8.5, 10 ], "texture": "#texture1" },
				"west": { "uv": [ 9.5, 9, 14, 9.5 ], "texture": "#texture1" },
				"east": { "uv": [ 0.5, 9.5, 5, 10 ], "texture": "#texture1" }
			}
		},
		{
			"__comment": "Cube1",
			"from": [ 7, 6.75, 9.5 ],
			"to": [ 7.5, 7.25, 14 ],
			"faces": {
				"down": { "uv": [ 3.5, 10, 4, 14.5 ], "texture": "#texture1" },
				"up": { "uv": [ 7, 9.5, 7.5, 14 ], "texture": "#texture1" },
				"north": { "uv": [ 9.5, 9.5, 10, 10 ], "texture": "#texture1" },
				"south": { "uv": [ 8, 11.5, 8.5, 12 ], "texture": "#texture1" },
				"west": { "uv": [ 11.5, 11, 16, 11.5 ], "texture": "#texture1" },
				"east": { "uv": [ 2, 9.5, 6.5, 10 ], "texture": "#texture1" }
			}
		},
		{
			"__comment": "Cube1",
			"from": [ 8.5, 6.75, 1.5 ],
			"to": [ 9, 7.25, 6 ],
			"faces": {
				"down": { "uv": [ 8.5, 10, 9, 14.5 ], "texture": "#texture1" },
				"up": { "uv": [ 2.5, 10, 3, 14.5 ], "texture": "#texture1" },
				"north": { "uv": [ 7.5, 13, 8, 13.5 ], "texture": "#texture1" },
				"south": { "uv": [ 8, 11, 8.5, 11.5 ], "texture": "#texture1" },
				"west": { "uv": [ 1, 14, 5.5, 14.5 ], "texture": "#texture1" },
				"east": { "uv": [ 4, 10, 8.5, 10.5 ], "texture": "#texture1" }
			}
		},
		{
			"__comment": "Cube1",
			"from": [ 7, 4.225, 14.125 ],
			"to": [ 7.5, 4.825, 18.125 ],
			"rotation": { "origin": [ 7, 4.225, 14.125 ], "axis": "y", "angle": 22.5 },
			"faces": {
				"down": { "uv": [ 4.5, 10, 5, 14 ], "texture": "#texture1" },
				"up": { "uv": [ 7, 10, 7.5, 14 ], "texture": "#texture1" },
				"north": { "uv": [ 9.5, 10, 10, 10.5 ], "texture": "#texture1" },
				"south": { "uv": [ 7, 9.5, 7.5, 10 ], "texture": "#texture1" },
				"west": { "uv": [ 6.5, 10, 10.5, 10.5 ], "texture": "#texture1" },
				"east": { "uv": [ 6, 9.5, 10, 10 ], "texture": "#texture1" }
			}
		},
		{
			"__comment": "Cube1",
			"from": [ 7, 6.625, 14 ],
			"to": [ 7.5, 7.125, 18 ],
			"rotation": { "origin": [ 7, 6.625, 14 ], "axis": "y", "angle": 22.5 },
			"faces": {
				"down": { "uv": [ 7, 9.5, 7.5, 13.5 ], "texture": "#texture1" },
				"up": { "uv": [ 6.5, 9, 7, 13 ], "texture": "#texture1" },
				"north": { "uv": [ 8, 11, 8.5, 11.5 ], "texture": "#texture1" },
				"south": { "uv": [ 7, 11, 7.5, 11.5 ], "texture": "#texture1" },
				"west": { "uv": [ 6, 10, 10, 10.5 ], "texture": "#texture1" },
				"east": { "uv": [ 5.5, 12, 9.5, 12.5 ], "texture": "#texture1" }
			}
		},
		{
			"__comment": "Cube1",
			"from": [ 8.5, 5.25, 13.875 ],
			"to": [ 9, 5.6, 17.875 ],
			"rotation": { "origin": [ 8.5, 5.25, 13.875 ], "axis": "y", "angle": -22.5 },
			"faces": {
				"down": { "uv": [ 6, 10.5, 6.5, 14.5 ], "texture": "#texture1" },
				"up": { "uv": [ 8.5, 9.5, 9, 13.5 ], "texture": "#texture1" },
				"north": { "uv": [ 8, 12, 8.5, 12.5 ], "texture": "#texture1" },
				"south": { "uv": [ 8.5, 11.5, 9, 12 ], "texture": "#texture1" },
				"west": { "uv": [ 2.5, 12, 6.5, 12.5 ], "texture": "#texture1" },
				"east": { "uv": [ 6, 9.5, 10, 10 ], "texture": "#texture1" }
			}
		},
		{
			"__comment": "Cube1",
			"from": [ 8.5, 6.875, 5.875 ],
			"to": [ 9, 7.375, 9.875 ],
			"rotation": { "origin": [ 8.5, 6.875, 5.875 ], "axis": "y", "angle": -22.5 },
			"faces": {
				"down": { "uv": [ 7.5, 9.5, 8, 13.5 ], "texture": "#texture1" },
				"up": { "uv": [ 8.5, 9.5, 9, 13.5 ], "texture": "#texture1" },
				"north": { "uv": [ 8, 12, 8.5, 12.5 ], "texture": "#texture1" },
				"south": { "uv": [ 7.5, 12, 8, 12.5 ], "texture": "#texture1" },
				"west": { "uv": [ 7, 9.5, 11, 10 ], "texture": "#texture1" },
				"east": { "uv": [ 6.5, 9.5, 10.5, 10 ], "texture": "#texture1" }
			}
		},
		{
			"__comment": "Cube1",
			"from": [ 8.5, 4.525, 6 ],
			"to": [ 9, 5.125, 10 ],
			"rotation": { "origin": [ 8.5, 4.525, 6 ], "axis": "y", "angle": -22.5 },
			"faces": {
				"down": { "uv": [ 6, 10.5, 6.5, 14.5 ], "texture": "#texture1" },
				"up": { "uv": [ 8.5, 9.5, 9, 13.5 ], "texture": "#texture1" },
				"north": { "uv": [ 8, 12, 8.5, 12.5 ], "texture": "#texture1" },
				"south": { "uv": [ 8.5, 11.5, 9, 12 ], "texture": "#texture1" },
				"west": { "uv": [ 2.5, 12, 6.5, 12.5 ], "texture": "#texture1" },
				"east": { "uv": [ 6, 9.5, 10, 10 ], "texture": "#texture1" }
			}
		},
		{
			"__comment": "Cube1",
			"from": [ 7, 3.55, 6 ],
			"to": [ 7.5, 4.15, 10 ],
			"rotation": { "origin": [ 7, 3.55, 6 ], "axis": "y", "angle": 22.5 },
			"faces": {
				"down": { "uv": [ 4.5, 10, 5, 14 ], "texture": "#texture1" },
				"up": { "uv": [ 7, 10, 7.5, 14 ], "texture": "#texture1" },
				"north": { "uv": [ 9.5, 10, 10, 10.5 ], "texture": "#texture1" },
				"south": { "uv": [ 7, 9.5, 7.5, 10 ], "texture": "#texture1" },
				"west": { "uv": [ 6.5, 10, 10.5, 10.5 ], "texture": "#texture1" },
				"east": { "uv": [ 6, 9.5, 10, 10 ], "texture": "#texture1" }
			}
		},
		{
			"__comment": "Cube1",
			"from": [ 7, 3.25, 1.5 ],
			"to": [ 7.5, 3.85, 6 ],
			"faces": {
				"down": { "uv": [ 7, 10, 7.5, 14.5 ], "texture": "#texture1" },
				"up": { "uv": [ 2.5, 11, 3, 15.5 ], "texture": "#texture1" },
				"north": { "uv": [ 9.5, 12, 10, 12.5 ], "texture": "#texture1" },
				"south": { "uv": [ 5.5, 9.5, 6, 10 ], "texture": "#texture1" },
				"west": { "uv": [ 2, 10, 6.5, 10.5 ], "texture": "#texture1" },
				"east": { "uv": [ 10.5, 14, 15, 14.5 ], "texture": "#texture1" }
			}
		},
		{
			"__comment": "Cube1",
			"from": [ 8.5, 3.4, 9.5 ],
			"to": [ 9, 4, 14 ],
			"faces": {
				"down": { "uv": [ 2, 11, 2.5, 15.5 ], "texture": "#texture1" },
				"up": { "uv": [ 8.5, 9.5, 9, 14 ], "texture": "#texture1" },
				"north": { "uv": [ 7, 9.5, 7.5, 10 ], "texture": "#texture1" },
				"south": { "uv": [ 8, 9.5, 8.5, 10 ], "texture": "#texture1" },
				"west": { "uv": [ 9.5, 9, 14, 9.5 ], "texture": "#texture1" },
				"east": { "uv": [ 0.5, 9.5, 5, 10 ], "texture": "#texture1" }
			}
		},
		{
			"__comment": "Cube1",
			"from": [ 8.5, 3.25, 13.875 ],
			"to": [ 9, 3.85, 17.875 ],
			"rotation": { "origin": [ 8.5, 3.25, 13.875 ], "axis": "y", "angle": -22.5 },
			"faces": {
				"down": { "uv": [ 6, 10.5, 6.5, 14.5 ], "texture": "#texture1" },
				"up": { "uv": [ 8.5, 9.5, 9, 13.5 ], "texture": "#texture1" },
				"north": { "uv": [ 8, 12, 8.5, 12.5 ], "texture": "#texture1" },
				"south": { "uv": [ 8.5, 11.5, 9, 12 ], "texture": "#texture1" },
				"west": { "uv": [ 2.5, 12, 6.5, 12.5 ], "texture": "#texture1" },
				"east": { "uv": [ 6, 9.5, 10, 10 ], "texture": "#texture1" }
			}
		},
		{
			"__comment": "Cube1",
			"from": [ 7.5, 0.125, 3.3125 ],
			"to": [ 8.5, 13.625, 4.3125 ],
			"faces": {
				"down": { "uv": [ 7.5, 11.5, 8.5, 12.5 ], "texture": "#texture1" },
				"up": { "uv": [ 7.5, 3.5, 8.5, 4.5 ], "texture": "#texture1" },
				"north": { "uv": [ 0, 2.5, 16, 3.5 ], "texture": "#texture1", "rotation": 270 },
				"south": { "uv": [ 0, 2.5, 16, 3.5 ], "texture": "#texture1", "rotation": 270 },
				"west": { "uv": [ 0, 1.5, 16, 2.5 ], "texture": "#texture1", "rotation": 90 },
				"east": { "uv": [ 0, 6, 16, 7 ], "texture": "#texture1", "rotation": 90 }
			}
		},
		{
			"__comment": "Cube1",
			"from": [ 8.5, 5.875, 5.875 ],
			"to": [ 9, 6.375, 9.875 ],
			"rotation": { "origin": [ 8.5, 5.875, 5.875 ], "axis": "y", "angle": -22.5 },
			"faces": {
				"down": { "uv": [ 6, 10.5, 6.5, 14.5 ], "texture": "#texture1" },
				"up": { "uv": [ 8.5, 9.5, 9, 13.5 ], "texture": "#texture1" },
				"north": { "uv": [ 8, 12, 8.5, 12.5 ], "texture": "#texture1" },
				"south": { "uv": [ 8.5, 11.5, 9, 12 ], "texture": "#texture1" },
				"west": { "uv": [ 2.5, 12, 6.5, 12.5 ], "texture": "#texture1" },
				"east": { "uv": [ 6, 9.5, 10, 10 ], "texture": "#texture1" }
			}
		},
		{
			"__comment": "Cube1",
			"from": [ 8.5, 5.875, 1.5 ],
			"to": [ 9, 6.375, 6 ],
			"faces": {
				"down": { "uv": [ 8.5, 10, 9, 14.5 ], "texture": "#texture1" },
				"up": { "uv": [ 2.5, 11, 3, 15.5 ], "texture": "#texture1" },
				"north": { "uv": [ 6, 11, 6.5, 11.5 ], "texture": "#texture1" },
				"south": { "uv": [ 14, 13.5, 14.5, 14 ], "texture": "#texture1" },
				"west": { "uv": [ 0.5, 9.5, 5, 10 ], "texture": "#texture1" },
				"east": { "uv": [ 10.5, 14, 15, 14.5 ], "texture": "#texture1" }
			}
		},
		{
			"__comment": "Cube1",
			"from": [ 7, 5.75, 9.5 ],
			"to": [ 7.5, 6.25, 14 ],
			"faces": {
				"down": { "uv": [ 3.5, 10.5, 4, 15 ], "texture": "#texture1" },
				"up": { "uv": [ 7, 9.5, 7.5, 14 ], "texture": "#texture1" },
				"north": { "uv": [ 9.5, 12, 10, 12.5 ], "texture": "#texture1" },
				"south": { "uv": [ 7, 10, 7.5, 10.5 ], "texture": "#texture1" },
				"west": { "uv": [ 9.5, 10, 14, 10.5 ], "texture": "#texture1" },
				"east": { "uv": [ 2, 10, 6.5, 10.5 ], "texture": "#texture1" }
			}
		},
		{
			"__comment": "Cube1",
			"from": [ 7, 5.625, 14 ],
			"to": [ 7.5, 6.125, 18 ],
			"rotation": { "origin": [ 7, 5.625, 14 ], "axis": "y", "angle": 22.5 },
			"faces": {
				"down": { "uv": [ 4.5, 10, 5, 14 ], "texture": "#texture1" },
				"up": { "uv": [ 7, 10, 7.5, 14 ], "texture": "#texture1" },
				"north": { "uv": [ 9.5, 10, 10, 10.5 ], "texture": "#texture1" },
				"south": { "uv": [ 7, 9.5, 7.5, 10 ], "texture": "#texture1" },
				"west": { "uv": [ 6.5, 10, 10.5, 10.5 ], "texture": "#texture1" },
				"east": { "uv": [ 6, 9.5, 10, 10 ], "texture": "#texture1" }
			}
		},
		{
			"__comment": "Cube1",
			"from": [ 7.5, -0.5, 11.5 ],
			"to": [ 8.5, 13, 12.5 ],
			"faces": {
				"down": { "uv": [ 7.5, 11.5, 8.5, 12.5 ], "texture": "#texture1" },
				"up": { "uv": [ 7.5, 3.5, 8.5, 4.5 ], "texture": "#texture1" },
				"north": { "uv": [ 0, 3, 16, 4 ], "texture": "#texture1", "rotation": 270 },
				"south": { "uv": [ 0, 4, 16, 5 ], "texture": "#texture1", "rotation": 270 },
				"west": { "uv": [ 0, 1.5, 16, 2.5 ], "texture": "#texture1", "rotation": 90 },
				"east": { "uv": [ 0, 6.5, 16, 7.5 ], "texture": "#texture1", "rotation": 90 }
			}
		}
	]
}