{
    "parent": "block/block",
    "textures": {
        "particle": "conquest:blocks/window_hobbitlarge1",
        "top": "conquest:blocks/window_hobbitlarge1"
    },
    "elements": [
        {
            "from": [ 0.0, 0.0, 0.0 ],
            "to": [ 16.0, 16.0, 16.0 ],
            "faces": {
                "north": { "texture": "#particle", "uv": [ 0.0, 0.0, 16.0, 16.0 ], "cullface": "north" },
                "east": { "texture": "#particle", "uv": [ 0.0, 0.0, 16.0, 16.0 ], "cullface": "east" },
                "south": { "texture": "#particle", "uv": [ 16.0, 0.0, 0.0, 16.0 ], "cullface": "south" },
                "west": { "texture": "#particle", "uv": [ 16.0, 0.0, 0.0, 16.0 ], "cullface": "west" },
                "up": { "texture": "#top", "uv": [ 0.0, 0.0, 16.0, 16.0 ], "cullface": "up" },
                "down": { "texture": "#top", "uv": [ 0.0, 0.0, 16.0, 16.0 ], "cullface": "down" }
            }
        }
    ]
}