{
"__comment": "Designed by Jugbot with BDcraft Cubik PRO 0.96 Beta - http://bdcraft.net",
"textures": {
    "particle": "blocks/planks_oak",
    "texture": "blocks/planks_oak"
},
"elements": [ 
{
    "__comment": "Slants*",
    "from": [ 13.5, 13, 0 ],
    "to": [ 15, 16, 11.3137 ],
    "rotation": { "origin": [ 13.5, 16, 0 ], "axis": "x", "angle": 45 },
    "faces": {
        "down":  { "uv": [ 0, 0, 11, 1.5 ], "rotation": 90, "texture": "#texture" },
        "up":    { "uv": [ 0, 0, 11, 1.5 ], "rotation": 90, "texture": "#texture" },
        "north": { "uv": [ 1, 0, 2.5, 3 ], "texture": "#texture" },
        "south": { "uv": [ 1, 0, 2.5, 3 ], "texture": "#texture" },
        "west":  { "uv": [ 0, 0, 11, 3 ], "texture": "#texture" },
        "east":  { "uv": [ 0, 0, 11, 3 ], "texture": "#texture" }
    }
},
{
    "__comment": "Slants*",
    "from": [ 13.5, 5, 8 ],
    "to": [ 15, 8, 19.3137 ],
    "rotation": { "origin": [ 13.5, 8, 8 ], "axis": "x", "angle": 45 },
    "faces": {
        "down":  { "uv": [ 16, 8, 5, 9.5 ], "rotation": 90, "texture": "#texture" },
        "up":    { "uv": [ 5, 8, 16, 9.5 ], "rotation": 90, "texture": "#texture" },
        "north": { "uv": [ 1, 0, 2.5, 3 ], "texture": "#texture" },
        "south": { "uv": [ 1, 0, 2.5, 3 ], "texture": "#texture" },
        "west":  { "uv": [ 5, 8, 16, 11 ], "texture": "#texture" },
        "east":  { "uv": [ 16, 8, 5, 11 ], "texture": "#texture" }
    }
},
{
    "from": [ 14.99, 0, 1 ],
    "to": [ 15.99, 13, 3 ],
    "faces": {
        "down":  { "uv": [ 0, 1, 1, 3 ], "texture": "#texture" },
        "up":    { "uv": [ 0, 1, 1, 3 ], "texture": "#texture" },
        "north": { "uv": [ 0, 0, 13, 1 ], "rotation": 90, "texture": "#texture" },
        "south": { "uv": [ 0, 0, 13, 1 ], "rotation": 90, "texture": "#texture" },
        "west":  { "uv": [ 0, 0, 13, 2 ], "rotation": 90, "texture": "#texture" },
        "east":  { "uv": [ 3, 12, 16, 14 ], "rotation": 90, "texture": "#texture" }
    }
},
{
    "from": [ 14.99, -8, 9 ],
    "to": [ 15.99, 5, 11 ],
    "faces": {
        "down":  { "uv": [ 0, 1, 1, 3 ], "texture": "#texture" },
        "up":    { "uv": [ 0, 1, 1, 3 ], "texture": "#texture" },
        "north": { "uv": [ 0, 0, 13, 1 ], "rotation": 90, "texture": "#texture" },
        "south": { "uv": [ 0, 0, 13, 1 ], "rotation": 90, "texture": "#texture" },
        "west":  { "uv": [ 0, 0, 13, 2 ], "rotation": 90, "texture": "#texture" },
        "east":  { "uv": [ 3, 12, 16, 14 ], "rotation": 90, "texture": "#texture" }
    }
}
]
}