{
    "parent": "block/block",
    "textures": {
		"particle": "conquest:blocks/junglewoodjungle",
		"0": "conquest:blocks/junglewoodjungle",
        "1": "conquest:blocks/junglewoodjungle"
    },
    "elements": [
        {
            "name": "Element",
            "from": [ 0.0, 0.09999999, 16.5 ], 
            "to": [ 16.0, 6.1, 19.5 ], 
            "faces": {
                "north": { "texture": "#0", "uv": [ 0.0, 4.0, 16.0, 10.00000001 ] },
                "east": { "texture": "#0", "uv": [ 0.0, 3.0, 3.0, 9.00000001 ] },
                "south": { "texture": "#0", "uv": [ 0.0, 0.0, 16.0, 6.00000001 ] },
                "west": { "texture": "#0", "uv": [ 3.0, 4.0, 6.0, 10.00000001 ] },
                "up": { "texture": "#0", "uv": [ 0.0, 0.0, 16.0, 3.0 ] },
                "down": { "texture": "#0", "uv": [ 0.0, 4.0, 16.0, 7.0 ] }
            }
        },
        {
            "name": "Element",
            "from": [ 1.0000000074505806, 6.099999998509884, 0.0 ], 
            "to": [ 6.500000007450581, 7.099999998509884, 16.0 ], 
            "faces": {
                "north": { "texture": "#0", "uv": [ 0.0, 0.0, 5.5, 1.0 ] },
                "east": { "texture": "#0", "uv": [ 0.0, 0.0, 16.0, 1.0 ] },
                "south": { "texture": "#0", "uv": [ 0.0, 0.0, 5.5, 1.0 ] },
                "west": { "texture": "#0", "uv": [ 0.0, 2.0, 16.0, 3.0 ] },
                "up": { "texture": "#1", "uv": [ 2.0, 0.0, 7.5, 16.0 ] },
                "down": { "texture": "#1", "uv": [ 10.0, 0.0, 15.5, 16.0 ] }
            }
        },
        {
            "name": "Element",
            "from": [ 13.5, 6.2, 0.0 ], 
            "to": [ 18.0, 7.2, 16.0 ], 
            "faces": {
                "north": { "texture": "#0", "uv": [ 0.0, 0.0, 4.5, 1.0 ] },
                "east": { "texture": "#0", "uv": [ 0.0, 2.0, 16.0, 3.0 ] },
                "south": { "texture": "#0", "uv": [ 0.0, 0.0, 4.5, 1.0 ] },
                "west": { "texture": "#0", "uv": [ 0.0, 3.0, 16.0, 4.0 ] },
                "up": { "texture": "#1", "uv": [ 9.0, 0.0, 13.5, 16.0 ] },
                "down": { "texture": "#1", "uv": [ 5.0, 0.0, 9.5, 16.0 ] }
            }
        },
        {
            "name": "Element",
            "from": [ 8.00000000745058, 6.099999998509884, 0.0 ], 
            "to": [ 12.50000000745058, 7.099999998509884, 16.0 ], 
            "faces": {
                "north": { "texture": "#0", "uv": [ 0.0, 0.0, 4.5, 1.0 ] },
                "east": { "texture": "#0", "uv": [ 0.0, 0.0, 16.0, 1.0 ] },
                "south": { "texture": "#0", "uv": [ 0.0, 0.0, 4.5, 1.0 ] },
                "west": { "texture": "#0", "uv": [ 0.0, 8.0, 16.0, 9.0 ] },
                "up": { "texture": "#1", "uv": [ 11.0, 0.0, 15.5, 16.0 ] },
                "down": { "texture": "#1", "uv": [ 9.0, 0.0, 13.5, 16.0 ] }
            }
        },
        {
            "name": "Element",
            "from": [ 1.1000000089406967, 5.899999997019767, 16.0 ], 
            "to": [ 6.600000008940697, 6.899999997019767, 27.0 ], 
            "faces": {
                "north": { "texture": "#0", "uv": [ 0.0, 0.0, 5.5, 1.0 ] },
                "east": { "texture": "#0", "uv": [ 0.0, 0.0, 11.0, 1.0 ] },
                "south": { "texture": "#0", "uv": [ 5.0, 3.0, 10.5, 4.0 ] },
                "west": { "texture": "#0", "uv": [ 0.0, 0.0, 11.0, 1.0 ] },
                "up": { "texture": "#1", "uv": [ 2.0, 5.0, 7.5, 16.0 ] },
                "down": { "texture": "#1", "uv": [ 10.0, 4.0, 15.5, 15.0 ] }
            }
        },
        {
            "name": "Element",
            "from": [ 8.00000000745058, 6.200000002980232, 16.0 ], 
            "to": [ 12.50000000745058, 7.200000002980232, 27.100000001490116 ], 
            "faces": {
                "north": { "texture": "#0", "uv": [ 0.0, 0.0, 4.5, 1.0 ] },
                "east": { "texture": "#0", "uv": [ 0.0, 0.0, 11.0, 1.0 ] },
                "south": { "texture": "#0", "uv": [ 6.0, 0.0, 10.5, 1.0 ] },
                "west": { "texture": "#0", "uv": [ 0.0, 0.0, 11.0, 1.0 ] },
                "up": { "texture": "#1", "uv": [ 11.0, 0.0, 15.5, 11.0 ] },
                "down": { "texture": "#1", "uv": [ 9.0, 2.0, 13.5, 13.0 ] }
            }
        },
        {
            "name": "Element",
            "from": [ 13.600000001490116, 6.1, 16.0 ], 
            "to": [ 18.100000001490116, 7.1, 27.0 ], 
            "faces": {
                "north": { "texture": "#0", "uv": [ 0.0, 0.0, 4.5, 1.0 ] },
                "east": { "texture": "#0", "uv": [ 0.0, 0.0, 11.0, 1.0 ] },
                "south": { "texture": "#0", "uv": [ 3.0, 5.0, 7.5, 6.0 ] },
                "west": { "texture": "#0", "uv": [ 0.0, 0.0, 11.0, 1.0 ] },
                "up": { "texture": "#1", "uv": [ 9.0, 0.0, 13.5, 11.0 ] },
                "down": { "texture": "#1", "uv": [ 0.0, 0.0, 4.5, 11.0 ] }
            }
        },
        {
            "name": "Element",
            "from": [ 13.399999998509884, 6.300000004470348, -11.100000001490116 ], 
            "to": [ 17.899999998509884, 7.300000004470348, 0.0 ], 
            "faces": {
                "north": { "texture": "#0", "uv": [ 3.0, 3.0, 7.5, 4.0 ] },
                "east": { "texture": "#0", "uv": [ 0.0, 4.0, 11.0, 5.0 ] },
                "south": { "texture": "#0", "uv": [ 0.0, 10.0, 4.5, 11.0 ] },
                "west": { "texture": "#0", "uv": [ 0.0, 0.0, 11.0, 1.0 ] },
                "up": { "texture": "#1", "uv": [ 8.0, 4.0, 12.5, 15.0 ] },
                "down": { "texture": "#1", "uv": [ 0.0, 0.0, 4.5, 11.0 ] }
            }
        },
        {
            "name": "Element",
            "from": [ 8.099999994039536, 5.9999999985098835, -11.0 ], 
            "to": [ 12.599999994039536, 6.9999999985098835, 0.0 ], 
            "faces": {
                "north": { "texture": "#0", "uv": [ 0.0, 4.0, 4.5, 5.0 ] },
                "east": { "texture": "#0", "uv": [ 0.0, 0.0, 11.0, 1.0 ] },
                "south": { "texture": "#0", "uv": [ 0.0, 0.0, 4.5, 1.0 ] },
                "west": { "texture": "#0", "uv": [ 0.0, 0.0, 11.0, 1.0 ] },
                "up": { "texture": "#1", "uv": [ 11.0, 5.0, 15.5, 16.0 ] },
                "down": { "texture": "#1", "uv": [ 7.0, 0.0, 11.5, 11.0 ] }
            }
        },
        {
            "name": "Element",
            "from": [ 1.1000000089406967, 6.200000002980232, -11.100000001490116 ], 
            "to": [ 6.600000008940697, 7.200000002980232, 0.0 ], 
            "faces": {
                "north": { "texture": "#0", "uv": [ 5.0, 5.0, 10.5, 6.0 ] },
                "east": { "texture": "#0", "uv": [ 0.0, 0.0, 11.0, 1.0 ] },
                "south": { "texture": "#0", "uv": [ 0.0, 0.0, 5.5, 1.0 ] },
                "west": { "texture": "#0", "uv": [ 0.0, 0.0, 11.0, 1.0 ] },
                "up": { "texture": "#1", "uv": [ 2.0, 5.0, 7.5, 16.0 ] },
                "down": { "texture": "#1", "uv": [ 10.0, 5.0, 15.5, 16.0 ] }
            }
        },
        {
            "name": "Element",
            "from": [ 0.0, 0.0, -2.5 ], 
            "to": [ 16.0, 6.100000001490116, 0.5 ], 
            "faces": {
                "north": { "texture": "#0", "uv": [ 0.0, 0.0, 16.0, 6.0 ] },
                "east": { "texture": "#0", "uv": [ 7.0, 0.0, 10.0, 6.0 ] },
                "south": { "texture": "#0", "uv": [ 0.0, 3.0, 16.0, 9.0 ] },
                "west": { "texture": "#0", "uv": [ 1.0, 3.0, 4.0, 9.0 ] },
                "up": { "texture": "#0", "uv": [ 0.0, 0.0, 16.0, 3.0 ] },
                "down": { "texture": "#0", "uv": [ 0.0, 2.0, 16.0, 5.0 ] }
            }
        },
        {
            "name": "Element",
            "from": [ -5.5, 5.799999995529651, 0.0 ], 
            "to": [ 0.0, 6.799999995529651, 16.0 ], 
            "faces": {
                "north": { "texture": "#0", "uv": [ 0.0, 0.0, 5.5, 1.0 ] },
                "east": { "texture": "#0", "uv": [ 0.0, 0.0, 16.0, 1.0 ] },
                "south": { "texture": "#0", "uv": [ 0.0, 0.0, 5.5, 1.0 ] },
                "west": { "texture": "#0", "uv": [ 0.0, 0.0, 16.0, 1.0 ] },
                "up": { "texture": "#1", "uv": [ 0.0, 0.0, 5.5, 16.0 ] },
                "down": { "texture": "#1", "uv": [ 1.0, 0.0, 6.5, 16.0 ] }
            }
        },
        {
            "name": "Element",
            "from": [ -5.5, 5.699999997019768, -11.0 ], 
            "to": [ 0.0, 6.699999997019768, 0.0 ], 
            "faces": {
                "north": { "texture": "#0", "uv": [ 4.0, 4.0, 9.5, 5.0 ] },
                "east": { "texture": "#0", "uv": [ 0.0, 0.0, 11.0, 1.0 ] },
                "south": { "texture": "#0", "uv": [ 0.0, 0.0, 5.5, 1.0 ] },
                "west": { "texture": "#0", "uv": [ 0.0, 0.0, 11.0, 1.0 ] },
                "up": { "texture": "#1", "uv": [ 1.0, 0.0, 6.5, 11.0 ] },
                "down": { "texture": "#1", "uv": [ 1.0, 2.0, 6.5, 13.0 ] }
            }
        },
        {
            "name": "Element",
            "from": [ -5.600000001490116, 5.899999998509884, 16.0 ], 
            "to": [ -0.10000000149011612, 6.899999998509884, 27.100000001490116 ], 
            "faces": {
                "north": { "texture": "#0", "uv": [ 0.0, 0.0, 5.5, 1.0 ] },
                "east": { "texture": "#0", "uv": [ 0.0, 0.0, 11.000000001490116, 1.0 ] },
                "south": { "texture": "#0", "uv": [ 1.0, 1.0, 6.5, 2.0 ] },
                "west": { "texture": "#0", "uv": [ 0.0, 0.0, 11.000000001490116, 1.0 ] },
                "up": { "texture": "#1", "uv": [ 7.0, 5.0, 12.5, 16.000000001490115 ] },
                "down": { "texture": "#1", "uv": [ 2.0, 0.0, 7.5, 11.000000001490116 ] }
            }
        },
        {
            "name": "Element",
            "from": [ 16.0, 0.1999999914901161, -2.4 ], 
            "to": [ 19.8, 6.100000002980233, 0.40000029999999986 ], 
            "faces": {
                "north": { "texture": "#0", "uv": [ 0.0, 0.0, 4.000000000000001, 6.00000001 ] },
                "east": { "texture": "#0", "uv": [ 0.0, 0.0, 3.0000003, 6.00000001 ] },
                "south": { "texture": "#0", "uv": [ 0.0, 3.0, 4.000000000000001, 9.00000001 ] },
                "west": { "texture": "#0", "uv": [ 0.0, 0.0, 3.0000003, 6.00000001 ] },
                "up": { "texture": "#0", "uv": [ 2.0, 3.0, 6.000000000000001, 6.0000003 ] },
                "down": { "texture": "#0", "uv": [ 0.0, 0.0, 4.000000000000001, 3.0000003 ] }
            }
        },
        {
            "name": "Element",
            "from": [ 16.0, 0.2, 16.6 ], 
            "to": [ 19.8, 6.0, 19.4 ], 
            "faces": {
                "north": { "texture": "#0", "uv": [ 0.0, 4.0, 4.000000000000001, 10.0 ] },
                "east": { "texture": "#0", "uv": [ 0.0, 0.0, 2.9999999999999973, 5.999999999999999 ] },
                "south": { "texture": "#0", "uv": [ 9.0, 0.0, 13.0, 5.999999999999999 ] },
                "west": { "texture": "#0", "uv": [ 5.0, 0.0, 7.799999999999997, 5.8 ] },
                "up": { "texture": "#0", "uv": [ 3.0, 3.0, 7.000000000000001, 5.999999999999997 ] },
                "down": { "texture": "#0", "uv": [ 0.0, 3.0, 4.000000000000001, 5.999999999999997 ] }
            }
        },
        {
            "name": "Element",
            "from": [ -3.8, 0.2, -2.4 ], 
            "to": [ 0.0, 6.0, 0.40000029999999986 ], 
            "faces": {
                "north": { "texture": "#0", "uv": [ 10.0, 1.0, 14.0, 7.0 ] },
                "east": { "texture": "#0", "uv": [ 7.0, 3.0, 10.0000003, 9.0 ] },
                "south": { "texture": "#0", "uv": [ 5.0, 3.0, 9.0, 9.0 ] },
                "west": { "texture": "#0", "uv": [ 0.0, 9.0, 3.0000003, 15.0 ] },
                "up": { "texture": "#0", "uv": [ 7.0, 2.0, 11.0, 5.0000003 ] },
                "down": { "texture": "#0", "uv": [ 1.0, 3.0, 5.0, 6.0000003 ] }
            }
        },
        {
            "name": "Cube",
            "from": [ -3.8, 0.2, 16.6 ], 
            "to": [ 0.0, 6.0, 19.400000300000002 ], 
            "faces": {
                "north": { "texture": "#0", "uv": [ 10.0, 4.0, 14.0, 10.0 ] },
                "east": { "texture": "#0", "uv": [ 10.0, 2.0, 13.0000003, 8.0 ] },
                "south": { "texture": "#0", "uv": [ 1.0, 5.0, 5.0, 11.0 ] },
                "west": { "texture": "#0", "uv": [ 3.0, 8.0, 6.0000003, 14.0 ] },
                "up": { "texture": "#0", "uv": [ 10.0, 2.0, 14.0, 5.0000003 ] },
                "down": { "texture": "#0", "uv": [ 6.0, 3.0, 10.0, 6.0000003 ] }
            }
        }
    ]
}