{
"parent": "block/parent_beamhorizontal_ns",
"textures": {
    "particle": "conquest:blocks/beam_oak1",
    "texture_0": "conquest:blocks/beam_oak1",
    "texture_1": "conquest:blocks/beam_oak1_1"
}
}