{
    "parent": "block/block",
    "textures": {
        "particle": "conquest:blocks/junglewoodjungle",
		"0": "conquest:blocks/junglewoodjungle",
        "1": "conquest:blocks/junglewoodjungle"
    },
    "elements": [
        {
            "name": "Cube",
            "from": [ 0.0, 9.0, 17.0 ], 
            "to": [ 16.0, 15.0, 20.0 ], 
            "faces": {
                "north": { "texture": "#0", "uv": [ 0.0, 0.0, 16.0, 5.0 ] },
                "east": { "texture": "#0", "uv": [ 0.0, 9.0, 3.0, 14.0 ] },
                "south": { "texture": "#0", "uv": [ 0.0, 9.0, 16.0, 14.0 ] },
                "west": { "texture": "#0", "uv": [ 0.0, 9.0, 3.0, 14.0 ] },
                "up": { "texture": "#0", "uv": [ 0.0, 8.0, 16.0, 11.0 ] },
                "down": { "texture": "#0", "uv": [ 0.0, 2.0, 16.0, 5.0 ] }
            }
        },
        {
            "name": "Cube",
            "from": [ 0.5000000074505806, 15.0, 0.0 ], 
            "to": [ 6.0, 16.0, 16.0 ], 
            "faces": {
                "north": { "texture": "#0", "uv": [ 0.0, 0.0, 5.499999992549419, 1.0 ] },
                "east": { "texture": "#0", "uv": [ 0.0, 0.0, 16.0, 1.0 ] },
                "south": { "texture": "#0", "uv": [ 0.0, 0.0, 5.499999992549419, 1.0 ] },
                "west": { "texture": "#0", "uv": [ 0.0, 0.0, 16.0, 1.0 ] },
                "up": { "texture": "#1", "uv": [ 6.0, 0.0, 11.49999999254942, 16.0 ], "cullface": "up" },
                "down": { "texture": "#1", "uv": [ 6.0, 0.0, 11.49999999254942, 16.0 ] }
            }
        },
        {
            "name": "Cube",
            "from": [ 11.50000000745058, 15.0, 0.0 ], 
            "to": [ 16.0, 16.0, 16.0 ], 
            "faces": {
                "north": { "texture": "#0", "uv": [ 0.0, 0.0, 4.499999992549419, 1.0 ] },
                "east": { "texture": "#0", "uv": [ 0.0, 0.0, 16.0, 1.0 ] },
                "south": { "texture": "#0", "uv": [ 0.0, 0.0, 4.499999992549419, 1.0 ] },
                "west": { "texture": "#0", "uv": [ 0.0, 0.0, 16.0, 1.0 ] },
                "up": { "texture": "#1", "uv": [ 0.0, 0.0, 4.499999992549419, 16.0 ], "cullface": "up" },
                "down": { "texture": "#1", "uv": [ 0.0, 0.0, 4.499999992549419, 16.0 ] }
            }
        },
        {
            "name": "Cube",
            "from": [ 6.499999992549419, 15.0, 0.0 ], 
            "to": [ 11.0, 16.0, 16.0 ], 
            "faces": {
                "north": { "texture": "#0", "uv": [ 0.0, 0.0, 4.500000007450581, 1.0 ] },
                "east": { "texture": "#0", "uv": [ 0.0, 0.0, 16.0, 1.0 ] },
                "south": { "texture": "#0", "uv": [ 0.0, 0.0, 4.500000007450581, 1.0 ] },
                "west": { "texture": "#0", "uv": [ 0.0, 0.0, 16.0, 1.0 ] },
                "up": { "texture": "#1", "uv": [ 11.0, 0.0, 15.50000000745058, 16.0 ], "cullface": "up" },
                "down": { "texture": "#1", "uv": [ 11.0, 0.0, 15.50000000745058, 16.0 ] }
            }
        },
        {
            "name": "Cube",
            "from": [ 0.6000000089406967, 14.899999998509884, 16.0 ], 
            "to": [ 6.100000001490116, 15.899999998509884, 27.0 ], 
            "faces": {
                "north": { "texture": "#0", "uv": [ 0.0, 0.0, 5.499999992549419, 1.0 ] },
                "east": { "texture": "#0", "uv": [ 0.0, 0.0, 11.0, 1.0 ] },
                "south": { "texture": "#0", "uv": [ 0.0, 0.0, 5.499999992549419, 1.0 ] },
                "west": { "texture": "#0", "uv": [ 1.0, 3.0, 12.0, 4.0 ] },
                "up": { "texture": "#1", "uv": [ 6.0, 5.0, 11.49999999254942, 16.0 ], "cullface": "up" },
                "down": { "texture": "#1", "uv": [ 6.0, 2.0, 11.49999999254942, 13.0 ] }
            }
        },
        {
            "name": "Cube",
            "from": [ 6.5999999940395355, 14.899999998509884, 16.0 ], 
            "to": [ 11.100000001490116, 15.899999998509884, 27.100000001490116 ], 
            "faces": {
                "north": { "texture": "#0", "uv": [ 0.0, 0.0, 4.500000007450581, 1.0 ] },
                "east": { "texture": "#0", "uv": [ 0.0, 0.0, 11.0, 1.0 ] },
                "south": { "texture": "#0", "uv": [ 0.0, 0.0, 4.500000007450581, 1.0 ] },
                "west": { "texture": "#0", "uv": [ 0.0, 0.0, 11.0, 1.0 ] },
                "up": { "texture": "#1", "uv": [ 11.0, 0.0, 15.50000000745058, 11.0 ], "cullface": "up" },
                "down": { "texture": "#1", "uv": [ 11.0, 0.0, 15.50000000745058, 11.0 ] }
            }
        },
        {
            "name": "Cube",
            "from": [ 11.400000005960464, 14.899999998509884, 16.0 ], 
            "to": [ 15.899999998509884, 15.899999998509884, 27.0 ], 
            "faces": {
                "north": { "texture": "#0", "uv": [ 0.0, 0.0, 4.499999992549419, 1.0 ] },
                "east": { "texture": "#0", "uv": [ 0.0, 0.0, 11.0, 1.0 ] },
                "south": { "texture": "#0", "uv": [ 0.0, 0.0, 4.499999992549419, 1.0 ] },
                "west": { "texture": "#0", "uv": [ 0.0, 0.0, 11.0, 1.0 ] },
                "up": { "texture": "#1", "uv": [ 1.0, 0.0, 5.499999992549419, 11.0 ], "cullface": "up" },
                "down": { "texture": "#1", "uv": [ 7.0, 0.0, 11.49999999254942, 11.0 ] }
            }
        },
        {
            "name": "Cube",
            "from": [ 11.600000008940697, 15.100000001490116, -11.0 ], 
            "to": [ 16.100000001490116, 16.100000001490116, 0.0 ], 
            "faces": {
                "north": { "texture": "#0", "uv": [ 0.0, 0.0, 4.499999992549419, 1.0 ] },
                "east": { "texture": "#0", "uv": [ 0.0, 0.0, 11.0, 1.0 ] },
                "south": { "texture": "#0", "uv": [ 0.0, 0.0, 4.499999992549419, 1.0 ] },
                "west": { "texture": "#0", "uv": [ 0.0, 0.0, 11.0, 1.0 ] },
                "up": { "texture": "#1", "uv": [ 0.0, 5.0, 4.499999992549419, 16.0 ], "cullface": "up" },
                "down": { "texture": "#1", "uv": [ 0.0, 0.0, 4.499999992549419, 11.0 ] }
            }
        },
        {
            "name": "Cube",
            "from": [ 6.399999991059303, 15.100000001490116, -11.100000001490116 ], 
            "to": [ 10.899999998509884, 16.100000001490116, 0.0 ], 
            "faces": {
                "north": { "texture": "#0", "uv": [ 0.0, 0.0, 4.500000007450581, 1.0 ] },
                "east": { "texture": "#0", "uv": [ 0.0, 0.0, 11.0, 1.0 ] },
                "south": { "texture": "#0", "uv": [ 0.0, 0.0, 4.500000007450581, 1.0 ] },
                "west": { "texture": "#0", "uv": [ 0.0, 0.0, 11.0, 1.0 ] },
                "up": { "texture": "#1", "uv": [ 11.0, 5.0, 15.50000000745058, 16.0 ], "cullface": "up" },
                "down": { "texture": "#1", "uv": [ 11.0, 0.0, 15.50000000745058, 11.0 ] }
            }
        },
        {
            "name": "Cube",
            "from": [ 0.4000000059604645, 15.100000001490116, -11.0 ], 
            "to": [ 5.899999998509884, 16.100000001490116, 0.0 ], 
            "faces": {
                "north": { "texture": "#0", "uv": [ 0.0, 0.0, 5.499999992549419, 1.0 ] },
                "east": { "texture": "#0", "uv": [ 0.0, 0.0, 11.0, 1.0 ] },
                "south": { "texture": "#0", "uv": [ 0.0, 0.0, 5.499999992549419, 1.0 ] },
                "west": { "texture": "#0", "uv": [ 0.0, 0.0, 11.0, 1.0 ] },
                "up": { "texture": "#1", "uv": [ 6.0, 5.0, 11.49999999254942, 16.0 ], "cullface": "up" },
                "down": { "texture": "#1", "uv": [ 6.0, 0.0, 11.49999999254942, 11.0 ] }
            }
        },
        {
            "name": "Cube",
            "from": [ 0.0, 9.0, -4.0 ], 
            "to": [ 16.0, 15.0, -1.0 ], 
            "faces": {
                "north": { "texture": "#0", "uv": [ 0.0, 11.0, 16.0, 16.0 ] },
                "east": { "texture": "#0", "uv": [ 13.0, 11.0, 16.0, 16.0 ] },
                "south": { "texture": "#0", "uv": [ 0.0, 11.0, 16.0, 16.0 ] },
                "west": { "texture": "#0", "uv": [ 0.0, 11.0, 3.0, 16.0 ] },
                "up": { "texture": "#0", "uv": [ 0.0, 13.0, 16.0, 16.0 ] },
                "down": { "texture": "#0", "uv": [ 0.0, 10.0, 16.0, 13.0 ] }
            }
        }
    ]
}