{
"__comment": "Fair warning, this format is highly likely to change even more in the future!",
"parent": "block/block", 
"textures": {
    "particle": "blocks/planks_acacia",
    "top": "blocks/acacia_fence_top",
    "texture": "blocks/acacia_fence"
},
"elements": [ 
{
    "__comment": "Bars",
    "from": [ 7, 9, 2 ],
    "to": [ 9, 11, 6 ],
    "faces": {
        "down":  { "uv": [ 7, 2, 9, 6 ], "texture": "#top", "cullface": "down" },
        "up":    { "uv": [ 7, 2, 9, 6 ], "texture": "#top" },
        "north": { "uv": [ 7, 14, 9, 16 ], "texture": "#top", "cullface": "north" },
        "south": { "uv": [ 7, 14, 9, 16 ], "texture": "#top", "cullface": "south" },
        "west":  { "uv": [ 2, 7.5, 6, 9.5 ], "texture": "#texture" },
        "east":  { "uv": [ 2, 7.5, 6, 9.5 ], "texture": "#texture" }
    }
},
{
    "__comment": "Bars*",
    "from": [ 7, 12.5, 2 ],
    "to": [ 9, 14.5, 6 ],
    "faces": {
        "down":  { "uv": [ 7, 2, 9, 6 ], "texture": "#top", "cullface": "down" },
        "up":    { "uv": [ 7, 2, 9, 6 ], "texture": "#top" },
        "north": { "uv": [ 7, 14, 9, 16 ], "texture": "#top", "cullface": "north" },
        "south": { "uv": [ 7, 14, 9, 16 ], "texture": "#top", "cullface": "south" },
        "west":  { "uv": [ 2, 7.5, 6, 9.5 ], "texture": "#texture" },
        "east":  { "uv": [ 2, 7.5, 6, 9.5 ], "texture": "#texture" }
    }
},
{
    "__comment": "Bars*",
    "from": [ 7, 0, 2 ],
    "to": [ 9, 2, 6 ],
    "faces": {
        "down":  { "uv": [ 7, 2, 9, 6 ], "texture": "#top", "cullface": "down" },
        "up":    { "uv": [ 7, 2, 9, 6 ], "texture": "#top" },
        "north": { "uv": [ 7, 14, 9, 16 ], "texture": "#top", "cullface": "north" },
        "south": { "uv": [ 7, 14, 9, 16 ], "texture": "#top", "cullface": "south" },
        "west":  { "uv": [ 2, 7.5, 6, 9.5 ], "texture": "#texture" },
        "east":  { "uv": [ 2, 7.5, 6, 9.5 ], "texture": "#texture" }
    }
}
]
}