{
"__comment": "Fair warning, this format is highly likely to change even more in the future!",
"parent": "block/block", 
"textures": {
    "particle": "blocks/planks_acacia",
    "top": "blocks/acacia_fence_top",
    "texture": "blocks/acacia_fence"
},
"elements": [ 
{
    "__comment": "Bars",
    "from": [ 7, 9, 0 ],
    "to": [ 9, 11, 6 ],
    "faces": {
        "down":  { "uv": [ 0, 9, 6, 7 ], "rotation": 270, "texture": "#top", "cullface": "down" },
        "up":    { "uv": [ 0, 7, 6, 9 ], "rotation": 90, "texture": "#top" },
        "north": { "uv": [ 7, 1.5, 9, 3.5 ], "texture": "#top", "cullface": "north" },
        "south": { "uv": [ 7, 1.5, 9, 3.5 ], "texture": "#top", "cullface": "south" },
        "west":  { "uv": [ 0, 1.5, 6, 3.5 ], "texture": "#texture" },
        "east":  { "uv": [ 10, 1.5, 16, 3.5 ], "texture": "#texture" }
    }
},
{
    "__comment": "Bars",
    "from": [ 7, 12.5, 0 ],
    "to": [ 9, 14.5, 6 ],
    "faces": {
        "down":  { "uv": [ 0, 9, 6, 7 ], "rotation": 270, "texture": "#top", "cullface": "down" },
        "up":    { "uv": [ 0, 7, 6, 9 ], "rotation": 90, "texture": "#top" },
        "north": { "uv": [ 7, 1.5, 9, 3.5 ], "texture": "#top", "cullface": "north" },
        "south": { "uv": [ 7, 1.5, 9, 3.5 ], "texture": "#top", "cullface": "south" },
        "west":  { "uv": [ 0, 1.5, 6, 3.5 ], "texture": "#texture" },
        "east":  { "uv": [ 10, 1.5, 16, 3.5 ], "texture": "#texture" }
    }
},
{
    "__comment": "Bars",
    "from": [ 7, 0, 0 ],
    "to": [ 9, 2, 6 ],
    "faces": {
        "down":  { "uv": [ 0, 9, 6, 7 ], "rotation": 270, "texture": "#top", "cullface": "down" },
        "up":    { "uv": [ 0, 7, 6, 9 ], "rotation": 90, "texture": "#top" },
        "north": { "uv": [ 7, 1.5, 9, 3.5 ], "texture": "#top", "cullface": "north" },
        "south": { "uv": [ 7, 1.5, 9, 3.5 ], "texture": "#top", "cullface": "south" },
        "west":  { "uv": [ 0, 1.5, 6, 3.5 ], "texture": "#texture" },
        "east":  { "uv": [ 10, 1.5, 16, 3.5 ], "texture": "#texture" }
    }
}
]
}