{"__comment":"3D Mesh designed with BDcraft Cubik - Version LITE 0.71 Beta",
"textures": {
    "particle": "blocks/carrots_stage_3",
	"p1": "blocks/potatoes_crop1-1",
	"p2": "blocks/potatoes_crop1-2",
	"p3": "blocks/potatoes_crop1-3"
},
"ambientocclusion":true,
"elements":[
{
"from":[1,-1.5,0],
"to":[8,13,0],
"rotation": { "origin": [0,0,0], "axis": "y", "angle": -45 },
"__comment":"Plane1",
"faces":{
"north":{ "uv":[11.5,1.5,4.5,16],"texture":"#p1" },
"south":{ "uv":[11.5,1.5,4.5,16],"texture":"#p1" }}},
{
"from":[-1.25,-1.5,0.75],
"to":[5.75,13,0.75],
"rotation": { "origin": [5.75,13,0.75], "axis": "y", "angle": 45 },
"__comment":"Plane1",
"faces":{
"north":{ "uv":[11.5,1.5,4.5,16],"texture":"#p1" },
"south":{ "uv":[11.5,1.5,4.5,16],"texture":"#p1" }}},


{
"from":[1.5,-1.5,5],
"to":[8.5,13,5],
"rotation": { "origin": [0.5,0,5], "axis": "y", "angle": -45 },
"__comment":"Plane2",
"faces":{
"north":{ "uv":[11.5,1.5,4.5,16],"texture":"#p2" },
"south":{ "uv":[11.5,1.5,4.5,16],"texture":"#p2" }}},
{
"from":[-0.75,-1.5,5.75],
"to":[6.25,13,5.75],
"rotation": { "origin": [6.25,13,5.75], "axis": "y", "angle": 45 },
"__comment":"Plane2",
"faces":{
"north":{ "uv":[11.5,1.5,4.5,16],"texture":"#p2" },
"south":{ "uv":[11.5,1.5,4.5,16],"texture":"#p2" }}},


{
"from":[0.75,-1.5,10.25],
"to":[7.75,13,10.25],
"rotation": { "origin": [-0.25,0,10.25], "axis": "y", "angle": -45 },
"__comment":"Plane3",
"faces":{
"north":{ "uv":[11.5,1.5,4.5,16],"texture":"#p3" },
"south":{ "uv":[11.5,1.5,4.5,16],"texture":"#p3" }}},
{
"from":[-1.5,-1.5,11],
"to":[5.5,13,11],
"rotation": { "origin": [5.5,13,11], "axis": "y", "angle": 45 },
"__comment":"Plane3",
"faces":{
"north":{ "uv":[11.5,1.5,4.5,16],"texture":"#p3" },
"south":{ "uv":[11.5,1.5,4.5,16],"texture":"#p3" }}},







{
"from":[9.75,-1.5,-0.25],
"to":[16.75,13,-0.25],
"rotation": { "origin": [8.75,0,-0.25], "axis": "y", "angle": -45 },
"__comment":"Plane4",
"faces":{
"north":{ "uv":[11.5,1.5,4.5,16],"texture":"#p3" },
"south":{ "uv":[11.5,1.5,4.5,16],"texture":"#p3" }}},
{
"from":[7.5,-1.5,0.5],
"to":[14.5,13,0.5],
"rotation": { "origin": [14.5,13,0.5], "axis": "y", "angle": 45 },
"__comment":"Plane4",
"faces":{
"north":{ "uv":[11.5,1.5,4.5,16],"texture":"#p3" },
"south":{ "uv":[11.5,1.5,4.5,16],"texture":"#p3" }}},



{
"from":[9,-1.5,5],
"to":[16,13,5],
"rotation": { "origin": [8,0,5], "axis": "y", "angle": -45 },
"__comment":"Plane5",
"faces":{
"north":{ "uv":[11.5,1.5,4.5,16],"texture":"#p2" },
"south":{ "uv":[11.5,1.5,4.5,16],"texture":"#p2" }}},
{
"from":[6.75,-1.5,5.75],
"to":[13.75,13,5.75],
"rotation": { "origin": [13.75,13,5.75], "axis": "y", "angle": 45 },
"__comment":"Plane5",
"faces":{
"north":{ "uv":[11.5,1.5,4.5,16],"texture":"#p2" },
"south":{ "uv":[11.5,1.5,4.5,16],"texture":"#p2" }}},



{
"from":[9.5,-1.5,10],
"to":[16.5,13,10],
"rotation": { "origin": [8.5,0,10], "axis": "y", "angle": -45 },
"__comment":"Plane6",
"faces":{
"north":{ "uv":[11.5,1.5,4.5,16],"texture":"#p1" },
"south":{ "uv":[11.5,1.5,4.5,16],"texture":"#p1" }}},
{
"from":[7.25,-1.5,10.75],
"to":[14.25,13,10.75],
"rotation": { "origin": [14.25,13,10.75], "axis": "y", "angle": 45 },
"__comment":"Plane6",
"faces":{
"north":{ "uv":[11.5,1.5,4.5,16],"texture":"#p1" },
"south":{ "uv":[11.5,1.5,4.5,16],"texture":"#p1" }}}
]}