{
    "parent": "block/cube_bottom_top",
    "textures": {
        "particle": "blocks/grass_top",
        "bottom": "blocks/dirt",
        "top": "blocks/grass_top",
        "side": "blocks/grass_side_snowed"
    }
}
