{
"textures": {
    "particle": "#bars"
},
"elements": [ 
{
    "from": [ 8, 0, 0 ],
    "to": [ 8.0625, 16, 10 ],
    "faces": {
        "west":  { "uv": [ 16, 0, 6, 16 ], "texture": "#bars" },
        "east":  { "uv": [ 6, 0, 16, 16 ], "texture": "#bars" }
    }
}
]
}