{
	"__comment": "Designed by RomanCapitalist with Cubik Studio - https://cubik.studio",
	"parent": "block/block",
	"textures": {
		"particle": "#side",
		"side": "#side",
		"up": "#up",
		"down": "#down"
	},
	"elements": [ 	 
		{
			"from": [ 12, 0, 4 ],
			"to": [ 16, 16, 12 ],
			"faces": {
				"down": { "uv": [ 12, 4, 16, 12 ], "texture": "#down" },
				"up": { "uv": [ 12, 4, 16, 12 ], "texture": "#up" },
				"north": { "uv": [ 0, 0, 4, 16 ], "texture": "#side" },
				"south": { "uv": [ 12, 0, 16, 16 ], "texture": "#side" },
				"east": { "uv": [ 4, 0, 12, 16 ], "texture": "#side" }
			}
		},
		{
			"__comment": "Box2",
			"from": [ 12.5, 6, 12 ],
			"to": [ 16, 7, 12.5 ],
			"faces": {
				"down": { "uv": [ 12.5, 3.5, 16, 4 ], "texture": "#down" },
				"up": { "uv": [ 12.5, 12, 16, 12.5 ], "texture": "#down" },
				"south": { "uv": [ 12.5, 9, 16, 10 ], "texture": "#side" },
				"east": { "uv": [ 3.5, 9, 4, 10 ], "texture": "#side" }
			}
		},
		{
			"__comment": "Box2",
			"from": [ 13.5, 4, 2.5 ],
			"to": [ 16, 6, 4 ],
			"faces": {
				"down": { "uv": [ 13.5, 12, 16, 13.5 ], "texture": "#down" },
				"up": { "uv": [ 13.5, 2.5, 16, 4 ], "texture": "#down" },
				"north": { "uv": [ 3.814697E-06, 10, 2.500004, 12 ], "texture": "#side" },
				"east": { "uv": [ 12, 10, 13.5, 12 ], "texture": "#side" }
			}
		},
		{
			"__comment": "Box2",
			"from": [ 12, 0, 12 ],
			"to": [ 14.5, 4, 16 ],
			"faces": {
				"down": { "uv": [ 12, 0, 14.5, 4 ], "texture": "#down" },
				"up": { "uv": [ 12, 12, 14.5, 16 ], "texture": "#down" },
				"south": { "uv": [ 12, 12, 14.5, 16 ], "texture": "#side" },
				"west": { "uv": [ 12, 12, 16, 16 ], "texture": "#side" },
				"east": { "uv": [ 0, 12, 4, 16 ], "texture": "#side" }
			}
		},
		{
			"__comment": "Box2",
			"from": [ 3.5, 6, 0 ],
			"to": [ 4, 7, 16 ],
			"faces": {
				"down": { "uv": [ 3.500002, 0, 4.000002, 16 ], "texture": "#down" },
				"up": { "uv": [ 3.500002, 1.907349E-06, 4.000002, 16 ], "texture": "#down" },
				"north": { "uv": [ 12, 9, 12.5, 10 ], "texture": "#side" },
				"south": { "uv": [ 3.5, 9, 4, 10 ], "texture": "#side" },
				"west": { "uv": [ 1.907349E-06, 9, 16, 10 ], "texture": "#side" },
				"east": { "uv": [ 0, 9, 16, 10 ], "texture": "#side" }
			}
		},
		{
			"__comment": "Box2",
			"from": [ 2.5, 4, 0 ],
			"to": [ 4, 6, 16 ],
			"faces": {
				"down": { "uv": [ 2.500002, 0, 4.000002, 16 ], "texture": "#down" },
				"up": { "uv": [ 2.500002, 1.907349E-06, 4.000002, 16 ], "texture": "#down" },
				"north": { "uv": [ 12, 10, 13.5, 12 ], "texture": "#side" },
				"south": { "uv": [ 2.5, 10, 4, 12 ], "texture": "#side" },
				"west": { "uv": [ 1.907349E-06, 10, 16, 12 ], "texture": "#side" },
				"east": { "uv": [ 0, 10, 16, 12 ], "texture": "#side" }
			}
		},
		{
			"__comment": "Box2",
			"from": [ 1.5, 0, 0 ],
			"to": [ 4, 4, 16 ],
			"faces": {
				"down": { "uv": [ 1.500002, 0, 4.000002, 16 ], "texture": "#down" },
				"up": { "uv": [ 1.500002, 1.907349E-06, 4.000002, 16 ], "texture": "#down" },
				"north": { "uv": [ 12, 12, 14.5, 16 ], "texture": "#side" },
				"south": { "uv": [ 1.5, 12, 4, 16 ], "texture": "#side" },
				"west": { "uv": [ 1.907349E-06, 12, 16, 16 ], "texture": "#side" },
				"east": { "uv": [ 0, 12, 16, 16 ], "texture": "#side" }
			}
		},
		{
			"from": [ 4, 0, 0 ],
			"to": [ 12, 16, 16 ],
			"faces": {
				"down": { "uv": [ 4, 0, 12, 16 ], "texture": "#down" },
				"up": { "uv": [ 4, 0, 12, 16 ], "texture": "#up" },
				"north": { "uv": [ 4, 0, 12, 16 ], "texture": "#side" },
				"south": { "uv": [ 4, 0, 12, 16 ], "texture": "#side" },
				"west": { "uv": [ 4.768372E-07, 0, 16, 16 ], "texture": "#side" },
				"east": { "uv": [ 0, 0, 16, 16 ], "texture": "#side" }
			}
		},
		{
			"__comment": "Box2",
			"from": [ 12, 6, 0 ],
			"to": [ 12.5, 7, 4 ],
			"faces": {
				"down": { "uv": [ 12, 12, 12.5, 16 ], "texture": "#down" },
				"up": { "uv": [ 12, 0, 12.5, 4 ], "texture": "#down" },
				"west": { "uv": [ 0, 9, 4, 10 ], "texture": "#side" },
				"east": { "uv": [ 12, 9, 16, 10 ], "texture": "#side" }
			}
		},
		{
			"__comment": "Box2",
			"from": [ 12, 4, 0 ],
			"to": [ 13.5, 6, 4 ],
			"faces": {
				"down": { "uv": [ 12, 12, 13.5, 16 ], "texture": "#down" },
				"up": { "uv": [ 12, 0, 13.5, 4 ], "texture": "#down" },
				"north": { "uv": [ 2.5, 10, 4, 12 ], "texture": "#side" },
				"west": { "uv": [ 0, 10, 4, 12 ], "texture": "#side" },
				"east": { "uv": [ 12, 10, 16, 12 ], "texture": "#side" }
			}
		},
		{
			"__comment": "Box2",
			"from": [ 12, 0, 0 ],
			"to": [ 14.5, 4, 4 ],
			"faces": {
				"down": { "uv": [ 12, 12, 14.5, 16 ], "texture": "#down" },
				"up": { "uv": [ 12, 0, 14.5, 4 ], "texture": "#down" },
				"north": { "uv": [ 1.5, 12, 4, 16 ], "texture": "#side" },
				"west": { "uv": [ 0, 12, 4, 16 ], "texture": "#side" },
				"east": { "uv": [ 12, 12, 16, 16 ], "texture": "#side" }
			}
		},
		{
			"__comment": "Box2",
			"from": [ 12, 6, 12 ],
			"to": [ 12.5, 7, 16 ],
			"faces": {
				"down": { "uv": [ 12, 0, 12.5, 4 ], "texture": "#down" },
				"up": { "uv": [ 12, 12, 12.5, 16 ], "texture": "#down" },
				"south": { "uv": [ 12, 9, 12.5, 10 ], "texture": "#side" },
				"west": { "uv": [ 12, 9, 16, 10 ], "texture": "#side" },
				"east": { "uv": [ 0, 9, 4, 10 ], "texture": "#side" }
			}
		},
		{
			"__comment": "Box2",
			"from": [ 12, 4, 12 ],
			"to": [ 13.5, 6, 16 ],
			"faces": {
				"down": { "uv": [ 12, 0, 13.5, 4 ], "texture": "#down" },
				"up": { "uv": [ 12, 12, 13.5, 16 ], "texture": "#down" },
				"south": { "uv": [ 12, 10, 13.5, 12 ], "texture": "#side" },
				"west": { "uv": [ 12, 10, 16, 12 ], "texture": "#side" },
				"east": { "uv": [ 0, 10, 4, 12 ], "texture": "#side" }
			}
		},
		{
			"__comment": "Box2",
			"from": [ 14.5, 0, 1.5 ],
			"to": [ 16, 4, 4 ],
			"faces": {
				"down": { "uv": [ 14.5, 12, 16, 14.5 ], "texture": "#down" },
				"up": { "uv": [ 14.5, 1.5, 16, 4 ], "texture": "#down" },
				"north": { "uv": [ 1.907349E-06, 12, 1.500002, 16 ], "texture": "#side" },
				"east": { "uv": [ 12, 12, 14.5, 16 ], "texture": "#side" }
			}
		},
		{
			"__comment": "Box2",
			"from": [ 12.5, 6, 3.5 ],
			"to": [ 16, 7, 4 ],
			"faces": {
				"down": { "uv": [ 12.5, 12, 16, 12.5 ], "texture": "#down" },
				"up": { "uv": [ 12.5, 3.5, 16, 4 ], "texture": "#down" },
				"north": { "uv": [ 0, 9, 3.5, 10 ], "texture": "#side" },
				"east": { "uv": [ 12, 9, 12.5, 10 ], "texture": "#side" }
			}
		},
		{
			"__comment": "Box2",
			"from": [ 13.5, 4, 12 ],
			"to": [ 16, 6, 13.5 ],
			"faces": {
				"down": { "uv": [ 13.5, 2.5, 16, 4 ], "texture": "#down" },
				"up": { "uv": [ 13.5, 12, 16, 13.5 ], "texture": "#down" },
				"south": { "uv": [ 13.5, 10, 16, 12 ], "texture": "#side" },
				"east": { "uv": [ 2.5, 10, 4, 12 ], "texture": "#side" }
			}
		},
		{
			"__comment": "Box2",
			"from": [ 14.5, 0, 12 ],
			"to": [ 16, 4, 14.5 ],
			"faces": {
				"down": { "uv": [ 14.5, 1.5, 16, 4 ], "texture": "#down" },
				"up": { "uv": [ 14.5, 12, 16, 14.5 ], "texture": "#down" },
				"south": { "uv": [ 14.5, 12, 16, 16 ], "texture": "#side" },
				"east": { "uv": [ 1.5, 12, 4, 16 ], "texture": "#side" }
			}
		}
	]
}