{
	"__comment": "Designed by RomanCapitalist with Cubik Studio - https://cubik.studio",
	"parent": "block/block",
	"textures": {
		"particle": "#wall",
		"side": "#wall",
		"down": "#bottom",
		"up": "#top"
	},
	"elements": [ 	 
		{
			"from": [ 4, 0, 0 ],
			"to": [ 12, 16, 12 ],
			"faces": {
				"down": { "uv": [ 4, 4, 12, 16 ], "texture": "#down" },
				"up": { "uv": [ 4, 0, 12, 12 ], "texture": "#up" },
				"north": { "uv": [ 4, 0, 12, 16 ], "texture": "#side" },
				"south": { "uv": [ 4, 0, 12, 16 ], "texture": "#side" },
				"west": { "uv": [ 4.768372E-07, 0, 12, 16 ], "texture": "#side" },
				"east": { "uv": [ 4, 0, 16, 16 ], "texture": "#side" }
			}
		},
		{
			"from": [ 12, 0, 4 ],
			"to": [ 16, 16, 12 ],
			"faces": {
				"down": { "uv": [ 12, 4, 16, 12 ], "texture": "#down" },
				"up": { "uv": [ 12, 4, 16, 12 ], "texture": "#up" },
				"north": { "uv": [ 0, 0, 4, 16 ], "texture": "#side" },
				"south": { "uv": [ 12, 0, 16, 16 ], "texture": "#side" },
				"east": { "uv": [ 4, 0, 12, 16 ], "texture": "#side" }
			}
		}
	]
}