{
	"__comment": "Designed by RomanCapitalist with Cubik Studio - https://cubik.studio",
	"parent": "block/block",
	"textures": {
		"particle": "#side",
		"side": "#side",
		"up": "#up",
		"down": "#down"
	},
	"elements": [ 	 
		{
			"from": [ 0, 0, 13 ],
			"to": [ 16, 16, 16 ],
			"faces": {
				"down": { "uv": [ 0, 0, 16, 3 ], "texture": "#down", "cullface": "down" },
				"up": { "uv": [ 0, 13, 16, 16 ], "texture": "#up", "cullface": "up" },
				"north": { "uv": [ 0, 0, 16, 16 ], "texture": "#side", "cullface": "north" },
				"south": { "uv": [ 0, 0, 16, 16 ], "texture": "#side", "cullface": "south" },
				"west": { "uv": [ 13, 0, 16, 16 ], "texture": "#side", "cullface": "west" },
				"east": { "uv": [ 0, 0, 3, 16 ], "texture": "#side", "cullface": "east" }
			}
		},
		{
			"__comment": "Box2",
			"from": [ 16, 6, 13 ],
			"to": [ 16.5, 7, 16 ],
			"faces": {
				"down": { "uv": [ 15.5, 0, 16, 3 ], "texture": "#down" },
				"up": { "uv": [ 15.5, 13, 16, 16 ], "texture": "#down" },
				"north": { "uv": [ 3.814697E-06, 9, 0.5000038, 10 ], "texture": "#side" },
				"south": { "uv": [ 15.5, 9, 16, 10 ], "texture": "#side" },
				"west": { "uv": [ 13, 9, 16, 10 ], "texture": "#side" },
				"east": { "uv": [ 0, 9, 3, 10 ], "texture": "#side" }
			}
		},
		{
			"__comment": "Box2",
			"from": [ 16, 4, 13 ],
			"to": [ 17.5, 6, 16 ],
			"faces": {
				"down": { "uv": [ 14.5, 1.907349E-06, 16, 3.000002 ], "texture": "#down" },
				"up": { "uv": [ 14.5, 13, 16, 16 ], "texture": "#down" },
				"north": { "uv": [ 3.814697E-06, 10, 1.500004, 12 ], "texture": "#side" },
				"south": { "uv": [ 14.5, 10, 16, 12 ], "texture": "#side" },
				"west": { "uv": [ 13, 10, 16, 12 ], "texture": "#side" },
				"east": { "uv": [ 1.907349E-06, 10, 3.000002, 12 ], "texture": "#side" }
			}
		},
		{
			"__comment": "Box2",
			"from": [ 16, 0, 13 ],
			"to": [ 18.5, 4, 16 ],
			"faces": {
				"down": { "uv": [ 13.5, 2.861023E-06, 16, 3.000003 ], "texture": "#down" },
				"up": { "uv": [ 13.5, 13, 16, 16 ], "texture": "#down" },
				"north": { "uv": [ 3.814697E-06, 12, 2.500004, 16 ], "texture": "#side" },
				"south": { "uv": [ 13.5, 12, 16, 16 ], "texture": "#side" },
				"west": { "uv": [ 13, 12, 16, 16 ], "texture": "#side" },
				"east": { "uv": [ 2.861023E-06, 12, 3.000003, 16 ], "texture": "#side" }
			}
		},
		{
			"__comment": "Box2",
			"from": [ -1.5, 4, 11.5 ],
			"to": [ 0, 6, 13 ],
			"faces": {
				"down": { "uv": [ 14.5, 14.5, 16, 16 ], "texture": "#down", "rotation": 90 },
				"up": { "uv": [ 14.5, 0, 16, 1.5 ], "texture": "#down", "rotation": 270 },
				"north": { "uv": [ 14.5, 10, 16, 12 ], "texture": "#side" },
				"south": { "uv": [ 0, 10, 1.5, 12 ], "texture": "#side" },
				"west": { "uv": [ 0, 10, 1.5, 12 ], "texture": "#side" },
				"east": { "uv": [ 14.5, 10, 16, 12 ], "texture": "#side" }
			}
		},
		{
			"__comment": "Box2",
			"from": [ -2.5, 0, 10.5 ],
			"to": [ 0, 4, 13 ],
			"faces": {
				"down": { "uv": [ 13.5, 13.5, 16, 16 ], "texture": "#down", "rotation": 90 },
				"up": { "uv": [ 13.5, 0, 16, 2.5 ], "texture": "#down", "rotation": 270 },
				"north": { "uv": [ 13.5, 12, 16, 16 ], "texture": "#side" },
				"south": { "uv": [ 0, 12, 2.5, 16 ], "texture": "#side" },
				"west": { "uv": [ 0, 12, 2.5, 16 ], "texture": "#side" },
				"east": { "uv": [ 13.5, 12, 16, 16 ], "texture": "#side" }
			}
		},
		{
			"__comment": "Box2",
			"from": [ 16, 4, 11.5 ],
			"to": [ 17.5, 6, 13 ],
			"faces": {
				"down": { "uv": [ 1.000002, 1, 2.500002, 2.5 ], "texture": "#down", "rotation": 180 },
				"up": { "uv": [ 1.000002, 13.5, 2.500002, 15 ], "texture": "#down", "rotation": 180 },
				"north": { "uv": [ 1.000002, 10, 2.500002, 12 ], "texture": "#side" },
				"south": { "uv": [ 13.5, 10, 15, 12 ], "texture": "#side" },
				"west": { "uv": [ 1, 10, 2.5, 12 ], "texture": "#side" },
				"east": { "uv": [ 13.5, 10, 15, 12 ], "texture": "#side" }
			}
		},
		{
			"__comment": "Box2",
			"from": [ 16, 0, 10.5 ],
			"to": [ 18.5, 4, 13 ],
			"faces": {
				"down": { "uv": [ 13.5, 13.5, 16, 16 ], "texture": "#down" },
				"up": { "uv": [ 13.5, 0, 16, 2.5 ], "texture": "#down" },
				"north": { "uv": [ 0, 12, 2.5, 16 ], "texture": "#side" },
				"south": { "uv": [ 13.5, 12, 16, 16 ], "texture": "#side" },
				"west": { "uv": [ 0, 12, 2.5, 16 ], "texture": "#side" },
				"east": { "uv": [ 13.5, 12, 16, 16 ], "texture": "#side" }
			}
		},
		{
			"__comment": "Box2",
			"from": [ 0, 6, 12.5 ],
			"to": [ 16, 7, 13 ],
			"faces": {
				"down": { "uv": [ 9.536743E-07, 2.000002, 16, 2.500002 ], "texture": "#down", "rotation": 180 },
				"up": { "uv": [ 9.536743E-07, 13.5, 16, 14 ], "texture": "#down", "rotation": 180 },
				"north": { "uv": [ 9.536743E-07, 9, 16, 10 ], "texture": "#side" },
				"south": { "uv": [ 0, 9, 16, 10 ], "texture": "#side" },
				"west": { "uv": [ 2.000002, 9, 2.500002, 10 ], "texture": "#side" },
				"east": { "uv": [ 13.5, 9, 14, 10 ], "texture": "#side" }
			}
		},
		{
			"__comment": "Box2",
			"from": [ 0, 4, 11.5 ],
			"to": [ 16, 6, 13 ],
			"faces": {
				"down": { "uv": [ 0, 14.5, 16, 16 ], "texture": "#down" },
				"up": { "uv": [ 0, 0, 16, 1.5 ], "texture": "#down" },
				"north": { "uv": [ 0, 10, 16, 12 ], "texture": "#side" },
				"south": { "uv": [ 0, 10, 16, 12 ], "texture": "#side" },
				"west": { "uv": [ 0, 10, 1.5, 12 ], "texture": "#side" },
				"east": { "uv": [ 14.5, 10, 16, 12 ], "texture": "#side" }
			}
		},
		{
			"__comment": "Box2",
			"from": [ 0, 0, 10.5 ],
			"to": [ 16, 4, 13 ],
			"faces": {
				"down": { "uv": [ 0, 13.5, 16, 16 ], "texture": "#down" },
				"up": { "uv": [ 0, 0, 16, 2.5 ], "texture": "#down" },
				"north": { "uv": [ 0, 12, 16, 16 ], "texture": "#side" },
				"south": { "uv": [ 0, 12, 16, 16 ], "texture": "#side" },
				"west": { "uv": [ 0, 12, 2.5, 16 ], "texture": "#side" },
				"east": { "uv": [ 13.5, 12, 16, 16 ], "texture": "#side" }
			}
		},
		{
			"__comment": "Box2",
			"from": [ -0.5, 6, 12.5 ],
			"to": [ 0, 7, 13 ],
			"faces": {
				"down": { "uv": [ 15.5, 15.5, 16, 16 ], "texture": "#down", "rotation": 90 },
				"up": { "uv": [ 15.5, 0, 16, 0.5 ], "texture": "#down", "rotation": 270 },
				"north": { "uv": [ 15.5, 9, 16, 10 ], "texture": "#side" },
				"south": { "uv": [ 0, 9, 0.5, 10 ], "texture": "#side" },
				"west": { "uv": [ 0, 9, 0.5, 10 ], "texture": "#side" },
				"east": { "uv": [ 15.5, 9, 16, 10 ], "texture": "#side" }
			}
		},
		{
			"__comment": "Box2",
			"from": [ 16, 6, 12.5 ],
			"to": [ 16.5, 7, 13 ],
			"faces": {
				"down": { "uv": [ 15.5, 15.5, 16, 16 ], "texture": "#down" },
				"up": { "uv": [ 15.5, 0, 16, 0.5 ], "texture": "#down" },
				"north": { "uv": [ 0, 9, 0.5, 10 ], "texture": "#side" },
				"south": { "uv": [ 15.5, 9, 16, 10 ], "texture": "#side" },
				"west": { "uv": [ 0, 9, 0.5, 10 ], "texture": "#side" },
				"east": { "uv": [ 15.5, 9, 16, 10 ], "texture": "#side" }
			}
		},
		{
			"__comment": "Box2",
			"from": [ -0.5, 6, 13 ],
			"to": [ 0, 7, 16 ],
			"faces": {
				"down": { "uv": [ 9.536743E-07, 1.907349E-06, 0.500001, 3.000002 ], "texture": "#down" },
				"up": { "uv": [ 9.536743E-07, 13, 0.500001, 16 ], "texture": "#down" },
				"north": { "uv": [ 15.5, 9, 16, 10 ], "texture": "#side" },
				"south": { "uv": [ 9.536743E-07, 9, 0.500001, 10 ], "texture": "#side" },
				"west": { "uv": [ 13, 9, 16, 10 ], "texture": "#side" },
				"east": { "uv": [ 1.907349E-06, 9, 3.000002, 10 ], "texture": "#side" }
			}
		},
		{
			"__comment": "Box2",
			"from": [ -1.5, 4, 13 ],
			"to": [ 0, 6, 16 ],
			"faces": {
				"down": { "uv": [ 1.072884E-06, 0, 1.500001, 2.999998 ], "texture": "#down" },
				"up": { "uv": [ 1.072884E-06, 13, 1.500001, 16 ], "texture": "#down" },
				"north": { "uv": [ 14.5, 10, 16, 12 ], "texture": "#side" },
				"south": { "uv": [ 1.072884E-06, 10, 1.500001, 12 ], "texture": "#side" },
				"west": { "uv": [ 13, 10, 16, 12 ], "texture": "#side" },
				"east": { "uv": [ 0, 10, 2.999998, 12 ], "texture": "#side" }
			}
		},
		{
			"__comment": "Box2",
			"from": [ -2.5, 0, 13 ],
			"to": [ 0, 4, 16 ],
			"faces": {
				"down": { "uv": [ 1.192093E-06, 0, 2.500001, 2.999998 ], "texture": "#down" },
				"up": { "uv": [ 1.192093E-06, 13, 2.500001, 16 ], "texture": "#down" },
				"north": { "uv": [ 13.5, 12, 16, 16 ], "texture": "#side" },
				"south": { "uv": [ 1.192093E-06, 12, 2.500001, 16 ], "texture": "#side" },
				"west": { "uv": [ 13, 12, 16, 16 ], "texture": "#side" },
				"east": { "uv": [ 0, 12, 2.999998, 16 ], "texture": "#side" }
			}
		},
		{
			"__comment": "Box2",
			"from": [ 16, 4, 16 ],
			"to": [ 17.5, 6, 17.5 ],
			"faces": {
				"down": { "uv": [ 14.5, 14.5, 16, 16 ], "texture": "#down", "rotation": 270 },
				"up": { "uv": [ 14.5, 0, 16, 1.5 ], "texture": "#down", "rotation": 90 },
				"north": { "uv": [ 0, 10, 1.5, 12 ], "texture": "#side" },
				"south": { "uv": [ 14.5, 10, 16, 12 ], "texture": "#side" },
				"west": { "uv": [ 14.5, 10, 16, 12 ], "texture": "#side" },
				"east": { "uv": [ 0, 10, 1.5, 12 ], "texture": "#side" }
			}
		},
		{
			"__comment": "Box2",
			"from": [ 16, 0, 16 ],
			"to": [ 18.5, 4, 18.5 ],
			"faces": {
				"down": { "uv": [ 13.5, 13.5, 16, 16 ], "texture": "#down", "rotation": 270 },
				"up": { "uv": [ 13.5, 0, 16, 2.5 ], "texture": "#down", "rotation": 90 },
				"north": { "uv": [ 0, 12, 2.5, 16 ], "texture": "#side" },
				"south": { "uv": [ 13.5, 12, 16, 16 ], "texture": "#side" },
				"west": { "uv": [ 13.5, 12, 16, 16 ], "texture": "#side" },
				"east": { "uv": [ 0, 12, 2.5, 16 ], "texture": "#side" }
			}
		},
		{
			"__comment": "Box2",
			"from": [ -1.5, 4, 16 ],
			"to": [ 0, 6, 17.5 ],
			"faces": {
				"down": { "uv": [ 1.000002, 1, 2.500002, 2.5 ], "texture": "#down" },
				"up": { "uv": [ 1.000002, 13.5, 2.500002, 15 ], "texture": "#down" },
				"north": { "uv": [ 13.5, 10, 15, 12 ], "texture": "#side" },
				"south": { "uv": [ 1.000002, 10, 2.500002, 12 ], "texture": "#side" },
				"west": { "uv": [ 13.5, 10, 15, 12 ], "texture": "#side" },
				"east": { "uv": [ 1, 10, 2.5, 12 ], "texture": "#side" }
			}
		},
		{
			"__comment": "Box2",
			"from": [ -2.5, 0, 16 ],
			"to": [ 0, 4, 18.5 ],
			"faces": {
				"down": { "uv": [ 13.5, 13.5, 16, 16 ], "texture": "#down", "rotation": 180 },
				"up": { "uv": [ 13.5, 0, 16, 2.5 ], "texture": "#down", "rotation": 180 },
				"north": { "uv": [ 13.5, 12, 16, 16 ], "texture": "#side" },
				"south": { "uv": [ 0, 12, 2.5, 16 ], "texture": "#side" },
				"west": { "uv": [ 13.5, 12, 16, 16 ], "texture": "#side" },
				"east": { "uv": [ 0, 12, 2.5, 16 ], "texture": "#side" }
			}
		},
		{
			"__comment": "Box2",
			"from": [ 0, 6, 16 ],
			"to": [ 16, 7, 16.5 ],
			"faces": {
				"down": { "uv": [ 9.536743E-07, 2.000002, 16, 2.500002 ], "texture": "#down" },
				"up": { "uv": [ 9.536743E-07, 13.5, 16, 14 ], "texture": "#down" },
				"north": { "uv": [ 0, 9, 16, 10 ], "texture": "#side" },
				"south": { "uv": [ 9.536743E-07, 9, 16, 10 ], "texture": "#side" },
				"west": { "uv": [ 13.5, 9, 14, 10 ], "texture": "#side" },
				"east": { "uv": [ 2.000002, 9, 2.500002, 10 ], "texture": "#side" }
			}
		},
		{
			"__comment": "Box2",
			"from": [ 0, 4, 16 ],
			"to": [ 16, 6, 17.5 ],
			"faces": {
				"down": { "uv": [ 0, 14.5, 16, 16 ], "texture": "#down", "rotation": 180 },
				"up": { "uv": [ 0, 0, 16, 1.5 ], "texture": "#down", "rotation": 180 },
				"north": { "uv": [ 0, 10, 16, 12 ], "texture": "#side" },
				"south": { "uv": [ 0, 10, 16, 12 ], "texture": "#side" },
				"west": { "uv": [ 14.5, 10, 16, 12 ], "texture": "#side" },
				"east": { "uv": [ 0, 10, 1.5, 12 ], "texture": "#side" }
			}
		},
		{
			"__comment": "Box2",
			"from": [ 0, 0, 16 ],
			"to": [ 16, 4, 18.5 ],
			"faces": {
				"down": { "uv": [ 0, 13.5, 16, 16 ], "texture": "#down", "rotation": 180 },
				"up": { "uv": [ 0, 0, 16, 2.5 ], "texture": "#down", "rotation": 180 },
				"north": { "uv": [ 0, 12, 16, 16 ], "texture": "#side" },
				"south": { "uv": [ 0, 12, 16, 16 ], "texture": "#side" },
				"west": { "uv": [ 13.5, 12, 16, 16 ], "texture": "#side" },
				"east": { "uv": [ 0, 12, 2.5, 16 ], "texture": "#side" }
			}
		},
		{
			"__comment": "Box2",
			"from": [ 16, 6, 16 ],
			"to": [ 16.5, 7, 16.5 ],
			"faces": {
				"down": { "uv": [ 15.5, 15.5, 16, 16 ], "texture": "#down", "rotation": 270 },
				"up": { "uv": [ 15.5, 0, 16, 0.5 ], "texture": "#down", "rotation": 90 },
				"north": { "uv": [ 0, 9, 0.5, 10 ], "texture": "#side" },
				"south": { "uv": [ 15.5, 9, 16, 10 ], "texture": "#side" },
				"west": { "uv": [ 15.5, 9, 16, 10 ], "texture": "#side" },
				"east": { "uv": [ 0, 9, 0.5, 10 ], "texture": "#side" }
			}
		},
		{
			"__comment": "Box2",
			"from": [ -0.5, 6, 16 ],
			"to": [ 0, 7, 16.5 ],
			"faces": {
				"down": { "uv": [ 15.5, 15.5, 16, 16 ], "texture": "#down", "rotation": 180 },
				"up": { "uv": [ 15.5, 0, 16, 0.5 ], "texture": "#down", "rotation": 180 },
				"north": { "uv": [ 15.5, 9, 16, 10 ], "texture": "#side" },
				"south": { "uv": [ 0, 9, 0.5, 10 ], "texture": "#side" },
				"west": { "uv": [ 15.5, 9, 16, 10 ], "texture": "#side" },
				"east": { "uv": [ 0, 9, 0.5, 10 ], "texture": "#side" }
			}
		}
	]
}