{
	"parent": "block/block",
	"textures": {
		"particle": "#texture",
		"texture_0": "#texture",
		"texture_1": "#texture1"
	},
	"elements": [
		{
			"from": [ 5, 12, 16 ],
			"to": [ 11, 16, 21 ],
			"faces": {
				"down": { "uv": [ 11, 16, 5, 11 ], "texture": "#texture_0", "rotation": 180 },
				"up": { "uv": [ 5, 11, 11, 16 ], "texture": "#texture_0", "rotation": 180 },
				"south": { "uv": [ 5, 0, 11, 4 ], "texture": "#texture_0" },
				"west": { "uv": [ 0, 5.5, 5, 9.5 ], "texture": "#texture_1" },
				"east": { "uv": [ 11, 5.5, 16, 9.5 ], "texture": "#texture_1" }
			}
		},
		{
			"from": [ 5, 12, -5 ],
			"to": [ 11, 16, 0 ],
			"faces": {
				"down": { "uv": [ 11, 16, 5, 11 ], "texture": "#texture_0" },
				"up": { "uv": [ 5, 11, 11, 16 ], "texture": "#texture_0" },
				"north": { "uv": [ 5, 0, 11, 4 ], "texture": "#texture_0" },
				"west": { "uv": [ 11, 5.5, 16, 9.5 ], "texture": "#texture_1" },
				"east": { "uv": [ 0, 5.5, 5, 9.5 ], "texture": "#texture_1" }
			}
		},
		{
			"from": [ 5, 12, 0 ],
			"to": [ 11, 16, 16 ],
			"faces": {
				"down": { "uv": [ 11, 16, 5, 0 ], "texture": "#texture_0" },
				"up": { "uv": [ 5, 0, 11, 16 ], "texture": "#texture_0" },
				"west": { "uv": [ 0, 5.5, 16, 9.5 ], "texture": "#texture_1" },
				"east": { "uv": [ 0, 5.5, 16, 9.5 ], "texture": "#texture_1" }
			}
		}
	]
}