{
"__comment": "Designed by Jugbot with BDcraft Cubik PRO 0.76 Beta - http://bdcraft.net",
"parent": "block/block",
"ambientocclusion": false,
"textures": {
    "particle": "blocks/pumpkin_side",
    "side": "blocks/pumpkin_side",
    "top": "blocks/pumpkin_top"
},
"elements": [ 
{
    "from": [ 0, 0, 0 ],
    "to": [ 16, 16, 16 ],
    "shade": false,
    "faces": {
        "down":  { "uv": [ 0, 16, 16, 0 ], "texture": "#top" },
        "up":    { "uv": [ 0, 0, 16, 16 ], "texture": "#top" },
        "north": { "uv": [ 0, 0, 16, 16 ], "texture": "#side" },
        "south": { "uv": [ 0, 0, 16, 16 ], "texture": "#side" },
        "west":  { "uv": [ 0, 0, 16, 16 ], "texture": "#side" },
        "east":  { "uv": [ 0, 0, 16, 16 ], "texture": "#side" }
    }
},
{
    "from": [ 7, 16, 7.5 ],
    "to": [ 9, 17.5, 9.5 ],
    "shade": false,
    "faces": {
        "down":  { "uv": [ 7, 9.5, 9, 7.5 ], "texture": "#top" },
        "up":    { "uv": [ 7, 7.5, 9, 9.5 ], "texture": "#top" },
        "north": { "uv": [ 7, 7, 9, 8.5 ], "texture": "#top" },
        "south": { "uv": [ 7, 7, 9, 8.5 ], "texture": "#top" },
        "west":  { "uv": [ 7, 7, 9, 8.5 ], "texture": "#top" },
        "east":  { "uv": [ 7, 7, 9, 8.5 ], "texture": "#top" }
    }
},
{
    "from": [ 6.5, 16, 7 ],
    "to": [ 9.5, 16.5, 10 ],
    "shade": false,
    "faces": {
        "down":  { "uv": [ 6.5, 10, 9.5, 7 ], "texture": "#top" },
        "up":    { "uv": [ 6.5, 7, 9.5, 10 ], "texture": "#top" },
        "north": { "uv": [ 6.5, 7.5, 9.5, 8 ], "texture": "#top" },
        "south": { "uv": [ 6.5, 7.5, 9.5, 8 ], "texture": "#top" },
        "west":  { "uv": [ 7, 7.5, 10, 8 ], "texture": "#top" },
        "east":  { "uv": [ 6, 7.5, 9, 8 ], "texture": "#top" }
    }
}
]
}