{
    "parent": "block/block",
    "__comment": "Model generated using MrCrayfish's Model Creator (http://mrcrayfish.com/modelcreator/)",
    "textures": {
        "particle": "#rock",
        "0": "#rock"
    },
    "elements": [
        {
            "name": "Cube",
            "from": [ 3.0, 0.0, 8.0 ], 
            "to": [ 5.0, 2.0, 12.0 ], 
            "rotation": { "origin": [ 8.0, 8.0, 8.0 ], "axis": "y", "angle": 22.5 },
            "faces": {
                "north": { "texture": "#0", "uv": [ 9.0, 3.0, 11.0, 5.0 ] },
                "east": { "texture": "#0", "uv": [ 0.0, 0.0, 4.0, 2.0 ] },
                "south": { "texture": "#0", "uv": [ 0.0, 0.0, 2.0, 2.0 ] },
                "west": { "texture": "#0", "uv": [ 6.0, 4.0, 10.0, 6.0 ] },
                "up": { "texture": "#0", "uv": [ 3.0, 3.0, 5.0, 7.0 ] },
                "down": { "texture": "#0", "uv": [ 0.0, 0.0, 2.0, 4.0 ] }
            }
        },
        {
            "name": "Cube",
            "from": [ 3.4999999925494194, 0.0, 12.0 ], 
            "to": [ 6.499999992549419, 1.5000000074505806, 13.0 ], 
            "rotation": { "origin": [ 8.0, 8.0, 8.0 ], "axis": "y", "angle": 22.5 },
            "faces": {
                "north": { "texture": "#0", "uv": [ 7.0, 6.0, 10.0, 7.500000007450581 ] },
                "east": { "texture": "#0", "uv": [ 8.0, 9.0, 9.0, 10.50000000745058 ] },
                "south": { "texture": "#0", "uv": [ 5.0, 6.0, 8.0, 7.500000007450581 ] },
                "west": { "texture": "#0", "uv": [ 8.0, 4.0, 9.0, 5.500000007450581 ] },
                "up": { "texture": "#0", "uv": [ 0.0, 0.0, 3.0, 1.0 ] },
                "down": { "texture": "#0", "uv": [ 0.0, 0.0, 3.0, 1.0 ] }
            }
        },
        {
            "name": "Cube",
            "from": [ 7.0, 0.0, 7.0 ], 
            "to": [ 8.0, 0.4999999925494194, 11.0 ], 
            "rotation": { "origin": [ 8.0, 8.0, 8.0 ], "axis": "y", "angle": 22.5 },
            "faces": {
                "north": { "texture": "#0", "uv": [ 0.0, 0.0, 1.0, 0.4999999925494194 ] },
                "east": { "texture": "#0", "uv": [ 7.0, 10.0, 11.0, 10.49999999254942 ] },
                "south": { "texture": "#0", "uv": [ 4.0, 6.0, 5.0, 6.499999992549419 ] },
                "west": { "texture": "#0", "uv": [ 5.0, 9.0, 9.0, 9.49999999254942 ] },
                "up": { "texture": "#0", "uv": [ 6.0, 6.0, 7.0, 10.0 ] },
                "down": { "texture": "#0", "uv": [ 0.0, 0.0, 1.0, 4.0 ] }
            }
        },
        {
            "name": "Cube",
            "from": [ 3.0, 0.0, 6.0 ], 
            "to": [ 6.0, 1.0, 8.0 ], 
            "rotation": { "origin": [ 8.0, 8.0, 8.0 ], "axis": "y", "angle": 22.5 },
            "faces": {
                "north": { "texture": "#0", "uv": [ 3.0, 4.0, 6.0, 5.0 ] },
                "east": { "texture": "#0", "uv": [ 7.0, 8.0, 9.0, 9.0 ] },
                "south": { "texture": "#0", "uv": [ 7.0, 6.0, 10.0, 7.0 ] },
                "west": { "texture": "#0", "uv": [ 5.0, 7.0, 7.0, 8.0 ] },
                "up": { "texture": "#0", "uv": [ 6.0, 7.0, 9.0, 9.0 ] },
                "down": { "texture": "#0", "uv": [ 0.0, 0.0, 3.0, 2.0 ] }
            }
        },
        {
            "name": "Cube",
            "from": [ 2.0, 0.0, 7.0 ], 
            "to": [ 3.0, 1.0, 9.0 ], 
            "rotation": { "origin": [ 8.0, 8.0, 8.0 ], "axis": "y", "angle": 22.5 },
            "faces": {
                "north": { "texture": "#0", "uv": [ 0.0, 0.0, 1.0, 1.0 ] },
                "east": { "texture": "#0", "uv": [ 0.0, 0.0, 2.0, 1.0 ] },
                "south": { "texture": "#0", "uv": [ 0.0, 0.0, 1.0, 1.0 ] },
                "west": { "texture": "#0", "uv": [ 0.0, 0.0, 2.0, 1.0 ] },
                "up": { "texture": "#0", "uv": [ 0.0, 0.0, 1.0, 2.0 ] },
                "down": { "texture": "#0", "uv": [ 0.0, 0.0, 1.0, 2.0 ] }
            }
        },
        {
            "name": "Cube",
            "from": [ 2.0, 0.0, 9.0 ], 
            "to": [ 3.0, 1.4999999925494194, 11.0 ], 
            "rotation": { "origin": [ 8.0, 8.0, 8.0 ], "axis": "y", "angle": 22.5 },
            "faces": {
                "north": { "texture": "#0", "uv": [ 8.0, 14.0, 9.0, 15.49999999254942 ] },
                "east": { "texture": "#0", "uv": [ 8.0, 11.0, 10.0, 12.49999999254942 ] },
                "south": { "texture": "#0", "uv": [ 8.0, 10.0, 9.0, 11.49999999254942 ] },
                "west": { "texture": "#0", "uv": [ 5.0, 5.0, 7.0, 6.499999992549419 ] },
                "up": { "texture": "#0", "uv": [ 6.0, 9.0, 7.0, 11.0 ] },
                "down": { "texture": "#0", "uv": [ 7.0, 5.0, 8.0, 7.0 ] }
            }
        },
        {
            "name": "Cube",
            "from": [ 4.499999992549419, 1.0, 7.0 ], 
            "to": [ 6.0, 1.4999999925494194, 8.0 ], 
            "rotation": { "origin": [ 8.0, 8.0, 8.0 ], "axis": "y", "angle": 22.5 },
            "faces": {
                "north": { "texture": "#0", "uv": [ 4.0, 2.0, 5.500000007450581, 2.4999999925494194 ] },
                "east": { "texture": "#0", "uv": [ 0.0, 0.0, 1.0, 0.4999999925494194 ] },
                "south": { "texture": "#0", "uv": [ 5.0, 6.0, 6.500000007450581, 6.499999992549419 ] },
                "west": { "texture": "#0", "uv": [ 7.0, 7.0, 8.0, 7.499999992549419 ] },
                "up": { "texture": "#0", "uv": [ 5.0, 7.0, 6.500000007450581, 8.0 ] },
                "down": { "texture": "#0", "uv": [ 4.0, 4.0, 5.500000007450581, 5.0 ] }
            }
        },
        {
            "name": "Cube",
            "from": [ 5.0, 0.0, 8.0 ], 
            "to": [ 7.0, 1.4999999925494194, 12.0 ], 
            "rotation": { "origin": [ 8.0, 8.0, 8.0 ], "axis": "y", "angle": 22.5 },
            "faces": {
                "north": { "texture": "#0", "uv": [ 4.0, 6.0, 6.0, 7.499999992549419 ] },
                "east": { "texture": "#0", "uv": [ 3.0, 6.0, 7.0, 7.499999992549419 ] },
                "south": { "texture": "#0", "uv": [ 6.0, 5.0, 8.0, 6.499999992549419 ] },
                "west": { "texture": "#0", "uv": [ 0.0, 0.0, 4.0, 1.4999999925494194 ] },
                "up": { "texture": "#0", "uv": [ 7.0, 8.0, 9.0, 12.0 ] },
                "down": { "texture": "#0", "uv": [ 0.0, 0.0, 2.0, 4.0 ] }
            }
        },
        {
            "name": "Cube",
            "from": [ 6.0, 0.0, 6.0 ], 
            "to": [ 7.0, 0.4999999925494194, 8.0 ], 
            "rotation": { "origin": [ 8.0, 8.0, 8.0 ], "axis": "y", "angle": 22.5 },
            "faces": {
                "north": { "texture": "#0", "uv": [ 0.0, 0.0, 1.0, 0.4999999925494194 ] },
                "east": { "texture": "#0", "uv": [ 0.0, 0.0, 2.0, 0.4999999925494194 ] },
                "south": { "texture": "#0", "uv": [ 0.0, 0.0, 1.0, 0.4999999925494194 ] },
                "west": { "texture": "#0", "uv": [ 0.0, 0.0, 2.0, 0.4999999925494194 ] },
                "up": { "texture": "#0", "uv": [ 6.0, 6.0, 7.0, 8.0 ] },
                "down": { "texture": "#0", "uv": [ 0.0, 0.0, 1.0, 2.0 ] }
            }
        },
        {
            "name": "Cube",
            "from": [ 8.0, 0.0, 1.0 ], 
            "to": [ 11.0, 1.0, 4.0 ], 
            "rotation": { "origin": [ 8.0, 8.0, 8.0 ], "axis": "y", "angle": -45.0 },
            "faces": {
                "north": { "texture": "#0", "uv": [ 5.0, 8.0, 8.0, 9.0 ] },
                "east": { "texture": "#0", "uv": [ 4.0, 9.0, 7.0, 10.0 ] },
                "south": { "texture": "#0", "uv": [ 12.0, 13.0, 15.0, 14.0 ] },
                "west": { "texture": "#0", "uv": [ 8.0, 0.0, 11.0, 1.0 ] },
                "up": { "texture": "#0", "uv": [ 4.0, 5.0, 7.0, 8.0 ] },
                "down": { "texture": "#0", "uv": [ 0.0, 0.0, 3.0, 3.0 ] }
            }
        },
        {
            "name": "Cube",
            "from": [ 8.0, -1.4901161193847656E-8, 4.0 ], 
            "to": [ 10.0, 0.4999999776482582, 5.0 ], 
            "rotation": { "origin": [ 8.0, 8.0, 8.0 ], "axis": "y", "angle": -45.0 },
            "faces": {
                "north": { "texture": "#0", "uv": [ 5.0, 8.0, 7.0, 8.49999999254942 ] },
                "east": { "texture": "#0", "uv": [ 4.0, 9.0, 5.0, 9.49999999254942 ] },
                "south": { "texture": "#0", "uv": [ 12.0, 13.0, 14.0, 13.49999999254942 ] },
                "west": { "texture": "#0", "uv": [ 8.0, 0.0, 9.0, 0.4999999925494194 ] },
                "up": { "texture": "#0", "uv": [ 4.0, 5.0, 6.0, 6.0 ] },
                "down": { "texture": "#0", "uv": [ 0.0, 0.0, 2.0, 1.0 ] }
            }
        },
        {
            "name": "Cube",
            "from": [ 8.0, -1.4901161193847656E-8, 0.0 ], 
            "to": [ 10.0, 0.4999999776482582, 1.0 ], 
            "rotation": { "origin": [ 8.0, 8.0, 8.0 ], "axis": "y", "angle": -45.0 },
            "faces": {
                "north": { "texture": "#0", "uv": [ 7.0, 5.0, 9.0, 5.499999992549419 ] },
                "east": { "texture": "#0", "uv": [ 8.0, 2.0, 9.0, 2.4999999925494194 ] },
                "south": { "texture": "#0", "uv": [ 14.0, 5.0, 16.0, 5.499999992549419 ] },
                "west": { "texture": "#0", "uv": [ 15.0, 8.0, 16.0, 8.49999999254942 ] },
                "up": { "texture": "#0", "uv": [ 8.0, 12.0, 10.0, 13.0 ] },
                "down": { "texture": "#0", "uv": [ 2.0, 5.0, 4.0, 6.0 ] }
            }
        },
        {
            "name": "Cube",
            "from": [ 10.0, 0.0, 4.4000000059604645 ], 
            "to": [ 12.0, 2.0, 6.4000000059604645 ], 
            "rotation": { "origin": [ 8.0, 8.0, 8.0 ], "axis": "y", "angle": 22.5 },
            "faces": {
                "north": { "texture": "#0", "uv": [ 10.0, 7.0, 12.0, 9.0 ] },
                "east": { "texture": "#0", "uv": [ 4.0, 9.0, 6.0, 11.0 ] },
                "south": { "texture": "#0", "uv": [ 12.0, 13.0, 14.0, 15.0 ] },
                "west": { "texture": "#0", "uv": [ 8.0, 2.0, 10.0, 4.0 ] },
                "up": { "texture": "#0", "uv": [ 6.0, 7.0, 8.0, 9.0 ] },
                "down": { "texture": "#0", "uv": [ 0.0, 0.0, 2.0, 2.0 ] }
            }
        },
        {
            "name": "Cube",
            "from": [ 11.0, 2.5999999940395355, 0.0 ], 
            "to": [ 13.0, 4.5999999940395355, 3.0 ], 
            "rotation": { "origin": [ 8.0, 8.0, 8.0 ], "axis": "x", "angle": -22.5 },
            "faces": {
                "north": { "texture": "#0", "uv": [ 0.0, 0.0, 2.0, 2.0 ] },
                "east": { "texture": "#0", "uv": [ 0.0, 0.0, 3.0, 2.0 ] },
                "south": { "texture": "#0", "uv": [ 0.0, 0.0, 2.0, 2.0 ] },
                "west": { "texture": "#0", "uv": [ 6.0, 4.0, 9.0, 6.0 ] },
                "up": { "texture": "#0", "uv": [ 3.0, 3.0, 5.0, 6.0 ] },
                "down": { "texture": "#0", "uv": [ 0.0, 0.0, 2.0, 3.0 ] }
            }
        },
        {
            "name": "Cube",
            "from": [ 10.50000000745058, 0.0, 3.900000013411045 ], 
            "to": [ 11.50000000745058, 1.4999999925494194, 4.4000000059604645 ], 
            "rotation": { "origin": [ 8.0, 8.0, 8.0 ], "axis": "y", "angle": 22.5 },
            "faces": {
                "north": { "texture": "#0", "uv": [ 0.0, 0.0, 1.0, 1.4999999925494194 ] },
                "east": { "texture": "#0", "uv": [ 0.0, 0.0, 0.4999999925494194, 1.4999999925494194 ] },
                "south": { "texture": "#0", "uv": [ 0.0, 0.0, 1.0, 1.4999999925494194 ] },
                "west": { "texture": "#0", "uv": [ 7.0, 7.0, 7.499999992549419, 8.49999999254942 ] },
                "up": { "texture": "#0", "uv": [ 11.0, 3.0, 12.0, 3.4999999925494194 ] },
                "down": { "texture": "#0", "uv": [ 5.0, 3.0, 6.0, 3.4999999925494194 ] }
            }
        },
        {
            "name": "Cube",
            "from": [ 8.0, 0.0, 4.0 ], 
            "to": [ 9.0, 1.5000000074505806, 5.0 ], 
            "faces": {
                "north": { "texture": "#0", "uv": [ 3.0, 5.0, 4.0, 6.500000007450581 ] },
                "east": { "texture": "#0", "uv": [ 11.0, 6.0, 12.0, 7.500000007450581 ] },
                "south": { "texture": "#0", "uv": [ 0.0, 0.0, 1.0, 1.5000000074505806 ] },
                "west": { "texture": "#0", "uv": [ 3.0, 6.0, 4.0, 7.500000007450581 ] },
                "up": { "texture": "#0", "uv": [ 9.0, 5.0, 10.0, 6.0 ] },
                "down": { "texture": "#0", "uv": [ 5.0, 4.0, 6.0, 5.0 ] }
            }
        },
        {
            "name": "Cube",
            "from": [ 12.49999999254942, 0.0, 11.0 ], 
            "to": [ 14.49999999254942, 0.4999999925494194, 11.49999999254942 ], 
            "rotation": { "origin": [ 8.0, 8.0, 8.0 ], "axis": "y", "angle": 45.0 },
            "faces": {
                "north": { "texture": "#0", "uv": [ 4.0, 5.0, 6.0, 5.499999992549419 ] },
                "east": { "texture": "#0", "uv": [ 9.0, 5.0, 9.49999999254942, 5.499999992549419 ] },
                "south": { "texture": "#0", "uv": [ 8.0, 11.0, 10.0, 11.49999999254942 ] },
                "west": { "texture": "#0", "uv": [ 6.0, 6.0, 6.499999992549419, 6.499999992549419 ] },
                "up": { "texture": "#0", "uv": [ 6.0, 4.0, 8.0, 4.499999992549419 ] },
                "down": { "texture": "#0", "uv": [ 0.0, 0.0, 2.0, 0.4999999925494194 ] }
            }
        },
        {
            "name": "Cube",
            "from": [ 10.699999995529652, 1.0, 9.0 ], 
            "to": [ 12.699999995529652, 2.5000000074505806, 11.0 ], 
            "rotation": { "origin": [ 8.0, 8.0, 8.0 ], "axis": "z", "angle": -22.5 },
            "faces": {
                "north": { "texture": "#0", "uv": [ 7.0, 6.0, 9.0, 7.500000007450581 ] },
                "east": { "texture": "#0", "uv": [ 8.0, 9.0, 10.0, 10.50000000745058 ] },
                "south": { "texture": "#0", "uv": [ 5.0, 6.0, 7.0, 7.500000007450581 ] },
                "west": { "texture": "#0", "uv": [ 8.0, 4.0, 10.0, 5.500000007450581 ] },
                "up": { "texture": "#0", "uv": [ 0.0, 0.0, 2.0, 2.0 ] },
                "down": { "texture": "#0", "uv": [ 0.0, 0.0, 2.0, 2.0 ] }
            }
        }
    ]
}