{
"__comment": "3D Mesh designed with BDcraft Cubik - Version PRO 0.65 Beta",
"parent": "block/block", 
"textures": {
    "particle": "blocks/fence",
    "down": "blocks/fence",
    "up": "blocks/fence",
    "north": "blocks/fence",
    "south": "blocks/fence",
    "west": "blocks/fence",
    "east": "blocks/fence"
},
"elements": [ 
{
    "__comment": "lat*",
    "from": [ 7, 8.5, 0 ],
    "to": [ 9, 10.5, 6 ],
    "faces": {
        "down":  { "uv": [ 7, 0, 9, 6 ], "texture": "#down" },
        "up":    { "uv": [ 7, 0, 9, 6 ], "texture": "#up" },
        "north": { "uv": [ 7, 5.5, 9, 7.5 ], "texture": "#north" },
        "west":  { "uv": [ 10, 8, 16, 10 ], "texture": "#west" },
        "east":  { "uv": [ 10, 8, 16, 10 ], "texture": "#east" }
    }
},
{
    "__comment": "lat*",
    "from": [ 7, 13, 0 ],
    "to": [ 9, 15, 6 ],
    "faces": {
        "down":  { "uv": [ 7, 0, 9, 6 ], "texture": "#down" },
        "up":    { "uv": [ 7, 0, 9, 6 ], "texture": "#up" },
        "north": { "uv": [ 7, 1, 9, 3 ], "texture": "#north" },
        "west":  { "uv": [ 0, 2, 6, 4 ], "texture": "#west" },
        "east":  { "uv": [ 0, 2, 6, 4 ], "texture": "#east" }
    }
},
{
    "__comment": "lat",
    "from": [ 7, 4, 0 ],
    "to": [ 9, 6, 6 ],
    "faces": {
        "down":  { "uv": [ 7, 0, 9, 6 ], "texture": "#down" },
        "up":    { "uv": [ 7, 0, 9, 6 ], "texture": "#up" },
        "north": { "uv": [ 7, 10, 9, 12 ], "texture": "#north" },
        "west":  { "uv": [ 0, 8, 6, 10 ], "texture": "#west" },
        "east":  { "uv": [ 0, 8, 6, 10 ], "texture": "#east" }
    }
}
]
}