{
"textures": {
    "particle": "#texture"
},
"elements": [ 
{
    "__comment": "top bar",
    "from": [ 6.75, 13, 0 ],
    "to": [ 9.25, 15, 8 ],
    "faces": {
        "down":  { "uv": [ 0.001, 0.501, 2.499, 8.499 ], "texture": "#texture" },
        "up":    { "uv": [ 0.0010000000474974513, 0.50099998712539673, 2.499000072479248, 8.4989995956420898 ], "texture": "#texture", "cullface": "up" },
        "north": { "uv": [ 0.0010000000474974513, 0.50099998712539673, 2.499000072479248, 2.499000072479248 ], "texture": "#texture", "cullface": "north" },
        "west":  { "uv": [ 0.50099998712539673, 14.00100040435791, 8.4989995956420898, 15.99899959564209 ], "rotation": 270, "texture": "#texture" },
        "east":  { "uv": [ 0.50099998712539673, 14.00100040435791, 8.4989995956420898, 15.99899959564209 ], "texture": "#texture" }
    }
},
{
    "__comment": "lower bar*",
    "from": [ 7.1875, 7.2, 0.5 ],
    "to": [ 8.875, 9.2, 10 ],
    "rotation": { "origin": [ 7.1875, 9.2, 0.5 ], "axis": "x", "angle": 45 },
    "faces": {
        "down":  { "uv": [ 0.5, 0.5, 2.1875, 10 ], "texture": "#texture", "cullface": "south" },
        "up":    { "uv": [ 0.5, 0.5, 2.1875, 10 ], "texture": "#texture", "cullface": "south" },
        "north": { "uv": [ 7.1875, 7.5, 8.875, 9.5 ], "texture": "#texture", "cullface": "south" },
        "west":  { "uv": [ 1, 7.5, 10.5, 9.5 ], "texture": "#texture", "cullface": "south" },
        "east":  { "uv": [ 1, 7.5, 10.5, 9.5 ], "texture": "#texture", "cullface": "south" }
    }
},
{
    "from": [ 6, 0, 6 ],
    "to": [ 10, 16, 10 ],
    "faces": {
        "down":  { "uv": [ 10, 10, 6, 6 ], "texture": "#texture" },
        "up":    { "uv": [ 6, 6, 10, 10 ], "texture": "#texture" },
        "north": { "uv": [ 6, 0, 10, 16 ], "texture": "#texture" },
        "south": { "uv": [ 6, 0, 10, 16 ], "texture": "#texture" },
        "west":  { "uv": [ 6, 0, 10, 16 ], "texture": "#texture" },
        "east":  { "uv": [ 6, 0, 10, 16 ], "texture": "#texture" }
    }
},
{
    "__comment": "top bar*",
    "from": [ 6.8125, 1, 0 ],
    "to": [ 9.3125, 3, 8 ],
    "faces": {
        "down":  { "uv": [ 9.1865, 7.999, 6.6885, 0.001 ], "texture": "#texture", "cullface": "down" },
        "up":    { "uv": [ 6.813499927520752, 0.0010000000474974513, 9.3114995956420898, 7.999000072479248 ], "texture": "#texture" },
        "north": { "uv": [ 6.688499927520752, 14.00100040435791, 9.1864995956420898, 15.99899959564209 ], "texture": "#texture", "cullface": "north" },
        "west":  { "uv": [ 0.0010000000474974513, 14.00100040435791, 7.999000072479248, 15.99899959564209 ], "rotation": 90, "texture": "#texture" },
        "east":  { "uv": [ 8.0010004043579102, 14.00100040435791, 15.99899959564209, 15.99899959564209 ], "texture": "#texture" }
    }
},
{
    "__comment": "lower bar*",
    "from": [ 7.125, 6, -1 ],
    "to": [ 8.9375, 8, 8 ],
    "rotation": { "origin": [ 7.125, 8, -1 ], "axis": "x", "angle": -45 },
    "faces": {
        "down":  { "uv": [ 0.5, 0.5, 2.3125, 9.5 ], "texture": "#texture", "cullface": "south" },
        "up":    { "uv": [ 0.5, 0.5, 2.3125, 9.5 ], "texture": "#texture", "cullface": "south" },
        "north": { "uv": [ 7.125, 8, 8.9375, 10 ], "texture": "#texture", "cullface": "south" },
        "west":  { "uv": [ 0, 8, 9, 10 ], "texture": "#texture", "cullface": "south" },
        "east":  { "uv": [ 0, 8, 9, 10 ], "texture": "#texture", "cullface": "south" }
    }
},
{
    "__comment": "top bar*",
    "from": [ 8, 1, 6.75 ],
    "to": [ 16, 3, 9.25 ],
    "faces": {
        "down":  { "uv": [ 9.1865, 7.999, 6.6885, 0.001 ], "rotation": 270, "texture": "#texture", "cullface": "down" },
        "up":    { "uv": [ 6.813499927520752, 0.0010000000474974513, 9.3114995956420898, 7.999000072479248 ], "rotation": 90, "texture": "#texture" },
        "north": { "uv": [ 0.0010000000474974513, 14.00100040435791, 7.999000072479248, 15.99899959564209 ], "rotation": 90, "texture": "#texture", "cullface": "north" },
        "south": { "uv": [ 8.0010004043579102, 14.00100040435791, 15.99899959564209, 15.99899959564209 ], "texture": "#texture" },
        "east":  { "uv": [ 6.688499927520752, 14.00100040435791, 9.1864995956420898, 15.99899959564209 ], "texture": "#texture" }
    }
},
{
    "__comment": "lower bar*",
    "from": [ 10.7, 12.4, 7.09375 ],
    "to": [ 19.7, 14.4, 8.90625 ],
    "rotation": { "origin": [ 10.7, 14.4, 7.09375 ], "axis": "z", "angle": -45 },
    "faces": {
        "down":  { "uv": [ 0.5, 0.5, 2.3125, 9.5 ], "rotation": 270, "texture": "#texture", "cullface": "south" },
        "up":    { "uv": [ 0.5, 0.5, 2.3125, 9.5 ], "rotation": 90, "texture": "#texture", "cullface": "south" },
        "north": { "uv": [ 0, 8, 9, 10 ], "texture": "#texture", "cullface": "south" },
        "south": { "uv": [ 0, 8, 9, 10 ], "texture": "#texture" },
        "east":  { "uv": [ 7.125, 8, 8.9375, 10 ], "texture": "#texture", "cullface": "south" }
    }
},
{
    "__comment": "top bar*",
    "from": [ 8, 13, 6.75 ],
    "to": [ 16, 15, 9.25 ],
    "faces": {
        "down":  { "uv": [ 0.001, 0.501, 2.499, 8.499 ], "rotation": 270, "texture": "#texture" },
        "up":    { "uv": [ 0.0010000000474974513, 0.50099998712539673, 2.499000072479248, 8.4989995956420898 ], "rotation": 90, "texture": "#texture", "cullface": "up" },
        "north": { "uv": [ 0.50099998712539673, 14.00100040435791, 8.4989995956420898, 15.99899959564209 ], "rotation": 270, "texture": "#texture", "cullface": "north" },
        "south": { "uv": [ 0.50099998712539673, 14.00100040435791, 8.4989995956420898, 15.99899959564209 ], "texture": "#texture" },
        "east":  { "uv": [ 0.0010000000474974513, 0.50099998712539673, 2.499000072479248, 2.499000072479248 ], "texture": "#texture" }
    }
},
{
    "__comment": "lower bar*",
    "from": [ 8.9, 0.5, 7.1875 ],
    "to": [ 18.4, 2.5, 8.875 ],
    "rotation": { "origin": [ 8.9, 2.5, 7.1875 ], "axis": "z", "angle": 45 },
    "faces": {
        "down":  { "uv": [ 0.5, 0.5, 2.1875, 10 ], "rotation": 270, "texture": "#texture", "cullface": "south" },
        "up":    { "uv": [ 0.5, 0.5, 2.1875, 10 ], "rotation": 90, "texture": "#texture", "cullface": "south" },
        "north": { "uv": [ 1, 7.5, 10.5, 9.5 ], "texture": "#texture", "cullface": "south" },
        "south": { "uv": [ 1, 7.5, 10.5, 9.5 ], "texture": "#texture" },
        "east":  { "uv": [ 7.1875, 7.5, 8.875, 9.5 ], "texture": "#texture", "cullface": "south" }
    }
},
{
    "__comment": "top bar*",
    "from": [ 6.75, 1, 8 ],
    "to": [ 9.25, 3, 16 ],
    "faces": {
        "down":  { "uv": [ 9.1865, 7.999, 6.6885, 0.001 ], "rotation": 180, "texture": "#texture", "cullface": "down" },
        "up":    { "uv": [ 6.813499927520752, 0.0010000000474974513, 9.3114995956420898, 7.999000072479248 ], "rotation": 180, "texture": "#texture" },
        "south": { "uv": [ 6.688499927520752, 14.00100040435791, 9.1864995956420898, 15.99899959564209 ], "texture": "#texture" },
        "west":  { "uv": [ 8.0010004043579102, 14.00100040435791, 15.99899959564209, 15.99899959564209 ], "texture": "#texture" },
        "east":  { "uv": [ 0.0010000000474974513, 14.00100040435791, 7.999000072479248, 15.99899959564209 ], "rotation": 90, "texture": "#texture" }
    }
},
{
    "__comment": "lower bar*",
    "from": [ 7.125, 12.4, 10.66 ],
    "to": [ 8.9375, 14.4, 19.66 ],
    "rotation": { "origin": [ 7.125, 14.4, 10.66 ], "axis": "x", "angle": 45 },
    "faces": {
        "down":  { "uv": [ 0.5, 0.5, 2.3125, 9.5 ], "rotation": 180, "texture": "#texture", "cullface": "south" },
        "up":    { "uv": [ 0.5, 0.5, 2.3125, 9.5 ], "rotation": 180, "texture": "#texture", "cullface": "south" },
        "south": { "uv": [ 7.125, 8, 8.9375, 10 ], "texture": "#texture" },
        "west":  { "uv": [ 0, 8, 9, 10 ], "texture": "#texture", "cullface": "south" },
        "east":  { "uv": [ 0, 8, 9, 10 ], "texture": "#texture", "cullface": "south" }
    }
},
{
    "__comment": "top bar*",
    "from": [ 6.75, 13, 8 ],
    "to": [ 9.25, 15, 16 ],
    "faces": {
        "down":  { "uv": [ 0.001, 0.501, 2.499, 8.499 ], "rotation": 180, "texture": "#texture" },
        "up":    { "uv": [ 0.0010000000474974513, 0.50099998712539673, 2.499000072479248, 8.4989995956420898 ], "rotation": 180, "texture": "#texture", "cullface": "up" },
        "south": { "uv": [ 0.0010000000474974513, 0.50099998712539673, 2.499000072479248, 2.499000072479248 ], "texture": "#texture" },
        "west":  { "uv": [ 0.50099998712539673, 14.00100040435791, 8.4989995956420898, 15.99899959564209 ], "texture": "#texture" },
        "east":  { "uv": [ 0.50099998712539673, 14.00100040435791, 8.4989995956420898, 15.99899959564209 ], "rotation": 270, "texture": "#texture" }
    }
},
{
    "__comment": "lower bar*",
    "from": [ 7.1875, 0.5, 8.9 ],
    "to": [ 8.875, 2.5, 18.4 ],
    "rotation": { "origin": [ 7.1875, 2.5, 8.9 ], "axis": "x", "angle": -45 },
    "faces": {
        "down":  { "uv": [ 0.5, 0.5, 2.1875, 10 ], "rotation": 180, "texture": "#texture", "cullface": "south" },
        "up":    { "uv": [ 0.5, 0.5, 2.1875, 10 ], "rotation": 180, "texture": "#texture", "cullface": "south" },
        "south": { "uv": [ 7.1875, 7.5, 8.875, 9.5 ], "texture": "#texture" },
        "west":  { "uv": [ 1, 7.5, 10.5, 9.5 ], "texture": "#texture", "cullface": "south" },
        "east":  { "uv": [ 1, 7.5, 10.5, 9.5 ], "texture": "#texture", "cullface": "south" }
    }
}
]
}