{
    "variants": {
        "facing=south,in_wall=false,open=false": { "model": "conquest:fencegateicemountains_closed" },
        "facing=west,in_wall=false,open=false":  { "model": "conquest:fencegateicemountains_closed", "y": 90, "uvlock": true },
        "facing=north,in_wall=false,open=false": { "model": "conquest:fencegateicemountains_closed", "y": 180, "uvlock": true },
        "facing=east,in_wall=false,open=false":  { "model": "conquest:fencegateicemountains_closed", "y": 270, "uvlock": true },
        "facing=south,in_wall=false,open=true": { "model": "conquest:fencegateicemountains_open" },
        "facing=west,in_wall=false,open=true":  { "model": "conquest:fencegateicemountains_open", "y": 90, "uvlock": true },
        "facing=north,in_wall=false,open=true": { "model": "conquest:fencegateicemountains_open", "y": 180, "uvlock": true },
        "facing=east,in_wall=false,open=true":  { "model": "conquest:fencegateicemountains_open", "y": 270, "uvlock": true },
        "facing=south,in_wall=true,open=false": { "model": "conquest:fencegateicemountains_wall_closed" },
        "facing=west,in_wall=true,open=false":  { "model": "conquest:fencegateicemountains_wall_closed", "y": 90, "uvlock": true },
        "facing=north,in_wall=true,open=false": { "model": "conquest:fencegateicemountains_wall_closed", "y": 180, "uvlock": true },
        "facing=east,in_wall=true,open=false":  { "model": "conquest:fencegateicemountains_wall_closed", "y": 270, "uvlock": true },
        "facing=south,in_wall=true,open=true": { "model": "conquest:fencegateicemountains_wall_open" },
        "facing=west,in_wall=true,open=true":  { "model": "conquest:fencegateicemountains_wall_open", "y": 90, "uvlock": true },
        "facing=north,in_wall=true,open=true": { "model": "conquest:fencegateicemountains_wall_open", "y": 180, "uvlock": true },
        "facing=east,in_wall=true,open=true":  { "model": "conquest:fencegateicemountains_wall_open", "y": 270, "uvlock": true }
    }
}