{
    "variants": {
        "normal": [
            {
                "model": "white_tulip_model1"
            },
            {
                "model": "white_tulip_model2"
            },
            {
                "model": "white_tulip_model3"
            }
        ]
    }
}
