{
"__comment": "Designed by Jugbot with BDcraft Cubik PRO 0.96 Beta - http://bdcraft.net",
"textures": {
    "particle": "conquest:blocks/cauldronfrozenocean_top",
    "4": "conquest:blocks/table_full"
},
"elements": [ 
{
    "from": [ 12, 0, 12 ],
    "to": [ 16, 1, 16 ],
    "faces": {
        "down":  { "uv": [ 4, 16, 0, 12 ], "texture": "#4" },
        "up":    { "uv": [ 12, 12, 16, 16 ], "texture": "#4" },
        "north": { "uv": [ 0, 15, 4, 16 ], "texture": "#4" },
        "south": { "uv": [ 12, 15, 16, 16 ], "texture": "#4" },
        "west":  { "uv": [ 12, 15, 16, 16 ], "texture": "#4" },
        "east":  { "uv": [ 0, 15, 4, 16 ], "texture": "#4" }
    }
},
{
    "from": [ 12.5, 1, 12.5 ],
    "to": [ 15.5, 1.5, 15.5 ],
    "faces": {
        "down":  { "uv": [ 3.5, 15.5, 0.5, 12.5 ], "texture": "#4" },
        "up":    { "uv": [ 12.5, 12.5, 15.5, 15.5 ], "texture": "#4" },
        "north": { "uv": [ 0.5, 14.5, 3.5, 15 ], "texture": "#4" },
        "south": { "uv": [ 12.5, 14.5, 15.5, 15 ], "texture": "#4" },
        "west":  { "uv": [ 12.5, 14.5, 15.5, 15 ], "texture": "#4" },
        "east":  { "uv": [ 0.5, 14.5, 3.5, 15 ], "texture": "#4" }
    }
},
{
    "from": [ 12, 1.5, 12 ],
    "to": [ 16, 13, 16 ],
    "faces": {
        "down":  { "uv": [ 16, 14.5, 12, 10.5 ], "texture": "#4" },
        "up":    { "uv": [ 0, 12, 4, 16 ], "texture": "#4" },
        "north": { "uv": [ 12, 3, 16, 14.5 ], "texture": "#4" },
        "south": { "uv": [ 4, 3, 0, 14.5 ], "texture": "#4" },
        "west":  { "uv": [ 12, 3, 16, 14.5 ], "texture": "#4" },
        "east":  { "uv": [ 4, 3, 0, 14.5 ], "texture": "#4" }
    }
}
]
}