{
"__comment": "Designed by Jugbot with BDcraft Cubik PRO 0.96 Beta - http://bdcraft.net",
"textures": {
    "particle": "conquest:blocks/cauldronfrozenocean_top",
    "texture": "conquest:blocks/table_side"
},
"elements": [ 
{
    "__comment": "PlaneS",
    "from": [ 0, 0, 15.5 ],
    "to": [ 16, 13, 15.5625 ],
    "faces": {
        "north": { "uv": [ 0.0010000000474974513, 3.000999927520752, 15.99899959564209, 15.99899959564209 ], "texture": "#texture" },
        "south": { "uv": [ 0.0010000000474974513, 3.000999927520752, 15.99899959564209, 15.99899959564209 ], "texture": "#texture" }
    }
}
]
}