{
"__comment": "Designed by Jugbot with BDcraft Cubik PRO 0.96 Beta - http://bdcraft.net",
"textures": {
    "particle": "conquest:blocks/cauldronfrozenocean_top",
    "texture": "conquest:blocks/table_side",
    "planks_oak": "conquest:blocks/cauldronfrozenocean_top"
},
"elements": [ 
{
    "__comment": "Top",
    "from": [ 0, 13, 0 ],
    "to": [ 16, 16, 16 ],
    "faces": {
        "down":  { "uv": [ 0, 0, 16, 16 ], "texture": "#planks_oak" },
        "up":    { "uv": [ 0, 0, 16, 16 ], "texture": "#planks_oak" },
        "north": { "uv": [ 0, 0, 16, 3 ], "texture": "#texture" },
        "south": { "uv": [ 0, 0, 16, 3 ], "texture": "#texture" },
        "west":  { "uv": [ 0, 0, 16, 3 ], "texture": "#texture" },
        "east":  { "uv": [ 0, 0, 16, 3 ], "texture": "#texture" }
    }
}
]
}